{
    "name": "userTemplatesScene",
    "nodes": [
        {
            "id": "{ac0626a4-34b9-4fc4-969a-57a7f051e0a3}",
            "properties": {
                "ConsumeTouch": 2,
                "Name": "Scene",
                "Size": [
                    960,
                    640
                ],
                "TemplateName": ""
            },
            "timeStamp": 1444207593644,
            "typeName": "RootNode",
            "user_properties": {
            }
        },
        {
            "id": "{775ed0c0-1590-429d-be8b-c9e531da3433}",
            "parentID": "{ac0626a4-34b9-4fc4-969a-57a7f051e0a3}",
            "properties": {
                "AnchoringType": 5,
                "AnchoringUnits": 0,
                "AnchoringVector": [
                    14.460885047912598,
                    -48.676967620849609
                ],
                "Animation": -1,
                "Color": [
                    255,
                    255,
                    255,
                    255
                ],
                "ConsumeTouch": 1,
                "EditorLock": false,
                "EditorVisible": true,
                "InternalSizeAnchoringBaseSize": [
                    544,
                    318
                ],
                "InternalSizeAnchoringCachedParentSize": [
                    960,
                    640
                ],
                "InternalSizeAnchoringCoeff": [
                    1,
                    1
                ],
                "Name": "Sprite_6",
                "Pivot": [
                    0.5,
                    0.5
                ],
                "Position": [
                    341.17550659179688,
                    951.5325927734375
                ],
                "Rotation": 0,
                "Scale": [
                    1,
                    1
                ],
                "Size": [
                    544,
                    318
                ],
                "SizeAnchoringType": 0,
                "TemplateName": "asdasd",
                "TextureId": 6,
                "Visible": true,
                "ZIndex": 0
            },
            "timeStamp": 1456985656044,
            "typeName": "Sprite",
            "user_properties": {
            }
        }
    ],
    "orientation": 0,
    "version": "1.0"
}
