// Source file: C:/dev/sdk/main/sdk_examples/ArtAssets/OpenGLES/maya7/bike.mb
CIwModel
{
	name "floor"
	CMesh
	{
		name "floor"
		scale 1.0
		CVerts
		{
			numVerts 81
			v {-669.61078,-0.00002,669.61078}
			v {669.61078,-0.00002,669.61078}
			v {-669.61078,-0.00002,-669.61078}
			v {669.61078,-0.00002,-669.61078}
			v {0,-0.00002,0}
			v {-669.61078,-0.00002,0}
			v {0,-0.00002,669.61078}
			v {669.61078,-0.00002,0}
			v {0,-0.00002,-669.61078}
			v {-334.80539,-0.00002,-334.80539}
			v {-334.80539,-0.00002,-669.61078}
			v {-669.61078,-0.00002,-334.80539}
			v {-334.80539,-0.00002,0}
			v {0,-0.00002,-334.80539}
			v {-334.80539,-0.00002,334.80539}
			v {-669.61078,-0.00002,334.80539}
			v {-334.80539,-0.00002,669.61078}
			v {0,-0.00002,334.80539}
			v {334.80539,-0.00002,334.80539}
			v {334.80539,-0.00002,669.61078}
			v {669.61078,-0.00002,334.80539}
			v {334.80539,-0.00002,0}
			v {334.80539,-0.00002,-334.80539}
			v {669.61078,-0.00002,-334.80539}
			v {334.80539,-0.00002,-669.61078}
			v {-167.40269,-0.00002,-502.20810}
			v {0,-0.00002,-502.20810}
			v {-167.40269,-0.00002,-669.61078}
			v {-334.80539,-0.00002,-502.20810}
			v {-167.40269,-0.00002,-334.80539}
			v {-502.20810,-0.00002,167.40269}
			v {-502.20810,-0.00002,0}
			v {-669.61078,-0.00002,167.40269}
			v {-502.20810,-0.00002,334.80539}
			v {-334.80539,-0.00002,167.40269}
			v {167.40269,-0.00002,502.20810}
			v {0,-0.00002,502.20810}
			v {167.40269,-0.00002,669.61078}
			v {334.80539,-0.00002,502.20810}
			v {167.40269,-0.00002,334.80539}
			v {502.20810,-0.00002,-167.40269}
			v {502.20810,-0.00002,0}
			v {669.61078,-0.00002,-167.40269}
			v {502.20810,-0.00002,-334.80539}
			v {334.80539,-0.00002,-167.40269}
			v {-502.20810,-0.00002,-502.20810}
			v {-502.20810,-0.00002,-669.61078}
			v {-669.61078,-0.00002,-502.20810}
			v {-502.20810,-0.00002,-334.80539}
			v {-502.20810,-0.00002,-167.40269}
			v {-669.61078,-0.00002,-167.40269}
			v {-334.80539,-0.00002,-167.40269}
			v {-167.40269,-0.00002,-167.40269}
			v {-167.40269,-0.00002,0}
			v {0,-0.00002,-167.40269}
			v {-502.20810,-0.00002,502.20810}
			v {-669.61078,-0.00002,502.20810}
			v {-502.20810,-0.00002,669.61078}
			v {-334.80539,-0.00002,502.20810}
			v {-167.40269,-0.00002,502.20810}
			v {-167.40269,-0.00002,669.61078}
			v {-167.40269,-0.00002,334.80539}
			v {-167.40269,-0.00002,167.40269}
			v {0,-0.00002,167.40269}
			v {502.20810,-0.00002,502.20810}
			v {502.20810,-0.00002,669.61078}
			v {669.61078,-0.00002,502.20810}
			v {502.20810,-0.00002,334.80539}
			v {502.20810,-0.00002,167.40269}
			v {669.61078,-0.00002,167.40269}
			v {334.80539,-0.00002,167.40269}
			v {167.40269,-0.00002,167.40269}
			v {167.40269,-0.00002,0}
			v {502.20810,-0.00002,-502.20810}
			v {669.61078,-0.00002,-502.20810}
			v {502.20810,-0.00002,-669.61078}
			v {334.80539,-0.00002,-502.20810}
			v {167.40269,-0.00002,-502.20810}
			v {167.40269,-0.00002,-669.61078}
			v {167.40269,-0.00002,-334.80539}
			v {167.40269,-0.00002,-167.40269}
		}
		CVertNorms
		{
			numVertNorms 1
			vn {0,1,-0.00000}
		}
		CUVs
		{
			setID 0
			numUVs 81
			uv {0,-2}
			uv {1,-2}
			uv {0,-3}
			uv {1,-3}
			uv {0.50000,-2.50000}
			uv {0,-2.50000}
			uv {0.50000,-3}
			uv {1,-2.50000}
			uv {0.50000,-2}
			uv {0.25000,-2.25000}
			uv {0.25000,-2}
			uv {0,-2.25000}
			uv {0.25000,-2.50000}
			uv {0.50000,-2.25000}
			uv {0.25000,-2.75000}
			uv {0,-2.75000}
			uv {0.25000,-3}
			uv {0.50000,-2.75000}
			uv {0.75000,-2.75000}
			uv {0.75000,-3}
			uv {1,-2.75000}
			uv {0.75000,-2.50000}
			uv {0.75000,-2.25000}
			uv {1,-2.25000}
			uv {0.75000,-2}
			uv {0.37500,-2.12500}
			uv {0.50000,-2.12500}
			uv {0.37500,-2}
			uv {0.25000,-2.12500}
			uv {0.37500,-2.25000}
			uv {0.12500,-2.62500}
			uv {0.12500,-2.50000}
			uv {0,-2.62500}
			uv {0.12500,-2.75000}
			uv {0.25000,-2.62500}
			uv {0.62500,-2.87500}
			uv {0.50000,-2.87500}
			uv {0.62500,-3}
			uv {0.75000,-2.87500}
			uv {0.62500,-2.75000}
			uv {0.87500,-2.37500}
			uv {0.87500,-2.50000}
			uv {1,-2.37500}
			uv {0.87500,-2.25000}
			uv {0.75000,-2.37500}
			uv {0.12500,-2.12500}
			uv {0.12500,-2}
			uv {0,-2.12500}
			uv {0.12500,-2.25000}
			uv {0.12500,-2.37500}
			uv {0,-2.37500}
			uv {0.25000,-2.37500}
			uv {0.37500,-2.37500}
			uv {0.37500,-2.50000}
			uv {0.50000,-2.37500}
			uv {0.12500,-2.87500}
			uv {0,-2.87500}
			uv {0.12500,-3}
			uv {0.25000,-2.87500}
			uv {0.37500,-2.87500}
			uv {0.37500,-3}
			uv {0.37500,-2.75000}
			uv {0.37500,-2.62500}
			uv {0.50000,-2.62500}
			uv {0.87500,-2.87500}
			uv {0.87500,-3}
			uv {1,-2.87500}
			uv {0.87500,-2.75000}
			uv {0.87500,-2.62500}
			uv {1,-2.62500}
			uv {0.75000,-2.62500}
			uv {0.62500,-2.62500}
			uv {0.62500,-2.50000}
			uv {0.87500,-2.12500}
			uv {1,-2.12500}
			uv {0.87500,-2}
			uv {0.75000,-2.12500}
			uv {0.62500,-2.12500}
			uv {0.62500,-2}
			uv {0.62500,-2.25000}
			uv {0.62500,-2.37500}
		}
		CSurface
		{
			material "lambert1"
			CQuads
			{
				numQuads 64
				q {25,0,25,-1,-1} {26,0,26,-1,-1} {13,0,13,-1,-1} {29,0,29,-1,-1}
				q {30,0,30,-1,-1} {31,0,31,-1,-1} {12,0,12,-1,-1} {34,0,34,-1,-1}
				q {35,0,35,-1,-1} {36,0,36,-1,-1} {17,0,17,-1,-1} {39,0,39,-1,-1}
				q {40,0,40,-1,-1} {41,0,41,-1,-1} {21,0,21,-1,-1} {44,0,44,-1,-1}
				q {45,0,45,-1,-1} {46,0,46,-1,-1} {10,0,10,-1,-1} {28,0,28,-1,-1}
				q {49,0,49,-1,-1} {50,0,50,-1,-1} {11,0,11,-1,-1} {48,0,48,-1,-1}
				q {52,0,52,-1,-1} {53,0,53,-1,-1} {12,0,12,-1,-1} {51,0,51,-1,-1}
				q {55,0,55,-1,-1} {56,0,56,-1,-1} {15,0,15,-1,-1} {33,0,33,-1,-1}
				q {59,0,59,-1,-1} {60,0,60,-1,-1} {16,0,16,-1,-1} {58,0,58,-1,-1}
				q {62,0,62,-1,-1} {63,0,63,-1,-1} {17,0,17,-1,-1} {61,0,61,-1,-1}
				q {64,0,64,-1,-1} {65,0,65,-1,-1} {19,0,19,-1,-1} {38,0,38,-1,-1}
				q {68,0,68,-1,-1} {69,0,69,-1,-1} {20,0,20,-1,-1} {67,0,67,-1,-1}
				q {71,0,71,-1,-1} {72,0,72,-1,-1} {21,0,21,-1,-1} {70,0,70,-1,-1}
				q {73,0,73,-1,-1} {74,0,74,-1,-1} {23,0,23,-1,-1} {43,0,43,-1,-1}
				q {77,0,77,-1,-1} {78,0,78,-1,-1} {24,0,24,-1,-1} {76,0,76,-1,-1}
				q {80,0,80,-1,-1} {54,0,54,-1,-1} {13,0,13,-1,-1} {79,0,79,-1,-1}
				q {25,0,25,-1,-1} {27,0,27,-1,-1} {8,0,8,-1,-1} {26,0,26,-1,-1}
				q {25,0,25,-1,-1} {28,0,28,-1,-1} {10,0,10,-1,-1} {27,0,27,-1,-1}
				q {25,0,25,-1,-1} {29,0,29,-1,-1} {9,0,9,-1,-1} {28,0,28,-1,-1}
				q {30,0,30,-1,-1} {32,0,32,-1,-1} {5,0,5,-1,-1} {31,0,31,-1,-1}
				q {30,0,30,-1,-1} {33,0,33,-1,-1} {15,0,15,-1,-1} {32,0,32,-1,-1}
				q {30,0,30,-1,-1} {34,0,34,-1,-1} {14,0,14,-1,-1} {33,0,33,-1,-1}
				q {35,0,35,-1,-1} {37,0,37,-1,-1} {6,0,6,-1,-1} {36,0,36,-1,-1}
				q {35,0,35,-1,-1} {38,0,38,-1,-1} {19,0,19,-1,-1} {37,0,37,-1,-1}
				q {35,0,35,-1,-1} {39,0,39,-1,-1} {18,0,18,-1,-1} {38,0,38,-1,-1}
				q {40,0,40,-1,-1} {42,0,42,-1,-1} {7,0,7,-1,-1} {41,0,41,-1,-1}
				q {40,0,40,-1,-1} {43,0,43,-1,-1} {23,0,23,-1,-1} {42,0,42,-1,-1}
				q {40,0,40,-1,-1} {44,0,44,-1,-1} {22,0,22,-1,-1} {43,0,43,-1,-1}
				q {45,0,45,-1,-1} {47,0,47,-1,-1} {2,0,0,-1,-1} {46,0,46,-1,-1}
				q {45,0,45,-1,-1} {48,0,48,-1,-1} {11,0,11,-1,-1} {47,0,47,-1,-1}
				q {45,0,45,-1,-1} {28,0,28,-1,-1} {9,0,9,-1,-1} {48,0,48,-1,-1}
				q {49,0,49,-1,-1} {31,0,31,-1,-1} {5,0,5,-1,-1} {50,0,50,-1,-1}
				q {49,0,49,-1,-1} {51,0,51,-1,-1} {12,0,12,-1,-1} {31,0,31,-1,-1}
				q {49,0,49,-1,-1} {48,0,48,-1,-1} {9,0,9,-1,-1} {51,0,51,-1,-1}
				q {52,0,52,-1,-1} {54,0,54,-1,-1} {4,0,4,-1,-1} {53,0,53,-1,-1}
				q {52,0,52,-1,-1} {29,0,29,-1,-1} {13,0,13,-1,-1} {54,0,54,-1,-1}
				q {52,0,52,-1,-1} {51,0,51,-1,-1} {9,0,9,-1,-1} {29,0,29,-1,-1}
				q {55,0,55,-1,-1} {57,0,57,-1,-1} {0,0,2,-1,-1} {56,0,56,-1,-1}
				q {55,0,55,-1,-1} {58,0,58,-1,-1} {16,0,16,-1,-1} {57,0,57,-1,-1}
				q {55,0,55,-1,-1} {33,0,33,-1,-1} {14,0,14,-1,-1} {58,0,58,-1,-1}
				q {59,0,59,-1,-1} {36,0,36,-1,-1} {6,0,6,-1,-1} {60,0,60,-1,-1}
				q {59,0,59,-1,-1} {61,0,61,-1,-1} {17,0,17,-1,-1} {36,0,36,-1,-1}
				q {59,0,59,-1,-1} {58,0,58,-1,-1} {14,0,14,-1,-1} {61,0,61,-1,-1}
				q {62,0,62,-1,-1} {53,0,53,-1,-1} {4,0,4,-1,-1} {63,0,63,-1,-1}
				q {62,0,62,-1,-1} {34,0,34,-1,-1} {12,0,12,-1,-1} {53,0,53,-1,-1}
				q {62,0,62,-1,-1} {61,0,61,-1,-1} {14,0,14,-1,-1} {34,0,34,-1,-1}
				q {64,0,64,-1,-1} {66,0,66,-1,-1} {1,0,3,-1,-1} {65,0,65,-1,-1}
				q {64,0,64,-1,-1} {67,0,67,-1,-1} {20,0,20,-1,-1} {66,0,66,-1,-1}
				q {64,0,64,-1,-1} {38,0,38,-1,-1} {18,0,18,-1,-1} {67,0,67,-1,-1}
				q {68,0,68,-1,-1} {41,0,41,-1,-1} {7,0,7,-1,-1} {69,0,69,-1,-1}
				q {68,0,68,-1,-1} {70,0,70,-1,-1} {21,0,21,-1,-1} {41,0,41,-1,-1}
				q {68,0,68,-1,-1} {67,0,67,-1,-1} {18,0,18,-1,-1} {70,0,70,-1,-1}
				q {71,0,71,-1,-1} {63,0,63,-1,-1} {4,0,4,-1,-1} {72,0,72,-1,-1}
				q {71,0,71,-1,-1} {39,0,39,-1,-1} {17,0,17,-1,-1} {63,0,63,-1,-1}
				q {71,0,71,-1,-1} {70,0,70,-1,-1} {18,0,18,-1,-1} {39,0,39,-1,-1}
				q {73,0,73,-1,-1} {75,0,75,-1,-1} {3,0,1,-1,-1} {74,0,74,-1,-1}
				q {73,0,73,-1,-1} {76,0,76,-1,-1} {24,0,24,-1,-1} {75,0,75,-1,-1}
				q {73,0,73,-1,-1} {43,0,43,-1,-1} {22,0,22,-1,-1} {76,0,76,-1,-1}
				q {77,0,77,-1,-1} {26,0,26,-1,-1} {8,0,8,-1,-1} {78,0,78,-1,-1}
				q {77,0,77,-1,-1} {79,0,79,-1,-1} {13,0,13,-1,-1} {26,0,26,-1,-1}
				q {77,0,77,-1,-1} {76,0,76,-1,-1} {22,0,22,-1,-1} {79,0,79,-1,-1}
				q {80,0,80,-1,-1} {72,0,72,-1,-1} {4,0,4,-1,-1} {54,0,54,-1,-1}
				q {80,0,80,-1,-1} {44,0,44,-1,-1} {21,0,21,-1,-1} {72,0,72,-1,-1}
				q {80,0,80,-1,-1} {79,0,79,-1,-1} {22,0,22,-1,-1} {44,0,44,-1,-1}
			}
		}
	}
}
