// Source file: C:/dev/sdk/main/sdk_examples/ArtAssets/OpenGLES/maya7/bike.mb
CIwMaterial
{
	name "frame/phong1"
	effectPreset "NORMAL_MAPPING"
	texture2 ./textures/tvTexture.bmp
	shaderTechnique "normal_specular"
	texture0 "./textures/occ256.tga"
	texture1 "./textures/norm256.tga"
	colSpecular {255,255,255}
	specularPower 10
}
