// Source file: C:/dev/sdk/main/sdk_examples/ArtAssets/OpenGLES/maya7/bike.mb
CIwModel
{
	name "frame"
	CMesh
	{
		name "frame"
		scale 10
		CVerts
		{
			numVerts 10
			v {83.59435,333.84393,-66.50693}
			v {83.59435,309.95032,-337.15137}
			v {83.59435,583.14978,-512.96704}
			v {83.59435,682.45117,-171.29065}
			v {-83.59433,682.45117,-171.29065}
			v {-83.59433,583.14978,-512.96704}
			v {-83.59433,309.95032,-337.15137}
			v {-83.59433,333.84393,-66.50693}
			v {-83.59433,707.39386,-577.89478}
			v {83.59435,707.39386,-577.89478}
		}
		CVertNorms
		{
			numVertNorms 5
			vn {1,-0.00000,0}
			vn {-1,0.00000,0}
			vn {-0.00000,-0.99613,0.08794}
			vn {0.00000,-0.54117,-0.84092}
			vn {0.00000,-0.46315,-0.88628}
		}
		CVertCols
		{
			numVertCols 26
			col {0.71659,0.71659,0.71659,1}
			col {0.42603,0.42603,0.42603,1}
			col {0.35020,0.35020,0.35020,1}
			col {0.84293,0.84293,0.84293,1}
			col {0.80193,0.80193,0.80193,1}
			col {0.36686,0.36686,0.36686,1}
			col {0.38726,0.38726,0.38726,1}
			col {0.71219,0.71219,0.71219,1}
			col {0.22784,0.22784,0.22784,1}
			col {0.16891,0.16891,0.16891,1}
			col {0.17850,0.17850,0.17850,1}
			col {0.21818,0.21818,0.21818,1}
			col {0.18986,0.18986,0.18986,1}
			col {0.18081,0.18081,0.18081,1}
			col {0.27783,0.27783,0.27783,1}
			col {0.30286,0.30286,0.30286,1}
			col {0.82963,0.82963,0.82963,1}
			col {0.74421,0.74421,0.74421,1}
			col {0.35648,0.35648,0.35648,1}
			col {0.31416,0.31416,0.31416,1}
			col {0.30323,0.30323,0.30323,1}
			col {0.62520,0.62520,0.62520,1}
			col {0.64221,0.64221,0.64221,1}
			col {0.80853,0.80853,0.80853,1}
			col {0.34906,0.34906,0.34906,1}
			col {0.77236,0.77236,0.77236,1}
		}
		CUVs
		{
			setID 0
			numUVs 20
			uv {0.69938,0.59409}
			uv {0.61371,0.58168}
			uv {0.55272,0.66562}
			uv {0.65986,0.70335}
			uv {0.70622,0.61986}
			uv {0.70171,0.73336}
			uv {0.80225,0.70769}
			uv {0.82236,0.62349}
			uv {0.62058,0.71735}
			uv {0.54352,0.71730}
			uv {0.54349,0.76481}
			uv {0.62055,0.76486}
			uv {0.17618,0.65935}
			uv {0.17623,0.58490}
			uv {0.09805,0.58485}
			uv {0.09801,0.65930}
			uv {0.65753,0.74045}
			uv {0.04272,0.58482}
			uv {0.04268,0.65927}
			uv {0.52982,0.70407}
		}
		CSurface
		{
			material "phong1"
			CQuads
			{
				numQuads 5
				q {1,0,1,-1,1} {0,0,0,-1,0} {3,0,3,-1,3} {2,0,2,-1,2}
				q {4,1,4,-1,4} {7,1,7,-1,7} {6,1,6,-1,6} {5,1,5,-1,5}
				q {0,2,11,-1,11} {1,2,10,-1,10} {6,2,9,-1,9} {7,2,8,-1,8}
				q {2,3,15,-1,15} {5,3,14,-1,14} {6,3,13,-1,13} {1,3,12,-1,12}
				q {9,4,18,-1,22} {8,4,17,-1,21} {5,4,14,-1,20} {2,4,15,-1,19}
			}
			CTris
			{
				numTris 2
				t {5,1,5,-1,18} {8,1,16,-1,17} {4,1,4,-1,16}
				t {9,0,19,-1,25} {2,0,2,-1,24} {3,0,3,-1,23}
			}
		}
		CIwModelExtSelSetFace
		{
			name "sortBackward"
			otzOfs 1

			f 0
			f 1
			f 5
			f 6
		}
	}
}
