// Source file: C:/dev/sdk/main/sdk_examples/ArtAssets/OpenGLES/maya7/env.mb
CIwModel
{
	name "pCylinder2"
	CMesh
	{
		name "pCylinder2"
		scale 10
		CVerts
		{
			numVerts 42
			v {-1927.47021,2035.60315,-533.43182}
			v {-1955.39734,2043.08643,-542.82605}
			v {-1955.39734,2043.08643,-573.22632}
			v {-1927.47021,2035.60315,-582.62073}
			v {-1910.21008,2030.97839,-558.02625}
			v {-2012.09180,1719.79138,-533.43182}
			v {-2040.01892,1727.27441,-542.82605}
			v {-2040.01892,1727.27429,-573.22632}
			v {-2012.09180,1719.79138,-582.62073}
			v {-1994.83167,1715.16663,-558.02625}
			v {-1935.18909,2037.67151,-558.02625}
			v {-2107.69604,1362.99097,-533.43182}
			v {-2203.30054,1006.19006,-533.43182}
			v {-2232.99731,885.27063,-533.43182}
			v {-2220.34961,764.11169,-533.43182}
			v {-2155.88037,660.75159,-533.43182}
			v {-2051.40894,595.78760,-533.43182}
			v {-2135.62354,1370.47412,-542.82605}
			v {-2231.22778,1013.67316,-542.82605}
			v {-2261.69214,888.81274,-542.82605}
			v {-2247.69409,754.71936,-542.82605}
			v {-2176.34253,640.32538,-542.82605}
			v {-2058.89063,567.86554,-542.82605}
			v {-2053.47681,588.07001,-558.02625}
			v {-2135.62354,1370.47412,-573.22632}
			v {-2231.22778,1013.67316,-573.22632}
			v {-2261.69214,888.81281,-573.22632}
			v {-2247.69409,754.71936,-573.22632}
			v {-2176.34253,640.32538,-573.22632}
			v {-2058.89063,567.86554,-573.22632}
			v {-2107.69604,1362.99097,-582.62073}
			v {-2203.30054,1006.19006,-582.62073}
			v {-2232.99731,885.27069,-582.62073}
			v {-2220.34961,764.11163,-582.62073}
			v {-2155.88037,660.75165,-582.62067}
			v {-2051.40894,595.78760,-582.62067}
			v {-2090.43604,1358.36609,-558.02625}
			v {-2186.04053,1001.56525,-558.02625}
			v {-2215.26318,883.08142,-558.02625}
			v {-2203.44995,769.91644,-558.02625}
			v {-2143.23438,673.37579,-558.02618}
			v {-2046.78516,613.04462,-558.02618}
		}
		CVertNorms
		{
			numVertNorms 36
			vn {0.37502,0.29727,0.87806}
			vn {-0.62204,0.56443,0.54267}
			vn {-0.78145,0.20939,0.58778}
			vn {0.29849,-0.07998,0.95106}
			vn {-0.62204,0.56443,-0.54267}
			vn {-0.78145,0.20939,-0.58778}
			vn {0.37502,0.29727,-0.87806}
			vn {0.29848,-0.07998,-0.95106}
			vn {0.99123,0.13216,0.00000}
			vn {0.96593,-0.25882,-0.00000}
			vn {0.25882,0.96592,0.00000}
			vn {0.88327,-0.19380,0.42693}
			vn {0.79181,-0.49908,0.35208}
			vn {0.79181,-0.49908,-0.35208}
			vn {0.88327,-0.19380,-0.42693}
			vn {0.99966,0.02591,0.00000}
			vn {-0.78368,0.20065,0.58786}
			vn {0.29925,-0.07704,0.95106}
			vn {-0.77295,0.06988,0.63060}
			vn {0.27098,-0.02843,0.96217}
			vn {-0.67154,-0.20040,0.71335}
			vn {0.18444,0.04649,0.98174}
			vn {-0.46068,-0.44417,0.76843}
			vn {0.08846,0.07923,0.99292}
			vn {-0.78368,0.20065,-0.58786}
			vn {-0.77295,0.06988,-0.63060}
			vn {-0.67154,-0.20040,-0.71335}
			vn {-0.46068,-0.44417,-0.76843}
			vn {0.29925,-0.07703,-0.95106}
			vn {0.27098,-0.02843,-0.96217}
			vn {0.18444,0.04649,-0.98174}
			vn {0.08846,0.07922,-0.99292}
			vn {0.96853,-0.24891,-0.00000}
			vn {0.99595,-0.08994,-0.00000}
			vn {0.95988,0.28043,0.00000}
			vn {0.72404,0.68976,0.00000}
		}
		CUVs
		{
			setID 0
			numUVs 14
			uv {0.50000,1}
			uv {0,0.84085}
			uv {0.20000,0.84085}
			uv {0.40000,0.84085}
			uv {0.60000,0.84085}
			uv {0.80000,0.84085}
			uv {1,0.84085}
			uv {0,0.68169}
			uv {0.20000,0.68169}
			uv {0.40000,0.68169}
			uv {0.60000,0.68169}
			uv {0.80000,0.68169}
			uv {1,0.68169}
			uv {0.50000,0.52254}
		}
		CSurface
		{
			material "lambert1"
			CQuads
			{
				numQuads 35
				q {5,3,7,-1,-1} {6,2,8,-1,-1} {1,1,2,-1,-1} {0,0,1,-1,-1}
				q {6,2,8,-1,-1} {7,5,9,-1,-1} {2,4,3,-1,-1} {1,1,2,-1,-1}
				q {7,5,9,-1,-1} {8,7,10,-1,-1} {3,6,4,-1,-1} {2,4,3,-1,-1}
				q {8,7,10,-1,-1} {9,9,11,-1,-1} {4,8,5,-1,-1} {3,6,4,-1,-1}
				q {9,9,11,-1,-1} {5,3,12,-1,-1} {0,0,6,-1,-1} {4,8,5,-1,-1}
				q {11,3,7,-1,-1} {17,2,8,-1,-1} {6,2,8,-1,-1} {5,3,7,-1,-1}
				q {12,17,7,-1,-1} {18,16,8,-1,-1} {17,2,8,-1,-1} {11,3,7,-1,-1}
				q {12,17,7,-1,-1} {13,19,7,-1,-1} {19,18,8,-1,-1} {18,16,8,-1,-1}
				q {13,19,7,-1,-1} {14,21,7,-1,-1} {20,20,8,-1,-1} {19,18,8,-1,-1}
				q {14,21,7,-1,-1} {15,23,7,-1,-1} {21,22,8,-1,-1} {20,20,8,-1,-1}
				q {15,23,7,-1,-1} {16,11,7,-1,-1} {22,12,8,-1,-1} {21,22,8,-1,-1}
				q {17,2,8,-1,-1} {24,5,9,-1,-1} {7,5,9,-1,-1} {6,2,8,-1,-1}
				q {18,16,8,-1,-1} {25,24,9,-1,-1} {24,5,9,-1,-1} {17,2,8,-1,-1}
				q {19,18,8,-1,-1} {26,25,9,-1,-1} {25,24,9,-1,-1} {18,16,8,-1,-1}
				q {20,20,8,-1,-1} {27,26,9,-1,-1} {26,25,9,-1,-1} {19,18,8,-1,-1}
				q {21,22,8,-1,-1} {28,27,9,-1,-1} {27,26,9,-1,-1} {20,20,8,-1,-1}
				q {22,12,8,-1,-1} {29,13,9,-1,-1} {28,27,9,-1,-1} {21,22,8,-1,-1}
				q {24,5,9,-1,-1} {30,7,10,-1,-1} {8,7,10,-1,-1} {7,5,9,-1,-1}
				q {25,24,9,-1,-1} {31,28,10,-1,-1} {30,7,10,-1,-1} {24,5,9,-1,-1}
				q {26,25,9,-1,-1} {32,29,10,-1,-1} {31,28,10,-1,-1} {25,24,9,-1,-1}
				q {27,26,9,-1,-1} {33,30,10,-1,-1} {32,29,10,-1,-1} {26,25,9,-1,-1}
				q {28,27,9,-1,-1} {34,31,10,-1,-1} {33,30,10,-1,-1} {27,26,9,-1,-1}
				q {29,13,9,-1,-1} {35,14,10,-1,-1} {34,31,10,-1,-1} {28,27,9,-1,-1}
				q {30,7,10,-1,-1} {36,9,11,-1,-1} {9,9,11,-1,-1} {8,7,10,-1,-1}
				q {31,28,10,-1,-1} {37,32,11,-1,-1} {36,9,11,-1,-1} {30,7,10,-1,-1}
				q {32,29,10,-1,-1} {38,33,11,-1,-1} {37,32,11,-1,-1} {31,28,10,-1,-1}
				q {33,30,10,-1,-1} {39,34,11,-1,-1} {38,33,11,-1,-1} {32,29,10,-1,-1}
				q {40,35,11,-1,-1} {39,34,11,-1,-1} {33,30,10,-1,-1} {34,31,10,-1,-1}
				q {35,14,10,-1,-1} {41,15,11,-1,-1} {40,35,11,-1,-1} {34,31,10,-1,-1}
				q {36,9,11,-1,-1} {11,3,12,-1,-1} {5,3,12,-1,-1} {9,9,11,-1,-1}
				q {37,32,11,-1,-1} {12,17,12,-1,-1} {11,3,12,-1,-1} {36,9,11,-1,-1}
				q {37,32,11,-1,-1} {38,33,11,-1,-1} {13,19,12,-1,-1} {12,17,12,-1,-1}
				q {38,33,11,-1,-1} {39,34,11,-1,-1} {14,21,12,-1,-1} {13,19,12,-1,-1}
				q {14,21,12,-1,-1} {39,34,11,-1,-1} {40,35,11,-1,-1} {15,23,12,-1,-1}
				q {40,35,11,-1,-1} {41,15,11,-1,-1} {16,11,12,-1,-1} {15,23,12,-1,-1}
			}
			CTris
			{
				numTris 10
				t {10,10,0,-1,-1} {0,0,1,-1,-1} {1,1,2,-1,-1}
				t {10,10,0,-1,-1} {1,1,2,-1,-1} {2,4,3,-1,-1}
				t {10,10,0,-1,-1} {2,4,3,-1,-1} {3,6,4,-1,-1}
				t {10,10,0,-1,-1} {3,6,4,-1,-1} {4,8,5,-1,-1}
				t {10,10,0,-1,-1} {4,8,5,-1,-1} {0,0,6,-1,-1}
				t {23,9,13,-1,-1} {22,12,8,-1,-1} {16,11,7,-1,-1}
				t {23,9,13,-1,-1} {29,13,9,-1,-1} {22,12,8,-1,-1}
				t {23,9,13,-1,-1} {35,14,10,-1,-1} {29,13,9,-1,-1}
				t {23,9,13,-1,-1} {41,15,11,-1,-1} {35,14,10,-1,-1}
				t {23,9,13,-1,-1} {16,11,12,-1,-1} {41,15,11,-1,-1}
			}
		}
		CIwModelExtSelSetFace
		{
			name "sortBackward"
			otzOfs 3

			f 0
			f 1
			f 2
			f 3
			f 4
			f 35
			f 36
			f 37
			f 38
			f 39
			f 40
			f 41
			f 42
			f 43
			f 44
			f 5
			f 6
			f 7
			f 8
			f 9
			f 10
			f 11
			f 12
			f 13
			f 14
			f 15
			f 16
			f 17
			f 18
			f 19
			f 20
			f 21
			f 22
			f 23
			f 24
			f 25
			f 26
			f 27
			f 28
			f 29
			f 30
			f 31
			f 32
			f 33
			f 34
		}
	}
}
