// Source file: C:/dev/sdk/main/sdk_examples/ArtAssets/OpenGLES/maya7/env.mb
CIwMaterial
{
	name "roof22/lambert2"
	effectPreset "NORMAL_MAPPING_SPECULAR"
colDiffuse { 255, 255, 255, 255}
blendMode ADD
	shaderTechnique "normal_specular"
	texture0 "./textures/tunnel128x64.bmp"
	texture1 "./textures/tunnelNorm256x128.tga"
	colSpecular {255,255,255}
	specularPower 10
}
CIwMaterial
{
	name "roof22/lambert3"
	effectPreset "NORMAL_MAPPING_SPECULAR"
colDiffuse { 255, 255, 255, 255}
blendMode ADD
	shaderTechnique "normal_specular"
	texture0 "./textures/wall256x128.bmp"
	texture1 "./textures/wallNorm256x128.tga"
	colSpecular {255,255,255}
	specularPower 10
}
