// Source file: C:/dev/sdk/main/sdk_examples/ArtAssets/OpenGLES/maya7/env.mb
CIwModel
{
	name "roof12"
	CMesh
	{
		name "roof12"
		scale 10
		CVerts
		{
			numVerts 70
			v {6000,2000,-3588.52441}
			v {0,2000,-3588.52441}
			v {6000,2000,-3991.31055}
			v {0,2000,-3991.31055}
			v {0,1794.61426,-3991.31055}
			v {0,1794.61426,-3588.52441}
			v {6000,1794.61426,-3991.31055}
			v {6000,1794.61426,-3588.52441}
			v {3000,2000,-3588.52441}
			v {3000,1794.61426,-3588.52441}
			v {3000,1794.61426,-3991.31055}
			v {3000,2000,-3991.31055}
			v {4499.99854,2000,-3588.52441}
			v {4499.99854,1794.61426,-3588.52441}
			v {4499.99854,1794.61426,-3991.31055}
			v {4499.99854,2000,-3991.31055}
			v {1500.00024,2000,-3588.52441}
			v {1500.00024,1794.61426,-3588.52441}
			v {1500.00024,1794.61426,-3991.31055}
			v {1500.00024,2000,-3991.31055}
			v {6000,1794.61426,-3789.91675}
			v {4499.99854,1794.61426,-3789.91675}
			v {3000,1794.61426,-3789.91675}
			v {1500.00024,1794.61426,-3789.91675}
			v {0,1794.61426,-3789.91675}
			v {6000,2000,0}
			v {0,2000,0}
			v {6000,2000,-3588.52441}
			v {0,2000,-3588.52441}
			v {6000,2000,-1592.86963}
			v {0,2000,-1592.86963}
			v {6000,2000,-1995.65527}
			v {0,2000,-1995.65527}
			v {3000,2000,0}
			v {3000,2000,-1592.86963}
			v {3000,2000,-1995.65527}
			v {3000,2000,-3588.52441}
			v {4499.99854,2000,0}
			v {4499.99854,2000,-1592.86963}
			v {4499.99854,2000,-1995.65527}
			v {4499.99854,2000,-3588.52441}
			v {1500.00024,2000,0}
			v {1500.00024,2000,-1592.86963}
			v {1500.00024,2000,-1995.65527}
			v {1500.00024,2000,-3588.52441}
			v {6000,2000,-1592.86963}
			v {0,2000,-1592.86963}
			v {6000,2000,-1995.65527}
			v {0,2000,-1995.65527}
			v {0,1794.61426,-1995.65527}
			v {0,1794.61426,-1592.86963}
			v {6000,1794.61426,-1995.65527}
			v {6000,1794.61426,-1592.86963}
			v {3000,2000,-1592.86963}
			v {3000,1794.61426,-1592.86963}
			v {3000,1794.61426,-1995.65527}
			v {3000,2000,-1995.65527}
			v {4499.99854,2000,-1592.86963}
			v {4499.99854,1794.61426,-1592.86963}
			v {4499.99854,1794.61426,-1995.65527}
			v {4499.99854,2000,-1995.65527}
			v {1500.00024,2000,-1592.86963}
			v {1500.00024,1794.61426,-1592.86963}
			v {1500.00024,1794.61426,-1995.65527}
			v {1500.00024,2000,-1995.65527}
			v {6000,1794.61426,-1794.26270}
			v {4499.99854,1794.61426,-1794.26270}
			v {3000,1794.61426,-1794.26270}
			v {1500.00024,1794.61426,-1794.26270}
			v {0,1794.61426,-1794.26270}
		}
		CVertNorms
		{
			numVertNorms 3
			vn {0,-1,-0.00000}
			vn {-0.00000,0,-1}
			vn {0.00000,0,1}
		}
		CUVs
		{
			setID 0
			numUVs 29
			uv {0.50241,-2.37515}
			uv {1.02266,-2.37515}
			uv {1.02266,-4.79055}
			uv {0.50241,-4.79055}
			uv {1.49276,-2.37515}
			uv {1.49276,-4.79055}
			uv {-0.50357,-4.79055}
			uv {-0.50357,-2.37515}
			uv {0.00559,-2.37515}
			uv {0.00559,-4.79055}
			uv {0.00559,0.04025}
			uv {-0.50357,0.04025}
			uv {-0.50357,2.45565}
			uv {0.00559,2.45565}
			uv {0.50241,2.45565}
			uv {1.02266,2.45565}
			uv {1.02266,0.04025}
			uv {0.50241,0.04025}
			uv {1.49276,2.45565}
			uv {1.49276,0.04025}
			uv {-0.50357,4.87105}
			uv {0.00559,4.87105}
			uv {0.50241,4.87105}
			uv {1.02266,4.87105}
			uv {1.49276,4.87105}
			uv {0,1}
			uv {1,1}
			uv {1,0}
			uv {0,0}
		}
		CUVs
		{
			setID 1
			numUVs 4
			uv {0,1}
			uv {1,1}
			uv {1,0}
			uv {0,0}
		}
		CSurface
		{
			material "lambert2"
			CQuads
			{
				numQuads 32
				q {20,0,3,-1,-1} {6,0,2,-1,-1} {14,0,1,-1,-1} {21,0,0,-1,-1}
				q {14,1,1,-1,-1} {6,1,2,-1,-1} {2,1,5,-1,-1} {15,1,4,-1,-1}
				q {7,2,9,-1,-1} {13,2,8,-1,-1} {12,2,7,-1,-1} {0,2,6,-1,-1}
				q {17,2,13,-1,-1} {16,2,12,-1,-1} {8,2,11,-1,-1} {9,2,10,-1,-1}
				q {22,0,17,-1,-1} {10,0,16,-1,-1} {18,0,15,-1,-1} {23,0,14,-1,-1}
				q {18,1,15,-1,-1} {10,1,16,-1,-1} {11,1,19,-1,-1} {19,1,18,-1,-1}
				q {9,2,10,-1,-1} {8,2,11,-1,-1} {12,2,7,-1,-1} {13,2,8,-1,-1}
				q {21,0,0,-1,-1} {14,0,1,-1,-1} {10,0,16,-1,-1} {22,0,17,-1,-1}
				q {10,1,16,-1,-1} {14,1,1,-1,-1} {15,1,4,-1,-1} {11,1,19,-1,-1}
				q {5,2,21,-1,-1} {1,2,20,-1,-1} {16,2,12,-1,-1} {17,2,13,-1,-1}
				q {23,0,14,-1,-1} {18,0,15,-1,-1} {4,0,23,-1,-1} {24,0,22,-1,-1}
				q {4,1,23,-1,-1} {18,1,15,-1,-1} {19,1,18,-1,-1} {3,1,24,-1,-1}
				q {7,0,9,-1,-1} {20,0,3,-1,-1} {21,0,0,-1,-1} {13,0,8,-1,-1}
				q {13,0,8,-1,-1} {21,0,0,-1,-1} {22,0,17,-1,-1} {9,0,10,-1,-1}
				q {9,0,10,-1,-1} {22,0,17,-1,-1} {23,0,14,-1,-1} {17,0,13,-1,-1}
				q {17,0,13,-1,-1} {23,0,14,-1,-1} {24,0,22,-1,-1} {5,0,21,-1,-1}
				q {65,0,3,-1,-1} {51,0,2,-1,-1} {59,0,1,-1,-1} {66,0,0,-1,-1}
				q {59,1,1,-1,-1} {51,1,2,-1,-1} {47,1,5,-1,-1} {60,1,4,-1,-1}
				q {52,2,9,-1,-1} {58,2,8,-1,-1} {57,2,7,-1,-1} {45,2,6,-1,-1}
				q {62,2,13,-1,-1} {61,2,12,-1,-1} {53,2,11,-1,-1} {54,2,10,-1,-1}
				q {67,0,17,-1,-1} {55,0,16,-1,-1} {63,0,15,-1,-1} {68,0,14,-1,-1}
				q {63,1,15,-1,-1} {55,1,16,-1,-1} {56,1,19,-1,-1} {64,1,18,-1,-1}
				q {54,2,10,-1,-1} {53,2,11,-1,-1} {57,2,7,-1,-1} {58,2,8,-1,-1}
				q {66,0,0,-1,-1} {59,0,1,-1,-1} {55,0,16,-1,-1} {67,0,17,-1,-1}
				q {55,1,16,-1,-1} {59,1,1,-1,-1} {60,1,4,-1,-1} {56,1,19,-1,-1}
				q {50,2,21,-1,-1} {46,2,20,-1,-1} {61,2,12,-1,-1} {62,2,13,-1,-1}
				q {68,0,14,-1,-1} {63,0,15,-1,-1} {49,0,23,-1,-1} {69,0,22,-1,-1}
				q {49,1,23,-1,-1} {63,1,15,-1,-1} {64,1,18,-1,-1} {48,1,24,-1,-1}
				q {52,0,9,-1,-1} {65,0,3,-1,-1} {66,0,0,-1,-1} {58,0,8,-1,-1}
				q {58,0,8,-1,-1} {66,0,0,-1,-1} {67,0,17,-1,-1} {54,0,10,-1,-1}
				q {54,0,10,-1,-1} {67,0,17,-1,-1} {68,0,14,-1,-1} {62,0,13,-1,-1}
				q {62,0,13,-1,-1} {68,0,14,-1,-1} {69,0,22,-1,-1} {50,0,21,-1,-1}
			}
		}
		CSurface
		{
			material "lambert3"
			CQuads
			{
				numQuads 8
				q {40,0,28,3,-1} {39,0,27,2,-1} {31,0,26,1,-1} {27,0,25,0,-1}
				q {38,0,27,3,-1} {37,0,28,2,-1} {25,0,25,1,-1} {29,0,26,0,-1}
				q {42,0,27,3,-1} {41,0,28,2,-1} {33,0,25,1,-1} {34,0,26,0,-1}
				q {44,0,28,3,-1} {43,0,27,2,-1} {35,0,26,1,-1} {36,0,25,0,-1}
				q {34,0,27,3,-1} {33,0,28,2,-1} {37,0,25,1,-1} {38,0,26,0,-1}
				q {36,0,28,3,-1} {35,0,27,2,-1} {39,0,26,1,-1} {40,0,25,0,-1}
				q {30,0,27,3,-1} {26,0,28,2,-1} {41,0,25,1,-1} {42,0,26,0,-1}
				q {28,0,28,3,-1} {32,0,27,2,-1} {43,0,26,1,-1} {44,0,25,0,-1}
			}
		}
	}
}
