// Source file: C:/dev/sdk/main/sdk_examples/ArtAssets/OpenGLES/maya7/env.mb
CIwMaterial
{
	name "roof32/lambert3"
	effectPreset "NORMAL_MAPPING"
	shaderTechnique "normal_specular"
	texture0 "./textures/wall256x128.bmp"
	texture1 "./textures/wallNorm256x128.tga"
	colSpecular {255,255,255}
	specularPower 10
}
