// Source file: C:/dev/sdk/main/sdk_examples/ArtAssets/OpenGLES/maya7/bike.mb
CIwModel
{
	name "swingarmFrontR"
	CMesh
	{
		name "swingarmFrontR"
		scale 10
		CVerts
		{
			numVerts 26
			v {-213.61420,370.77942,799.57764}
			v {-205.87251,246.88881,673.61932}
			v {-264.19232,488.87268,530.54517}
			v {-243.53430,530.65918,730.16931}
			v {-226.69656,528.88538,747.75018}
			v {-244.65013,475.70319,523.84851}
			v {-186.89919,224.09386,673.60443}
			v {-200.33243,364.59344,819.33167}
			v {-306.92679,587.47467,472.01480}
			v {-286.58670,578.15118,462.64847}
			v {-288.52194,695.93323,335.32813}
			v {-308.43848,705.25275,350.72870}
			v {-254.49394,627.28784,683.05963}
			v {-242.82813,816.76038,284.73657}
			v {-263.48532,826.47778,297.79752}
			v {-239.53369,815.63916,594.58411}
			v {-205.42520,930.52197,301.01202}
			v {-192.47389,918.85492,567.31360}
			v {-222.01707,812.58435,612.37646}
			v {-170.97902,911.42603,588.93744}
			v {-185.54340,925.40466,290.93839}
			v {-237.56334,625.32739,701.21027}
			v {-237.61267,728.61475,652.54810}
			v {-254.60228,730.37384,634.20496}
			v {-334.47235,751.34515,373.24478}
			v {-306.96118,828.86731,352.40564}
		}
		CVertNorms
		{
			numVertNorms 32
			vn {-0.88358,-0.18636,0.42959}
			vn {-0.90021,0.02360,0.43482}
			vn {-0.88104,-0.39948,-0.25336}
			vn {-0.88972,-0.45576,-0.02626}
			vn {0.97857,0.15673,-0.13356}
			vn {0.98439,0.15067,-0.09099}
			vn {-0.79279,-0.19566,0.57724}
			vn {-0.78500,-0.60966,-0.10998}
			vn {-0.57606,-0.54832,-0.60622}
			vn {-0.72372,0.19964,0.66058}
			vn {-0.91259,-0.34766,-0.21522}
			vn {-0.88610,-0.25937,-0.38412}
			vn {-0.62719,-0.35954,-0.69091}
			vn {-0.58457,-0.58387,-0.56336}
			vn {-0.87616,0.14507,0.45967}
			vn {-0.67743,0.43157,-0.59568}
			vn {-0.51735,0.07583,-0.85241}
			vn {-0.67260,0.62061,0.40305}
			vn {-0.50145,0.79647,0.33791}
			vn {-0.47989,0.79710,-0.36652}
			vn {-0.59979,0.43634,0.67072}
			vn {-0.18031,0.87694,0.44550}
			vn {0.91529,-0.39532,-0.07724}
			vn {0.88251,-0.46600,-0.06342}
			vn {-0.08277,0.81814,-0.56903}
			vn {-0.68526,0.28221,0.67140}
			vn {0.98532,0.02247,-0.16926}
			vn {-0.65438,0.36834,0.66038}
			vn {-0.88420,0.14671,0.44347}
			vn {0.96705,-0.22140,-0.12568}
			vn {-0.74008,0.64979,-0.17336}
			vn {-0.99386,-0.07999,-0.07647}
		}
		CVertCols
		{
			numVertCols 77
			col {0.88832,0.88832,0.88832,1}
			col {0.63281,0.63281,0.63281,1}
			col {0.80987,0.80987,0.80987,1}
			col {0.96078,0.96078,0.96078,1}
			col {0.12205,0.12205,0.12205,1}
			col {0.00870,0.00870,0.00870,1}
			col {0.00710,0.00710,0.00710,1}
			col {0.04896,0.04896,0.04896,1}
			col {0.84251,0.84251,0.84251,1}
			col {0.49151,0.49151,0.49151,1}
			col {0.62306,0.62306,0.62306,1}
			col {0.86486,0.86486,0.86486,1}
			col {0.63003,0.63003,0.63003,1}
			col {0.49642,0.49642,0.49642,1}
			col {0.52211,0.52211,0.52211,1}
			col {0.81069,0.81069,0.81069,1}
			col {0.86917,0.86917,0.86917,1}
			col {0.87035,0.87035,0.87035,1}
			col {0.96147,0.96147,0.96147,1}
			col {0.98154,0.98154,0.98154,1}
			col {0.88591,0.88591,0.88591,1}
			col {0.64542,0.64542,0.64542,1}
			col {0.75528,0.75528,0.75528,1}
			col {0.89592,0.89592,0.89592,1}
			col {0.87660,0.87660,0.87660,1}
			col {0.98631,0.98631,0.98631,1}
			col {0.95997,0.95997,0.95997,1}
			col {0.80220,0.80220,0.80220,1}
			col {0.90579,0.90579,0.90579,1}
			col {0.76044,0.76044,0.76044,1}
			col {0.80809,0.80809,0.80809,1}
			col {0.96050,0.96050,0.96050,1}
			col {1,1,1,1}
			col {0.95840,0.95840,0.95840,1}
			col {0.02759,0.02759,0.02759,1}
			col {0.15218,0.15218,0.15218,1}
			col {0.37697,0.37697,0.37697,1}
			col {0.29557,0.29557,0.29557,1}
			col {0.96130,0.96130,0.96130,1}
			col {0.82680,0.82680,0.82680,1}
			col {0.98356,0.98356,0.98356,1}
			col {0.98187,0.98187,0.98187,1}
			col {0.96704,0.96704,0.96704,1}
			col {0.98548,0.98548,0.98548,1}
			col {0.98792,0.98792,0.98792,1}
			col {0.13416,0.13416,0.13416,1}
			col {0.02601,0.02601,0.02601,1}
			col {0,0,0,1}
			col {0.11000,0.11000,0.11000,1}
			col {0.80306,0.80306,0.80306,1}
			col {0.49111,0.49111,0.49111,1}
			col {0.65829,0.65829,0.65829,1}
			col {0.87591,0.87591,0.87591,1}
			col {0.99367,0.99367,0.99367,1}
			col {0.04190,0.04190,0.04190,1}
			col {0.08497,0.08497,0.08497,1}
			col {0.13717,0.13717,0.13717,1}
			col {0.04089,0.04089,0.04089,1}
			col {0.99423,0.99423,0.99423,1}
			col {0.99125,0.99125,0.99125,1}
			col {0.86998,0.86998,0.86998,1}
			col {0.89205,0.89205,0.89205,1}
			col {0.98681,0.98681,0.98681,1}
			col {0.99318,0.99318,0.99318,1}
			col {0.03342,0.03342,0.03342,1}
			col {0.13972,0.13972,0.13972,1}
			col {0.10189,0.10189,0.10189,1}
			col {0.99821,0.99821,0.99821,1}
			col {0.97679,0.97679,0.97679,1}
			col {0.98851,0.98851,0.98851,1}
			col {0.95561,0.95561,0.95561,1}
			col {0.99271,0.99271,0.99271,1}
			col {0.89891,0.89891,0.89891,1}
			col {0.98165,0.98165,0.98165,1}
			col {0.98670,0.98670,0.98670,1}
			col {0.89154,0.89154,0.89154,1}
			col {0.96880,0.96880,0.96880,1}
		}
		CUVs
		{
			setID 0
			numUVs 38
			uv {0.84712,0.63272}
			uv {0.97555,0.65100}
			uv {0.95458,0.44565}
			uv {0.81842,0.50800}
			uv {0.61510,0.33045}
			uv {0.73450,0.34739}
			uv {0.70964,0.19597}
			uv {0.61164,0.23660}
			uv {0.83814,0.64498}
			uv {0.98550,0.66446}
			uv {0.96427,0.45051}
			uv {0.80880,0.51671}
			uv {0.94617,0.36188}
			uv {0.95576,0.36330}
			uv {0.97964,0.23821}
			uv {0.96647,0.23942}
			uv {0.80412,0.43037}
			uv {0.95793,0.14154}
			uv {0.94375,0.14561}
			uv {0.77220,0.27984}
			uv {0.89438,0.08306}
			uv {0.74537,0.20766}
			uv {0.76509,0.29008}
			uv {0.72904,0.21357}
			uv {0.78583,0.55955}
			uv {0.62680,0.49476}
			uv {0.61930,0.54747}
			uv {0.76199,0.61136}
			uv {0.89641,0.06808}
			uv {0.79425,0.43944}
			uv {0.61933,0.38641}
			uv {0.74474,0.40908}
			uv {0.77797,0.35720}
			uv {0.78804,0.34817}
			uv {0.78429,0.49092}
			uv {0.62329,0.44611}
			uv {0.93496,0.22922}
			uv {0.92755,0.18916}
		}
		CSurface
		{
			material "phong1"
			CQuads
			{
				numQuads 23
				q {3,1,3,-1,3} {0,0,0,-1,0} {1,3,1,-1,1} {2,2,2,-1,2}
				q {6,5,6,-1,6} {7,5,7,-1,7} {4,4,4,-1,4} {5,4,5,-1,5}
				q {1,3,1,-1,10} {0,0,0,-1,11} {7,6,8,-1,8} {6,7,9,-1,9}
				q {2,2,2,-1,15} {1,3,1,-1,12} {6,7,9,-1,13} {5,8,10,-1,14}
				q {7,6,8,-1,16} {0,0,0,-1,17} {3,1,3,-1,18} {4,9,11,-1,19}
				q {11,11,15,-1,23} {8,10,12,-1,20} {9,13,13,-1,21} {10,12,14,-1,22}
				q {3,1,3,-1,26} {2,2,2,-1,27} {8,10,12,-1,24} {12,14,16,-1,25}
				q {11,11,15,-1,28} {10,12,14,-1,29} {13,16,17,-1,30} {14,15,18,-1,31}
				q {16,19,20,-1,32} {17,18,21,-1,32} {15,17,19,-1,32} {14,15,18,-1,33}
				q {17,18,21,-1,32} {19,21,23,-1,32} {18,20,22,-1,32} {15,17,19,-1,32}
				q {19,23,26,-1,36} {20,23,27,-1,37} {13,22,24,-1,34} {18,22,25,-1,35}
				q {20,24,28,-1,40} {16,19,20,-1,32} {14,15,18,-1,38} {13,16,17,-1,39}
				q {4,9,11,-1,41} {3,1,3,-1,42} {12,14,16,-1,43} {21,25,29,-1,44}
				q {5,4,5,-1,47} {4,4,4,-1,48} {21,26,30,-1,45} {9,26,31,-1,46}
				q {9,13,13,-1,51} {8,10,12,-1,52} {2,2,2,-1,49} {5,8,10,-1,50}
				q {15,17,19,-1,32} {18,20,22,-1,32} {22,27,32,-1,53} {23,28,33,-1,32}
				q {10,29,34,-1,54} {22,29,35,-1,55} {18,22,25,-1,56} {13,22,24,-1,57}
				q {23,28,33,-1,58} {12,14,16,-1,59} {8,10,12,-1,60} {11,11,15,-1,61}
				q {21,25,29,-1,59} {12,14,16,-1,62} {23,28,33,-1,63} {22,27,32,-1,32}
				q {9,26,31,-1,47} {21,26,30,-1,65} {22,29,35,-1,66} {10,29,34,-1,64}
				q {19,21,23,-1,32} {17,18,21,-1,32} {16,19,20,-1,67} {20,24,28,-1,68}
				q {25,30,37,-1,32} {15,17,19,-1,32} {23,28,33,-1,32} {24,31,36,-1,69}
				q {14,15,18,-1,76} {25,30,37,-1,32} {24,31,36,-1,74} {11,11,15,-1,75}
			}
			CTris
			{
				numTris 2
				t {25,30,37,-1,32} {14,15,18,-1,70} {15,17,19,-1,32}
				t {11,11,15,-1,72} {24,31,36,-1,73} {23,28,33,-1,71}
			}
		}
		CIwModelExtSelSetFace
		{
			name "sortForward"
			otzOfs -1

			f 0
			f 1
			f 2
			f 3
			f 4
			f 5
			f 6
			f 7
			f 8
			f 9
			f 10
			f 11
			f 12
			f 13
			f 14
			f 15
			f 16
			f 17
			f 18
			f 19
			f 20
			f 21
			f 24
			f 22
		}
	}
}
