// Source file: C:/dev/sdk/main/sdk_examples/ArtAssets/OpenGLES/maya7/bike.mb
CIwModel
{
	name "swingarmRearR"
	CMesh
	{
		name "swingarmRearR"
		scale 10
		CVerts
		{
			numVerts 33
			v {-189.83545,441.65021,-290.06229}
			v {-189.83545,597.44653,-444.22717}
			v {-189.83545,612.34790,-387.42038}
			v {-189.83545,596.84943,-330.77356}
			v {-189.83545,555.10388,-289.46521}
			v {-189.83545,498.29709,-274.56384}
			v {-86.67101,444.00253,-273.17017}
			v {-147.48074,313.04474,-408.35522}
			v {-189.83545,318.61346,-417.07062}
			v {-86.67101,504.29633,-256.67389}
			v {-86.67101,564.76038,-272.53461}
			v {-86.67101,609.19348,-316.50235}
			v {-86.67101,625.68976,-376.79611}
			v {-86.67101,609.82904,-437.26019}
			v {-189.83545,212.77747,-660.66412}
			v {-189.83545,409.88217,-773.08356}
			v {-189.83545,311.92639,-830.32660}
			v {-189.83545,368.57346,-814.82800}
			v {-189.83545,197.87605,-717.47107}
			v {-189.83545,213.37448,-774.11816}
			v {-189.83545,255.11990,-815.42657}
			v {-147.48064,305.92700,-848.21582}
			v {-147.48064,366.22104,-831.71960}
			v {-147.48074,245.46347,-832.35724}
			v {-147.48074,201.03044,-788.38934}
			v {-147.48074,184.53427,-728.09546}
			v {-147.48074,200.39499,-667.63123}
			v {-147.48074,410.18927,-787.28821}
			v {-147.48074,551.88123,-538.85992}
			v {-86.67101,583.03619,-490.18872}
			v {-142.57024,465.05649,-489.41769}
			v {-81.76050,496.21130,-440.74643}
			v {-142.57024,395.81882,-610.65027}
		}
		CVertNorms
		{
			numVertNorms 21
			vn {-1,-0.00000,0}
			vn {-0.14960,-0.49355,0.85675}
			vn {-0.17216,-0.81166,0.55818}
			vn {-0.17053,-0.00584,0.98534}
			vn {-0.18565,0.48682,0.85355}
			vn {-0.17053,0.85107,0.49659}
			vn {-0.12870,0.99167,0.00435}
			vn {-0.08979,0.92976,-0.35705}
			vn {-0.11699,0.90802,-0.40226}
			vn {-0.38810,0.00807,-0.92158}
			vn {-0.30054,0.48517,-0.82115}
			vn {-0.41804,-0.45006,-0.78911}
			vn {-0.38812,-0.79732,-0.46222}
			vn {-0.30055,-0.95377,-0.00043}
			vn {-0.21709,-0.92236,0.31956}
			vn {-0.20392,0.78033,-0.59118}
			vn {-0.12513,0.87194,-0.47334}
			vn {-0.08001,0.88571,-0.45728}
			vn {0.68712,-0.32979,-0.64738}
			vn {0.91757,-0.15630,-0.36557}
			vn {0.99880,0.04261,-0.02431}
		}
		CVertCols
		{
			numVertCols 81
			col {0.01597,0.01597,0.01597,1}
			col {0.10750,0.10750,0.10750,1}
			col {0.15461,0.15461,0.15461,1}
			col {0.08196,0.08196,0.08196,1}
			col {0.67561,0.67561,0.67561,1}
			col {0.00179,0.00179,0.00179,1}
			col {0,0,0,1}
			col {0.03225,0.03225,0.03225,1}
			col {0.25181,0.25181,0.25181,1}
			col {0.27095,0.27095,0.27095,1}
			col {0.01191,0.01191,0.01191,1}
			col {0.04041,0.04041,0.04041,1}
			col {0.11848,0.11848,0.11848,1}
			col {0.00905,0.00905,0.00905,1}
			col {0.00625,0.00625,0.00625,1}
			col {0.43095,0.43095,0.43095,1}
			col {0.15788,0.15788,0.15788,1}
			col {0.11480,0.11480,0.11480,1}
			col {0.40963,0.40963,0.40963,1}
			col {0.40804,0.40804,0.40804,1}
			col {0.14956,0.14956,0.14956,1}
			col {0.15651,0.15651,0.15651,1}
			col {0.41194,0.41194,0.41194,1}
			col {0.61593,0.61593,0.61593,1}
			col {0.23897,0.23897,0.23897,1}
			col {0.16863,0.16863,0.16863,1}
			col {0.58972,0.58972,0.58972,1}
			col {0.53855,0.53855,0.53855,1}
			col {0.09419,0.09419,0.09419,1}
			col {0.01790,0.01790,0.01790,1}
			col {0.46383,0.46383,0.46383,1}
			col {0.69531,0.69531,0.69531,1}
			col {0.72098,0.72098,0.72098,1}
			col {0.80961,0.80961,0.80961,1}
			col {0.78280,0.78280,0.78280,1}
			col {0.71792,0.71792,0.71792,1}
			col {0.67057,0.67057,0.67057,1}
			col {0.69021,0.69021,0.69021,1}
			col {0.73294,0.73294,0.73294,1}
			col {0.79235,0.79235,0.79235,1}
			col {0.68727,0.68727,0.68727,1}
			col {0.75617,0.75617,0.75617,1}
			col {0.87186,0.87186,0.87186,1}
			col {0.77714,0.77714,0.77714,1}
			col {0.52685,0.52685,0.52685,1}
			col {0.69463,0.69463,0.69463,1}
			col {0.77170,0.77170,0.77170,1}
			col {0.58274,0.58274,0.58274,1}
			col {0.29308,0.29308,0.29308,1}
			col {0.50550,0.50550,0.50550,1}
			col {0.58302,0.58302,0.58302,1}
			col {0.36167,0.36167,0.36167,1}
			col {0.18891,0.18891,0.18891,1}
			col {0.30878,0.30878,0.30878,1}
			col {0.36924,0.36924,0.36924,1}
			col {0.20274,0.20274,0.20274,1}
			col {0.16318,0.16318,0.16318,1}
			col {0.17107,0.17107,0.17107,1}
			col {0.21284,0.21284,0.21284,1}
			col {0.18417,0.18417,0.18417,1}
			col {0.75965,0.75965,0.75965,1}
			col {0.67874,0.67874,0.67874,1}
			col {0.79927,0.79927,0.79927,1}
			col {0.86578,0.86578,0.86578,1}
			col {0.25483,0.25483,0.25483,1}
			col {0.15541,0.15541,0.15541,1}
			col {0.19513,0.19513,0.19513,1}
			col {0.52956,0.52956,0.52956,1}
			col {0.31408,0.31408,0.31408,1}
			col {0.22762,0.22762,0.22762,1}
			col {0.55344,0.55344,0.55344,1}
			col {0.69874,0.69874,0.69874,1}
			col {0.55143,0.55143,0.55143,1}
			col {0.54095,0.54095,0.54095,1}
			col {0.79531,0.79531,0.79531,1}
			col {0.21326,0.21326,0.21326,1}
			col {0.20463,0.20463,0.20463,1}
			col {0.02476,0.02476,0.02476,1}
			col {0.14708,0.14708,0.14708,1}
			col {0.08841,0.08841,0.08841,1}
			col {0.00387,0.00387,0.00387,1}
		}
		CUVs
		{
			setID 0
			numUVs 54
			uv {0.55828,0.96777}
			uv {0.59194,0.84259}
			uv {0.55838,0.85155}
			uv {0.53380,0.87609}
			uv {0.52478,0.90963}
			uv {0.53374,0.94319}
			uv {0.00653,0.34796}
			uv {0.06675,0.34796}
			uv {0.03125,0.27151}
			uv {0.00653,0.27476}
			uv {0.06675,0.38315}
			uv {0.00653,0.38315}
			uv {0.06675,0.41845}
			uv {0.00653,0.41845}
			uv {0.06675,0.45259}
			uv {0.00653,0.45259}
			uv {0.06675,0.48642}
			uv {0.00653,0.48642}
			uv {0.06675,0.51958}
			uv {0.00653,0.51958}
			uv {0.65955,0.99386}
			uv {0.81573,0.97700}
			uv {0.81585,0.84280}
			uv {0.87393,0.87640}
			uv {0.84939,0.85182}
			uv {0.84929,0.96804}
			uv {0.87387,0.94350}
			uv {0.88289,0.90996}
			uv {0.96565,0.95626}
			uv {0.96565,0.98984}
			uv {0.99075,0.98984}
			uv {0.99075,0.95626}
			uv {0.96565,0.92259}
			uv {0.99075,0.92259}
			uv {0.96565,0.89785}
			uv {0.99075,0.89785}
			uv {0.96565,0.86427}
			uv {0.99075,0.86427}
			uv {0.96565,0.83059}
			uv {0.99075,0.83059}
			uv {0.03125,0.74579}
			uv {0.03125,0.71985}
			uv {0.00653,0.71156}
			uv {0.00653,0.73593}
			uv {0.99075,0.68620}
			uv {0.96565,0.68104}
			uv {0.03125,0.57483}
			uv {0.06675,0.54641}
			uv {0.95648,0.98611}
			uv {0.95463,0.94938}
			uv {0.89106,0.94929}
			uv {0.89291,0.98601}
			uv {0.95478,0.76742}
			uv {0.89109,0.86046}
		}
		CSurface
		{
			material "phong1"
			CQuads
			{
				numQuads 20
				q {1,0,1,-1,1} {2,0,2,-1,2} {3,0,3,-1,3} {4,0,4,-1,4}
				q {7,2,8,-1,8} {8,2,9,-1,9} {0,1,6,-1,6} {6,1,7,-1,7}
				q {6,1,7,-1,11} {0,1,6,-1,6} {5,3,11,-1,6} {9,3,10,-1,10}
				q {9,3,10,-1,13} {5,3,11,-1,14} {4,4,13,-1,15} {10,4,12,-1,12}
				q {4,4,13,-1,18} {3,5,15,-1,19} {11,5,14,-1,16} {10,4,12,-1,17}
				q {3,5,15,-1,22} {2,6,17,-1,23} {12,6,16,-1,20} {11,5,14,-1,21}
				q {2,6,17,-1,26} {1,8,19,-1,27} {13,7,18,-1,24} {12,6,16,-1,25}
				q {1,0,1,-1,28} {0,0,0,-1,29} {8,0,20,-1,30} {14,0,21,-1,31}
				q {16,0,23,-1,33} {17,0,24,-1,34} {15,0,22,-1,35} {20,0,27,-1,39}
				q {22,10,29,-1,41} {17,10,30,-1,42} {16,9,31,-1,43} {21,9,28,-1,40}
				q {21,9,28,-1,45} {16,9,31,-1,46} {20,11,33,-1,47} {23,11,32,-1,44}
				q {20,11,33,-1,50} {19,12,35,-1,51} {24,12,34,-1,48} {23,11,32,-1,49}
				q {19,12,35,-1,54} {18,13,37,-1,55} {25,13,36,-1,52} {24,12,34,-1,53}
				q {18,13,37,-1,58} {14,14,39,-1,59} {26,14,38,-1,56} {25,13,36,-1,57}
				q {27,15,41,-1,61} {15,15,42,-1,62} {17,10,43,-1,63} {22,10,40,-1,60}
				q {14,14,39,-1,66} {8,2,44,-1,9} {7,2,45,-1,64} {26,14,38,-1,65}
				q {29,17,47,-1,68} {13,7,18,-1,69} {1,8,19,-1,70} {28,16,46,-1,67}
				q {15,15,42,-1,74} {27,15,41,-1,71} {28,16,46,-1,72} {1,8,19,-1,73}
				q {28,19,49,-1,76} {30,19,50,-1,77} {31,18,51,-1,78} {29,18,48,-1,75}
				q {32,20,53,-1,5} {30,19,50,-1,0} {28,19,49,-1,79} {27,20,52,-1,80}
			}
			CTris
			{
				numTris 6
				t {1,0,1,-1,1} {5,0,5,-1,5} {0,0,0,-1,0}
				t {1,0,1,-1,1} {4,0,4,-1,4} {5,0,5,-1,5}
				t {1,0,1,-1,28} {14,0,21,-1,31} {15,0,22,-1,32}
				t {18,0,25,-1,37} {15,0,22,-1,35} {14,0,21,-1,36}
				t {19,0,26,-1,38} {15,0,22,-1,35} {18,0,25,-1,37}
				t {20,0,27,-1,39} {15,0,22,-1,35} {19,0,26,-1,38}
			}
		}
		CIwModelExtSelSetFace
		{
			name "sortForward"
			otzOfs -1

			f 20
			f 21
			f 0
			f 1
			f 2
			f 3
			f 4
			f 5
			f 6
			f 22
			f 7
			f 23
			f 24
			f 25
			f 8
			f 9
			f 10
			f 11
			f 12
			f 13
			f 14
			f 15
			f 16
			f 17
			f 18
			f 19
		}
	}
}
