// Source file: C:/dev/sdk/main/sdk_examples/ArtAssets/OpenGLES/maya7/bike.mb
CIwModel
{
	name "swingarmFrontL"
	CMesh
	{
		name "swingarmFrontL"
		scale 10
		CVerts
		{
			numVerts 26
			v {214.44786,370.77942,799.57758}
			v {206.14233,246.88881,673.61932}
			v {268.70993,488.87271,530.54517}
			v {246.54726,530.65918,730.16931}
			v {228.48311,528.88538,747.75018}
			v {247.74435,475.70325,523.84845}
			v {185.78703,224.09386,673.60443}
			v {200.19873,364.59344,819.33167}
			v {314.55701,587.47467,472.01477}
			v {292.73541,578.15118,462.64844}
			v {294.81165,695.93323,335.32809}
			v {316.17883,705.25275,350.72870}
			v {258.30518,627.28784,683.05963}
			v {245.78963,816.76038,284.73657}
			v {267.95145,826.47778,297.79752}
			v {242.25525,815.63916,594.58411}
			v {205.66245,930.52197,301.01202}
			v {191.76779,918.85492,567.31360}
			v {223.46277,812.58435,612.37646}
			v {168.70731,911.42603,588.93744}
			v {184.33250,925.40466,290.93839}
			v {240.14139,625.32739,701.21027}
			v {240.19431,728.61475,652.54810}
			v {258.42139,730.37384,634.20496}
			v {344.10895,751.34515,373.24478}
			v {314.59393,828.86731,352.40564}
		}
		CVertNorms
		{
			numVertNorms 32
			vn {0.87103,-0.19622,0.45034}
			vn {0.87850,-0.47721,-0.02262}
			vn {0.87194,-0.41652,-0.25736}
			vn {0.88989,0.02180,0.45566}
			vn {-0.97546,0.16760,-0.14278}
			vn {-0.98209,0.16127,-0.09739}
			vn {0.77146,-0.20386,0.60273}
			vn {0.76382,-0.63595,-0.11022}
			vn {0.54904,-0.56062,-0.61988}
			vn {0.69914,0.20670,0.68446}
			vn {0.90674,-0.36092,-0.21806}
			vn {0.55755,-0.59741,-0.57640}
			vn {0.60031,-0.36919,-0.70946}
			vn {0.87577,-0.27143,-0.39919}
			vn {0.86406,0.15030,0.48043}
			vn {0.49160,0.07588,-0.86751}
			vn {0.65771,0.44025,-0.61122}
			vn {0.65302,0.63409,0.41412}
			vn {0.46623,0.80558,-0.36562}
			vn {0.48578,0.80429,0.34225}
			vn {0.57281,0.44698,0.68709}
			vn {0.17259,0.87624,0.44991}
			vn {-0.90442,-0.41871,-0.08192}
			vn {-0.86813,-0.49180,-0.06693}
			vn {0.07840,0.81719,-0.57101}
			vn {0.65937,0.29131,0.69309}
			vn {-0.98316,0.02395,-0.18118}
			vn {0.62791,0.37901,0.67977}
			vn {0.87198,0.15364,0.46481}
			vn {-0.96241,-0.23608,-0.13428}
			vn {0.99339,-0.08405,-0.07823}
			vn {0.72783,0.66215,-0.17838}
		}
		CVertCols
		{
			numVertCols 77
			col {0.88832,0.88832,0.88832,1}
			col {0.63281,0.63281,0.63281,1}
			col {0.80987,0.80987,0.80987,1}
			col {0.96078,0.96078,0.96078,1}
			col {0.12205,0.12205,0.12205,1}
			col {0.00870,0.00870,0.00870,1}
			col {0.00710,0.00710,0.00710,1}
			col {0.04896,0.04896,0.04896,1}
			col {0.84251,0.84251,0.84251,1}
			col {0.49151,0.49151,0.49151,1}
			col {0.62306,0.62306,0.62306,1}
			col {0.86486,0.86486,0.86486,1}
			col {0.63003,0.63003,0.63003,1}
			col {0.49642,0.49642,0.49642,1}
			col {0.52211,0.52211,0.52211,1}
			col {0.81069,0.81069,0.81069,1}
			col {0.86917,0.86917,0.86917,1}
			col {0.87035,0.87035,0.87035,1}
			col {0.96147,0.96147,0.96147,1}
			col {0.98154,0.98154,0.98154,1}
			col {0.88591,0.88591,0.88591,1}
			col {0.64542,0.64542,0.64542,1}
			col {0.75528,0.75528,0.75528,1}
			col {0.89592,0.89592,0.89592,1}
			col {0.87660,0.87660,0.87660,1}
			col {0.98631,0.98631,0.98631,1}
			col {0.95997,0.95997,0.95997,1}
			col {0.80220,0.80220,0.80220,1}
			col {0.90579,0.90579,0.90579,1}
			col {0.76044,0.76044,0.76044,1}
			col {0.80809,0.80809,0.80809,1}
			col {0.96050,0.96050,0.96050,1}
			col {1,1,1,1}
			col {0.95840,0.95840,0.95840,1}
			col {0.02759,0.02759,0.02759,1}
			col {0.15218,0.15218,0.15218,1}
			col {0.37697,0.37697,0.37697,1}
			col {0.29557,0.29557,0.29557,1}
			col {0.96130,0.96130,0.96130,1}
			col {0.82680,0.82680,0.82680,1}
			col {0.98356,0.98356,0.98356,1}
			col {0.98187,0.98187,0.98187,1}
			col {0.96704,0.96704,0.96704,1}
			col {0.98548,0.98548,0.98548,1}
			col {0.98792,0.98792,0.98792,1}
			col {0.13416,0.13416,0.13416,1}
			col {0.02601,0.02601,0.02601,1}
			col {0,0,0,1}
			col {0.11000,0.11000,0.11000,1}
			col {0.80306,0.80306,0.80306,1}
			col {0.49111,0.49111,0.49111,1}
			col {0.65829,0.65829,0.65829,1}
			col {0.87591,0.87591,0.87591,1}
			col {0.99367,0.99367,0.99367,1}
			col {0.04190,0.04190,0.04190,1}
			col {0.08497,0.08497,0.08497,1}
			col {0.13717,0.13717,0.13717,1}
			col {0.04089,0.04089,0.04089,1}
			col {0.99423,0.99423,0.99423,1}
			col {0.99125,0.99125,0.99125,1}
			col {0.86998,0.86998,0.86998,1}
			col {0.89205,0.89205,0.89205,1}
			col {0.98681,0.98681,0.98681,1}
			col {0.99318,0.99318,0.99318,1}
			col {0.03342,0.03342,0.03342,1}
			col {0.13972,0.13972,0.13972,1}
			col {0.10189,0.10189,0.10189,1}
			col {0.99821,0.99821,0.99821,1}
			col {0.97679,0.97679,0.97679,1}
			col {0.98851,0.98851,0.98851,1}
			col {0.95561,0.95561,0.95561,1}
			col {0.99271,0.99271,0.99271,1}
			col {0.89891,0.89891,0.89891,1}
			col {0.98165,0.98165,0.98165,1}
			col {0.98670,0.98670,0.98670,1}
			col {0.89154,0.89154,0.89154,1}
			col {0.96880,0.96880,0.96880,1}
		}
		CUVs
		{
			setID 0
			numUVs 38
			uv {0.84712,0.63272}
			uv {0.97555,0.65100}
			uv {0.95458,0.44565}
			uv {0.81842,0.50800}
			uv {0.61510,0.33045}
			uv {0.73450,0.34739}
			uv {0.70964,0.19597}
			uv {0.61164,0.23660}
			uv {0.83814,0.64498}
			uv {0.98550,0.66446}
			uv {0.96427,0.45051}
			uv {0.80880,0.51671}
			uv {0.94617,0.36188}
			uv {0.95576,0.36330}
			uv {0.97964,0.23821}
			uv {0.96647,0.23942}
			uv {0.80412,0.43037}
			uv {0.95793,0.14154}
			uv {0.94375,0.14561}
			uv {0.77220,0.27984}
			uv {0.89438,0.08306}
			uv {0.74537,0.20766}
			uv {0.76509,0.29008}
			uv {0.72904,0.21357}
			uv {0.78583,0.55955}
			uv {0.62680,0.49476}
			uv {0.61930,0.54747}
			uv {0.76199,0.61136}
			uv {0.89641,0.06808}
			uv {0.79425,0.43944}
			uv {0.61933,0.38641}
			uv {0.74474,0.40908}
			uv {0.77797,0.35720}
			uv {0.78804,0.34817}
			uv {0.78429,0.49092}
			uv {0.62329,0.44611}
			uv {0.93496,0.22922}
			uv {0.92755,0.18916}
		}
		CSurface
		{
			material "phong1"
			CQuads
			{
				numQuads 23
				q {1,1,1,-1,1} {0,0,0,-1,0} {3,3,3,-1,3} {2,2,2,-1,2}
				q {4,4,4,-1,4} {7,5,7,-1,7} {6,5,6,-1,6} {5,4,5,-1,5}
				q {7,6,8,-1,8} {0,0,0,-1,11} {1,1,1,-1,10} {6,7,9,-1,9}
				q {6,7,9,-1,13} {1,1,1,-1,12} {2,2,2,-1,15} {5,8,10,-1,14}
				q {3,3,3,-1,18} {0,0,0,-1,17} {7,6,8,-1,16} {4,9,11,-1,19}
				q {9,11,13,-1,21} {8,10,12,-1,20} {11,13,15,-1,23} {10,12,14,-1,22}
				q {8,10,12,-1,24} {2,2,2,-1,27} {3,3,3,-1,26} {12,14,16,-1,25}
				q {13,15,17,-1,30} {10,12,14,-1,29} {11,13,15,-1,28} {14,16,18,-1,31}
				q {15,17,19,-1,32} {17,19,21,-1,32} {16,18,20,-1,32} {14,16,18,-1,33}
				q {18,20,22,-1,32} {19,21,23,-1,32} {17,19,21,-1,32} {15,17,19,-1,32}
				q {13,22,24,-1,34} {20,23,27,-1,37} {19,23,26,-1,36} {18,22,25,-1,35}
				q {14,16,18,-1,38} {16,18,20,-1,32} {20,24,28,-1,40} {13,15,17,-1,39}
				q {4,9,11,-1,41} {21,25,29,-1,44} {12,14,16,-1,43} {3,3,3,-1,42}
				q {21,26,30,-1,45} {4,4,4,-1,48} {5,4,5,-1,47} {9,26,31,-1,46}
				q {2,2,2,-1,49} {8,10,12,-1,52} {9,11,13,-1,51} {5,8,10,-1,50}
				q {22,27,32,-1,53} {18,20,22,-1,32} {15,17,19,-1,32} {23,28,33,-1,32}
				q {18,22,25,-1,56} {22,29,35,-1,55} {10,29,34,-1,54} {13,22,24,-1,57}
				q {8,10,12,-1,60} {12,14,16,-1,59} {23,28,33,-1,58} {11,13,15,-1,61}
				q {21,25,29,-1,59} {22,27,32,-1,32} {23,28,33,-1,63} {12,14,16,-1,62}
				q {22,29,35,-1,66} {21,26,30,-1,65} {9,26,31,-1,47} {10,29,34,-1,64}
				q {16,18,20,-1,67} {17,19,21,-1,32} {19,21,23,-1,32} {20,24,28,-1,68}
				q {23,28,33,-1,32} {15,17,19,-1,32} {25,31,37,-1,32} {24,30,36,-1,69}
				q {24,30,36,-1,74} {25,31,37,-1,32} {14,16,18,-1,76} {11,13,15,-1,75}
			}
			CTris
			{
				numTris 2
				t {14,16,18,-1,70} {25,31,37,-1,32} {15,17,19,-1,32}
				t {24,30,36,-1,73} {11,13,15,-1,72} {23,28,33,-1,71}
			}
		}
		CIwModelExtSelSetFace
		{
			name "sortForward"
			otzOfs -1

			f 0
			f 1
			f 2
			f 3
			f 4
			f 5
			f 6
			f 7
			f 8
			f 9
			f 10
			f 11
			f 12
			f 13
			f 14
			f 15
			f 16
			f 17
			f 18
			f 19
			f 20
			f 21
			f 24
			f 22
		}
	}
}
