// Source file: C:/dev/sdk/main/sdk_examples/ArtAssets/OpenGLES/maya7/env.mb
CIwModel
{
	name "tv"
	CMesh
	{
		name "tv"
		scale 10
		CVerts
		{
			numVerts 18
			v {-2036.12122,397.55341,-902.56445}
			v {-2095.55151,413.47763,-902.56445}
			v {-1777.30212,1363.47925,-902.56445}
			v {-1836.73242,1379.40332,-902.56445}
			v {-1777.30212,1363.47925,1140.25830}
			v {-1836.73242,1379.40332,1140.25830}
			v {-2036.12122,397.55341,1140.25830}
			v {-2095.55151,413.47763,1140.25830}
			v {-1966.14185,896.44055,-902.56445}
			v {-1906.71167,880.51630,-902.56445}
			v {-1906.71167,880.51630,1140.25830}
			v {-1966.14185,896.44055,1140.25830}
			v {-1836.73242,1379.40332,118.84693}
			v {-1777.30212,1363.47925,118.84693}
			v {-1906.71167,880.51630,118.84693}
			v {-2036.12122,397.55341,118.84693}
			v {-2095.55151,413.47763,118.84693}
			v {-1966.14185,896.44055,118.84693}
		}
		CVertNorms
		{
			numVertNorms 6
			vn {-0.00000,-0.00000,-1}
			vn {0.25882,0.96593,-0.00000}
			vn {0.00000,0.00000,1}
			vn {-0.25882,-0.96593,0.00000}
			vn {-0.96593,0.25882,0.00000}
			vn {0.96593,-0.25882,-0.00000}
		}
		CUVs
		{
			setID 0
			numUVs 42
			uv {0.95529,0.99603}
			uv {0.98161,0.99603}
			uv {0.98161,0.51040}
			uv {0.95529,0.51040}
			uv {0.00397,0.99603}
			uv {0.03029,0.99603}
			uv {0.03029,0.00397}
			uv {0.00397,0.00397}
			uv {0.96971,0.50134}
			uv {0.99603,0.50134}
			uv {0.99603,0.01570}
			uv {0.96971,0.01570}
			uv {0.04119,0.99603}
			uv {0.06752,0.99603}
			uv {0.06752,0.00397}
			uv {0.04119,0.00397}
			uv {0.07823,0.00397}
			uv {0.07823,0.99603}
			uv {0.50607,0.99603}
			uv {0.50607,0.00397}
			uv {0.51676,0.00397}
			uv {0.51676,0.99603}
			uv {0.94460,0.99603}
			uv {0.94460,0.00397}
			uv {0.98161,0.75321}
			uv {0.29215,0.00397}
			uv {0.73068,0.99603}
			uv {0.95529,0.75321}
			uv {0.73068,0.00397}
			uv {0.96971,0.25852}
			uv {0.99603,0.25852}
			uv {0.29215,0.99603}
			uv {0.03029,0.50000}
			uv {0.50607,0.50000}
			uv {0.94460,0.50000}
			uv {0.00397,0.50000}
			uv {0.73068,0.50000}
			uv {0.51676,0.50000}
			uv {0.04119,0.50000}
			uv {0.06752,0.50000}
			uv {0.07823,0.50000}
			uv {0.29215,0.50000}
		}
		CSurface
		{
			material "lambert5"
			CQuads
			{
				numQuads 16
				q {9,0,27,-1,-1} {8,0,24,-1,-1} {1,0,1,-1,-1} {0,0,0,-1,-1}
				q {13,1,35,-1,-1} {12,1,32,-1,-1} {3,1,5,-1,-1} {2,1,4,-1,-1}
				q {6,2,11,-1,-1} {7,2,10,-1,-1} {11,2,30,-1,-1} {10,2,29,-1,-1}
				q {0,3,15,-1,-1} {1,3,14,-1,-1} {16,3,39,-1,-1} {15,3,38,-1,-1}
				q {8,4,25,-1,-1} {17,4,41,-1,-1} {16,4,40,-1,-1} {1,4,16,-1,-1}
				q {14,5,36,-1,-1} {9,5,26,-1,-1} {0,5,21,-1,-1} {15,5,37,-1,-1}
				q {2,0,3,-1,-1} {3,0,2,-1,-1} {8,0,24,-1,-1} {9,0,27,-1,-1}
				q {13,5,34,-1,-1} {2,5,22,-1,-1} {9,5,26,-1,-1} {14,5,36,-1,-1}
				q {10,2,29,-1,-1} {11,2,30,-1,-1} {5,2,9,-1,-1} {4,2,8,-1,-1}
				q {3,4,19,-1,-1} {12,4,33,-1,-1} {17,4,41,-1,-1} {8,4,25,-1,-1}
				q {4,1,7,-1,-1} {5,1,6,-1,-1} {12,1,32,-1,-1} {13,1,35,-1,-1}
				q {4,5,23,-1,-1} {13,5,34,-1,-1} {14,5,36,-1,-1} {10,5,28,-1,-1}
				q {10,5,28,-1,-1} {14,5,36,-1,-1} {15,5,37,-1,-1} {6,5,20,-1,-1}
				q {15,3,38,-1,-1} {16,3,39,-1,-1} {7,3,13,-1,-1} {6,3,12,-1,-1}
				q {11,4,31,-1,-1} {7,4,17,-1,-1} {16,4,40,-1,-1} {17,4,41,-1,-1}
				q {5,4,18,-1,-1} {11,4,31,-1,-1} {17,4,41,-1,-1} {12,4,33,-1,-1}
			}
		}
	}
}
