// Source file: C:/dev/sdk/main/sdk_examples/ArtAssets/OpenGLES/maya7/bike.mb
CIwModel
{
	name "wheelRearL"
	CMesh
	{
		name "wheelRearL"
		scale 10
		CVerts
		{
			numVerts 82
			v {0,462.79681,-993.90613}
			v {0,575.93158,-880.77136}
			v {77.14996,573.65594,-879.45752}
			v {77.14996,461.48309,-991.63055}
			v {77.14996,308.25201,-1032.68872}
			v {0.00005,308.25211,-1035.31665}
			v {77.14996,155.02103,-991.63055}
			v {0,153.70721,-993.90594}
			v {77.14996,42.84814,-879.45752}
			v {0,40.57254,-880.77136}
			v {77.14996,1.79000,-726.22668}
			v {0.00005,-0.83756,-726.22668}
			v {77.14996,42.84814,-572.99554}
			v {0,40.57254,-571.68176}
			v {77.14996,155.02103,-460.82263}
			v {0,153.70721,-458.54706}
			v {77.14996,308.25201,-419.76453}
			v {0,308.25201,-417.13687}
			v {77.14996,461.48309,-460.82263}
			v {0,462.79681,-458.54706}
			v {77.14996,573.65594,-572.99561}
			v {0,575.93158,-571.68176}
			v {77.14996,614.71399,-726.22668}
			v {0.00005,617.34167,-726.22668}
			v {128.68697,517.38269,-846.96826}
			v {128.68697,428.99365,-935.35693}
			v {128.68697,549.73523,-726.22668}
			v {128.68697,517.38269,-605.48486}
			v {128.68697,428.99368,-517.09601}
			v {128.68697,308.25201,-484.74335}
			v {128.68697,187.51045,-517.09601}
			v {128.68697,99.12144,-605.48486}
			v {128.68697,66.76881,-726.22668}
			v {128.68697,99.12144,-846.96826}
			v {128.68697,187.51045,-935.35736}
			v {128.68697,308.25201,-967.70996}
			v {149.25174,308.25201,-726.22668}
			v {134.45496,422.25690,-923.68896}
			v {134.45496,505.71429,-840.23145}
			v {134.45496,536.26172,-726.22668}
			v {134.45465,505.71423,-612.22180}
			v {134.45465,422.25690,-528.76459}
			v {134.45496,308.25208,-498.21692}
			v {134.45496,194.24721,-528.76459}
			v {134.45496,110.78980,-612.22180}
			v {134.45496,80.24228,-726.22668}
			v {134.45496,110.78980,-840.23145}
			v {134.45496,194.24721,-923.68896}
			v {134.45496,308.25208,-954.23633}
			v {143.52539,472.07397,-726.22668}
			v {143.52539,450.12607,-808.13770}
			v {143.52539,390.16302,-868.10071}
			v {143.52539,308.25208,-890.04852}
			v {143.52539,226.34109,-868.10071}
			v {143.52539,166.37802,-808.13770}
			v {143.52539,144.43002,-726.22668}
			v {143.52539,166.37802,-644.31549}
			v {143.52539,226.34109,-584.35297}
			v {143.52539,308.25208,-562.40472}
			v {143.52509,390.16302,-584.35297}
			v {143.52509,450.12601,-644.31580}
			v {128.68697,473.18817,-891.16260}
			v {77.14996,525.58997,-943.56445}
			v {0,527.45343,-945.42792}
			v {128.68697,533.55896,-786.59741}
			v {77.14996,605.14111,-805.77783}
			v {0.00003,607.68671,-806.45984}
			v {128.68697,368.62286,-951.53351}
			v {77.14996,387.80322,-1023.11578}
			v {0.00003,388.48535,-1025.66138}
			v {128.68697,247.88124,-951.53369}
			v {77.14996,228.70085,-1023.11578}
			v {0.00003,228.01880,-1025.66138}
			v {128.68697,143.31595,-891.16284}
			v {77.14996,90.91415,-943.56445}
			v {0,89.05067,-945.42786}
			v {128.68697,143.31595,-561.29041}
			v {77.14996,90.91415,-508.88861}
			v {0,89.05067,-507.02521}
			v {128.68697,247.88124,-500.91965}
			v {77.14996,228.70085,-429.33746}
			v {0,228.01877,-426.79193}
		}
		CVertNorms
		{
			numVertNorms 70
			vn {0.03414,0.70669,-0.70669}
			vn {0.03404,0.86552,-0.49971}
			vn {0.46671,0.76592,-0.44221}
			vn {0.46554,0.62581,-0.62581}
			vn {0.46671,0.44221,-0.76592}
			vn {0.46554,0.22906,-0.85487}
			vn {0.03414,0.25867,-0.96536}
			vn {0.03404,0.49971,-0.86552}
			vn {0.46671,0.00000,-0.88441}
			vn {0.46554,-0.22906,-0.85487}
			vn {0.03414,-0.25867,-0.96536}
			vn {0.03404,-0.00000,-0.99942}
			vn {0.46671,-0.44221,-0.76592}
			vn {0.46554,-0.62581,-0.62581}
			vn {0.03414,-0.70669,-0.70669}
			vn {0.03404,-0.49971,-0.86552}
			vn {0.46003,-0.79484,-0.39572}
			vn {0.45466,-0.89066,-0.00000}
			vn {0.03404,-0.99942,-0.00000}
			vn {0.03395,-0.89880,-0.43703}
			vn {0.46003,-0.79484,0.39572}
			vn {0.03395,-0.89880,0.43703}
			vn {0.46554,-0.62581,0.62581}
			vn {0.03414,-0.70669,0.70669}
			vn {0.46671,-0.44221,0.76592}
			vn {0.46554,-0.22906,0.85487}
			vn {0.03414,-0.25867,0.96536}
			vn {0.03404,-0.49971,0.86552}
			vn {0.46003,0.05472,0.88621}
			vn {0.45466,0.44533,0.77134}
			vn {0.03404,0.49971,0.86552}
			vn {0.03395,0.07092,0.99690}
			vn {0.45466,0.77134,0.44533}
			vn {0.03404,0.86552,0.49971}
			vn {0.46003,0.88621,0.05472}
			vn {0.03395,0.99690,0.07092}
			vn {0.46554,0.85487,-0.22906}
			vn {0.03414,0.96536,-0.25867}
			vn {0.93630,0.30414,-0.17560}
			vn {0.89672,0.31296,-0.31296}
			vn {0.93322,0.35901,0.01461}
			vn {0.89672,0.42751,-0.11455}
			vn {0.93024,0.31779,0.18347}
			vn {0.93024,0.18347,0.31779}
			vn {0.93322,0.01461,0.35901}
			vn {0.93630,-0.17560,0.30414}
			vn {0.89672,-0.11455,0.42751}
			vn {0.93322,-0.31822,0.16685}
			vn {0.89672,-0.31296,0.31296}
			vn {0.93024,-0.36695,-0.00000}
			vn {0.93322,-0.31822,-0.16685}
			vn {0.93630,-0.17560,-0.30414}
			vn {0.89672,-0.31296,-0.31296}
			vn {0.93630,0.00000,-0.35119}
			vn {0.89672,-0.11455,-0.42751}
			vn {0.93630,0.17560,-0.30414}
			vn {0.89672,0.11455,-0.42751}
			vn {1,0.00000,0.00000}
			vn {0.99016,0.06996,-0.12117}
			vn {0.99016,0.12118,-0.06996}
			vn {0.99016,0.13992,0.00000}
			vn {0.99016,0.12117,0.06996}
			vn {0.99016,0.06996,0.12117}
			vn {0.99016,0.00000,0.13992}
			vn {0.99016,-0.06996,0.12117}
			vn {0.99016,-0.12117,0.06996}
			vn {0.99016,-0.13992,0.00000}
			vn {0.99016,-0.12118,-0.06996}
			vn {0.99016,-0.06996,-0.12117}
			vn {0.99016,0.00000,-0.13992}
		}
		CVertCols
		{
			numVertCols 3
			col {1,1,1,1}
			col {0.71630,0.71630,0.71630,1}
			col {0.43970,0.43970,0.43970,1}
		}
		CUVs
		{
			setID 0
			numUVs 83
			uv {0.49517,0.00750}
			uv {0.42996,0.00750}
			uv {0.42996,0.05235}
			uv {0.49517,0.05235}
			uv {0.58425,0.05235}
			uv {0.58425,0.00750}
			uv {0.67333,0.05235}
			uv {0.67333,0.00750}
			uv {0.73855,0.05235}
			uv {0.73855,0.00750}
			uv {0.82763,0.05235}
			uv {0.82763,0.00750}
			uv {0.91671,0.05235}
			uv {0.91671,0.00750}
			uv {0.98192,0.05235}
			uv {0.98192,0.00750}
			uv {0.00843,0.05235}
			uv {0.09751,0.05235}
			uv {0.09751,0.00750}
			uv {0.00843,0.00750}
			uv {0.18659,0.05235}
			uv {0.18659,0.00750}
			uv {0.25180,0.05235}
			uv {0.25180,0.00750}
			uv {0.34088,0.05235}
			uv {0.34088,0.00750}
			uv {0.30346,0.35307}
			uv {0.35905,0.29747}
			uv {0.33116,0.28137}
			uv {0.28736,0.32518}
			uv {0.37940,0.22153}
			uv {0.34720,0.22153}
			uv {0.35905,0.14559}
			uv {0.33116,0.16169}
			uv {0.30346,0.09000}
			uv {0.28736,0.11788}
			uv {0.22752,0.06965}
			uv {0.22752,0.10185}
			uv {0.15157,0.09000}
			uv {0.16768,0.11788}
			uv {0.09598,0.14559}
			uv {0.12387,0.16169}
			uv {0.07563,0.22153}
			uv {0.10784,0.22153}
			uv {0.09598,0.29747}
			uv {0.12387,0.28137}
			uv {0.15157,0.35307}
			uv {0.16768,0.32518}
			uv {0.22752,0.37342}
			uv {0.22752,0.34121}
			uv {0.22752,0.22153}
			uv {0,1}
			uv {1,1}
			uv {1,0}
			uv {0,0}
			uv {0.30926,0.30327}
			uv {0.46257,0.05235}
			uv {0.33126,0.32527}
			uv {0.46257,0.00750}
			uv {0.33918,0.25145}
			uv {0.38542,0.05235}
			uv {0.36923,0.25950}
			uv {0.38542,0.00750}
			uv {0.25744,0.33319}
			uv {0.53971,0.05235}
			uv {0.26549,0.36324}
			uv {0.53971,0.00750}
			uv {0.19760,0.33319}
			uv {0.62879,0.05235}
			uv {0.18955,0.36324}
			uv {0.62879,0.00750}
			uv {0.14577,0.30327}
			uv {0.70594,0.05235}
			uv {0.12378,0.32527}
			uv {0.70594,0.00750}
			uv {0.14577,0.13979}
			uv {0.94931,0.05235}
			uv {0.12378,0.11779}
			uv {0.94931,0.00750}
			uv {0.19760,0.10987}
			uv {0.05297,0.05235}
			uv {0.18955,0.07982}
			uv {0.05297,0.00750}
		}
		CSurface
		{
			material "phong13"
			CQuads
			{
				numQuads 12
				q {51,58,54,-1,0} {50,59,53,-1,0} {38,59,52,-1,0} {37,58,51,-1,0}
				q {50,59,54,-1,0} {49,60,53,-1,0} {39,60,52,-1,0} {38,59,51,-1,0}
				q {49,60,54,-1,0} {60,61,53,-1,0} {40,61,52,-1,0} {39,60,51,-1,0}
				q {60,61,54,-1,0} {59,62,53,-1,0} {41,62,52,-1,0} {40,61,51,-1,0}
				q {59,62,54,-1,0} {58,63,53,-1,0} {42,63,52,-1,0} {41,62,51,-1,0}
				q {58,63,54,-1,0} {57,64,53,-1,0} {43,64,52,-1,0} {42,63,51,-1,0}
				q {57,64,54,-1,0} {56,65,53,-1,0} {44,65,52,-1,0} {43,64,51,-1,0}
				q {56,65,54,-1,0} {55,66,53,-1,0} {45,66,52,-1,0} {44,65,51,-1,0}
				q {55,66,54,-1,0} {54,67,53,-1,0} {46,67,52,-1,0} {45,66,51,-1,0}
				q {54,67,54,-1,0} {53,68,53,-1,0} {47,68,52,-1,0} {46,67,51,-1,0}
				q {53,68,54,-1,0} {52,69,53,-1,0} {48,69,52,-1,0} {47,68,51,-1,0}
				q {52,69,54,-1,0} {51,58,53,-1,0} {37,58,52,-1,0} {48,69,51,-1,0}
			}
		}
		CSurface
		{
			material "phong1"
			CQuads
			{
				numQuads 45
				q {62,3,56,-1,1} {2,2,2,-1,1} {1,1,1,-1,0} {63,0,58,-1,0}
				q {68,5,64,-1,1} {3,4,3,-1,1} {0,7,0,-1,0} {69,6,66,-1,0}
				q {71,9,68,-1,1} {4,8,4,-1,1} {5,11,5,-1,0} {72,10,70,-1,0}
				q {74,13,72,-1,1} {6,12,6,-1,1} {7,15,7,-1,0} {75,14,74,-1,0}
				q {10,17,10,-1,1} {8,16,8,-1,1} {9,19,9,-1,0} {11,18,11,-1,0}
				q {13,21,13,-1,0} {12,20,12,-1,1} {10,17,10,-1,1} {11,18,11,-1,0}
				q {77,22,76,-1,1} {12,20,12,-1,1} {13,21,13,-1,0} {78,23,78,-1,0}
				q {80,25,80,-1,1} {14,24,16,-1,1} {15,27,19,-1,0} {81,26,82,-1,0}
				q {18,29,20,-1,1} {16,28,17,-1,1} {17,31,18,-1,0} {19,30,21,-1,0}
				q {20,32,22,-1,1} {18,29,20,-1,1} {19,30,21,-1,0} {21,33,23,-1,0}
				q {23,35,25,-1,0} {22,34,24,-1,1} {20,32,22,-1,1} {21,33,23,-1,0}
				q {65,36,60,-1,1} {22,34,24,-1,1} {23,35,25,-1,0} {66,37,62,-1,0}
				q {61,39,55,-1,2} {24,38,28,-1,2} {2,2,27,-1,1} {62,3,57,-1,1}
				q {64,41,59,-1,2} {26,40,31,-1,2} {22,34,30,-1,1} {65,36,61,-1,1}
				q {22,34,30,-1,1} {26,40,31,-1,2} {27,42,33,-1,2} {20,32,32,-1,1}
				q {27,42,33,-1,2} {28,43,35,-1,2} {18,29,34,-1,1} {20,32,32,-1,1}
				q {28,43,35,-1,2} {29,44,37,-1,2} {16,28,36,-1,1} {18,29,34,-1,1}
				q {79,46,79,-1,2} {30,45,39,-1,2} {14,24,38,-1,1} {80,25,81,-1,1}
				q {76,48,75,-1,2} {31,47,41,-1,2} {12,20,40,-1,1} {77,22,77,-1,1}
				q {12,20,40,-1,1} {31,47,41,-1,2} {32,49,43,-1,2} {10,17,42,-1,1}
				q {32,49,43,-1,2} {33,50,45,-1,2} {8,16,44,-1,1} {10,17,42,-1,1}
				q {73,52,71,-1,2} {34,51,47,-1,2} {6,12,46,-1,1} {74,13,73,-1,1}
				q {70,54,67,-1,2} {35,53,49,-1,2} {4,8,48,-1,1} {71,9,69,-1,1}
				q {67,56,63,-1,2} {25,55,29,-1,2} {3,4,26,-1,1} {68,5,65,-1,1}
				q {36,57,50,-1,2} {24,38,28,-1,2} {61,39,55,-1,2} {25,55,29,-1,2}
				q {36,57,50,-1,2} {26,40,31,-1,2} {64,41,59,-1,2} {24,38,28,-1,2}
				q {36,57,50,-1,2} {30,45,39,-1,2} {79,46,79,-1,2} {29,44,37,-1,2}
				q {36,57,50,-1,2} {31,47,41,-1,2} {76,48,75,-1,2} {30,45,39,-1,2}
				q {36,57,50,-1,2} {34,51,47,-1,2} {73,52,71,-1,2} {33,50,45,-1,2}
				q {36,57,50,-1,2} {35,53,49,-1,2} {70,54,67,-1,2} {34,51,47,-1,2}
				q {36,57,50,-1,2} {25,55,29,-1,2} {67,56,63,-1,2} {35,53,49,-1,2}
				q {3,4,26,-1,1} {25,55,29,-1,2} {61,39,55,-1,2} {62,3,57,-1,1}
				q {3,4,3,-1,1} {62,3,56,-1,1} {63,0,58,-1,0} {0,7,0,-1,0}
				q {2,2,27,-1,1} {24,38,28,-1,2} {64,41,59,-1,2} {65,36,61,-1,1}
				q {1,1,1,-1,0} {2,2,2,-1,1} {65,36,60,-1,1} {66,37,62,-1,0}
				q {4,8,48,-1,1} {35,53,49,-1,2} {67,56,63,-1,2} {68,5,65,-1,1}
				q {5,11,5,-1,0} {4,8,4,-1,1} {68,5,64,-1,1} {69,6,66,-1,0}
				q {6,12,46,-1,1} {34,51,47,-1,2} {70,54,67,-1,2} {71,9,69,-1,1}
				q {7,15,7,-1,0} {6,12,6,-1,1} {71,9,68,-1,1} {72,10,70,-1,0}
				q {8,16,44,-1,1} {33,50,45,-1,2} {73,52,71,-1,2} {74,13,73,-1,1}
				q {9,19,9,-1,0} {8,16,8,-1,1} {74,13,72,-1,1} {75,14,74,-1,0}
				q {14,24,38,-1,1} {30,45,39,-1,2} {76,48,75,-1,2} {77,22,77,-1,1}
				q {15,27,15,-1,0} {14,24,14,-1,1} {77,22,76,-1,1} {78,23,78,-1,0}
				q {16,28,36,-1,1} {29,44,37,-1,2} {79,46,79,-1,2} {80,25,81,-1,1}
				q {17,31,18,-1,0} {16,28,17,-1,1} {80,25,80,-1,1} {81,26,82,-1,0}
			}
			CTris
			{
				numTris 5
				t {36,57,50,-1,2} {27,42,33,-1,2} {26,40,31,-1,2}
				t {36,57,50,-1,2} {28,43,35,-1,2} {27,42,33,-1,2}
				t {36,57,50,-1,2} {29,44,37,-1,2} {28,43,35,-1,2}
				t {36,57,50,-1,2} {32,49,43,-1,2} {31,47,41,-1,2}
				t {36,57,50,-1,2} {33,50,45,-1,2} {32,49,43,-1,2}
			}
		}
	}
}
