// Source file: C:/Dev/sdk/main/sdk_examples/ArtAssets/transforms/Maya7/transforms_localVsWorld.mb
CIwModel
{
	name "transforms_localVsWorld_local"
	CMesh
	{
		name "spaceShip"
		scale 1.0
		CVerts
		{
			numVerts 78
			v {0,-50,131.99930}
			v {50,0,131.99930}
			v {15.05782,50,131.99930}
			v {50,45.02628,131.99930}
			v {15.05782,50,-22.66690}
			v {50,45.02628,-22.66690}
			v {0,-50,-22.66690}
			v {50,0,-22.66690}
			v {73.50311,0,-15.89017}
			v {73.50311,0,32.33805}
			v {73.50311,24.99900,-15.89017}
			v {73.50311,24.99900,32.33805}
			v {0.00000,-16.14708,286.66550}
			v {50,16.92646,286.66550}
			v {50,45.02628,286.66550}
			v {0.00000,50,286.66550}
			v {0.00000,50,-100}
			v {50,45.02628,-100}
			v {50,0.00000,-100}
			v {0.00000,-50,-100}
			v {5.43534,38.61929,-100}
			v {42.10201,38.61929,-100}
			v {42.10201,1.95262,-100}
			v {5.43534,-34.71405,-100}
			v {13.15805,22.78397,-73.41472}
			v {30.88027,22.78397,-73.41472}
			v {30.88027,4.66953,-73.41472}
			v {13.15805,-13.44491,-73.41472}
			v {0,50,131.99930}
			v {0,50,-22.66690}
			v {15.05782,65.98611,54.66620}
			v {15.05782,65.98611,-22.66691}
			v {-0.00000,65.98611,-22.66690}
			v {-0.00000,65.98611,54.66620}
			v {0.00000,65.98611,-100}
			v {-0.00000,-5.47306,311.88806}
			v {41.59844,18.22964,311.88809}
			v {41.59844,38.36784,311.88809}
			v {0,41.93234,311.88806}
			v {0,-50,131.99930}
			v {-50,0,131.99930}
			v {-15.05782,50,131.99930}
			v {-50,45.02628,131.99930}
			v {-15.05782,50,-22.66690}
			v {-50,45.02628,-22.66690}
			v {0,-50,-22.66690}
			v {-50,0,-22.66690}
			v {-73.50311,0,-15.89017}
			v {-73.50311,0,32.33805}
			v {-73.50311,24.99900,-15.89017}
			v {-73.50311,24.99900,32.33805}
			v {-0.00000,-16.14708,286.66550}
			v {-50,16.92646,286.66550}
			v {-50,45.02628,286.66550}
			v {-0.00000,50,286.66550}
			v {-0.00000,50,-100}
			v {-50,45.02628,-100}
			v {-50,0.00000,-100}
			v {-0.00000,-50,-100}
			v {-5.43534,38.61929,-100}
			v {-42.10201,38.61929,-100}
			v {-42.10201,1.95262,-100}
			v {-5.43534,-34.71405,-100}
			v {-13.15805,22.78397,-73.41472}
			v {-30.88027,22.78397,-73.41472}
			v {-30.88027,4.66953,-73.41472}
			v {-13.15805,-13.44491,-73.41472}
			v {0,50,131.99930}
			v {0,50,-22.66690}
			v {-15.05782,65.98611,54.66620}
			v {-15.05782,65.98611,-22.66691}
			v {0.00000,65.98611,-22.66690}
			v {0.00000,65.98611,54.66620}
			v {-0.00000,65.98611,-100}
			v {0.00000,-5.47306,311.88806}
			v {-41.59844,18.22964,311.88809}
			v {-41.59844,38.36784,311.88809}
			v {0,41.93234,311.88806}
		}
		CVertNorms
		{
			numVertNorms 34
			vn {-0.00000,0,1}
			vn {0.14092,0.99002,0.00000}
			vn {-0.00000,0,-1}
			vn {0.70711,-0.70711,0}
			vn {1,-0.00000,0}
			vn {0,-1,0}
			vn {0.27705,-0.00000,-0.96086}
			vn {0.97330,0.00000,0.22953}
			vn {0.63397,-0.76314,0.12528}
			vn {0.11631,0.99320,0.00566}
			vn {0.11631,0.99315,-0.01132}
			vn {-0.92129,0.00000,-0.38888}
			vn {-0.66672,0.66195,-0.34249}
			vn {0.96030,0.00000,-0.27896}
			vn {0.00000,1,-0.00000}
			vn {-1,-0.00000,-0.00000}
			vn {0.98157,-0.00000,-0.19112}
			vn {0.50605,-0.81643,0.27813}
			vn {0.94875,-0.00000,0.31603}
			vn {0.08875,0.95207,0.29271}
			vn {-0.14092,0.99002,0.00000}
			vn {-0.11631,0.99315,-0.01132}
			vn {-0.70711,-0.70711,0}
			vn {-0.63397,-0.76314,0.12528}
			vn {-0.97330,0.00000,0.22953}
			vn {-0.27705,-0.00000,-0.96086}
			vn {-0.50605,-0.81643,0.27813}
			vn {-0.94875,-0.00000,0.31603}
			vn {-0.11631,0.99320,0.00566}
			vn {-0.08875,0.95207,0.29271}
			vn {0.92129,0.00000,-0.38888}
			vn {0.66672,0.66195,-0.34249}
			vn {-0.96030,0.00000,-0.27896}
			vn {-0.98157,-0.00000,-0.19112}
		}
		CVertCols
		{
			numVertCols 19
			col {0,0,0,1}
			col {0.19387,0.19387,0.19387,1}
			col {0.29995,0.29995,0.29995,1}
			col {0.14142,0.14142,0.14142,1}
			col {0.29875,0.29875,0.29875,1}
			col {0.29458,0.29458,0.29458,1}
			col {0.09200,0.09200,0.09200,1}
			col {0.06748,0.06748,0.06748,1}
			col {0.00905,0.00905,0.00905,1}
			col {0.28284,0.28284,0.28284,1}
			col {0.24495,0.24495,0.24495,1}
			col {0.21158,0.21158,0.21158,1}
			col {0.35354,0.35354,0.35354,1}
			col {0.26009,0.26009,0.26009,1}
			col {0.26168,0.26168,0.26168,1}
			col {0.26586,0.26586,0.26586,1}
			col {0.32844,0.32844,0.32844,1}
			col {0.03503,0.03503,0.03503,1}
			col {0.19762,0.19762,0.19762,1}
		}
		CUVs
		{
			setID 0
			numUVs 15
			uv {0,1}
			uv {1,1}
			uv {0,0}
			uv {1,0}
			uv {0,-1}
			uv {1,-1}
			uv {0,-2}
			uv {1,-2}
			uv {0,-3}
			uv {1,-3}
			uv {2,1}
			uv {2,0}
			uv {0.30116,1}
			uv {0.15058,0}
			uv {0.15058,1}
		}
		CSurface
		{
			material "lambert1"
			CQuads
			{
				numQuads 64
				q {38,0,2,-1,10} {37,0,3,-1,10} {36,0,1,-1,10} {35,0,0,-1,10}
				q {4,1,4,-1,2} {5,1,5,-1,2} {3,1,3,-1,2} {2,1,2,-1,2}
				q {26,2,7,-1,0} {25,2,5,-1,0} {24,2,4,-1,0} {27,2,6,-1,0}
				q {0,3,8,-1,0} {1,3,9,-1,0} {7,3,7,-1,0} {6,3,6,-1,0}
				q {11,4,3,-1,3} {10,4,11,-1,3} {8,4,10,-1,3} {9,4,1,-1,3}
				q {7,3,10,-1,0} {1,3,1,-1,0} {9,5,1,-1,0} {8,5,10,-1,0}
				q {7,6,10,-1,0} {8,6,10,-1,0} {10,6,11,-1,0} {5,6,11,-1,0}
				q {11,4,3,-1,3} {3,1,3,-1,2} {5,1,11,-1,2} {10,4,11,-1,3}
				q {11,4,3,-1,3} {9,4,1,-1,3} {1,7,1,-1,1} {3,7,3,-1,1}
				q {12,8,0,-1,0} {13,8,1,-1,0} {1,3,1,-1,0} {0,3,0,-1,0}
				q {13,4,1,-1,3} {14,4,3,-1,3} {3,7,3,-1,1} {1,7,1,-1,1}
				q {2,1,2,-1,2} {3,1,3,-1,2} {14,9,3,-1,4} {15,9,2,-1,4}
				q {17,10,5,-1,5} {5,1,5,-1,2} {4,1,4,-1,2} {16,10,4,-1,5}
				q {5,4,5,-1,3} {17,4,5,-1,3} {18,4,7,-1,3} {7,3,7,-1,0}
				q {7,3,7,-1,0} {18,4,7,-1,3} {19,3,6,-1,0} {6,3,6,-1,0}
				q {16,2,4,-1,0} {20,2,4,-1,0} {21,2,5,-1,0} {17,2,5,-1,0}
				q {21,2,5,-1,0} {22,2,7,-1,0} {18,2,7,-1,0} {17,2,5,-1,0}
				q {18,2,7,-1,0} {22,2,7,-1,0} {23,2,6,-1,0} {19,2,6,-1,0}
				q {23,2,6,-1,0} {20,2,4,-1,0} {16,2,4,-1,0} {19,2,6,-1,0}
				q {20,2,4,-1,0} {24,2,4,-1,0} {25,2,5,-1,0} {21,2,5,-1,0}
				q {25,11,5,-1,0} {26,11,7,-1,0} {22,11,7,-1,0} {21,11,5,-1,0}
				q {22,11,7,-1,0} {26,11,7,-1,0} {27,12,6,-1,8} {23,12,6,-1,8}
				q {27,13,6,-1,7} {24,13,4,-1,7} {20,13,4,-1,7} {23,13,6,-1,7}
				q {33,14,2,-1,9} {32,14,3,-1,9} {31,14,1,-1,9} {30,14,0,-1,9}
				q {30,4,0,-1,3} {31,4,1,-1,3} {4,4,1,-1,3} {2,4,0,-1,3}
				q {29,15,3,-1,0} {32,15,3,-1,0} {33,15,2,-1,0} {28,15,2,-1,0}
				q {33,14,2,-1,9} {30,14,0,-1,9} {2,1,0,-1,2} {28,14,2,-1,9}
				q {31,4,12,-1,3} {34,16,2,-1,6} {16,16,2,-1,6} {4,4,12,-1,3}
				q {34,15,2,-1,0} {32,15,0,-1,0} {29,15,0,-1,0} {16,15,2,-1,0}
				q {12,8,0,-1,0} {35,17,0,-1,0} {36,17,1,-1,0} {13,8,1,-1,0}
				q {13,4,1,-1,3} {36,18,1,-1,11} {37,18,3,-1,11} {14,4,3,-1,3}
				q {37,19,3,-1,12} {38,19,2,-1,12} {15,9,2,-1,4} {14,9,3,-1,4}
				q {75,0,1,-1,10} {76,0,3,-1,10} {77,0,2,-1,10} {74,0,0,-1,10}
				q {42,20,3,-1,13} {44,21,5,-1,14} {43,20,4,-1,13} {41,14,2,-1,9}
				q {63,2,4,-1,0} {64,2,5,-1,0} {65,2,7,-1,0} {66,2,6,-1,0}
				q {46,22,7,-1,0} {40,23,9,-1,0} {39,22,8,-1,0} {45,15,6,-1,0}
				q {47,15,10,-1,0} {49,20,11,-1,13} {50,24,3,-1,0} {48,15,1,-1,0}
				q {48,22,1,-1,0} {40,23,1,-1,0} {46,22,10,-1,0} {47,5,10,-1,0}
				q {49,25,11,-1,0} {47,25,10,-1,0} {46,25,10,-1,0} {44,25,11,-1,0}
				q {44,21,11,-1,14} {42,20,3,-1,13} {50,24,3,-1,0} {49,20,11,-1,13}
				q {40,24,1,-1,0} {48,15,1,-1,0} {50,24,3,-1,0} {42,15,3,-1,0}
				q {40,23,1,-1,0} {52,26,1,-1,0} {51,23,0,-1,0} {39,22,0,-1,0}
				q {42,15,3,-1,0} {53,27,3,-1,0} {52,15,1,-1,0} {40,24,1,-1,0}
				q {53,28,3,-1,15} {42,20,3,-1,13} {41,14,2,-1,9} {54,29,2,-1,16}
				q {43,20,4,-1,13} {44,21,5,-1,14} {56,21,5,-1,14} {55,20,4,-1,13}
				q {46,22,7,-1,0} {57,22,7,-1,0} {56,22,5,-1,0} {44,15,5,-1,0}
				q {46,22,7,-1,0} {45,15,6,-1,0} {58,22,6,-1,0} {57,22,7,-1,0}
				q {60,2,5,-1,0} {59,2,4,-1,0} {55,2,4,-1,0} {56,2,5,-1,0}
				q {57,2,7,-1,0} {61,2,7,-1,0} {60,2,5,-1,0} {56,2,5,-1,0}
				q {62,2,6,-1,0} {61,2,7,-1,0} {57,2,7,-1,0} {58,2,6,-1,0}
				q {55,2,4,-1,0} {59,2,4,-1,0} {62,2,6,-1,0} {58,2,6,-1,0}
				q {64,2,5,-1,0} {63,2,4,-1,0} {59,2,4,-1,0} {60,2,5,-1,0}
				q {61,30,7,-1,17} {65,31,7,-1,18} {64,30,5,-1,17} {60,30,5,-1,17}
				q {66,31,6,-1,18} {65,31,7,-1,18} {61,30,7,-1,17} {62,30,6,-1,17}
				q {59,32,4,-1,0} {63,32,4,-1,0} {66,32,6,-1,0} {62,32,6,-1,0}
				q {70,14,1,-1,9} {71,14,3,-1,9} {72,20,2,-1,13} {69,14,0,-1,9}
				q {43,15,1,-1,0} {70,33,1,-1,0} {69,15,0,-1,0} {41,15,0,-1,0}
				q {72,4,2,-1,3} {71,4,3,-1,3} {68,4,3,-1,3} {67,4,2,-1,3}
				q {41,14,0,-1,9} {69,14,0,-1,9} {72,20,2,-1,13} {67,14,2,-1,9}
				q {55,15,2,-1,0} {73,33,2,-1,0} {70,33,12,-1,0} {43,15,12,-1,0}
				q {68,4,0,-1,3} {71,4,0,-1,3} {73,4,2,-1,3} {55,4,2,-1,3}
				q {75,26,1,-1,0} {74,23,0,-1,0} {51,23,0,-1,0} {52,26,1,-1,0}
				q {76,27,3,-1,0} {75,15,1,-1,0} {52,15,1,-1,0} {53,27,3,-1,0}
				q {54,29,2,-1,16} {77,29,2,-1,16} {76,28,3,-1,15} {53,28,3,-1,15}
			}
			CTris
			{
				numTris 4
				t {34,14,2,-1,9} {31,14,12,-1,9} {32,14,0,-1,9}
				t {15,9,14,-1,4} {28,14,13,-1,9} {2,1,2,-1,2}
				t {70,14,12,-1,9} {73,14,2,-1,9} {71,14,0,-1,9}
				t {67,14,13,-1,9} {54,29,14,-1,16} {41,14,2,-1,9}
			}
		}
	}
	CMesh
	{
		name "planet"
		scale 1.0
		CVerts
		{
			numVerts 92
			v {25,-95.10565,-18.16357}
			v {9.54915,-95.10565,-29.38927}
			v {-9.54915,-95.10565,-29.38926}
			v {-25.00000,-95.10565,-18.16356}
			v {-30.90170,-95.10565,0.00000}
			v {-25.00000,-95.10565,18.16357}
			v {-9.54915,-95.10565,29.38927}
			v {9.54915,-95.10565,29.38927}
			v {25.00000,-95.10565,18.16356}
			v {30.90170,-95.10565,0}
			v {47.55282,-80.90170,-34.54915}
			v {18.16356,-80.90170,-55.90170}
			v {-18.16357,-80.90170,-55.90170}
			v {-47.55283,-80.90170,-34.54915}
			v {-58.77852,-80.90170,0.00000}
			v {-47.55283,-80.90170,34.54915}
			v {-18.16356,-80.90170,55.90170}
			v {18.16356,-80.90170,55.90170}
			v {47.55283,-80.90170,34.54915}
			v {58.77852,-80.90170,0}
			v {65.45085,-58.77852,-47.55283}
			v {24.99999,-58.77852,-76.94209}
			v {-25.00001,-58.77852,-76.94209}
			v {-65.45085,-58.77852,-47.55282}
			v {-80.90170,-58.77852,0.00000}
			v {-65.45085,-58.77852,47.55283}
			v {-25.00000,-58.77852,76.94209}
			v {25.00000,-58.77852,76.94209}
			v {65.45085,-58.77852,47.55283}
			v {80.90170,-58.77852,0}
			v {76.94209,-30.90169,-55.90170}
			v {29.38926,-30.90169,-90.45085}
			v {-29.38927,-30.90169,-90.45084}
			v {-76.94209,-30.90169,-55.90170}
			v {-95.10565,-30.90169,0.00000}
			v {-76.94209,-30.90169,55.90170}
			v {-29.38926,-30.90169,90.45085}
			v {29.38926,-30.90169,90.45085}
			v {76.94209,-30.90169,55.90170}
			v {95.10565,-30.90169,0}
			v {80.90170,0,-58.77853}
			v {30.90169,0,-95.10565}
			v {-30.90171,0,-95.10565}
			v {-80.90170,0,-58.77852}
			v {-100,0,0.00000}
			v {-80.90170,0,58.77853}
			v {-30.90170,0,95.10565}
			v {30.90170,0,95.10565}
			v {80.90170,0,58.77852}
			v {100,0,0}
			v {76.94209,30.90169,-55.90170}
			v {29.38926,30.90169,-90.45085}
			v {-29.38927,30.90169,-90.45084}
			v {-76.94209,30.90169,-55.90170}
			v {-95.10565,30.90169,0.00000}
			v {-76.94209,30.90169,55.90170}
			v {-29.38926,30.90169,90.45085}
			v {29.38926,30.90169,90.45085}
			v {76.94209,30.90169,55.90170}
			v {95.10565,30.90169,0}
			v {65.45085,58.77852,-47.55283}
			v {24.99999,58.77852,-76.94209}
			v {-25.00001,58.77852,-76.94209}
			v {-65.45085,58.77852,-47.55282}
			v {-80.90170,58.77852,0.00000}
			v {-65.45085,58.77852,47.55283}
			v {-25.00000,58.77852,76.94209}
			v {25.00000,58.77852,76.94209}
			v {65.45085,58.77852,47.55283}
			v {80.90170,58.77852,0}
			v {47.55282,80.90170,-34.54915}
			v {18.16356,80.90170,-55.90170}
			v {-18.16357,80.90170,-55.90170}
			v {-47.55283,80.90170,-34.54915}
			v {-58.77852,80.90170,0.00000}
			v {-47.55283,80.90170,34.54915}
			v {-18.16356,80.90170,55.90170}
			v {18.16356,80.90170,55.90170}
			v {47.55283,80.90170,34.54915}
			v {58.77852,80.90170,0}
			v {25,95.10565,-18.16357}
			v {9.54915,95.10565,-29.38927}
			v {-9.54915,95.10565,-29.38926}
			v {-25.00000,95.10565,-18.16356}
			v {-30.90170,95.10565,0.00000}
			v {-25.00000,95.10565,18.16357}
			v {-9.54915,95.10565,29.38927}
			v {9.54915,95.10565,29.38927}
			v {25.00000,95.10565,18.16356}
			v {30.90170,95.10565,0}
			v {0,-100,0}
			v {0,100,0}
		}
		CVertNorms
		{
			numVertNorms 100
			vn {0.27758,-0.88147,-0.38205}
			vn {-0.00000,-0.88147,-0.47224}
			vn {-0.27758,-0.88147,-0.38205}
			vn {-0.44913,-0.88147,-0.14593}
			vn {-0.44913,-0.88147,0.14593}
			vn {-0.27758,-0.88147,0.38205}
			vn {0.00000,-0.88147,0.47224}
			vn {0.27758,-0.88147,0.38205}
			vn {0.44913,-0.88147,0.14593}
			vn {0.44913,-0.88147,-0.14593}
			vn {0.42592,-0.68915,-0.58623}
			vn {-0.00000,-0.68915,-0.72462}
			vn {-0.42592,-0.68915,-0.58623}
			vn {-0.68915,-0.68915,-0.22392}
			vn {-0.68915,-0.68915,0.22392}
			vn {-0.42592,-0.68915,0.58623}
			vn {-0.00000,-0.68915,0.72462}
			vn {0.42592,-0.68915,0.58623}
			vn {0.68915,-0.68915,0.22392}
			vn {0.68915,-0.68915,-0.22392}
			vn {0.52895,-0.43608,-0.72804}
			vn {-0.00000,-0.43608,-0.89991}
			vn {-0.52895,-0.43608,-0.72804}
			vn {-0.85586,-0.43608,-0.27809}
			vn {-0.85586,-0.43608,0.27809}
			vn {-0.52895,-0.43608,0.72804}
			vn {0.00000,-0.43608,0.89991}
			vn {0.52895,-0.43608,0.72804}
			vn {0.85586,-0.43608,0.27809}
			vn {0.85586,-0.43608,-0.27809}
			vn {0.58123,-0.14895,-0.79999}
			vn {-0.00000,-0.14895,-0.98884}
			vn {-0.58123,-0.14895,-0.79999}
			vn {-0.94045,-0.14895,-0.30557}
			vn {-0.94045,-0.14895,0.30557}
			vn {-0.58123,-0.14895,0.79999}
			vn {-0.00000,-0.14895,0.98884}
			vn {0.58123,-0.14895,0.79999}
			vn {0.94045,-0.14895,0.30557}
			vn {0.94045,-0.14895,-0.30557}
			vn {0.58123,0.14895,-0.79999}
			vn {-0.00000,0.14895,-0.98884}
			vn {-0.58123,0.14895,-0.79999}
			vn {-0.94045,0.14895,-0.30557}
			vn {-0.94045,0.14895,0.30557}
			vn {-0.58123,0.14895,0.79999}
			vn {-0.00000,0.14895,0.98884}
			vn {0.58123,0.14895,0.79999}
			vn {0.94045,0.14895,0.30557}
			vn {0.94045,0.14895,-0.30557}
			vn {0.52895,0.43608,-0.72804}
			vn {-0.00000,0.43608,-0.89991}
			vn {-0.52895,0.43608,-0.72804}
			vn {-0.85586,0.43608,-0.27809}
			vn {-0.85586,0.43608,0.27809}
			vn {-0.52895,0.43608,0.72804}
			vn {0.00000,0.43608,0.89991}
			vn {0.52895,0.43608,0.72804}
			vn {0.85586,0.43608,0.27809}
			vn {0.85586,0.43608,-0.27809}
			vn {0.42592,0.68915,-0.58623}
			vn {-0.00000,0.68915,-0.72462}
			vn {-0.42592,0.68915,-0.58623}
			vn {-0.68915,0.68915,-0.22392}
			vn {-0.68915,0.68915,0.22392}
			vn {-0.42592,0.68915,0.58623}
			vn {-0.00000,0.68915,0.72462}
			vn {0.42592,0.68915,0.58623}
			vn {0.68915,0.68915,0.22392}
			vn {0.68915,0.68915,-0.22392}
			vn {0.27758,0.88147,-0.38205}
			vn {-0.00000,0.88147,-0.47224}
			vn {-0.27758,0.88147,-0.38205}
			vn {-0.44913,0.88147,-0.14593}
			vn {-0.44913,0.88147,0.14593}
			vn {-0.27758,0.88147,0.38205}
			vn {0.00000,0.88147,0.47224}
			vn {0.27758,0.88147,0.38205}
			vn {0.44913,0.88147,0.14593}
			vn {0.44913,0.88147,-0.14593}
			vn {0.09656,-0.98641,-0.13290}
			vn {-0.00000,-0.98641,-0.16427}
			vn {-0.09656,-0.98641,-0.13290}
			vn {-0.15623,-0.98641,-0.05076}
			vn {-0.15623,-0.98641,0.05076}
			vn {-0.09656,-0.98641,0.13290}
			vn {-0.00000,-0.98641,0.16427}
			vn {0.09656,-0.98641,0.13290}
			vn {0.15623,-0.98641,0.05076}
			vn {0.15623,-0.98641,-0.05076}
			vn {0.09656,0.98641,-0.13290}
			vn {-0.00000,0.98641,-0.16427}
			vn {-0.09656,0.98641,-0.13290}
			vn {-0.15623,0.98641,-0.05076}
			vn {-0.15623,0.98641,0.05076}
			vn {-0.09656,0.98641,0.13290}
			vn {0.00000,0.98641,0.16427}
			vn {0.09656,0.98641,0.13290}
			vn {0.15623,0.98641,0.05076}
			vn {0.15623,0.98641,-0.05076}
		}
		CVertCols
		{
			numVertCols 51
			col {0,0,0,1}
			col {0.00891,0.00891,0.00891,1}
			col {0.09709,0.09709,0.09709,1}
			col {0.12979,0.12979,0.12979,1}
			col {0.06581,0.06581,0.06581,1}
			col {0.01602,0.01602,0.01602,1}
			col {0.07163,0.07163,0.07163,1}
			col {0.20009,0.20009,0.20009,1}
			col {0.23603,0.23603,0.23603,1}
			col {0.16572,0.16572,0.16572,1}
			col {0.10028,0.10028,0.10028,1}
			col {0.15589,0.15589,0.15589,1}
			col {0.28435,0.28435,0.28435,1}
			col {0.32029,0.32029,0.32029,1}
			col {0.24998,0.24998,0.24998,1}
			col {0.01982,0.01982,0.01982,1}
			col {0.17626,0.17626,0.17626,1}
			col {0.07042,0.07042,0.07042,1}
			col {0.22687,0.22687,0.22687,1}
			col {0.34377,0.34377,0.34377,1}
			col {0.37648,0.37648,0.37648,1}
			col {0.31250,0.31250,0.31250,1}
			col {0.11156,0.11156,0.11156,1}
			col {0.23753,0.23753,0.23753,1}
			col {0.01743,0.01743,0.01743,1}
			col {0.04261,0.04261,0.04261,1}
			col {0.15231,0.15231,0.15231,1}
			col {0.27828,0.27828,0.27828,1}
			col {0.37242,0.37242,0.37242,1}
			col {0.39875,0.39875,0.39875,1}
			col {0.34723,0.34723,0.34723,1}
			col {0.19499,0.19499,0.19499,1}
			col {0.27709,0.27709,0.27709,1}
			col {0.13364,0.13364,0.13364,1}
			col {0.11648,0.11648,0.11648,1}
			col {0.15005,0.15005,0.15005,1}
			col {0.22155,0.22155,0.22155,1}
			col {0.30364,0.30364,0.30364,1}
			col {0.36499,0.36499,0.36499,1}
			col {0.38216,0.38216,0.38216,1}
			col {0.34858,0.34858,0.34858,1}
			col {0.26010,0.26010,0.26010,1}
			col {0.28866,0.28866,0.28866,1}
			col {0.23876,0.23876,0.23876,1}
			col {0.23279,0.23279,0.23279,1}
			col {0.24447,0.24447,0.24447,1}
			col {0.26934,0.26934,0.26934,1}
			col {0.29790,0.29790,0.29790,1}
			col {0.31924,0.31924,0.31924,1}
			col {0.32521,0.32521,0.32521,1}
			col {0.31353,0.31353,0.31353,1}
		}
		CUVs
		{
			setID 0
			numUVs 101
			uv {0,0.90000}
			uv {0.10000,0.90000}
			uv {0.20000,0.90000}
			uv {0.30000,0.90000}
			uv {0.40000,0.90000}
			uv {0.50000,0.90000}
			uv {0.60000,0.90000}
			uv {0.70000,0.90000}
			uv {0.80000,0.90000}
			uv {0.90000,0.90000}
			uv {1.00000,0.90000}
			uv {0,0.80000}
			uv {0.10000,0.80000}
			uv {0.20000,0.80000}
			uv {0.30000,0.80000}
			uv {0.40000,0.80000}
			uv {0.50000,0.80000}
			uv {0.60000,0.80000}
			uv {0.70000,0.80000}
			uv {0.80000,0.80000}
			uv {0.90000,0.80000}
			uv {1.00000,0.80000}
			uv {0,0.70000}
			uv {0.10000,0.70000}
			uv {0.20000,0.70000}
			uv {0.30000,0.70000}
			uv {0.40000,0.70000}
			uv {0.50000,0.70000}
			uv {0.60000,0.70000}
			uv {0.70000,0.70000}
			uv {0.80000,0.70000}
			uv {0.90000,0.70000}
			uv {1.00000,0.70000}
			uv {0,0.60000}
			uv {0.10000,0.60000}
			uv {0.20000,0.60000}
			uv {0.30000,0.60000}
			uv {0.40000,0.60000}
			uv {0.50000,0.60000}
			uv {0.60000,0.60000}
			uv {0.70000,0.60000}
			uv {0.80000,0.60000}
			uv {0.90000,0.60000}
			uv {1.00000,0.60000}
			uv {0,0.50000}
			uv {0.10000,0.50000}
			uv {0.20000,0.50000}
			uv {0.30000,0.50000}
			uv {0.40000,0.50000}
			uv {0.50000,0.50000}
			uv {0.60000,0.50000}
			uv {0.70000,0.50000}
			uv {0.80000,0.50000}
			uv {0.90000,0.50000}
			uv {1.00000,0.50000}
			uv {0,0.40000}
			uv {0.10000,0.40000}
			uv {0.20000,0.40000}
			uv {0.30000,0.40000}
			uv {0.40000,0.40000}
			uv {0.50000,0.40000}
			uv {0.60000,0.40000}
			uv {0.70000,0.40000}
			uv {0.80000,0.40000}
			uv {0.90000,0.40000}
			uv {1.00000,0.40000}
			uv {0,0.30000}
			uv {0.10000,0.30000}
			uv {0.20000,0.30000}
			uv {0.30000,0.30000}
			uv {0.40000,0.30000}
			uv {0.50000,0.30000}
			uv {0.60000,0.30000}
			uv {0.70000,0.30000}
			uv {0.80000,0.30000}
			uv {0.90000,0.30000}
			uv {1.00000,0.30000}
			uv {0,0.20000}
			uv {0.10000,0.20000}
			uv {0.20000,0.20000}
			uv {0.30000,0.20000}
			uv {0.40000,0.20000}
			uv {0.50000,0.20000}
			uv {0.60000,0.20000}
			uv {0.70000,0.20000}
			uv {0.80000,0.20000}
			uv {0.90000,0.20000}
			uv {1.00000,0.20000}
			uv {0,0.10000}
			uv {0.10000,0.10000}
			uv {0.20000,0.10000}
			uv {0.30000,0.10000}
			uv {0.40000,0.10000}
			uv {0.50000,0.10000}
			uv {0.60000,0.10000}
			uv {0.70000,0.10000}
			uv {0.80000,0.10000}
			uv {0.90000,0.10000}
			uv {1.00000,0.10000}
			uv {0.50000,1}
			uv {0.50000,0}
		}
		CSurface
		{
			material "lambert1"
			CQuads
			{
				numQuads 80
				q {1,0,1,-1,0} {0,0,0,-1,0} {10,0,11,-1,0} {11,0,12,-1,0}
				q {2,1,2,-1,0} {1,1,1,-1,0} {11,1,12,-1,0} {12,1,13,-1,0}
				q {3,2,3,-1,0} {2,2,2,-1,0} {12,2,13,-1,0} {13,2,14,-1,0}
				q {4,3,4,-1,0} {3,3,3,-1,0} {13,3,14,-1,0} {14,3,15,-1,0}
				q {5,4,5,-1,0} {4,4,4,-1,0} {14,4,15,-1,0} {15,4,16,-1,0}
				q {6,5,6,-1,0} {5,5,5,-1,0} {15,5,16,-1,0} {16,5,17,-1,0}
				q {7,6,7,-1,0} {6,6,6,-1,0} {16,6,17,-1,0} {17,6,18,-1,0}
				q {8,7,8,-1,0} {7,7,7,-1,0} {17,7,18,-1,0} {18,7,19,-1,0}
				q {9,8,9,-1,0} {8,8,8,-1,0} {18,8,19,-1,0} {19,8,20,-1,0}
				q {0,9,10,-1,0} {9,9,9,-1,0} {19,9,20,-1,0} {10,9,21,-1,0}
				q {11,10,12,-1,0} {10,10,11,-1,0} {20,10,22,-1,0} {21,10,23,-1,0}
				q {12,11,13,-1,0} {11,11,12,-1,0} {21,11,23,-1,0} {22,11,24,-1,0}
				q {13,12,14,-1,0} {12,12,13,-1,0} {22,12,24,-1,0} {23,12,25,-1,0}
				q {14,13,15,-1,0} {13,13,14,-1,0} {23,13,25,-1,0} {24,13,26,-1,0}
				q {15,14,16,-1,0} {14,14,15,-1,0} {24,14,26,-1,0} {25,14,27,-1,0}
				q {16,15,17,-1,0} {15,15,16,-1,0} {25,15,27,-1,0} {26,15,28,-1,0}
				q {17,16,18,-1,0} {16,16,17,-1,0} {26,16,28,-1,0} {27,16,29,-1,0}
				q {18,17,19,-1,1} {17,17,18,-1,1} {27,17,29,-1,1} {28,17,30,-1,1}
				q {19,18,20,-1,0} {18,18,19,-1,0} {28,18,30,-1,0} {29,18,31,-1,0}
				q {10,19,21,-1,0} {19,19,20,-1,0} {29,19,31,-1,0} {20,19,32,-1,0}
				q {21,20,23,-1,0} {20,20,22,-1,0} {30,20,33,-1,0} {31,20,34,-1,0}
				q {22,21,24,-1,0} {21,21,23,-1,0} {31,21,34,-1,0} {32,21,35,-1,0}
				q {23,22,25,-1,0} {22,22,24,-1,0} {32,22,35,-1,0} {33,22,36,-1,0}
				q {24,23,26,-1,0} {23,23,25,-1,0} {33,23,36,-1,0} {34,23,37,-1,0}
				q {25,24,27,-1,0} {24,24,26,-1,0} {34,24,37,-1,0} {35,24,38,-1,0}
				q {26,25,28,-1,0} {25,25,27,-1,0} {35,25,38,-1,0} {36,25,39,-1,0}
				q {27,26,29,-1,2} {26,26,28,-1,2} {36,26,39,-1,2} {37,26,40,-1,2}
				q {28,27,30,-1,3} {27,27,29,-1,3} {37,27,40,-1,3} {38,27,41,-1,3}
				q {29,28,31,-1,4} {28,28,30,-1,4} {38,28,41,-1,4} {39,28,42,-1,4}
				q {20,29,32,-1,0} {29,29,31,-1,0} {39,29,42,-1,0} {30,29,43,-1,0}
				q {31,30,34,-1,0} {30,30,33,-1,0} {40,30,44,-1,0} {41,30,45,-1,0}
				q {32,31,35,-1,0} {31,31,34,-1,0} {41,31,45,-1,0} {42,31,46,-1,0}
				q {33,32,36,-1,0} {32,32,35,-1,0} {42,32,46,-1,0} {43,32,47,-1,0}
				q {34,33,37,-1,0} {33,33,36,-1,0} {43,33,47,-1,0} {44,33,48,-1,0}
				q {35,34,38,-1,0} {34,34,37,-1,0} {44,34,48,-1,0} {45,34,49,-1,0}
				q {36,35,39,-1,6} {35,35,38,-1,6} {45,35,49,-1,6} {46,35,50,-1,6}
				q {37,36,40,-1,7} {36,36,39,-1,7} {46,36,50,-1,7} {47,36,51,-1,7}
				q {38,37,41,-1,8} {37,37,40,-1,8} {47,37,51,-1,8} {48,37,52,-1,8}
				q {39,38,42,-1,9} {38,38,41,-1,9} {48,38,52,-1,9} {49,38,53,-1,9}
				q {30,39,43,-1,5} {39,39,42,-1,5} {49,39,53,-1,5} {40,39,54,-1,5}
				q {50,40,55,-1,0} {51,40,56,-1,0} {41,40,45,-1,0} {40,40,44,-1,0}
				q {51,41,56,-1,0} {52,41,57,-1,0} {42,41,46,-1,0} {41,41,45,-1,0}
				q {52,42,57,-1,0} {53,42,58,-1,0} {43,42,47,-1,0} {42,42,46,-1,0}
				q {53,43,58,-1,0} {54,43,59,-1,0} {44,43,48,-1,0} {43,43,47,-1,0}
				q {54,44,59,-1,0} {55,44,60,-1,0} {45,44,49,-1,0} {44,44,48,-1,0}
				q {55,45,60,-1,11} {56,45,61,-1,11} {46,45,50,-1,11} {45,45,49,-1,11}
				q {56,46,61,-1,12} {57,46,62,-1,12} {47,46,51,-1,12} {46,46,50,-1,12}
				q {57,47,62,-1,13} {58,47,63,-1,13} {48,47,52,-1,13} {47,47,51,-1,13}
				q {58,48,63,-1,14} {59,48,64,-1,14} {49,48,53,-1,14} {48,48,52,-1,14}
				q {59,49,64,-1,10} {50,49,65,-1,10} {40,49,54,-1,10} {49,49,53,-1,10}
				q {60,50,66,-1,15} {61,50,67,-1,15} {51,50,56,-1,15} {50,50,55,-1,15}
				q {61,51,67,-1,0} {62,51,68,-1,0} {52,51,57,-1,0} {51,51,56,-1,0}
				q {62,52,68,-1,0} {63,52,69,-1,0} {53,52,58,-1,0} {52,52,57,-1,0}
				q {63,53,69,-1,0} {64,53,70,-1,0} {54,53,59,-1,0} {53,53,58,-1,0}
				q {64,54,70,-1,17} {65,54,71,-1,17} {55,54,60,-1,17} {54,54,59,-1,17}
				q {65,55,71,-1,18} {66,55,72,-1,18} {56,55,61,-1,18} {55,55,60,-1,18}
				q {66,56,72,-1,19} {67,56,73,-1,19} {57,56,62,-1,19} {56,56,61,-1,19}
				q {67,57,73,-1,20} {68,57,74,-1,20} {58,57,63,-1,20} {57,57,62,-1,20}
				q {68,58,74,-1,21} {69,58,75,-1,21} {59,58,64,-1,21} {58,58,63,-1,21}
				q {69,59,75,-1,16} {60,59,76,-1,16} {50,59,65,-1,16} {59,59,64,-1,16}
				q {70,60,77,-1,22} {71,60,78,-1,22} {61,60,67,-1,22} {60,60,66,-1,22}
				q {71,61,78,-1,24} {72,61,79,-1,24} {62,61,68,-1,24} {61,61,67,-1,24}
				q {72,62,79,-1,0} {73,62,80,-1,0} {63,62,69,-1,0} {62,62,68,-1,0}
				q {73,63,80,-1,25} {74,63,81,-1,25} {64,63,70,-1,25} {63,63,69,-1,25}
				q {74,64,81,-1,26} {75,64,82,-1,26} {65,64,71,-1,26} {64,64,70,-1,26}
				q {75,65,82,-1,27} {76,65,83,-1,27} {66,65,72,-1,27} {65,65,71,-1,27}
				q {76,66,83,-1,28} {77,66,84,-1,28} {67,66,73,-1,28} {66,66,72,-1,28}
				q {77,67,84,-1,29} {78,67,85,-1,29} {68,67,74,-1,29} {67,67,73,-1,29}
				q {78,68,85,-1,30} {79,68,86,-1,30} {69,68,75,-1,30} {68,68,74,-1,30}
				q {79,69,86,-1,23} {70,69,87,-1,23} {60,69,76,-1,23} {69,69,75,-1,23}
				q {80,70,88,-1,31} {81,70,89,-1,31} {71,70,78,-1,31} {70,70,77,-1,31}
				q {81,71,89,-1,33} {82,71,90,-1,33} {72,71,79,-1,33} {71,71,78,-1,33}
				q {82,72,90,-1,34} {83,72,91,-1,34} {73,72,80,-1,34} {72,72,79,-1,34}
				q {83,73,91,-1,35} {84,73,92,-1,35} {74,73,81,-1,35} {73,73,80,-1,35}
				q {84,74,92,-1,36} {85,74,93,-1,36} {75,74,82,-1,36} {74,74,81,-1,36}
				q {85,75,93,-1,37} {86,75,94,-1,37} {76,75,83,-1,37} {75,75,82,-1,37}
				q {86,76,94,-1,38} {87,76,95,-1,38} {77,76,84,-1,38} {76,76,83,-1,38}
				q {87,77,95,-1,39} {88,77,96,-1,39} {78,77,85,-1,39} {77,77,84,-1,39}
				q {88,78,96,-1,40} {89,78,97,-1,40} {79,78,86,-1,40} {78,78,85,-1,40}
				q {89,79,97,-1,32} {80,79,98,-1,32} {70,79,87,-1,32} {79,79,86,-1,32}
			}
			CTris
			{
				numTris 20
				t {90,80,99,-1,0} {0,80,0,-1,0} {1,80,1,-1,0}
				t {90,81,99,-1,0} {1,81,1,-1,0} {2,81,2,-1,0}
				t {90,82,99,-1,0} {2,82,2,-1,0} {3,82,3,-1,0}
				t {90,83,99,-1,0} {3,83,3,-1,0} {4,83,4,-1,0}
				t {90,84,99,-1,0} {4,84,4,-1,0} {5,84,5,-1,0}
				t {90,85,99,-1,0} {5,85,5,-1,0} {6,85,6,-1,0}
				t {90,86,99,-1,0} {6,86,6,-1,0} {7,86,7,-1,0}
				t {90,87,99,-1,0} {7,87,7,-1,0} {8,87,8,-1,0}
				t {90,88,99,-1,0} {8,88,8,-1,0} {9,88,9,-1,0}
				t {90,89,99,-1,0} {9,89,9,-1,0} {0,89,10,-1,0}
				t {91,90,100,-1,41} {81,90,89,-1,41} {80,90,88,-1,41}
				t {91,91,100,-1,43} {82,91,90,-1,43} {81,91,89,-1,43}
				t {91,92,100,-1,44} {83,92,91,-1,44} {82,92,90,-1,44}
				t {91,93,100,-1,45} {84,93,92,-1,45} {83,93,91,-1,45}
				t {91,94,100,-1,46} {85,94,93,-1,46} {84,94,92,-1,46}
				t {91,95,100,-1,47} {86,95,94,-1,47} {85,95,93,-1,47}
				t {91,96,100,-1,48} {87,96,95,-1,48} {86,96,94,-1,48}
				t {91,97,100,-1,49} {88,97,96,-1,49} {87,97,95,-1,49}
				t {91,98,100,-1,50} {89,98,97,-1,50} {88,98,96,-1,50}
				t {91,99,100,-1,42} {80,99,98,-1,42} {89,99,97,-1,42}
			}
		}
	}
}
