// Source file: C:/Dev/sdk/main/sdk_examples/ArtAssets/transforms/Maya7/transforms_localVsWorld.mb
CIwMaterial
{
	name "transforms_localVsWorld_local/lambert1"
	colAmbient {127,127,127}
	colDiffuse {127,127,127}
}
