// Source file: C:/Dev/dev/main/sdk_examples/ExamplesArtAssets/combatEva/Maya7/combatEva_SubAnim.mb
// Exported By: barclay on 12/12/06 11:14:13

CIwAnim
{
	skeleton "combatEva_rig"
	// Keyframe# 1
	CIwAnimKeyFrame
	{
		time 0
		bone "Bake_RArmJoint"
		pos {-19.66962,-7.15149,-2.14289}
		rot {0.16327,-0.76200,-0.62045,-0.08793}
		
		bone "Bake_RElbowJoint"
		pos {-42.27629,-0.99098,6.52934}
		rot {0.93723,-0.02287,-0.34632,-0.03373}
		
		bone "Bake_RWristJoint"
		pos {-50.14447,0.69247,2.14966}
		rot {-0.98961,0.08316,-0.11440,0.02583}
		
		bone "Bake_RHandJoint"
		pos {-17.48486,-0.54039,-3.53060}
		rot {1,0,0,0}
		
		bone "Bake_RIndexJoint1"
		pos {-9.08339,1.40164,-8.94563}
		rot {0.95954,0,-0.28158,0}
		
		bone "Bake_RIndexJoint2"
		pos {-3.15429,1.28809,-0.05863}
		rot {1,0,0,0}
		
	}
	// Keyframe# 31
	CIwAnimKeyFrame
	{
		time 1
		bone "Bake_RArmJoint"
		pos {-19.66962,-7.15149,-2.14289}
		rot {-0.56327,-0.65111,-0.31457,0.39978}
		
		bone "Bake_RElbowJoint"
		pos {-42.27629,-0.99098,6.52934}
		rot {0.69695,-0.07553,-0.70920,-0.07475}
		
		bone "Bake_RWristJoint"
		pos {-50.14447,0.69247,2.14966}
		rot {-0.95087,0.07442,0.10019,0.28334}
		
		bone "Bake_RHandJoint"
		pos {-17.48486,-0.54039,-3.53060}
		rot {1,0,0,0}
		
		bone "Bake_RIndexJoint1"
		pos {-9.08339,1.40164,-8.94563}
		rot {0.95954,0,-0.28158,0}
		
		bone "Bake_RIndexJoint2"
		pos {-3.15429,1.28809,-0.05863}
		rot {1,0,0,0}
		
	}
}
