// Source file: C:/Dev/sdk/main/sdk_examples/ArtAssets/combatEva/Maya7/combatEva_anim.mb
CIwAnim
{
	skeleton "combatEva_rig"
	// Keyframe# 1
	CIwAnimKeyFrame
	{
		time 0
		bone "Bake_Root"
		pos {-1.54198,155.85260,-24.63161}
		rot {0.92232,0.11409,-0.36914,-0.00690}
		
		bone "Bake_LHipJoint"
		pos {10.25721,-0.75053,-0.04712}
		rot {0.76027,-0.12191,-0.47484,0.42620}
		
		bone "Bake_LkneeJoint"
		pos {-0.14960,-67.56652,-1.82043}
		rot {0.73422,0.18187,0.62858,-0.18091}
		
		bone "Bake_LFootJoint"
		pos {-1.01281,-88.94061,-17.48746}
		rot {0.98255,0.04019,-0.07113,-0.16710}
		
		bone "Bake_LToeJoint"
		pos {3.56225,-13.99475,19.48160}
		rot {1,0,0,0}
		
		bone "Bake_LowerChestJoint"
		pos {0.95091,18.34586,3.38756}
		rot {0.99276,0.07350,-0.09101,0.02743}
		
		bone "Bake_UpperChestJoint"
		pos {0.00000,24.78663,-7.59820}
		rot {0.98846,-0.02432,-0.14790,-0.02208}
		
		bone "Bake_NeckJoint"
		pos {0.00000,31.59111,-5.27135}
		rot {0.99302,0.04643,-0.03687,0.10198}
		
		bone "Bake_HeadJoint"
		pos {-0.44766,10.05922,-0.21358}
		rot {0.82862,-0.11927,0.53304,-0.12260}
		
		bone "Bake_LArmJoint"
		pos {19.48325,-7.55507,-2.14288}
		rot {0.75261,-0.07374,0.31004,-0.57621}
		
		bone "Bake_LElbowJoint"
		pos {42.31713,0.91269,-3.22190}
		rot {0.55883,-0.06814,-0.82488,-0.05135}
		
		bone "Bake_LWristJoint"
		pos {45.82855,-0.15845,-0.64145}
		rot {0.82088,0.57083,-0.01513,-0.00916}
		
		bone "Bake_LHandJoint"
		pos {17.20187,0.36681,1.97759}
		rot {0.94744,-0.00036,0.04101,-0.31731}
		
		bone "Bake_LIndexJoint1"
		pos {12.24180,-1.31958,7.40454}
		rot {0.97194,-0.02275,-0.20882,-0.10589}
		
		bone "Bake_LIndex2"
		pos {6.17497,-0.57475,0.66466}
		rot {0.97769,0.00013,0.21006,0.00059}
		
		bone "Bake_RArmJoint"
		pos {-19.66962,-7.15149,-2.14289}
		rot {0.15640,-0.85897,-0.48737,-0.01353}
		
		bone "Bake_RElbowJoint"
		pos {-42.27629,-0.99098,6.52934}
		rot {0.66953,-0.08096,-0.73438,-0.07659}
		
		bone "Bake_RWristJoint"
		pos {-50.14447,0.69247,2.14966}
		rot {-0.76614,-0.64038,-0.00517,-0.05389}
		
		bone "Bake_RHandJoint"
		pos {-17.48486,-0.54039,-3.53060}
		rot {0.99248,0,0,-0.12237}
		
		bone "Bake_RIndexJoint1"
		pos {-9.08339,1.40164,-8.94563}
		rot {0.95954,0,-0.28158,0}
		
		bone "Bake_RIndexJoint2"
		pos {-3.15429,1.28809,-0.05863}
		rot {1,0,0,0}
		
		bone "Bake_RHipJoint"
		pos {-9.27856,-0.75055,-0.04712}
		rot {-0.05244,-0.65513,0.21095,0.72357}
		
		bone "Bake_RkneeJoint"
		pos {0.14961,67.56638,1.82040}
		rot {0.73598,0.18199,0.62658,-0.18058}
		
		bone "Bake_RFootJoint"
		pos {1.01277,88.94075,17.48746}
		rot {-0.97774,0.04569,-0.05428,0.19744}
		
		bone "Bake_RToeJoint"
		pos {-3.56224,13.99474,-19.48161}
		rot {0.99262,-0.12126,0,0}
		
	}
	// Keyframe# 3
	CIwAnimKeyFrame
	{
		time 0.06667
		bone "Bake_Root"
		pos {2.59372,160.21942,-24.63161}
		rot {0.92958,0.08470,-0.35843,0.01539}
		
		bone "Bake_LHipJoint"
		pos {10.25721,-0.75053,-0.04712}
		rot {0.69523,-0.19513,-0.48749,0.49085}
		
		bone "Bake_LkneeJoint"
		pos {-0.14960,-67.56652,-1.82043}
		rot {0.69383,0.29087,0.59147,-0.29010}
		
		bone "Bake_LFootJoint"
		pos {-1.01281,-88.94061,-17.48746}
		rot {0.98254,0.01136,-0.05883,-0.17611}
		
		bone "Bake_LArmJoint"
		pos {19.48325,-7.55507,-2.14288}
		rot {0.72519,-0.04076,0.30584,-0.61555}
		
		bone "Bake_LElbowJoint"
		pos {42.31713,0.91269,-3.22190}
		rot {0.59506,-0.06345,-0.79953,-0.05129}
		
		bone "Bake_LWristJoint"
		pos {45.82855,-0.15845,-0.64145}
		rot {0.82475,0.56171,-0.06494,0.00742}
		
		bone "Bake_RArmJoint"
		pos {-19.66962,-7.15149,-2.14289}
		rot {0.13199,-0.86437,-0.48213,-0.05475}
		
		bone "Bake_RElbowJoint"
		pos {-42.27629,-0.99098,6.52934}
		rot {0.70690,-0.07353,-0.69958,-0.07398}
		
		bone "Bake_RWristJoint"
		pos {-50.14447,0.69247,2.14966}
		rot {-0.74063,-0.66653,0.03532,-0.07721}
		
		bone "Bake_RHipJoint"
		pos {-9.27856,-0.75055,-0.04712}
		rot {0.01987,-0.62189,0.18162,0.76149}
		
		bone "Bake_RkneeJoint"
		pos {0.14961,67.56638,1.82040}
		rot {0.74958,0.12421,0.63848,-0.12269}
		
		bone "Bake_RFootJoint"
		pos {1.01277,88.94075,17.48746}
		rot {-0.97027,0.01475,-0.12500,0.20674}
		
		bone "Bake_RToeJoint"
		pos {-3.56224,13.99474,-19.48161}
		rot {0.99262,-0.12126,0,0}
		
	}
	// Keyframe# 4
	CIwAnimKeyFrame
	{
		time 0.10000
		bone "Bake_Root"
		pos {4.04121,156.50237,-24.63161}
		rot {0.92948,0.08521,-0.35859,0.01501}
		
		bone "Bake_LHipJoint"
		pos {10.25721,-0.75053,-0.04712}
		rot {0.70271,-0.18734,-0.48169,0.48896}
		
		bone "Bake_LkneeJoint"
		pos {-0.14960,-67.56652,-1.82043}
		rot {0.71089,0.25123,0.60731,-0.25039}
		
		bone "Bake_LFootJoint"
		pos {-1.01281,-88.94061,-17.48746}
		rot {0.97895,0.06337,-0.05903,-0.18480}
		
		bone "Bake_LArmJoint"
		pos {19.48325,-7.55507,-2.14288}
		rot {0.70961,-0.00052,0.31690,-0.62931}
		
		bone "Bake_LElbowJoint"
		pos {42.31713,0.91269,-3.22190}
		rot {0.56210,-0.06772,-0.82269,-0.05136}
		
		bone "Bake_LWristJoint"
		pos {45.82855,-0.15845,-0.64145}
		rot {0.82721,0.55954,-0.05132,0.00291}
		
		bone "Bake_RArmJoint"
		pos {-19.66962,-7.15149,-2.14289}
		rot {0.15302,-0.88223,-0.43631,-0.08878}
		
		bone "Bake_RElbowJoint"
		pos {-42.27629,-0.99098,6.52934}
		rot {0.68582,-0.07775,-0.71965,-0.07554}
		
		bone "Bake_RWristJoint"
		pos {-50.14447,0.69247,2.14966}
		rot {-0.75344,-0.65148,0.03342,-0.08238}
		
		bone "Bake_RHipJoint"
		pos {-9.27856,-0.75055,-0.04712}
		rot {-0.04475,-0.57025,0.21744,0.79091}
		
		bone "Bake_RkneeJoint"
		pos {0.14961,67.56638,1.82040}
		rot {0.72453,0.21895,0.61624,-0.21762}
		
		bone "Bake_RFootJoint"
		pos {1.01277,88.94075,17.48746}
		rot {-0.97830,0.00720,-0.11050,0.17513}
		
	}
	// Keyframe# 6
	CIwAnimKeyFrame
	{
		time 0.16667
		bone "Bake_LHipJoint"
		pos {10.25721,-0.75053,-0.04712}
		rot {0.70701,-0.16868,-0.46738,0.50323}
		
		bone "Bake_LkneeJoint"
		pos {-0.14960,-67.56652,-1.82043}
		rot {0.72865,0.20077,0.62356,-0.19984}
		
		bone "Bake_LFootJoint"
		pos {-1.01281,-88.94061,-17.48746}
		rot {0.96627,0.13320,-0.06357,-0.21105}
		
		bone "Bake_RHipJoint"
		pos {-9.27856,-0.75055,-0.04712}
		rot {-0.20471,-0.48934,0.29435,0.79499}
		
		bone "Bake_RkneeJoint"
		pos {0.14961,67.56638,1.82040}
		rot {0.61957,0.41763,0.51775,-0.41671}
		
		bone "Bake_RFootJoint"
		pos {1.01277,88.94075,17.48746}
		rot {-0.98500,-0.12366,-0.11489,0.03577}
		
		bone "Bake_RToeJoint"
		pos {-3.56224,13.99474,-19.48161}
		rot {0.99779,-0.06649,0,0}
		
	}
	// Keyframe# 7
	CIwAnimKeyFrame
	{
		time 0.20000
		bone "Bake_Root"
		pos {1.06445,136.43027,-24.63161}
		rot {0.92816,0.09144,-0.36064,0.01025}
		
		bone "Bake_LHipJoint"
		pos {10.25721,-0.75053,-0.04712}
		rot {0.68749,-0.18066,-0.45848,0.53339}
		
		bone "Bake_LkneeJoint"
		pos {-0.14960,-67.56652,-1.82043}
		rot {0.71358,0.24431,0.60979,-0.24346}
		
		bone "Bake_LFootJoint"
		pos {-1.01281,-88.94061,-17.48746}
		rot {0.96874,0.10424,-0.07296,-0.21298}
		
		bone "Bake_LArmJoint"
		pos {19.48325,-7.55507,-2.14288}
		rot {0.72388,0.05149,0.25342,-0.63962}
		
		bone "Bake_LElbowJoint"
		pos {42.31713,0.91269,-3.22190}
		rot {0.58017,-0.06539,-0.81024,-0.05136}
		
		bone "Bake_LWristJoint"
		pos {45.82855,-0.15845,-0.64145}
		rot {0.85085,0.52394,-0.00202,0.03917}
		
		bone "Bake_RArmJoint"
		pos {-19.66962,-7.15149,-2.14289}
		rot {0.22756,-0.92185,-0.26833,-0.16253}
		
		bone "Bake_RElbowJoint"
		pos {-42.27629,-0.99098,6.52934}
		rot {0.58959,-0.09621,-0.79796,-0.07994}
		
		bone "Bake_RWristJoint"
		pos {-50.14447,0.69247,2.14966}
		rot {-0.80383,-0.58717,-0.03069,-0.09020}
		
		bone "Bake_RHipJoint"
		pos {-9.27856,-0.75055,-0.04712}
		rot {-0.21226,-0.49598,0.29179,0.78982}
		
		bone "Bake_RkneeJoint"
		pos {0.14961,67.56638,1.82040}
		rot {0.62090,0.41585,0.51901,-0.41493}
		
		bone "Bake_RFootJoint"
		pos {1.01277,88.94075,17.48746}
		rot {-0.99119,-0.02683,-0.09891,0.08395}
		
	}
	// Keyframe# 8
	CIwAnimKeyFrame
	{
		time 0.23333
		bone "Bake_LowerChestJoint"
		pos {0.95091,18.34586,3.38756}
		rot {0.99107,0.07468,-0.10965,0.01313}
		
		bone "Bake_UpperChestJoint"
		pos {0.00000,24.78663,-7.59820}
		rot {0.98707,-0.06275,-0.10297,0.10560}
		
		bone "Bake_NeckJoint"
		pos {0.00000,31.59111,-5.27135}
		rot {0.99238,0.03024,-0.02402,0.11700}
		
		bone "Bake_HeadJoint"
		pos {-0.44766,10.05922,-0.21358}
		rot {0.86357,-0.01567,0.46327,-0.19846}
		
		bone "Bake_LArmJoint"
		pos {19.48325,-7.55507,-2.14288}
		rot {0.71365,0.02792,0.22778,-0.66185}
		
		bone "Bake_LElbowJoint"
		pos {42.31713,0.91269,-3.22190}
		rot {0.64156,-0.05729,-0.76325,-0.05065}
		
		bone "Bake_LWristJoint"
		pos {45.82855,-0.15845,-0.64145}
		rot {0.83976,0.53786,-0.03800,0.06376}
		
		bone "Bake_RArmJoint"
		pos {-19.66962,-7.15149,-2.14289}
		rot {0.21478,-0.92083,-0.28309,-0.16060}
		
		bone "Bake_RElbowJoint"
		pos {-42.27629,-0.99098,6.52934}
		rot {0.60603,-0.09315,-0.78596,-0.07948}
		
		bone "Bake_RWristJoint"
		pos {-50.14447,0.69247,2.14966}
		rot {-0.79672,-0.59792,-0.01749,-0.08613}
		
	}
	// Keyframe# 9
	CIwAnimKeyFrame
	{
		time 0.26667
		bone "Bake_LArmJoint"
		pos {19.48325,-7.55507,-2.14288}
		rot {0.71104,0.00878,0.22085,-0.66752}
		
		bone "Bake_LElbowJoint"
		pos {42.31713,0.91269,-3.22190}
		rot {0.67630,-0.05260,-0.73307,-0.04971}
		
		bone "Bake_LWristJoint"
		pos {45.82855,-0.15845,-0.64145}
		rot {0.83117,0.54630,-0.06630,0.07947}
		
		bone "Bake_RHipJoint"
		pos {-9.27856,-0.75055,-0.04712}
		rot {-0.16151,-0.54082,0.24404,0.78859}
		
		bone "Bake_RkneeJoint"
		pos {0.14961,67.56638,1.82040}
		rot {0.67896,0.32427,0.57396,-0.32316}
		
		bone "Bake_RFootJoint"
		pos {1.01277,88.94075,17.48746}
		rot {-0.95493,0.14013,-0.16364,0.20419}
		
		bone "Bake_RToeJoint"
		pos {-3.56224,13.99474,-19.48161}
		rot {1,0,0,0}
		
	}
	// Keyframe# 12
	CIwAnimKeyFrame
	{
		time 0.36667
		bone "Bake_Root"
		pos {-5.36683,147.75330,-24.63161}
		rot {0.92417,0.10757,-0.36652,-0.00198}
		
		bone "Bake_LHipJoint"
		pos {10.25721,-0.75053,-0.04712}
		rot {0.73796,-0.14054,-0.45520,0.47797}
		
		bone "Bake_LkneeJoint"
		pos {-0.14960,-67.56652,-1.82043}
		rot {0.71218,0.24793,0.60851,-0.24708}
		
		bone "Bake_LFootJoint"
		pos {-1.01281,-88.94061,-17.48746}
		rot {0.97892,0.00803,-0.09720,-0.17943}
		
		bone "Bake_LArmJoint"
		pos {19.48325,-7.55507,-2.14288}
		rot {0.73113,-0.02332,0.27509,-0.62388}
		
		bone "Bake_LElbowJoint"
		pos {42.31713,0.91269,-3.22190}
		rot {0.64465,-0.05688,-0.76068,-0.05058}
		
		bone "Bake_LWristJoint"
		pos {45.82855,-0.15845,-0.64145}
		rot {0.82481,0.55677,-0.07951,0.05815}
		
		bone "Bake_RArmJoint"
		pos {-19.66962,-7.15149,-2.14289}
		rot {0.18353,-0.87543,-0.43208,-0.11508}
		
		bone "Bake_RElbowJoint"
		pos {-42.27629,-0.99098,6.52934}
		rot {0.63505,-0.08765,-0.76347,-0.07838}
		
		bone "Bake_RWristJoint"
		pos {-50.14447,0.69247,2.14966}
		rot {-0.75228,-0.65572,0.01699,-0.06189}
		
		bone "Bake_RHipJoint"
		pos {-9.27856,-0.75055,-0.04712}
		rot {-0.10558,-0.60419,0.21565,0.75980}
		
		bone "Bake_RkneeJoint"
		pos {0.14961,67.56638,1.82040}
		rot {0.71431,0.24708,0.60688,-0.24581}
		
		bone "Bake_RFootJoint"
		pos {1.01277,88.94075,17.48746}
		rot {-0.97160,0.09418,-0.11156,0.18620}
		
	}
	// Keyframe# 13
	CIwAnimKeyFrame
	{
		time 0.40000
		bone "Bake_LHipJoint"
		pos {10.25721,-0.75053,-0.04712}
		rot {0.74870,-0.13195,-0.45967,0.45906}
		
		bone "Bake_LkneeJoint"
		pos {-0.14960,-67.56652,-1.82043}
		rot {0.72008,0.22663,0.61576,-0.22574}
		
		bone "Bake_LFootJoint"
		pos {-1.01281,-88.94061,-17.48746}
		rot {0.98019,0.01438,-0.09183,-0.17490}
		
		bone "Bake_LToeJoint"
		pos {3.56225,-13.99475,19.48160}
		rot {1,0,0,0}
		
	}
	// Keyframe# 15
	CIwAnimKeyFrame
	{
		time 0.46667
		bone "Bake_Root"
		pos {-2.13961,155.18654,-24.63161}
		rot {0.92246,0.11360,-0.36894,-0.00654}
		
		bone "Bake_LHipJoint"
		pos {10.25721,-0.75053,-0.04712}
		rot {0.75919,-0.12289,-0.47214,0.43083}
		
		bone "Bake_LkneeJoint"
		pos {-0.14960,-67.56652,-1.82043}
		rot {0.73249,0.18795,0.62703,-0.18699}
		
		bone "Bake_LFootJoint"
		pos {-1.01281,-88.94061,-17.48746}
		rot {0.98219,0.03654,-0.07470,-0.16850}
		
		bone "Bake_LToeJoint"
		pos {3.56225,-13.99475,19.48160}
		rot {1,0,0,0}
		
		bone "Bake_LowerChestJoint"
		pos {0.95091,18.34586,3.38756}
		rot {0.99269,0.07356,-0.09181,0.02681}
		
		bone "Bake_UpperChestJoint"
		pos {-0.00000,24.78663,-7.59820}
		rot {0.98885,-0.02589,-0.14572,-0.01671}
		
		bone "Bake_NeckJoint"
		pos {0.00000,31.59111,-5.27135}
		rot {0.99301,0.04574,-0.03631,0.10262}
		
		bone "Bake_HeadJoint"
		pos {-0.44766,10.05922,-0.21358}
		rot {0.83062,-0.11498,0.53012,-0.12580}
		
		bone "Bake_LArmJoint"
		pos {19.48325,-7.55507,-2.14288}
		rot {0.75049,-0.06802,0.30946,-0.57997}
		
		bone "Bake_LElbowJoint"
		pos {42.31713,0.91269,-3.22190}
		rot {0.56686,-0.06711,-0.81946,-0.05137}
		
		bone "Bake_LWristJoint"
		pos {45.82855,-0.15845,-0.64145}
		rot {0.82179,0.56930,-0.02366,-0.00209}
		
		bone "Bake_LHandJoint"
		pos {17.20187,0.36681,1.97759}
		rot {0.94744,-0.00036,0.04101,-0.31731}
		
		bone "Bake_LIndexJoint1"
		pos {12.24180,-1.31958,7.40454}
		rot {0.97194,-0.02275,-0.20882,-0.10589}
		
		bone "Bake_LIndex2"
		pos {6.17497,-0.57475,0.66466}
		rot {0.97769,0.00013,0.21006,0.00059}
		
		bone "Bake_RArmJoint"
		pos {-19.66962,-7.15149,-2.14289}
		rot {0.16006,-0.85971,-0.48445,-0.02416}
		
		bone "Bake_RElbowJoint"
		pos {-42.27629,-0.99098,6.52934}
		rot {0.66577,-0.08170,-0.73769,-0.07681}
		
		bone "Bake_RWristJoint"
		pos {-50.14447,0.69247,2.14966}
		rot {-0.76349,-0.64348,-0.00218,-0.05484}
		
		bone "Bake_RHandJoint"
		pos {-17.48486,-0.54039,-3.53060}
		rot {0.99248,0,0,-0.12237}
		
		bone "Bake_RIndexJoint1"
		pos {-9.08339,1.40164,-8.94563}
		rot {0.95954,0,-0.28158,0}
		
		bone "Bake_RIndexJoint2"
		pos {-3.15429,1.28809,-0.05863}
		rot {1,0,0,0}
		
		bone "Bake_RHipJoint"
		pos {-9.27856,-0.75055,-0.04712}
		rot {-0.05701,-0.65111,0.21072,0.72691}
		
		bone "Bake_RkneeJoint"
		pos {0.14961,67.56638,1.82040}
		rot {0.73436,0.18766,0.62514,-0.18627}
		
		bone "Bake_RFootJoint"
		pos {1.01277,88.94075,17.48746}
		rot {-0.97761,0.05043,-0.05910,0.19553}
		
		bone "Bake_RToeJoint"
		pos {-3.56224,13.99474,-19.48161}
		rot {0.99321,-0.11631,0,0}
		
	}
}
