// Source file: C:/dev/sdk/main/sdk_examples/ArtAssets/OpenGLES/maya7/bike_v2.mb
CIwModel
{
	name "swingarmRear"
	CMesh
	{
		name "swingarmRear"
		scale 10
		CVerts
		{
			numVerts 234
			v {-95.54936,427.61478,-265.47488}
			v {-95.54936,486.15283,-249.45802}
			v {-95.54936,544.85614,-264.85721}
			v {-95.54936,587.99536,-307.54520}
			v {-95.54929,604.01111,-366.08279}
			v {-95.54929,588.61224,-424.78641}
			v {-143.17792,191.10022,-648.44849}
			v {-143.17807,394.78519,-764.62158}
			v {-143.17807,352.09720,-807.75879}
			v {-143.17807,293.55902,-823.77441}
			v {-143.17807,234.85609,-808.37769}
			v {-143.17807,191.71698,-765.69092}
			v {-143.17807,175.70120,-707.15210}
			v {-143.17792,300.47009,-396.72244}
			v {-143.17792,532.35175,-523.42780}
			v {-95.54929,562.59955,-476.17313}
			v {-175.98203,577.58856,-430.98880}
			v {-184.29913,570.26752,-425.29422}
			v {-184.29904,582.66925,-368.09695}
			v {-176.02420,592.12805,-375.54568}
			v {-176.07654,576.99469,-320.26370}
			v {-184.29913,568.55182,-325.75931}
			v {-176.09958,536.24835,-279.94876}
			v {-184.29913,531.20074,-288.79886}
			v {-184.29913,488.71677,-275.12820}
			v {-176.07654,480.80630,-265.40164}
			v {-184.29913,431.30557,-287.78690}
			v {-176.00858,425.51990,-280.51761}
			v {-176.61008,298.29443,-809.65454}
			v {-184.29898,299.33820,-797.76733}
			v {-176.34305,353.93924,-794.53247}
			v {-184.29898,350.02231,-783.90015}
			v {-184.29898,387.23056,-746.69189}
			v {-176.09494,394.54654,-753.58276}
			v {-176.13232,200.73447,-643.02734}
			v {-184.29913,210.43845,-645.85693}
			v {-176.34290,186.14828,-698.83301}
			v {-184.29913,197.29353,-696.79199}
			v {-176.61008,201.46056,-754.42505}
			v {-184.29898,211.16042,-747.47559}
			v {-176.71902,242.50304,-794.97070}
			v {-184.29898,248.51149,-784.43604}
			v {-176.14926,304.80505,-403.50711}
			v {-184.29913,313.23651,-409.14798}
			v {-184.29913,517.12939,-518.96002}
			v {-176.07587,526.05304,-523.02008}
			v {-95.54936,336.34738,-352.40604}
			v {-184.29913,535.25946,-394.70340}
			v {-184.29913,544.65533,-369.00516}
			v {-184.29913,539.94360,-342.05203}
			v {-184.29913,522.38635,-321.06570}
			v {-184.29913,496.68826,-311.66873}
			v {-184.29913,469.73499,-316.38065}
			v {-184.29913,399.21970,-662.08984}
			v {-184.29913,393.55121,-391.66141}
			v {-184.29913,365.08884,-395.56888}
			v {-184.29913,346.80164,-398.76590}
			v {-184.29913,332.56299,-410.67752}
			v {-184.29913,326.18793,-428.11404}
			v {-184.29913,329.38480,-446.40140}
			v {-184.29913,339.94632,-471.28787}
			v {-201.25623,533.66614,-368.70609}
			v {-201.25623,529.89386,-347.12772}
			v {-201.25613,515.83789,-330.32596}
			v {-201.25613,495.26431,-322.80399}
			v {-201.25613,473.68594,-326.57596}
			v {-201.25623,396.16077,-402.31204}
			v {-201.25623,368.52267,-406.10599}
			v {-201.25623,353.29364,-408.76834}
			v {-201.25623,342.40726,-417.87601}
			v {-201.25623,337.53314,-431.20609}
			v {-201.25623,340.11783,-445.99246}
			v {-201.25623,349.10556,-471.51248}
			v {-201.25623,389.71698,-662.56958}
			v {-201.25623,525.87878,-390.00369}
			v {-184.29898,343.45340,-770.36743}
			v {-184.29898,374.51129,-739.31030}
			v {-187.85840,385.87939,-696.88354}
			v {-184.29913,258.60165,-623.39972}
			v {-184.29913,227.54362,-654.45801}
			v {-184.29913,216.17552,-696.88354}
			v {-184.29898,227.54347,-739.30908}
			v {-184.29898,258.60150,-770.36743}
			v {-184.29898,301.02744,-781.73584}
			v {-201.25607,338.05591,-761.01929}
			v {-201.25607,365.16269,-733.91235}
			v {-201.25607,375.08441,-696.88354}
			v {-201.25623,263.99915,-632.74786}
			v {-201.25607,236.89238,-659.85474}
			v {-201.25607,226.97050,-696.88354}
			v {-201.25607,236.89223,-733.91235}
			v {-201.25607,263.99893,-761.01929}
			v {-201.25607,301.02734,-770.94116}
			v {-201.25607,327.56808,-742.85400}
			v {-201.25638,346.99741,-723.42407}
			v {-201.25623,354.10892,-696.88354}
			v {-201.25638,346.99741,-670.34302}
			v {-201.25623,327.56824,-650.91431}
			v {-201.25623,301.02759,-643.80249}
			v {-201.25653,274.48697,-650.91431}
			v {-201.25607,255.05766,-670.34302}
			v {-201.25638,247.94608,-696.88354}
			v {-201.25607,255.05759,-723.42407}
			v {-201.25638,274.48676,-742.85400}
			v {-201.25607,301.02744,-749.96460}
			v {-194.68350,322.42053,-733.93799}
			v {-194.68381,338.08154,-718.27637}
			v {-194.68381,343.81381,-696.88354}
			v {-194.68365,338.08154,-675.49072}
			v {-194.68381,322.42068,-659.82910}
			v {-194.68381,301.02759,-654.09790}
			v {-194.68365,279.63452,-659.82910}
			v {-194.68350,263.97351,-675.49072}
			v {-194.68381,258.24124,-696.88354}
			v {-194.68350,263.97345,-718.27637}
			v {-194.68381,279.63431,-733.93799}
			v {-194.68381,301.02750,-739.67041}
			v {95.54881,427.61478,-265.47488}
			v {95.54881,486.15283,-249.45802}
			v {95.54881,544.85614,-264.85721}
			v {95.54881,587.99536,-307.54520}
			v {95.54881,604.01111,-366.08279}
			v {95.54889,588.61224,-424.78641}
			v {143.17752,191.10022,-648.44849}
			v {143.17752,394.78519,-764.62158}
			v {143.17752,352.09720,-807.75879}
			v {143.17752,293.55902,-823.77441}
			v {143.17752,234.85609,-808.37769}
			v {143.17752,191.71698,-765.69092}
			v {143.17752,175.70120,-707.15210}
			v {143.17752,300.47009,-396.72244}
			v {143.17752,532.35175,-523.42780}
			v {95.54889,562.59955,-476.17313}
			v {175.98148,577.58856,-430.98880}
			v {184.29868,570.26752,-425.29422}
			v {184.29868,582.66925,-368.09695}
			v {176.02368,592.12805,-375.54568}
			v {176.07602,576.99469,-320.26370}
			v {184.29868,568.55182,-325.75931}
			v {176.09912,536.24835,-279.94876}
			v {184.29868,531.20074,-288.79886}
			v {184.29868,488.71677,-275.12820}
			v {176.07602,480.80630,-265.40164}
			v {184.29868,431.30557,-287.78690}
			v {176.00803,425.51990,-280.51761}
			v {176.60953,298.29443,-809.65454}
			v {184.29874,299.33820,-797.76733}
			v {176.34250,353.93924,-794.53247}
			v {184.29874,350.02231,-783.90015}
			v {184.29858,387.23056,-746.69189}
			v {176.09439,394.54654,-753.58276}
			v {176.13177,200.73447,-643.02734}
			v {184.29858,210.43845,-645.85693}
			v {176.34250,186.14828,-698.83301}
			v {184.29858,197.29353,-696.79199}
			v {176.60953,201.46056,-754.42505}
			v {184.29858,211.16042,-747.47559}
			v {176.71848,242.50304,-794.97070}
			v {184.29874,248.51149,-784.43604}
			v {176.14880,304.80505,-403.50711}
			v {184.29858,313.23651,-409.14798}
			v {184.29858,517.12939,-518.96002}
			v {176.07532,526.05304,-523.02008}
			v {95.54881,336.34738,-352.40604}
			v {184.29868,535.25946,-394.70340}
			v {184.29868,544.65533,-369.00516}
			v {184.29868,539.94360,-342.05203}
			v {184.29868,522.38635,-321.06570}
			v {184.29868,496.68826,-311.66873}
			v {184.29868,469.73499,-316.38065}
			v {184.29858,399.21970,-662.08984}
			v {184.29868,393.55121,-391.66141}
			v {184.29868,365.08884,-395.56888}
			v {184.29868,346.80164,-398.76590}
			v {184.29858,332.56299,-410.67752}
			v {184.29858,326.18793,-428.11404}
			v {184.29858,329.38480,-446.40140}
			v {184.29858,339.94632,-471.28787}
			v {201.25568,533.66614,-368.70609}
			v {201.25568,529.89386,-347.12772}
			v {201.25568,515.83789,-330.32596}
			v {201.25568,495.26431,-322.80399}
			v {201.25568,473.68594,-326.57596}
			v {201.25568,396.16077,-402.31204}
			v {201.25568,368.52267,-406.10599}
			v {201.25568,353.29364,-408.76834}
			v {201.25568,342.40726,-417.87601}
			v {201.25568,337.53314,-431.20609}
			v {201.25568,340.11783,-445.99246}
			v {201.25568,349.10556,-471.51248}
			v {201.25568,389.71698,-662.56958}
			v {201.25568,525.87878,-390.00369}
			v {184.29874,343.45340,-770.36743}
			v {184.29858,374.51129,-739.31030}
			v {187.85800,385.87939,-696.88354}
			v {184.29858,258.60165,-623.39972}
			v {184.29858,227.54362,-654.45801}
			v {184.29858,216.17552,-696.88354}
			v {184.29858,227.54347,-739.30908}
			v {184.29874,258.60150,-770.36743}
			v {184.29874,301.02744,-781.73584}
			v {201.25568,338.05591,-761.01929}
			v {201.25568,365.16269,-733.91235}
			v {201.25568,375.08441,-696.88354}
			v {201.25568,263.99915,-632.74786}
			v {201.25568,236.89238,-659.85474}
			v {201.25568,226.97050,-696.88354}
			v {201.25568,236.89223,-733.91235}
			v {201.25568,263.99893,-761.01929}
			v {201.25583,301.02734,-770.94116}
			v {201.25568,327.56808,-742.85400}
			v {201.25598,346.99741,-723.42407}
			v {201.25568,354.10892,-696.88354}
			v {201.25598,346.99741,-670.34302}
			v {201.25568,327.56824,-650.91431}
			v {201.25568,301.02759,-643.80249}
			v {201.25598,274.48697,-650.91431}
			v {201.25568,255.05766,-670.34302}
			v {201.25598,247.94608,-696.88354}
			v {201.25568,255.05759,-723.42407}
			v {201.25598,274.48676,-742.85400}
			v {201.25568,301.02744,-749.96460}
			v {194.68295,322.42053,-733.93799}
			v {194.68326,338.08154,-718.27637}
			v {194.68326,343.81381,-696.88354}
			v {194.68326,338.08154,-675.49072}
			v {194.68326,322.42068,-659.82910}
			v {194.68326,301.02759,-654.09790}
			v {194.68326,279.63452,-659.82910}
			v {194.68295,263.97351,-675.49072}
			v {194.68326,258.24124,-696.88354}
			v {194.68295,263.97345,-718.27637}
			v {194.68326,279.63431,-733.93799}
			v {194.68326,301.02750,-739.67041}
		}
		CVertNorms
		{
			numVertNorms 174
			vn {-0.50793,-0.71071,0.48673}
			vn {-0.17754,-0.80986,0.55911}
			vn {-0.15000,-0.69102,0.70710}
			vn {-0.16561,-0.49082,0.85538}
			vn {-0.50567,-0.42956,0.74818}
			vn {-0.19383,-0.00602,0.98102}
			vn {-0.50480,0.00717,0.86320}
			vn {-0.21085,0.48430,0.84911}
			vn {-0.51170,0.42623,0.74599}
			vn {-0.19383,0.84744,0.49424}
			vn {-0.50073,0.74768,0.43618}
			vn {-0.14655,0.98920,0.00408}
			vn {-0.47792,0.87826,0.01592}
			vn {-0.11262,0.92587,-0.36067}
			vn {-0.46906,0.82251,-0.32166}
			vn {-0.38809,0.00807,-0.92158}
			vn {-0.64381,0.00804,-0.76515}
			vn {-0.58882,0.41324,-0.69464}
			vn {-0.30053,0.48517,-0.82115}
			vn {-0.41803,-0.45006,-0.78911}
			vn {-0.66195,-0.37135,-0.65110}
			vn {-0.38812,-0.79732,-0.46222}
			vn {-0.64381,-0.66266,-0.38261}
			vn {-0.30055,-0.95377,-0.00043}
			vn {-0.58933,-0.80789,0.00198}
			vn {-0.21709,-0.92236,0.31956}
			vn {-0.52899,-0.80183,0.27792}
			vn {-0.52122,0.68049,-0.51504}
			vn {-0.20392,0.78033,-0.59119}
			vn {-0.14079,0.86775,-0.47664}
			vn {-0.48105,0.76618,-0.42610}
			vn {0.76194,-0.31068,-0.56826}
			vn {-0.11149,0.87852,-0.46452}
			vn {-0.75930,0.56617,-0.32081}
			vn {-0.75956,0.60529,-0.23810}
			vn {-0.74656,0.66483,0.02566}
			vn {-0.74965,0.57160,0.33360}
			vn {-0.75499,0.32594,0.56900}
			vn {-0.75587,0.01935,0.65444}
			vn {-0.77580,-0.31437,0.54709}
			vn {-0.77250,-0.52598,0.35579}
			vn {-0.83844,0.00730,-0.54495}
			vn {-0.81166,0.30106,-0.50058}
			vn {-0.84683,-0.26350,-0.46200}
			vn {-0.77666,0.50256,-0.37979}
			vn {-0.78044,-0.59071,0.20489}
			vn {-0.81237,-0.58313,0.00413}
			vn {-0.83843,-0.47277,-0.27115}
			vn {1,-0.00000,0.00000}
			vn {-0.50672,0.79005,-0.34505}
			vn {-0.50465,0.79194,-0.34375}
			vn {-1,-0.00000,0.00000}
			vn {-0.55292,0.75593,0.35051}
			vn {-0.54324,0.83618,-0.07544}
			vn {-0.55597,0.47772,0.68021}
			vn {-0.55171,0.07325,0.83081}
			vn {-0.53386,-0.38959,0.75048}
			vn {-0.53941,-0.37502,0.75392}
			vn {-0.54214,-0.12950,0.83025}
			vn {-0.57123,-0.34343,0.74549}
			vn {-0.58379,-0.66459,0.46637}
			vn {-0.56350,-0.82315,0.07000}
			vn {-0.50842,-0.82917,-0.23235}
			vn {-0.50356,-0.86226,0.05413}
			vn {-0.49409,-0.70069,0.51470}
			vn {-0.53701,0.42179,-0.73056}
			vn {-0.55694,0.71126,-0.42887}
			vn {-0.54731,0.79346,-0.26621}
			vn {-0.53701,-0.73056,0.42179}
			vn {-0.53702,-0.84357,0.00000}
			vn {-0.53701,-0.73056,-0.42179}
			vn {-0.53700,-0.42179,-0.73056}
			vn {-0.53701,-0.00000,-0.84358}
			vn {-0.84288,-0.26905,0.46601}
			vn {-0.84288,-0.46601,0.26904}
			vn {-0.84288,-0.53810,0.00000}
			vn {-0.84287,-0.46602,-0.26906}
			vn {-0.84287,-0.26905,-0.46602}
			vn {-0.84287,0.00000,-0.53812}
			vn {-0.84286,0.26906,-0.46603}
			vn {-0.84287,0.46602,-0.26906}
			vn {-0.84288,0.53811,-0.00000}
			vn {-0.84288,0.46601,0.26905}
			vn {-0.84288,0.26905,0.46601}
			vn {-0.84287,0.00000,0.53811}
			vn {-0.99912,-0.02101,-0.03621}
			vn {-0.99650,-0.04199,-0.07235}
			vn {-0.99943,0.03355,-0.00476}
			vn {0.50793,-0.71071,0.48673}
			vn {0.50567,-0.42956,0.74819}
			vn {0.16561,-0.49082,0.85538}
			vn {0.15000,-0.69102,0.70710}
			vn {0.17754,-0.80986,0.55911}
			vn {0.19383,-0.00602,0.98102}
			vn {0.50480,0.00717,0.86320}
			vn {0.21085,0.48430,0.84911}
			vn {0.51170,0.42623,0.74599}
			vn {0.19383,0.84744,0.49424}
			vn {0.50073,0.74768,0.43618}
			vn {0.14655,0.98920,0.00408}
			vn {0.47792,0.87826,0.01592}
			vn {0.11262,0.92587,-0.36067}
			vn {0.46906,0.82251,-0.32166}
			vn {0.38809,0.00807,-0.92158}
			vn {0.30053,0.48517,-0.82115}
			vn {0.58881,0.41325,-0.69465}
			vn {0.64380,0.00804,-0.76515}
			vn {0.41803,-0.45006,-0.78911}
			vn {0.66194,-0.37135,-0.65110}
			vn {0.38812,-0.79732,-0.46222}
			vn {0.64381,-0.66266,-0.38261}
			vn {0.30055,-0.95377,-0.00043}
			vn {0.58933,-0.80789,0.00198}
			vn {0.21709,-0.92236,0.31956}
			vn {0.52899,-0.80183,0.27792}
			vn {0.20392,0.78033,-0.59119}
			vn {0.52122,0.68049,-0.51504}
			vn {0.14079,0.86775,-0.47664}
			vn {0.48105,0.76618,-0.42610}
			vn {-0.76194,-0.31068,-0.56826}
			vn {0.11149,0.87852,-0.46452}
			vn {0.75956,0.60529,-0.23811}
			vn {0.75930,0.56617,-0.32081}
			vn {0.74655,0.66483,0.02566}
			vn {0.74965,0.57161,0.33360}
			vn {0.75498,0.32594,0.56900}
			vn {0.75587,0.01935,0.65444}
			vn {0.77580,-0.31437,0.54709}
			vn {0.77250,-0.52598,0.35579}
			vn {0.83843,0.00730,-0.54496}
			vn {0.81165,0.30106,-0.50059}
			vn {0.84682,-0.26351,-0.46201}
			vn {0.77665,0.50256,-0.37980}
			vn {0.78044,-0.59071,0.20489}
			vn {0.81237,-0.58313,0.00413}
			vn {0.83843,-0.47278,-0.27115}
			vn {0.50672,0.79005,-0.34505}
			vn {0.50465,0.79194,-0.34375}
			vn {0.55292,0.75593,0.35051}
			vn {0.54324,0.83618,-0.07544}
			vn {0.55597,0.47772,0.68021}
			vn {0.55171,0.07325,0.83081}
			vn {0.53386,-0.38959,0.75048}
			vn {0.53941,-0.37502,0.75392}
			vn {0.54214,-0.12950,0.83025}
			vn {0.57123,-0.34343,0.74549}
			vn {0.58379,-0.66459,0.46637}
			vn {0.56350,-0.82315,0.07000}
			vn {0.50842,-0.82917,-0.23235}
			vn {0.50356,-0.86226,0.05413}
			vn {0.49408,-0.70069,0.51470}
			vn {0.53701,0.42179,-0.73056}
			vn {0.55694,0.71126,-0.42886}
			vn {0.54731,0.79346,-0.26621}
			vn {0.53701,-0.73056,0.42179}
			vn {0.53702,-0.84357,0.00000}
			vn {0.53701,-0.73056,-0.42179}
			vn {0.53701,-0.42179,-0.73056}
			vn {0.53701,-0.00000,-0.84358}
			vn {0.84287,-0.26906,0.46602}
			vn {0.84287,-0.46602,0.26905}
			vn {0.84288,-0.53810,0.00000}
			vn {0.84287,-0.46602,-0.26906}
			vn {0.84287,-0.26906,-0.46602}
			vn {0.84287,0.00000,-0.53812}
			vn {0.84287,0.26906,-0.46603}
			vn {0.84287,0.46602,-0.26906}
			vn {0.84287,0.53811,-0.00000}
			vn {0.84287,0.46602,0.26905}
			vn {0.84287,0.26906,0.46602}
			vn {0.84287,0.00000,0.53812}
			vn {0.99912,-0.02101,-0.03621}
			vn {0.99650,-0.04199,-0.07235}
			vn {0.99943,0.03355,-0.00475}
		}
		CVertCols
		{
			numVertCols 1
			col {0.50000,0.50000,0.50000,1}
		}
		CUVs
		{
			setID 0
			numUVs 222
			uv {0.45111,0.03577}
			uv {0.47128,0.03577}
			uv {0.47128,0.00724}
			uv {0.45111,0.00724}
			uv {0.51726,0.00724}
			uv {0.50465,0.03577}
			uv {0.51726,0.01903}
			uv {0.45111,0.00458}
			uv {0.47128,0.00458}
			uv {0.43138,0.03577}
			uv {0.43138,0.00724}
			uv {0.43138,0.00458}
			uv {0.41474,0.03577}
			uv {0.41474,0.00724}
			uv {0.39417,0.03577}
			uv {0.38428,0.30849}
			uv {0.25222,0.19820}
			uv {0.39417,0.00724}
			uv {0.39417,0.00458}
			uv {0.41474,0.00458}
			uv {0.37354,0.03577}
			uv {0.37354,0.00724}
			uv {0.37354,0.00458}
			uv {0.35548,0.03577}
			uv {0.33902,0.00724}
			uv {0.33888,0.01903}
			uv {0.34045,0.00458}
			uv {0.25412,0.00724}
			uv {0.25412,0.01903}
			uv {0.25412,0.00458}
			uv {0.23896,0.01903}
			uv {0.23896,0.00724}
			uv {0.21978,0.01903}
			uv {0.43415,0.21369}
			uv {0.53976,0.32142}
			uv {0.21978,0.00724}
			uv {0.21978,0.00458}
			uv {0.23896,0.00458}
			uv {0.20191,0.01903}
			uv {0.20192,0.00724}
			uv {0.20192,0.00458}
			uv {0.18538,0.01903}
			uv {0.18538,0.00724}
			uv {0.16481,0.01903}
			uv {0.49596,0.30885}
			uv {0.38362,0.19949}
			uv {0.16481,0.00724}
			uv {0.16481,0.00458}
			uv {0.18538,0.00458}
			uv {0.14418,0.01903}
			uv {0.14418,0.00724}
			uv {0.14418,0.00458}
			uv {0.05573,0.00724}
			uv {0.05573,0.01903}
			uv {0.05573,0.00458}
			uv {0.45411,0.25804}
			uv {0.20603,0.27604}
			uv {0.23089,0.28287}
			uv {0.46079,0.23318}
			uv {0.44491,0.23724}
			uv {0.44023,0.24981}
			uv {0.50204,0.27724}
			uv {0.50558,0.26774}
			uv {0.42990,0.25835}
			uv {0.43950,0.27432}
			uv {0.44269,0.22402}
			uv {0.45631,0.21177}
			uv {0.54562,0.32852}
			uv {0.53684,0.35209}
			uv {0.41668,0.26058}
			uv {0.41214,0.28290}
			uv {0.18995,0.35719}
			uv {0.43701,0.19039}
			uv {0.17988,0.34706}
			uv {0.52744,0.35368}
			uv {0.26983,0.26746}
			uv {0.35937,0.28298}
			uv {0.17623,0.33325}
			uv {0.39954,0.36062}
			uv {0.17997,0.31947}
			uv {0.46089,0.30605}
			uv {0.72620,0.28001}
			uv {0.72341,0.29415}
			uv {0.25178,0.27022}
			uv {0.35728,0.35461}
			uv {0.37505,0.18832}
			uv {0.48883,0.29954}
			uv {0.46835,0.29746}
			uv {0.72358,0.26582}
			uv {0.18119,0.23294}
			uv {0.71327,0.25539}
			uv {0.72179,0.27998}
			uv {0.71866,0.29138}
			uv {0.71297,0.30446}
			uv {0.38395,0.36241}
			uv {0.23095,0.27566}
			uv {0.36926,0.18131}
			uv {0.57082,0.32467}
			uv {0.57698,0.32696}
			uv {0.58346,0.32587}
			uv {0.71880,0.26854}
			uv {0.36874,0.30422}
			uv {0.69913,0.25151}
			uv {0.71050,0.26013}
			uv {0.68742,0.29955}
			uv {0.69882,0.30268}
			uv {0.71025,0.29969}
			uv {0.69910,0.25700}
			uv {0.68766,0.25999}
			uv {0.67925,0.26830}
			uv {0.67612,0.27970}
			uv {0.67911,0.29114}
			uv {0.69878,0.30817}
			uv {0.36836,0.36649}
			uv {0.21020,0.26997}
			uv {0.68281,0.28903}
			uv {0.36074,0.17813}
			uv {0.35670,0.16953}
			uv {0.35176,0.17964}
			uv {0.34475,0.18544}
			uv {0.35315,0.30830}
			uv {0.68494,0.25522}
			uv {0.20373,0.36093}
			uv {0.23146,0.19250}
			uv {0.68464,0.30429}
			uv {0.67450,0.26552}
			uv {0.67062,0.27967}
			uv {0.67433,0.29386}
			uv {0.35282,0.36222}
			uv {0.19507,0.25465}
			uv {0.18783,0.25782}
			uv {0.68174,0.24992}
			uv {0.68957,0.29587}
			uv {0.34916,0.34639}
			uv {0.68038,0.27972}
			uv {0.23098,0.18314}
			uv {0.34169,0.31962}
			uv {0.21064,0.19795}
			uv {0.33742,0.33516}
			uv {0.34150,0.35076}
			uv {0.18963,0.23383}
			uv {0.69890,0.24543}
			uv {0.33671,0.19597}
			uv {0.19533,0.21307}
			uv {0.20610,0.18989}
			uv {0.18788,0.20808}
			uv {0.36842,0.35767}
			uv {0.34624,0.33522}
			uv {0.31975,0.34751}
			uv {0.32349,0.33373}
			uv {0.31984,0.31992}
			uv {0.30977,0.30978}
			uv {0.29599,0.30604}
			uv {0.28245,0.30533}
			uv {0.28118,0.36601}
			uv {0.30962,0.35758}
			uv {0.26926,0.30596}
			uv {0.26793,0.36813}
			uv {0.20391,0.30575}
			uv {0.19010,0.30940}
			uv {0.51726,0.00458}
			uv {0.68293,0.27045}
			uv {0.69884,0.29841}
			uv {0.34930,0.32408}
			uv {0.71602,0.25013}
			uv {0.56626,0.31915}
			uv {0.68977,0.26370}
			uv {0.68137,0.30930}
			uv {0.58881,0.32144}
			uv {0.66458,0.25189}
			uv {0.69849,0.31399}
			uv {0.70814,0.29598}
			uv {0.59702,0.31198}
			uv {0.35751,0.31596}
			uv {0.71565,0.30950}
			uv {0.55841,0.30890}
			uv {0.69907,0.26126}
			uv {0.47321,0.29344}
			uv {0.50373,0.28724}
			uv {0.37959,0.35475}
			uv {0.72828,0.29703}
			uv {0.51340,0.26128}
			uv {0.36869,0.31304}
			uv {0.70834,0.26381}
			uv {0.51019,0.29506}
			uv {0.47910,0.29244}
			uv {0.73297,0.27992}
			uv {0.52375,0.25953}
			uv {0.37983,0.31610}
			uv {0.71510,0.27065}
			uv {0.73283,0.26028}
			uv {0.48469,0.29453}
			uv {0.38795,0.32431}
			uv {0.71753,0.27995}
			uv {0.73797,0.27995}
			uv {0.54715,0.33760}
			uv {0.39087,0.33549}
			uv {0.73259,0.29956}
			uv {0.71499,0.28922}
			uv {0.54394,0.34623}
			uv {0.71813,0.31385}
			uv {0.72849,0.26275}
			uv {0.38781,0.34663}
			uv {0.52349,0.25469}
			uv {0.69845,0.31899}
			uv {0.51100,0.25679}
			uv {0.50124,0.26486}
			uv {0.49682,0.27673}
			uv {0.49892,0.28922}
			uv {0.50699,0.29898}
			uv {0.66221,0.24818}
			uv {0.67885,0.31361}
			uv {0.55472,0.31239}
			uv {0.56281,0.32294}
			uv {0.67926,0.24558}
			uv {0.56828,0.32957}
			uv {0.57634,0.33257}
			uv {0.69893,0.24044}
			uv {0.58481,0.33114}
			uv {0.59143,0.32567}
			uv {0.71854,0.24582}
			uv {0.59903,0.31572}
		}
		CSurface
		{
			material "cleanBike2_phong14"
			CQuads
			{
				numQuads 198
				q {46,2,5,-1,0} {13,1,6,-1,0} {27,4,2,-1,0} {0,3,1,-1,0}
				q {27,4,2,-1,0} {25,6,3,-1,0} {1,5,0,-1,0} {0,3,1,-1,0}
				q {1,5,0,-1,0} {25,6,3,-1,0} {22,8,10,-1,0} {2,7,9,-1,0}
				q {22,8,10,-1,0} {20,10,13,-1,0} {3,9,12,-1,0} {2,7,9,-1,0}
				q {3,9,12,-1,0} {20,10,13,-1,0} {19,12,17,-1,0} {4,11,14,-1,0}
				q {4,11,14,-1,0} {19,12,17,-1,0} {16,14,21,-1,0} {5,13,20,-1,0}
				q {30,17,31,-1,0} {28,16,35,-1,0} {9,15,32,-1,0} {8,18,30,-1,0}
				q {28,16,35,-1,0} {40,20,39,-1,0} {10,19,38,-1,0} {9,15,32,-1,0}
				q {10,19,38,-1,0} {40,20,39,-1,0} {38,22,42,-1,0} {11,21,41,-1,0}
				q {11,21,41,-1,0} {38,22,42,-1,0} {36,24,46,-1,0} {12,23,43,-1,0}
				q {12,23,43,-1,0} {36,24,46,-1,0} {34,26,50,-1,0} {6,25,49,-1,0}
				q {33,27,27,-1,0} {30,17,31,-1,0} {8,18,30,-1,0} {7,28,28,-1,0}
				q {6,25,49,-1,0} {34,26,50,-1,0} {42,0,52,-1,0} {13,1,53,-1,0}
				q {45,30,24,-1,0} {33,27,27,-1,0} {7,28,28,-1,0} {14,29,25,-1,0}
				q {46,31,154,-1,0} {15,31,153,-1,0} {14,31,156,-1,0} {13,31,157,-1,0}
				q {16,14,21,-1,0} {45,30,24,-1,0} {14,29,25,-1,0} {15,32,23,-1,0}
				q {44,33,26,-1,0} {45,30,24,-1,0} {16,14,21,-1,0} {17,34,22,-1,0}
				q {17,34,22,-1,0} {16,14,21,-1,0} {19,12,17,-1,0} {18,35,18,-1,0}
				q {20,10,13,-1,0} {21,36,19,-1,0} {18,35,18,-1,0} {19,12,17,-1,0}
				q {22,8,10,-1,0} {23,37,11,-1,0} {21,36,19,-1,0} {20,10,13,-1,0}
				q {24,38,7,-1,0} {23,37,11,-1,0} {22,8,10,-1,0} {25,6,3,-1,0}
				q {25,6,3,-1,0} {27,4,2,-1,0} {26,39,8,-1,0} {24,38,7,-1,0}
				q {43,40,160,-1,0} {26,39,8,-1,0} {27,4,2,-1,0} {42,0,4,-1,0}
				q {31,42,37,-1,0} {29,41,36,-1,0} {28,16,35,-1,0} {30,17,31,-1,0}
				q {29,41,36,-1,0} {41,43,40,-1,0} {40,20,39,-1,0} {28,16,35,-1,0}
				q {32,44,29,-1,0} {31,42,37,-1,0} {30,17,31,-1,0} {33,27,27,-1,0}
				q {44,33,26,-1,0} {32,44,29,-1,0} {33,27,27,-1,0} {45,30,24,-1,0}
				q {34,26,50,-1,0} {35,45,51,-1,0} {43,40,54,-1,0} {42,0,52,-1,0}
				q {36,24,46,-1,0} {37,46,47,-1,0} {35,45,51,-1,0} {34,26,50,-1,0}
				q {38,22,42,-1,0} {39,47,48,-1,0} {37,46,47,-1,0} {36,24,46,-1,0}
				q {40,20,39,-1,0} {41,43,40,-1,0} {39,47,48,-1,0} {38,22,42,-1,0}
				q {2,48,149,-1,0} {3,48,150,-1,0} {4,48,151,-1,0} {1,48,148,-1,0}
				q {8,48,159,-1,0} {9,48,79,-1,0} {10,48,77,-1,0} {11,48,73,-1,0}
				q {53,49,210,-1,0} {47,50,203,-1,0} {74,50,187,-1,0} {73,49,169,-1,0}
				q {61,51,68,-1,0} {62,51,199,-1,0} {63,51,195,-1,0} {64,51,67,-1,0}
				q {62,52,62,-1,0} {61,53,181,-1,0} {48,53,205,-1,0} {49,52,206,-1,0}
				q {63,54,61,-1,0} {62,52,62,-1,0} {49,52,206,-1,0} {50,54,207,-1,0}
				q {51,55,208,-1,0} {64,55,178,-1,0} {63,54,61,-1,0} {50,54,207,-1,0}
				q {52,56,209,-1,0} {65,56,184,-1,0} {64,55,178,-1,0} {51,55,208,-1,0}
				q {65,56,184,-1,0} {52,56,209,-1,0} {54,57,212,-1,0} {66,57,175,-1,0}
				q {67,58,165,-1,0} {66,57,175,-1,0} {54,57,212,-1,0} {55,58,213,-1,0}
				q {68,59,97,-1,0} {67,58,165,-1,0} {55,58,213,-1,0} {56,59,215,-1,0}
				q {69,60,98,-1,0} {68,59,97,-1,0} {56,59,215,-1,0} {57,60,216,-1,0}
				q {58,61,218,-1,0} {70,61,99,-1,0} {69,60,98,-1,0} {57,60,216,-1,0}
				q {59,62,219,-1,0} {71,62,168,-1,0} {70,61,99,-1,0} {58,61,218,-1,0}
				q {60,63,221,-1,0} {72,63,172,-1,0} {71,62,168,-1,0} {59,62,219,-1,0}
				q {72,63,172,-1,0} {60,63,221,-1,0} {78,64,211,-1,0} {87,64,167,-1,0}
				q {61,53,181,-1,0} {74,50,187,-1,0} {47,50,203,-1,0} {48,53,205,-1,0}
				q {98,51,192,-1,0} {72,51,80,-1,0} {87,51,15,-1,0} {99,51,188,-1,0}
				q {76,66,217,-1,0} {85,66,141,-1,0} {84,65,164,-1,0} {75,65,220,-1,0}
				q {77,67,214,-1,0} {86,67,131,-1,0} {85,66,141,-1,0} {76,66,217,-1,0}
				q {73,49,169,-1,0} {86,67,131,-1,0} {77,67,214,-1,0} {53,49,210,-1,0}
				q {79,68,204,-1,0} {88,68,170,-1,0} {87,64,167,-1,0} {78,64,211,-1,0}
				q {80,69,200,-1,0} {89,69,174,-1,0} {88,68,170,-1,0} {79,68,204,-1,0}
				q {81,70,197,-1,0} {90,70,180,-1,0} {89,69,174,-1,0} {80,69,200,-1,0}
				q {82,71,194,-1,0} {91,71,186,-1,0} {90,70,180,-1,0} {81,70,197,-1,0}
				q {83,72,190,-1,0} {92,72,201,-1,0} {91,71,186,-1,0} {82,71,194,-1,0}
				q {75,65,220,-1,0} {84,65,164,-1,0} {92,72,201,-1,0} {83,72,190,-1,0}
				q {106,51,162,-1,0} {107,51,171,-1,0} {108,51,198,-1,0} {109,51,193,-1,0}
				q {94,51,146,-1,0} {93,51,84,-1,0} {84,51,128,-1,0} {85,51,113,-1,0}
				q {95,51,179,-1,0} {94,51,146,-1,0} {85,51,113,-1,0} {86,51,94,-1,0}
				q {96,51,202,-1,0} {95,51,179,-1,0} {86,51,94,-1,0} {73,51,78,-1,0}
				q {100,51,182,-1,0} {99,51,188,-1,0} {87,51,15,-1,0} {88,51,101,-1,0}
				q {101,51,173,-1,0} {100,51,182,-1,0} {88,51,101,-1,0} {89,51,120,-1,0}
				q {102,51,163,-1,0} {101,51,173,-1,0} {89,51,120,-1,0} {90,51,136,-1,0}
				q {103,51,147,-1,0} {102,51,163,-1,0} {90,51,136,-1,0} {91,51,138,-1,0}
				q {104,51,133,-1,0} {103,51,147,-1,0} {91,51,138,-1,0} {92,51,139,-1,0}
				q {93,51,84,-1,0} {104,51,133,-1,0} {92,51,139,-1,0} {84,51,128,-1,0}
				q {94,74,112,-1,0} {106,74,105,-1,0} {105,73,104,-1,0} {93,73,124,-1,0}
				q {95,75,93,-1,0} {107,75,106,-1,0} {106,74,105,-1,0} {94,74,112,-1,0}
				q {108,76,92,-1,0} {107,75,106,-1,0} {95,75,93,-1,0} {96,76,82,-1,0}
				q {97,77,81,-1,0} {109,77,91,-1,0} {108,76,92,-1,0} {96,76,82,-1,0}
				q {98,78,88,-1,0} {110,78,100,-1,0} {109,77,91,-1,0} {97,77,81,-1,0}
				q {99,79,90,-1,0} {111,79,103,-1,0} {110,78,100,-1,0} {98,78,88,-1,0}
				q {100,80,102,-1,0} {112,80,107,-1,0} {111,79,103,-1,0} {99,79,90,-1,0}
				q {101,81,121,-1,0} {113,81,108,-1,0} {112,80,107,-1,0} {100,80,102,-1,0}
				q {102,82,125,-1,0} {114,82,109,-1,0} {113,81,108,-1,0} {101,81,121,-1,0}
				q {103,83,126,-1,0} {115,83,110,-1,0} {114,82,109,-1,0} {102,82,125,-1,0}
				q {104,84,127,-1,0} {116,84,111,-1,0} {115,83,110,-1,0} {103,83,126,-1,0}
				q {93,73,124,-1,0} {105,73,104,-1,0} {116,84,111,-1,0} {104,84,127,-1,0}
				q {18,51,64,-1,0} {48,51,63,-1,0} {47,51,69,-1,0} {17,51,70,-1,0}
				q {21,51,55,-1,0} {49,51,60,-1,0} {48,51,63,-1,0} {18,51,64,-1,0}
				q {50,51,59,-1,0} {49,51,60,-1,0} {21,51,55,-1,0} {23,51,58,-1,0}
				q {51,51,65,-1,0} {50,51,59,-1,0} {23,51,58,-1,0} {24,51,66,-1,0}
				q {52,51,33,-1,0} {51,51,65,-1,0} {24,51,66,-1,0} {26,51,72,-1,0}
				q {44,51,76,-1,0} {17,51,70,-1,0} {47,51,69,-1,0} {53,51,75,-1,0}
				q {43,51,117,-1,0} {57,51,116,-1,0} {56,51,96,-1,0} {26,51,72,-1,0}
				q {35,51,135,-1,0} {59,51,119,-1,0} {58,51,118,-1,0} {43,51,117,-1,0}
				q {32,85,57,-1,0} {76,85,95,-1,0} {75,51,114,-1,0} {31,51,56,-1,0}
				q {53,87,75,-1,0} {77,87,83,-1,0} {32,87,57,-1,0} {44,87,76,-1,0}
				q {80,51,137,-1,0} {79,51,123,-1,0} {35,51,135,-1,0} {37,51,144,-1,0}
				q {39,51,145,-1,0} {81,51,143,-1,0} {80,51,137,-1,0} {37,51,144,-1,0}
				q {41,51,89,-1,0} {82,51,140,-1,0} {81,51,143,-1,0} {39,51,145,-1,0}
				q {29,51,130,-1,0} {83,51,129,-1,0} {82,51,140,-1,0} {41,51,89,-1,0}
				q {31,51,56,-1,0} {75,51,114,-1,0} {83,51,129,-1,0} {29,51,130,-1,0}
				q {67,51,86,-1,0} {71,51,87,-1,0} {72,51,80,-1,0} {66,51,44,-1,0}
				q {61,51,68,-1,0} {64,51,67,-1,0} {65,51,34,-1,0} {74,51,74,-1,0}
				q {72,51,80,-1,0} {97,51,196,-1,0} {96,51,202,-1,0} {73,51,78,-1,0}
				q {67,51,86,-1,0} {68,51,191,-1,0} {69,51,185,-1,0} {70,51,177,-1,0}
				q {144,89,2,-1,0} {130,92,6,-1,0} {163,91,5,-1,0} {117,90,1,-1,0}
				q {118,93,0,-1,0} {142,94,3,-1,0} {144,89,2,-1,0} {117,90,1,-1,0}
				q {139,96,10,-1,0} {142,94,3,-1,0} {118,93,0,-1,0} {119,95,9,-1,0}
				q {120,97,12,-1,0} {137,98,13,-1,0} {139,96,10,-1,0} {119,95,9,-1,0}
				q {136,100,17,-1,0} {137,98,13,-1,0} {120,97,12,-1,0} {121,99,14,-1,0}
				q {133,102,21,-1,0} {136,100,17,-1,0} {121,99,14,-1,0} {122,101,20,-1,0}
				q {126,103,32,-1,0} {145,106,35,-1,0} {147,105,31,-1,0} {125,104,30,-1,0}
				q {127,107,38,-1,0} {157,108,39,-1,0} {145,106,35,-1,0} {126,103,32,-1,0}
				q {155,110,42,-1,0} {157,108,39,-1,0} {127,107,38,-1,0} {128,109,41,-1,0}
				q {153,112,46,-1,0} {155,110,42,-1,0} {128,109,41,-1,0} {129,111,43,-1,0}
				q {151,114,50,-1,0} {153,112,46,-1,0} {129,111,43,-1,0} {123,113,49,-1,0}
				q {125,104,30,-1,0} {147,105,31,-1,0} {150,116,27,-1,0} {124,115,28,-1,0}
				q {159,88,52,-1,0} {151,114,50,-1,0} {123,113,49,-1,0} {130,92,53,-1,0}
				q {124,115,28,-1,0} {150,116,27,-1,0} {162,118,24,-1,0} {131,117,25,-1,0}
				q {131,119,156,-1,0} {132,119,153,-1,0} {163,119,154,-1,0} {130,119,157,-1,0}
				q {131,117,25,-1,0} {162,118,24,-1,0} {133,102,21,-1,0} {132,120,23,-1,0}
				q {133,102,21,-1,0} {162,118,24,-1,0} {161,122,26,-1,0} {134,121,22,-1,0}
				q {136,100,17,-1,0} {133,102,21,-1,0} {134,121,22,-1,0} {135,123,18,-1,0}
				q {135,123,18,-1,0} {138,124,19,-1,0} {137,98,13,-1,0} {136,100,17,-1,0}
				q {138,124,19,-1,0} {140,125,11,-1,0} {139,96,10,-1,0} {137,98,13,-1,0}
				q {139,96,10,-1,0} {140,125,11,-1,0} {141,126,7,-1,0} {142,94,3,-1,0}
				q {143,127,8,-1,0} {144,89,2,-1,0} {142,94,3,-1,0} {141,126,7,-1,0}
				q {144,89,2,-1,0} {143,127,8,-1,0} {160,128,160,-1,0} {159,88,4,-1,0}
				q {145,106,35,-1,0} {146,129,36,-1,0} {148,130,37,-1,0} {147,105,31,-1,0}
				q {157,108,39,-1,0} {158,131,40,-1,0} {146,129,36,-1,0} {145,106,35,-1,0}
				q {147,105,31,-1,0} {148,130,37,-1,0} {149,132,29,-1,0} {150,116,27,-1,0}
				q {150,116,27,-1,0} {149,132,29,-1,0} {161,122,26,-1,0} {162,118,24,-1,0}
				q {160,128,54,-1,0} {152,133,51,-1,0} {151,114,50,-1,0} {159,88,52,-1,0}
				q {152,133,51,-1,0} {154,134,47,-1,0} {153,112,46,-1,0} {151,114,50,-1,0}
				q {154,134,47,-1,0} {156,135,48,-1,0} {155,110,42,-1,0} {153,112,46,-1,0}
				q {156,135,48,-1,0} {158,131,40,-1,0} {157,108,39,-1,0} {155,110,42,-1,0}
				q {119,51,149,-1,0} {118,51,148,-1,0} {117,51,155,-1,0} {120,51,150,-1,0}
				q {123,51,122,-1,0} {129,51,71,-1,0} {128,51,73,-1,0} {127,51,77,-1,0}
				q {191,137,187,-1,0} {164,137,203,-1,0} {170,136,210,-1,0} {190,136,169,-1,0}
				q {180,48,195,-1,0} {179,48,199,-1,0} {178,48,68,-1,0} {181,48,67,-1,0}
				q {165,139,205,-1,0} {178,139,181,-1,0} {179,138,62,-1,0} {166,138,206,-1,0}
				q {166,138,206,-1,0} {179,138,62,-1,0} {180,140,61,-1,0} {167,140,207,-1,0}
				q {180,140,61,-1,0} {181,141,178,-1,0} {168,141,208,-1,0} {167,140,207,-1,0}
				q {181,141,178,-1,0} {182,142,184,-1,0} {169,142,209,-1,0} {168,141,208,-1,0}
				q {171,143,212,-1,0} {169,142,209,-1,0} {182,142,184,-1,0} {183,143,175,-1,0}
				q {171,143,212,-1,0} {183,143,175,-1,0} {184,144,165,-1,0} {172,144,213,-1,0}
				q {172,144,213,-1,0} {184,144,165,-1,0} {185,145,97,-1,0} {173,145,215,-1,0}
				q {173,145,215,-1,0} {185,145,97,-1,0} {186,146,98,-1,0} {174,146,216,-1,0}
				q {186,146,98,-1,0} {187,147,99,-1,0} {175,147,218,-1,0} {174,146,216,-1,0}
				q {187,147,99,-1,0} {188,148,168,-1,0} {176,148,219,-1,0} {175,147,218,-1,0}
				q {188,148,168,-1,0} {189,149,172,-1,0} {177,149,221,-1,0} {176,148,219,-1,0}
				q {195,150,211,-1,0} {177,149,221,-1,0} {189,149,172,-1,0} {204,150,167,-1,0}
				q {164,137,203,-1,0} {191,137,187,-1,0} {178,139,181,-1,0} {165,139,205,-1,0}
				q {215,48,192,-1,0} {204,48,15,-1,0} {189,48,80,-1,0} {214,48,196,-1,0}
				q {201,151,164,-1,0} {202,152,141,-1,0} {193,152,217,-1,0} {192,151,220,-1,0}
				q {202,152,141,-1,0} {203,153,131,-1,0} {194,153,214,-1,0} {193,152,217,-1,0}
				q {194,153,214,-1,0} {203,153,131,-1,0} {190,136,169,-1,0} {170,136,210,-1,0}
				q {204,150,167,-1,0} {205,154,170,-1,0} {196,154,204,-1,0} {195,150,211,-1,0}
				q {205,154,170,-1,0} {206,155,174,-1,0} {197,155,200,-1,0} {196,154,204,-1,0}
				q {206,155,174,-1,0} {207,156,180,-1,0} {198,156,197,-1,0} {197,155,200,-1,0}
				q {207,156,180,-1,0} {208,157,186,-1,0} {199,157,194,-1,0} {198,156,197,-1,0}
				q {208,157,186,-1,0} {209,158,201,-1,0} {200,158,190,-1,0} {199,157,194,-1,0}
				q {209,158,201,-1,0} {201,151,164,-1,0} {192,151,220,-1,0} {200,158,190,-1,0}
				q {233,48,115,-1,0} {232,48,134,-1,0} {231,48,161,-1,0} {230,48,166,-1,0}
				q {201,48,128,-1,0} {210,48,84,-1,0} {211,48,146,-1,0} {202,48,113,-1,0}
				q {202,48,113,-1,0} {211,48,146,-1,0} {212,48,179,-1,0} {203,48,94,-1,0}
				q {203,48,94,-1,0} {212,48,179,-1,0} {213,48,202,-1,0} {190,48,78,-1,0}
				q {204,48,15,-1,0} {216,48,188,-1,0} {217,48,182,-1,0} {205,48,101,-1,0}
				q {205,48,101,-1,0} {217,48,182,-1,0} {218,48,173,-1,0} {206,48,120,-1,0}
				q {206,48,120,-1,0} {218,48,173,-1,0} {219,48,163,-1,0} {207,48,136,-1,0}
				q {207,48,136,-1,0} {219,48,163,-1,0} {220,48,147,-1,0} {208,48,138,-1,0}
				q {208,48,138,-1,0} {220,48,147,-1,0} {221,48,133,-1,0} {209,48,139,-1,0}
				q {209,48,139,-1,0} {221,48,133,-1,0} {210,48,84,-1,0} {201,48,128,-1,0}
				q {222,159,104,-1,0} {223,160,105,-1,0} {211,160,112,-1,0} {210,159,124,-1,0}
				q {223,160,105,-1,0} {224,161,106,-1,0} {212,161,93,-1,0} {211,160,112,-1,0}
				q {224,161,106,-1,0} {225,162,92,-1,0} {213,162,82,-1,0} {212,161,93,-1,0}
				q {225,162,92,-1,0} {226,163,91,-1,0} {214,163,81,-1,0} {213,162,82,-1,0}
				q {226,163,91,-1,0} {227,164,100,-1,0} {215,164,88,-1,0} {214,163,81,-1,0}
				q {227,164,100,-1,0} {228,165,103,-1,0} {216,165,90,-1,0} {215,164,88,-1,0}
				q {228,165,103,-1,0} {229,166,107,-1,0} {217,166,102,-1,0} {216,165,90,-1,0}
				q {229,166,107,-1,0} {230,167,108,-1,0} {218,167,121,-1,0} {217,166,102,-1,0}
				q {230,167,108,-1,0} {231,168,109,-1,0} {219,168,125,-1,0} {218,167,121,-1,0}
				q {231,168,109,-1,0} {232,169,110,-1,0} {220,169,126,-1,0} {219,168,125,-1,0}
				q {232,169,110,-1,0} {233,170,111,-1,0} {221,170,127,-1,0} {220,169,126,-1,0}
				q {233,170,111,-1,0} {222,159,104,-1,0} {210,159,124,-1,0} {221,170,127,-1,0}
				q {164,48,69,-1,0} {165,48,63,-1,0} {135,48,64,-1,0} {134,48,70,-1,0}
				q {165,48,63,-1,0} {166,48,60,-1,0} {138,48,55,-1,0} {135,48,64,-1,0}
				q {138,48,55,-1,0} {166,48,60,-1,0} {167,48,59,-1,0} {140,48,58,-1,0}
				q {140,48,58,-1,0} {167,48,59,-1,0} {168,48,65,-1,0} {141,48,66,-1,0}
				q {141,48,66,-1,0} {168,48,65,-1,0} {169,48,33,-1,0} {143,48,72,-1,0}
				q {164,48,69,-1,0} {134,48,70,-1,0} {161,48,76,-1,0} {170,48,75,-1,0}
				q {173,48,96,-1,0} {174,48,116,-1,0} {160,48,117,-1,0} {143,48,72,-1,0}
				q {175,48,118,-1,0} {176,48,119,-1,0} {152,48,135,-1,0} {160,48,117,-1,0}
				q {192,48,114,-1,0} {193,171,95,-1,0} {149,171,57,-1,0} {148,48,56,-1,0}
				q {149,173,57,-1,0} {194,173,83,-1,0} {170,173,75,-1,0} {161,173,76,-1,0}
				q {152,48,135,-1,0} {196,48,123,-1,0} {197,48,137,-1,0} {154,48,144,-1,0}
				q {197,48,137,-1,0} {198,48,143,-1,0} {156,48,145,-1,0} {154,48,144,-1,0}
				q {198,48,143,-1,0} {199,48,140,-1,0} {158,48,89,-1,0} {156,48,145,-1,0}
				q {199,48,140,-1,0} {200,48,129,-1,0} {146,48,130,-1,0} {158,48,89,-1,0}
				q {200,48,129,-1,0} {192,48,114,-1,0} {148,48,56,-1,0} {146,48,130,-1,0}
				q {189,48,80,-1,0} {188,48,87,-1,0} {184,48,86,-1,0} {183,48,44,-1,0}
				q {182,48,34,-1,0} {181,48,67,-1,0} {178,48,68,-1,0} {191,48,74,-1,0}
				q {213,48,202,-1,0} {214,48,196,-1,0} {189,48,80,-1,0} {190,48,78,-1,0}
				q {187,48,177,-1,0} {186,48,185,-1,0} {185,48,191,-1,0} {184,48,86,-1,0}
			}
			CTris
			{
				numTris 64
				t {27,4,2,-1,0} {13,1,6,-1,0} {42,0,4,-1,0}
				t {16,14,21,-1,0} {15,32,23,-1,0} {5,13,20,-1,0}
				t {0,48,155,-1,0} {15,48,153,-1,0} {46,48,154,-1,0}
				t {0,48,155,-1,0} {5,48,152,-1,0} {15,48,153,-1,0}
				t {0,48,155,-1,0} {4,48,151,-1,0} {5,48,152,-1,0}
				t {1,48,148,-1,0} {4,48,151,-1,0} {0,48,155,-1,0}
				t {14,48,156,-1,0} {6,48,122,-1,0} {13,48,157,-1,0}
				t {7,48,158,-1,0} {6,48,122,-1,0} {14,48,156,-1,0}
				t {8,48,159,-1,0} {6,48,122,-1,0} {7,48,158,-1,0}
				t {8,48,159,-1,0} {12,48,71,-1,0} {6,48,122,-1,0}
				t {8,48,159,-1,0} {11,48,73,-1,0} {12,48,71,-1,0}
				t {72,51,80,-1,0} {98,51,192,-1,0} {97,51,196,-1,0}
				t {106,51,162,-1,0} {116,51,115,-1,0} {105,51,132,-1,0}
				t {106,51,162,-1,0} {115,51,134,-1,0} {116,51,115,-1,0}
				t {106,51,162,-1,0} {114,51,161,-1,0} {115,51,134,-1,0}
				t {106,51,162,-1,0} {113,51,166,-1,0} {114,51,161,-1,0}
				t {106,51,162,-1,0} {112,51,176,-1,0} {113,51,166,-1,0}
				t {106,51,162,-1,0} {111,51,183,-1,0} {112,51,176,-1,0}
				t {106,51,162,-1,0} {110,51,189,-1,0} {111,51,183,-1,0}
				t {106,51,162,-1,0} {109,51,193,-1,0} {110,51,189,-1,0}
				t {52,51,33,-1,0} {26,51,72,-1,0} {54,51,45,-1,0}
				t {54,51,45,-1,0} {26,51,72,-1,0} {55,51,85,-1,0}
				t {55,51,85,-1,0} {26,51,72,-1,0} {56,51,96,-1,0}
				t {57,51,116,-1,0} {43,51,117,-1,0} {58,51,118,-1,0}
				t {59,51,119,-1,0} {35,51,135,-1,0} {60,51,142,-1,0}
				t {76,85,95,-1,0} {32,85,57,-1,0} {77,86,83,-1,0}
				t {60,51,142,-1,0} {35,51,135,-1,0} {78,51,16,-1,0}
				t {78,51,16,-1,0} {35,51,135,-1,0} {79,51,123,-1,0}
				t {66,51,44,-1,0} {74,51,74,-1,0} {65,51,34,-1,0}
				t {66,51,44,-1,0} {73,51,78,-1,0} {74,51,74,-1,0}
				t {72,51,80,-1,0} {73,51,78,-1,0} {66,51,44,-1,0}
				t {67,51,86,-1,0} {70,51,177,-1,0} {71,51,87,-1,0}
				t {130,92,6,-1,0} {144,89,2,-1,0} {159,88,4,-1,0}
				t {132,120,23,-1,0} {133,102,21,-1,0} {122,101,20,-1,0}
				t {132,51,153,-1,0} {117,51,155,-1,0} {163,51,154,-1,0}
				t {122,51,152,-1,0} {117,51,155,-1,0} {132,51,153,-1,0}
				t {121,51,151,-1,0} {117,51,155,-1,0} {122,51,152,-1,0}
				t {120,51,150,-1,0} {117,51,155,-1,0} {121,51,151,-1,0}
				t {123,51,122,-1,0} {131,51,156,-1,0} {130,51,157,-1,0}
				t {123,51,122,-1,0} {124,51,158,-1,0} {131,51,156,-1,0}
				t {123,51,122,-1,0} {125,51,159,-1,0} {124,51,158,-1,0}
				t {123,51,122,-1,0} {126,51,79,-1,0} {125,51,159,-1,0}
				t {123,51,122,-1,0} {127,51,77,-1,0} {126,51,79,-1,0}
				t {204,48,15,-1,0} {215,48,192,-1,0} {216,48,188,-1,0}
				t {233,48,115,-1,0} {223,48,162,-1,0} {222,48,132,-1,0}
				t {233,48,115,-1,0} {224,48,171,-1,0} {223,48,162,-1,0}
				t {233,48,115,-1,0} {225,48,198,-1,0} {224,48,171,-1,0}
				t {233,48,115,-1,0} {226,48,193,-1,0} {225,48,198,-1,0}
				t {233,48,115,-1,0} {227,48,189,-1,0} {226,48,193,-1,0}
				t {233,48,115,-1,0} {228,48,183,-1,0} {227,48,189,-1,0}
				t {233,48,115,-1,0} {229,48,176,-1,0} {228,48,183,-1,0}
				t {233,48,115,-1,0} {230,48,166,-1,0} {229,48,176,-1,0}
				t {143,48,72,-1,0} {169,48,33,-1,0} {171,48,45,-1,0}
				t {143,48,72,-1,0} {171,48,45,-1,0} {172,48,85,-1,0}
				t {143,48,72,-1,0} {172,48,85,-1,0} {173,48,96,-1,0}
				t {160,48,117,-1,0} {174,48,116,-1,0} {175,48,118,-1,0}
				t {152,48,135,-1,0} {176,48,119,-1,0} {177,48,142,-1,0}
				t {149,171,57,-1,0} {193,171,95,-1,0} {194,172,83,-1,0}
				t {152,48,135,-1,0} {177,48,142,-1,0} {195,48,16,-1,0}
				t {152,48,135,-1,0} {195,48,16,-1,0} {196,48,123,-1,0}
				t {191,48,74,-1,0} {183,48,44,-1,0} {182,48,34,-1,0}
				t {190,48,78,-1,0} {183,48,44,-1,0} {191,48,74,-1,0}
				t {190,48,78,-1,0} {189,48,80,-1,0} {183,48,44,-1,0}
				t {187,48,177,-1,0} {184,48,86,-1,0} {188,48,87,-1,0}
			}
		}
	}
}
