// Source file: C:/dev/sdk/main/sdk_examples/ArtAssets/OpenGLES/maya7/bike_v2.mb
CIwModel
{
	name "turntable"
	CMesh
	{
		name "turntable"
		scale 10
		CVerts
		{
			numVerts 101
			v {1316.74365,-381.28058,-427.83594}
			v {1120.08911,-381.28058,-813.79242}
			v {813.79224,-381.28058,-1120.08923}
			v {427.83594,-381.28058,-1316.74365}
			v {-0.00000,-381.28058,-1384.50623}
			v {-427.83594,-381.28058,-1316.74365}
			v {-813.79224,-381.28058,-1120.08899}
			v {-1120.08899,-381.28058,-813.79224}
			v {-1316.74341,-381.28058,-427.83594}
			v {-1384.50574,-381.28058,-0.00004}
			v {-1316.74341,-381.28058,427.83585}
			v {-1120.08899,-381.28058,813.79224}
			v {-813.79224,-381.28058,1120.08887}
			v {-427.83585,-381.28058,1316.74316}
			v {0.00000,-381.28058,1384.50574}
			v {427.83585,-381.28058,1316.74316}
			v {813.79205,-381.28058,1120.08887}
			v {1120.08887,-381.28058,813.79205}
			v {1316.74316,-381.28058,427.83585}
			v {1384.50562,-381.28058,-0.00001}
			v {1391.19751,0,-452.02756}
			v {1183.42334,0,-859.80743}
			v {859.80743,0,-1183.42334}
			v {452.02744,0,-1391.19751}
			v {0.00001,0,-1462.79175}
			v {-452.02744,0,-1391.19751}
			v {-859.80713,0,-1183.42310}
			v {-1183.42310,0,-859.80713}
			v {-1391.19727,0,-452.02744}
			v {-1462.79150,0,-0.00003}
			v {-1391.19727,0,452.02744}
			v {-1183.42310,0,859.80713}
			v {-859.80713,0,1183.42285}
			v {-452.02734,0,1391.19727}
			v {0.00001,0,1462.79150}
			v {452.02734,0,1391.19727}
			v {859.80713,0,1183.42285}
			v {1183.42285,0,859.80713}
			v {1391.19727,0,452.02734}
			v {1462.79077,0,-0.00000}
			v {0,0,0}
			v {1409.64539,-11.15654,458.02151}
			v {1199.11597,-11.15654,871.20874}
			v {871.20874,-11.15654,1199.11597}
			v {458.02151,-11.15654,1409.64539}
			v {0.00001,-11.15654,1482.18872}
			v {-458.02151,-11.15654,1409.64539}
			v {-871.20874,-11.15654,1199.11597}
			v {-1199.11609,-11.15654,871.20874}
			v {-1409.64539,-11.15654,458.02161}
			v {-1482.18872,-11.15654,-0.00003}
			v {-1409.64539,-11.15654,-458.02161}
			v {-1199.11609,-11.15654,-871.20898}
			v {-871.20898,-11.15654,-1199.11609}
			v {-458.02161,-11.15654,-1409.64575}
			v {0.00001,-11.15654,-1482.18933}
			v {458.02170,-11.15654,-1409.64575}
			v {871.20898,-11.15654,-1199.11633}
			v {1199.11633,-11.15654,-871.20898}
			v {1409.64575,-11.15654,-458.02173}
			v {1482.18872,-11.15654,-0.00000}
			v {1414.26392,-26.95435,459.52225}
			v {1203.04492,-26.95435,874.06317}
			v {874.06317,-26.95435,1203.04492}
			v {459.52228,-26.95435,1414.26392}
			v {0.00001,-26.95435,1487.04529}
			v {-459.52228,-26.95435,1414.26416}
			v {-874.06342,-26.95435,1203.04492}
			v {-1203.04517,-26.95435,874.06342}
			v {-1414.26440,-26.95435,459.52228}
			v {-1487.04529,-26.95435,-0.00003}
			v {-1414.26440,-26.95435,-459.52240}
			v {-1203.04517,-26.95435,-874.06342}
			v {-874.06342,-26.95435,-1203.04517}
			v {-459.52240,-26.95435,-1414.26440}
			v {0.00001,-26.95435,-1487.04590}
			v {459.52240,-26.95435,-1414.26440}
			v {874.06360,-26.95435,-1203.04541}
			v {1203.04541,-26.95435,-874.06366}
			v {1414.26489,-26.95435,-459.52240}
			v {1487.04492,-26.95435,0}
			v {1414.26392,-210.48999,459.52216}
			v {1203.04492,-210.48999,874.06317}
			v {874.06317,-210.48999,1203.04492}
			v {459.52228,-210.48999,1414.26392}
			v {0.00001,-210.48999,1487.04529}
			v {-459.52228,-210.48999,1414.26416}
			v {-874.06342,-210.48999,1203.04492}
			v {-1203.04517,-210.48999,874.06342}
			v {-1414.26440,-210.48999,459.52228}
			v {-1487.04529,-210.48999,-0.00003}
			v {-1414.26440,-210.48999,-459.52228}
			v {-1203.04517,-210.48999,-874.06342}
			v {-874.06342,-210.48999,-1203.04517}
			v {-459.52228,-210.48999,-1414.26440}
			v {0.00001,-210.48999,-1487.04590}
			v {459.52240,-210.48999,-1414.26440}
			v {874.06360,-210.48999,-1203.04541}
			v {1203.04541,-210.48999,-874.06366}
			v {1414.26489,-210.48999,-459.52240}
			v {1487.04492,-210.48999,0.00000}
		}
		CVertNorms
		{
			numVertNorms 101
			vn {0.81539,-0.51474,-0.26493}
			vn {0.69361,-0.51474,-0.50394}
			vn {0.77495,-0.28713,-0.56304}
			vn {0.91101,-0.28713,-0.29600}
			vn {0.50394,-0.51474,-0.69361}
			vn {0.56304,-0.28713,-0.77495}
			vn {0.26494,-0.51474,-0.81539}
			vn {0.29601,-0.28713,-0.91101}
			vn {0.00000,-0.51474,-0.85735}
			vn {-0.00000,-0.28713,-0.95789}
			vn {-0.26494,-0.51474,-0.81539}
			vn {-0.29601,-0.28713,-0.91101}
			vn {-0.50394,-0.51474,-0.69361}
			vn {-0.56304,-0.28713,-0.77495}
			vn {-0.69361,-0.51474,-0.50394}
			vn {-0.77495,-0.28713,-0.56304}
			vn {-0.81539,-0.51474,-0.26494}
			vn {-0.91101,-0.28713,-0.29601}
			vn {-0.85735,-0.51474,-0.00000}
			vn {-0.95789,-0.28713,-0.00000}
			vn {-0.81539,-0.51474,0.26494}
			vn {-0.91101,-0.28713,0.29601}
			vn {-0.69361,-0.51474,0.50394}
			vn {-0.77495,-0.28713,0.56304}
			vn {-0.50394,-0.51474,0.69361}
			vn {-0.56304,-0.28713,0.77495}
			vn {-0.26494,-0.51474,0.81539}
			vn {-0.29601,-0.28713,0.91101}
			vn {0.00000,-0.51474,0.85735}
			vn {0.00000,-0.28713,0.95789}
			vn {0.26494,-0.51474,0.81539}
			vn {0.29601,-0.28713,0.91101}
			vn {0.50394,-0.51474,0.69361}
			vn {0.56304,-0.28713,0.77495}
			vn {0.69361,-0.51474,0.50394}
			vn {0.77495,-0.28713,0.56304}
			vn {0.81539,-0.51474,0.26494}
			vn {0.91101,-0.28713,0.29601}
			vn {0.85735,-0.51474,0.00000}
			vn {0.95789,-0.28713,0.00000}
			vn {0.09723,0.99476,-0.03159}
			vn {0.08271,0.99476,-0.06009}
			vn {0,1,-0.00000}
			vn {0.06009,0.99476,-0.08271}
			vn {0.03159,0.99476,-0.09723}
			vn {-0.00000,0.99476,-0.10223}
			vn {-0.03159,0.99476,-0.09723}
			vn {-0.06009,0.99476,-0.08271}
			vn {-0.08271,0.99476,-0.06009}
			vn {-0.09723,0.99476,-0.03159}
			vn {-0.10223,0.99476,-0.00000}
			vn {-0.09723,0.99476,0.03159}
			vn {-0.08271,0.99476,0.06009}
			vn {-0.06009,0.99476,0.08271}
			vn {-0.03159,0.99476,0.09723}
			vn {-0.00000,0.99476,0.10223}
			vn {0.03159,0.99476,0.09723}
			vn {0.06009,0.99476,0.08271}
			vn {0.08271,0.99476,0.06009}
			vn {0.09723,0.99476,0.03159}
			vn {0.10223,0.99476,0.00000}
			vn {0.56789,0.71223,0.41260}
			vn {0.66759,0.71223,0.21691}
			vn {0.41260,0.71223,0.56789}
			vn {0.21691,0.71223,0.66759}
			vn {-0.00000,0.71223,0.70195}
			vn {-0.21691,0.71223,0.66759}
			vn {-0.41259,0.71223,0.56789}
			vn {-0.56789,0.71223,0.41259}
			vn {-0.66759,0.71223,0.21691}
			vn {-0.70195,0.71223,-0.00000}
			vn {-0.66759,0.71223,-0.21691}
			vn {-0.56789,0.71223,-0.41259}
			vn {-0.41259,0.71223,-0.56789}
			vn {-0.21691,0.71223,-0.66759}
			vn {-0.00000,0.71223,-0.70195}
			vn {0.21691,0.71223,-0.66759}
			vn {0.41259,0.71223,-0.56789}
			vn {0.56789,0.71223,-0.41259}
			vn {0.66759,0.71223,-0.21691}
			vn {0.70195,0.71223,0.00000}
			vn {0.79963,0.15186,0.58097}
			vn {0.94003,0.15186,0.30543}
			vn {0.58097,0.15186,0.79963}
			vn {0.30543,0.15186,0.94003}
			vn {0.00000,0.15187,0.98840}
			vn {-0.30543,0.15187,0.94002}
			vn {-0.58097,0.15187,0.79963}
			vn {-0.79963,0.15187,0.58097}
			vn {-0.94003,0.15187,0.30543}
			vn {-0.98840,0.15187,-0.00000}
			vn {-0.94003,0.15187,-0.30543}
			vn {-0.79963,0.15187,-0.58097}
			vn {-0.58097,0.15187,-0.79963}
			vn {-0.30543,0.15187,-0.94003}
			vn {-0.00000,0.15186,-0.98840}
			vn {0.30543,0.15186,-0.94003}
			vn {0.58097,0.15187,-0.79963}
			vn {0.79963,0.15187,-0.58097}
			vn {0.94003,0.15186,-0.30543}
			vn {0.98840,0.15186,0.00000}
		}
		CUVs
		{
			setID 0
			numUVs 126
			uv {0.56706,-2.12237}
			uv {0.56706,-2.47614}
			uv {0.76131,-2.47614}
			uv {0.76131,-2.12237}
			uv {0.56706,-2.82991}
			uv {0.76131,-2.82991}
			uv {0.56706,-3.18368}
			uv {0.76131,-3.18368}
			uv {0.56706,-3.53745}
			uv {0.76131,-3.53745}
			uv {0.56706,3.53790}
			uv {0.56706,3.18413}
			uv {0.76131,3.18413}
			uv {0.76131,3.53790}
			uv {0.56706,2.83036}
			uv {0.76131,2.83036}
			uv {0.56706,2.47660}
			uv {0.76131,2.47660}
			uv {0.56706,2.12283}
			uv {0.76131,2.12283}
			uv {0.56706,1.76906}
			uv {0.76131,1.76906}
			uv {0.56706,1.41529}
			uv {0.76131,1.41529}
			uv {0.56706,1.06152}
			uv {0.76131,1.06152}
			uv {0.56706,0.70776}
			uv {0.76131,0.70776}
			uv {0.56706,0.35399}
			uv {0.76131,0.35399}
			uv {0.56706,0.00023}
			uv {0.76131,0.00023}
			uv {0.56706,-0.35354}
			uv {0.76131,-0.35354}
			uv {0.56706,-0.70731}
			uv {0.76131,-0.70731}
			uv {0.56706,-1.06107}
			uv {0.76131,-1.06107}
			uv {0.56706,-1.41484}
			uv {0.76131,-1.41484}
			uv {0.56706,-1.76861}
			uv {0.76131,-1.76861}
			uv {1.00072,-2.12237}
			uv {1.00072,-2.47614}
			uv {3.78092,1.52327}
			uv {1.00072,-2.82991}
			uv {1.00072,-3.18368}
			uv {1.00072,-3.53745}
			uv {3.29223,2.44637}
			uv {0.50882,0.50000}
			uv {2.53109,3.17895}
			uv {1.00072,2.47660}
			uv {1.00072,2.12283}
			uv {1.00072,1.76906}
			uv {1.00072,1.41529}
			uv {1.00072,1.06152}
			uv {1.00072,0.70776}
			uv {1.00072,0.35399}
			uv {1.00072,0.00023}
			uv {1.00072,-0.35354}
			uv {1.00072,-0.70731}
			uv {1.00072,-1.06107}
			uv {1.00072,-1.41484}
			uv {1.00072,-1.76861}
			uv {0.98803,-1.06107}
			uv {0.98803,-1.41484}
			uv {0.98803,-0.70731}
			uv {0.98803,-0.35354}
			uv {0.98803,0.00023}
			uv {0.98803,0.35399}
			uv {0.98803,0.70776}
			uv {0.98803,1.06152}
			uv {0.98803,1.41529}
			uv {0.98803,1.76906}
			uv {0.98803,2.12283}
			uv {0.98803,2.47660}
			uv {0.98803,2.83036}
			uv {1.00072,2.83036}
			uv {0.98803,3.18413}
			uv {1.00072,3.18413}
			uv {0.98803,3.53790}
			uv {1.00072,3.53790}
			uv {0.98803,-3.18368}
			uv {0.98803,-3.53745}
			uv {0.98803,-2.82991}
			uv {0.98803,-2.47614}
			uv {0.98803,-2.12237}
			uv {0.98803,-1.76861}
			uv {0.97006,-1.06107}
			uv {0.97006,-1.41484}
			uv {0.97006,-0.70731}
			uv {0.97006,-0.35354}
			uv {0.97006,0.00023}
			uv {0.97006,0.35399}
			uv {0.97006,0.70776}
			uv {0.97006,1.06152}
			uv {0.97006,1.41529}
			uv {0.97006,1.76906}
			uv {0.97006,2.12283}
			uv {0.97006,2.47660}
			uv {0.97006,2.83036}
			uv {0.97006,3.18413}
			uv {0.97006,3.53790}
			uv {0.97006,-3.18368}
			uv {0.97006,-3.53745}
			uv {0.97006,-2.82991}
			uv {0.97006,-2.47614}
			uv {0.97006,-2.12237}
			uv {0.97006,-1.76861}
			uv {1.57199,3.64929}
			uv {0.50882,3.81136}
			uv {-0.55435,3.64929}
			uv {-1.51344,3.17895}
			uv {-2.27459,2.44637}
			uv {-2.76327,1.52327}
			uv {-2.93166,0.50000}
			uv {-2.76327,-0.52327}
			uv {-2.27459,-1.44637}
			uv {-1.51344,-2.17895}
			uv {-0.55434,-2.64929}
			uv {0.50882,-2.81136}
			uv {1.57199,-2.64929}
			uv {2.53109,-2.17895}
			uv {3.29223,-1.44637}
			uv {3.78092,-0.52327}
			uv {3.94931,0.50000}
		}
		CSurface
		{
			material "lambert4"
			CQuads
			{
				numQuads 60
				q {1,1,1,-1,-1} {0,0,0,-1,-1} {99,3,3,-1,-1} {98,2,2,-1,-1}
				q {2,4,4,-1,-1} {1,1,1,-1,-1} {98,2,2,-1,-1} {97,5,5,-1,-1}
				q {3,6,6,-1,-1} {2,4,4,-1,-1} {97,5,5,-1,-1} {96,7,7,-1,-1}
				q {4,8,8,-1,-1} {3,6,6,-1,-1} {96,7,7,-1,-1} {95,9,9,-1,-1}
				q {5,10,11,-1,-1} {4,8,10,-1,-1} {95,9,13,-1,-1} {94,11,12,-1,-1}
				q {6,12,14,-1,-1} {5,10,11,-1,-1} {94,11,12,-1,-1} {93,13,15,-1,-1}
				q {7,14,16,-1,-1} {6,12,14,-1,-1} {93,13,15,-1,-1} {92,15,17,-1,-1}
				q {8,16,18,-1,-1} {7,14,16,-1,-1} {92,15,17,-1,-1} {91,17,19,-1,-1}
				q {9,18,20,-1,-1} {8,16,18,-1,-1} {91,17,19,-1,-1} {90,19,21,-1,-1}
				q {10,20,22,-1,-1} {9,18,20,-1,-1} {90,19,21,-1,-1} {89,21,23,-1,-1}
				q {11,22,24,-1,-1} {10,20,22,-1,-1} {89,21,23,-1,-1} {88,23,25,-1,-1}
				q {12,24,26,-1,-1} {11,22,24,-1,-1} {88,23,25,-1,-1} {87,25,27,-1,-1}
				q {13,26,28,-1,-1} {12,24,26,-1,-1} {87,25,27,-1,-1} {86,27,29,-1,-1}
				q {14,28,30,-1,-1} {13,26,28,-1,-1} {86,27,29,-1,-1} {85,29,31,-1,-1}
				q {15,30,32,-1,-1} {14,28,30,-1,-1} {85,29,31,-1,-1} {84,31,33,-1,-1}
				q {16,32,34,-1,-1} {15,30,32,-1,-1} {84,31,33,-1,-1} {83,33,35,-1,-1}
				q {17,34,36,-1,-1} {16,32,34,-1,-1} {83,33,35,-1,-1} {82,35,37,-1,-1}
				q {18,36,38,-1,-1} {17,34,36,-1,-1} {82,35,37,-1,-1} {81,37,39,-1,-1}
				q {19,38,40,-1,-1} {18,36,38,-1,-1} {81,37,39,-1,-1} {100,39,41,-1,-1}
				q {0,0,0,-1,-1} {19,38,40,-1,-1} {100,39,41,-1,-1} {99,3,3,-1,-1}
				q {42,61,64,-1,-1} {41,62,65,-1,-1} {61,82,89,-1,-1} {62,81,88,-1,-1}
				q {43,63,66,-1,-1} {42,61,64,-1,-1} {62,81,88,-1,-1} {63,83,90,-1,-1}
				q {44,64,67,-1,-1} {43,63,66,-1,-1} {63,83,90,-1,-1} {64,84,91,-1,-1}
				q {45,65,68,-1,-1} {44,64,67,-1,-1} {64,84,91,-1,-1} {65,85,92,-1,-1}
				q {46,66,69,-1,-1} {45,65,68,-1,-1} {65,85,92,-1,-1} {66,86,93,-1,-1}
				q {47,67,70,-1,-1} {46,66,69,-1,-1} {66,86,93,-1,-1} {67,87,94,-1,-1}
				q {48,68,71,-1,-1} {47,67,70,-1,-1} {67,87,94,-1,-1} {68,88,95,-1,-1}
				q {49,69,72,-1,-1} {48,68,71,-1,-1} {68,88,95,-1,-1} {69,89,96,-1,-1}
				q {50,70,73,-1,-1} {49,69,72,-1,-1} {69,89,96,-1,-1} {70,90,97,-1,-1}
				q {51,71,74,-1,-1} {50,70,73,-1,-1} {70,90,97,-1,-1} {71,91,98,-1,-1}
				q {52,72,75,-1,-1} {51,71,74,-1,-1} {71,91,98,-1,-1} {72,92,99,-1,-1}
				q {53,73,76,-1,-1} {52,72,75,-1,-1} {72,92,99,-1,-1} {73,93,100,-1,-1}
				q {54,74,78,-1,-1} {53,73,76,-1,-1} {73,93,100,-1,-1} {74,94,101,-1,-1}
				q {55,75,80,-1,-1} {54,74,78,-1,-1} {74,94,101,-1,-1} {75,95,102,-1,-1}
				q {56,76,82,-1,-1} {55,75,83,-1,-1} {75,95,104,-1,-1} {76,96,103,-1,-1}
				q {57,77,84,-1,-1} {56,76,82,-1,-1} {76,96,103,-1,-1} {77,97,105,-1,-1}
				q {58,78,85,-1,-1} {57,77,84,-1,-1} {77,97,105,-1,-1} {78,98,106,-1,-1}
				q {59,79,86,-1,-1} {58,78,85,-1,-1} {78,98,106,-1,-1} {79,99,107,-1,-1}
				q {60,80,87,-1,-1} {59,79,86,-1,-1} {79,99,107,-1,-1} {80,100,108,-1,-1}
				q {41,62,65,-1,-1} {60,80,87,-1,-1} {80,100,108,-1,-1} {61,82,89,-1,-1}
				q {62,81,88,-1,-1} {61,82,89,-1,-1} {81,37,39,-1,-1} {82,35,37,-1,-1}
				q {63,83,90,-1,-1} {62,81,88,-1,-1} {82,35,37,-1,-1} {83,33,35,-1,-1}
				q {64,84,91,-1,-1} {63,83,90,-1,-1} {83,33,35,-1,-1} {84,31,33,-1,-1}
				q {65,85,92,-1,-1} {64,84,91,-1,-1} {84,31,33,-1,-1} {85,29,31,-1,-1}
				q {66,86,93,-1,-1} {65,85,92,-1,-1} {85,29,31,-1,-1} {86,27,29,-1,-1}
				q {67,87,94,-1,-1} {66,86,93,-1,-1} {86,27,29,-1,-1} {87,25,27,-1,-1}
				q {68,88,95,-1,-1} {67,87,94,-1,-1} {87,25,27,-1,-1} {88,23,25,-1,-1}
				q {69,89,96,-1,-1} {68,88,95,-1,-1} {88,23,25,-1,-1} {89,21,23,-1,-1}
				q {70,90,97,-1,-1} {69,89,96,-1,-1} {89,21,23,-1,-1} {90,19,21,-1,-1}
				q {71,91,98,-1,-1} {70,90,97,-1,-1} {90,19,21,-1,-1} {91,17,19,-1,-1}
				q {72,92,99,-1,-1} {71,91,98,-1,-1} {91,17,19,-1,-1} {92,15,17,-1,-1}
				q {73,93,100,-1,-1} {72,92,99,-1,-1} {92,15,17,-1,-1} {93,13,15,-1,-1}
				q {74,94,101,-1,-1} {73,93,100,-1,-1} {93,13,15,-1,-1} {94,11,12,-1,-1}
				q {75,95,102,-1,-1} {74,94,101,-1,-1} {94,11,12,-1,-1} {95,9,13,-1,-1}
				q {76,96,103,-1,-1} {75,95,104,-1,-1} {95,9,9,-1,-1} {96,7,7,-1,-1}
				q {77,97,105,-1,-1} {76,96,103,-1,-1} {96,7,7,-1,-1} {97,5,5,-1,-1}
				q {78,98,106,-1,-1} {77,97,105,-1,-1} {97,5,5,-1,-1} {98,2,2,-1,-1}
				q {79,99,107,-1,-1} {78,98,106,-1,-1} {98,2,2,-1,-1} {99,3,3,-1,-1}
				q {80,100,108,-1,-1} {79,99,107,-1,-1} {99,3,3,-1,-1} {100,39,41,-1,-1}
				q {61,82,89,-1,-1} {80,100,108,-1,-1} {100,39,41,-1,-1} {81,37,39,-1,-1}
			}
		}
		CSurface
		{
			material "lambert5"
			CQuads
			{
				numQuads 20
				q {37,58,61,-1,-1} {38,59,62,-1,-1} {41,62,65,-1,-1} {42,61,64,-1,-1}
				q {36,57,60,-1,-1} {37,58,61,-1,-1} {42,61,64,-1,-1} {43,63,66,-1,-1}
				q {35,56,59,-1,-1} {36,57,60,-1,-1} {43,63,66,-1,-1} {44,64,67,-1,-1}
				q {34,55,58,-1,-1} {35,56,59,-1,-1} {44,64,67,-1,-1} {45,65,68,-1,-1}
				q {33,54,57,-1,-1} {34,55,58,-1,-1} {45,65,68,-1,-1} {46,66,69,-1,-1}
				q {32,53,56,-1,-1} {33,54,57,-1,-1} {46,66,69,-1,-1} {47,67,70,-1,-1}
				q {31,52,55,-1,-1} {32,53,56,-1,-1} {47,67,70,-1,-1} {48,68,71,-1,-1}
				q {30,51,54,-1,-1} {31,52,55,-1,-1} {48,68,71,-1,-1} {49,69,72,-1,-1}
				q {29,50,53,-1,-1} {30,51,54,-1,-1} {49,69,72,-1,-1} {50,70,73,-1,-1}
				q {28,49,52,-1,-1} {29,50,53,-1,-1} {50,70,73,-1,-1} {51,71,74,-1,-1}
				q {27,48,51,-1,-1} {28,49,52,-1,-1} {51,71,74,-1,-1} {52,72,75,-1,-1}
				q {26,47,77,-1,-1} {27,48,51,-1,-1} {52,72,75,-1,-1} {53,73,76,-1,-1}
				q {25,46,79,-1,-1} {26,47,77,-1,-1} {53,73,76,-1,-1} {54,74,78,-1,-1}
				q {24,45,81,-1,-1} {25,46,79,-1,-1} {54,74,78,-1,-1} {55,75,80,-1,-1}
				q {23,44,46,-1,-1} {24,45,47,-1,-1} {55,75,83,-1,-1} {56,76,82,-1,-1}
				q {22,43,45,-1,-1} {23,44,46,-1,-1} {56,76,82,-1,-1} {57,77,84,-1,-1}
				q {21,41,43,-1,-1} {22,43,45,-1,-1} {57,77,84,-1,-1} {58,78,85,-1,-1}
				q {20,40,42,-1,-1} {21,41,43,-1,-1} {58,78,85,-1,-1} {59,79,86,-1,-1}
				q {39,60,63,-1,-1} {20,40,42,-1,-1} {59,79,86,-1,-1} {60,80,87,-1,-1}
				q {38,59,62,-1,-1} {39,60,63,-1,-1} {60,80,87,-1,-1} {41,62,65,-1,-1}
			}
			CTris
			{
				numTris 20
				t {40,42,49,-1,-1} {21,41,48,-1,-1} {20,40,44,-1,-1}
				t {40,42,49,-1,-1} {22,43,50,-1,-1} {21,41,48,-1,-1}
				t {40,42,49,-1,-1} {23,44,109,-1,-1} {22,43,50,-1,-1}
				t {40,42,49,-1,-1} {24,45,110,-1,-1} {23,44,109,-1,-1}
				t {40,42,49,-1,-1} {25,46,111,-1,-1} {24,45,110,-1,-1}
				t {40,42,49,-1,-1} {26,47,112,-1,-1} {25,46,111,-1,-1}
				t {40,42,49,-1,-1} {27,48,113,-1,-1} {26,47,112,-1,-1}
				t {40,42,49,-1,-1} {28,49,114,-1,-1} {27,48,113,-1,-1}
				t {40,42,49,-1,-1} {29,50,115,-1,-1} {28,49,114,-1,-1}
				t {40,42,49,-1,-1} {30,51,116,-1,-1} {29,50,115,-1,-1}
				t {40,42,49,-1,-1} {31,52,117,-1,-1} {30,51,116,-1,-1}
				t {40,42,49,-1,-1} {32,53,118,-1,-1} {31,52,117,-1,-1}
				t {40,42,49,-1,-1} {33,54,119,-1,-1} {32,53,118,-1,-1}
				t {40,42,49,-1,-1} {34,55,120,-1,-1} {33,54,119,-1,-1}
				t {40,42,49,-1,-1} {35,56,121,-1,-1} {34,55,120,-1,-1}
				t {40,42,49,-1,-1} {36,57,122,-1,-1} {35,56,121,-1,-1}
				t {40,42,49,-1,-1} {37,58,123,-1,-1} {36,57,122,-1,-1}
				t {40,42,49,-1,-1} {38,59,124,-1,-1} {37,58,123,-1,-1}
				t {40,42,49,-1,-1} {39,60,125,-1,-1} {38,59,124,-1,-1}
				t {40,42,49,-1,-1} {20,40,44,-1,-1} {39,60,125,-1,-1}
			}
		}
	}
}
