// Source file: C:/dev/sdk/main/sdk_examples/ArtAssets/OpenGLES/maya7/bike_v2.mb
CIwMaterial
{
	name "wheelFront/cleanBike2_phong14"
	effectPreset "NORMAL_MAPPING_SPECULAR"
blendMode ADD
colSpecular { 255 255 255 }
	texture2 ./textures/tvTexture.bmp
	shaderTechnique "normal_specular_tv"
	texture0 "./textures/bikeOcc1.tga"
	texture1 "./textures/norm4.tga"
}
CIwMaterial
{
	name "wheelFront/phong16"
	effectPreset "NORMAL_MAPPING_SPECULAR"
blendMode ADD
colSpecular { 255 255 255 }
	texture2 ./textures/tvTexture.bmp
	shaderTechnique "normal_specular_tv"
	texture0 "./textures/bikeOcc1.tga"
	texture1 "./textures/norm4.tga"
}
