// Source file: C:/dev/sdk/main/sdk_examples/ArtAssets/OpenGLES/maya7/bike_v2.mb
CIwModel
{
	name "wheelFront"
	CMesh
	{
		name "wheelFront"
		scale 10
		CVerts
		{
			numVerts 434
			v {-143.17752,295.82129,849.95172}
			v {-143.17752,238.07822,834.47931}
			v {-143.17752,195.80740,792.20880}
			v {-143.17767,180.33492,734.46588}
			v {-143.17691,195.80679,676.72174}
			v {-143.17691,238.07738,634.45123}
			v {-143.17691,295.82043,618.98004}
			v {-188.46774,295.82129,834.08990}
			v {-188.46774,246.00951,820.74274}
			v {-188.46774,209.54489,784.27789}
			v {-188.46774,196.19749,734.46588}
			v {-188.46713,209.54436,684.65387}
			v {-188.46713,246.00874,648.18903}
			v {-188.46713,295.82043,634.84186}
			v {-143.17691,353.56317,634.45123}
			v {-143.17691,395.83405,676.72418}
			v {-143.17767,411.30615,734.46588}
			v {-143.17752,395.83466,792.20880}
			v {-143.17752,353.56400,834.47931}
			v {-188.46713,345.63196,648.18903}
			v {-188.46713,382.09656,684.65387}
			v {-188.46774,395.44357,734.46588}
			v {-188.46774,382.09717,784.27789}
			v {-188.46774,345.63263,820.74274}
			v {-188.46713,295.82083,734.46588}
			v {-0.00034,372.55157,448.09259}
			v {-0.00034,444.05609,477.71051}
			v {-0.00034,505.45807,524.82599}
			v {-0.00034,552.57373,586.22858}
			v {-0.00034,582.19165,657.73248}
			v {-0.00034,592.29382,734.46588}
			v {-0.00034,582.19165,811.20050}
			v {-0.00034,552.57373,882.70441}
			v {-0.00034,505.45792,944.10699}
			v {-0.00034,444.05609,991.22125}
			v {-0.00034,372.55157,1020.84039}
			v {-0.00034,295.81815,1030.94165}
			v {-0.00034,219.08446,1020.84039}
			v {-0.00034,147.57993,991.22125}
			v {-0.00034,86.17799,944.10699}
			v {-0.00034,39.06258,882.70441}
			v {-0.00034,9.44434,811.20050}
			v {-0.00034,-0.65787,734.46588}
			v {-0.00034,9.44436,657.73248}
			v {-0.00034,39.06261,586.22858}
			v {-0.00034,86.17802,524.82599}
			v {-0.00034,147.58005,477.71051}
			v {-0.00034,219.08453,448.09259}
			v {-0.00034,295.81815,437.99127}
			v {-87.21866,369.42703,459.75519}
			v {-87.21866,438.01926,488.16583}
			v {-87.21866,496.92108,533.36359}
			v {-87.21866,542.11780,592.26495}
			v {-87.21866,570.53009,660.85748}
			v {-87.21866,580.22064,734.46588}
			v {-87.21866,570.53009,808.07550}
			v {-87.21866,542.11780,876.66803}
			v {-87.21866,496.92093,935.56940}
			v {-87.21866,438.01926,980.76593}
			v {-87.21866,369.42688,1009.17780}
			v {-87.21866,295.81808,1018.86896}
			v {-87.21866,222.20908,1009.17780}
			v {-87.21866,153.61668,980.76593}
			v {-87.21866,94.71497,935.56940}
			v {-87.21866,49.51827,876.66803}
			v {-87.21866,21.10623,808.07550}
			v {-87.21866,11.41534,734.46588}
			v {-87.21866,21.10625,660.85748}
			v {-87.21866,49.51829,592.26495}
			v {-87.21866,94.71501,533.36359}
			v {-87.21866,153.61676,488.16583}
			v {-87.21866,222.20908,459.75519}
			v {-87.21866,295.81815,450.06281}
			v {-124.93991,356.91431,506.45074}
			v {-124.93991,413.84674,530.03473}
			v {-124.93991,462.73560,567.54694}
			v {-124.93991,500.24948,616.43610}
			v {-124.93991,523.83167,673.37091}
			v {-124.93991,531.87512,734.46588}
			v {-124.93991,523.83167,795.56207}
			v {-124.93991,500.24948,852.49445}
			v {-124.93991,462.73560,901.38361}
			v {-124.93991,413.84674,938.89825}
			v {-124.93991,356.91422,962.47980}
			v {-124.93991,295.81815,970.52301}
			v {-124.93991,234.72205,962.47980}
			v {-124.93991,177.78929,938.89825}
			v {-124.93991,128.90031,901.38361}
			v {-124.93991,91.38646,852.49445}
			v {-124.93991,67.80431,795.56207}
			v {-124.93991,59.76081,734.46588}
			v {-124.93991,67.80431,673.37091}
			v {-124.93991,91.38650,616.43610}
			v {-124.93991,128.90034,567.54694}
			v {-124.93991,177.78937,530.03473}
			v {-124.93991,234.72174,506.45074}
			v {-124.93991,295.81815,498.40875}
			v {-124.93991,336.17010,583.87018}
			v {-124.93991,373.77213,599.44635}
			v {-124.93991,406.06186,624.22174}
			v {-124.93991,430.83878,656.51178}
			v {-124.93991,446.41388,694.11432}
			v {-124.93991,451.72638,734.46588}
			v {-124.93991,446.41388,774.81866}
			v {-124.93991,430.83878,812.41998}
			v {-124.93991,406.06186,844.71002}
			v {-124.93991,373.77213,869.48663}
			v {-124.93991,336.17010,885.06281}
			v {-124.93991,295.81815,890.37531}
			v {-124.93991,255.46584,885.06281}
			v {-124.93991,217.86391,869.48663}
			v {-124.93991,185.57410,844.71002}
			v {-124.93991,160.79759,812.41998}
			v {-124.93991,145.22214,774.81866}
			v {-124.93991,139.90971,734.46588}
			v {-124.93991,145.22218,694.11432}
			v {-124.93991,160.79759,656.51178}
			v {-124.93991,185.57417,624.22174}
			v {-124.93991,217.86391,599.44391}
			v {-124.93991,255.46584,583.87018}
			v {-124.93991,295.81815,578.55768}
			v {-107.28122,330.69489,604.30475}
			v {-107.28122,363.19464,617.76666}
			v {-107.28122,391.10336,639.18146}
			v {-107.28122,412.51801,667.08917}
			v {-107.28122,425.98007,699.58917}
			v {-107.28122,430.57159,734.46588}
			v {-107.28122,425.98007,769.34259}
			v {-107.28122,412.51801,801.84259}
			v {-107.28122,391.10336,829.75153}
			v {-107.28122,363.19464,851.16632}
			v {-107.28122,330.69482,864.62823}
			v {-107.28122,295.81815,869.21930}
			v {-107.28122,260.94107,864.62823}
			v {-107.28122,228.44130,851.16632}
			v {-107.28122,200.53297,829.75153}
			v {-107.28122,179.11795,801.84259}
			v {-107.28122,165.65596,769.34259}
			v {-107.28122,161.06444,734.46588}
			v {-107.28122,165.65596,699.58917}
			v {-107.28122,179.11795,667.08917}
			v {-107.28122,200.53267,639.18146}
			v {-107.28122,228.44130,617.76666}
			v {-107.28122,260.94113,604.30475}
			v {-107.28122,295.81815,599.71246}
			v {-107.28122,325.16830,624.92975}
			v {-107.28122,352.51807,636.25909}
			v {-107.28122,376.00418,654.28033}
			v {-107.28122,394.02542,677.76666}
			v {-107.28122,405.35416,705.11652}
			v {-107.28122,409.21814,734.46588}
			v {-107.28122,405.35416,763.81647}
			v {-107.28122,394.02542,791.16632}
			v {-107.28122,376.00418,814.65265}
			v {-107.28122,352.51807,832.67389}
			v {-107.28122,325.16821,844.00201}
			v {-107.28122,295.81815,847.86676}
			v {-107.28122,266.46771,844.00201}
			v {-107.28122,239.11787,832.67389}
			v {-107.28122,215.63193,814.65265}
			v {-107.28122,197.61061,791.16632}
			v {-107.28122,186.28180,763.81647}
			v {-107.28122,182.41797,734.46588}
			v {-107.28122,186.28180,705.11652}
			v {-107.28122,197.61061,677.76666}
			v {-107.28122,215.63193,654.28033}
			v {-107.28122,239.11787,636.25909}
			v {-107.28122,266.46771,624.92975}
			v {-107.28122,295.81815,621.06622}
			v {-143.17584,322.55042,634.69904}
			v {-143.17584,347.46124,645.01642}
			v {-143.17584,368.85284,661.42999}
			v {-143.17584,385.26672,682.82159}
			v {-143.17584,395.58517,707.73370}
			v {-143.17584,399.10461,734.46588}
			v {-143.17599,395.58517,761.19928}
			v {-143.17599,385.26672,786.10895}
			v {-143.17599,368.85284,807.50055}
			v {-143.17599,347.46124,823.91534}
			v {-143.17599,322.55042,834.23395}
			v {-143.17599,295.81815,837.75323}
			v {-143.17599,269.08551,834.23395}
			v {-143.17599,244.17471,823.91534}
			v {-143.17599,222.78349,807.50055}
			v {-143.17599,206.36923,786.10895}
			v {-143.17599,196.05086,761.19928}
			v {-143.17584,192.53134,734.46588}
			v {-143.17584,196.05086,707.73370}
			v {-143.17584,206.36923,682.82159}
			v {-143.17584,222.78349,661.42999}
			v {-143.17584,244.17471,645.01642}
			v {-143.17584,269.08551,634.69904}
			v {-143.17584,295.81815,631.17853}
			v {-110.02307,484.68018,545.60236}
			v {-110.02307,429.36371,503.15851}
			v {-110.02307,364.94653,476.47638}
			v {-110.02307,295.81815,467.37482}
			v {-110.02307,226.68990,476.47638}
			v {-110.02307,162.27240,503.15851}
			v {-110.02307,106.95580,545.60236}
			v {-110.02307,64.51009,600.92096}
			v {-110.02307,37.82745,665.33868}
			v {-110.02322,28.72659,734.46588}
			v {-110.02322,37.82742,803.59430}
			v {-110.02322,64.51007,868.01202}
			v {-110.02322,106.95576,923.32819}
			v {-110.02322,162.27232,965.77448}
			v {-110.02322,226.68982,992.45660}
			v {-110.02322,295.81815,1001.55817}
			v {-110.02322,364.94653,992.45660}
			v {-110.02322,429.36371,965.77448}
			v {-110.02322,484.68018,923.32819}
			v {-110.02322,527.12585,868.01202}
			v {-110.02322,553.80859,803.59430}
			v {-110.02322,562.90942,734.46588}
			v {-110.02307,553.80859,665.33868}
			v {-110.02307,527.12585,600.92096}
			v {143.17685,295.82129,849.95172}
			v {143.17685,238.07822,834.47931}
			v {143.17685,195.80740,792.20880}
			v {143.17685,180.33492,734.46588}
			v {143.17609,195.80679,676.72174}
			v {143.17624,238.07738,634.45123}
			v {143.17624,295.82043,618.98004}
			v {188.46707,295.82129,834.08990}
			v {188.46707,246.00951,820.74274}
			v {188.46707,209.54489,784.27789}
			v {188.46707,196.19749,734.46588}
			v {188.46646,209.54436,684.65387}
			v {188.46646,246.00874,648.18903}
			v {188.46646,295.82043,634.84186}
			v {143.17624,353.56317,634.45123}
			v {143.17624,395.83405,676.72418}
			v {143.17685,411.30615,734.46588}
			v {143.17685,395.83466,792.20880}
			v {143.17685,353.56400,834.47931}
			v {188.46646,345.63196,648.18903}
			v {188.46646,382.09656,684.65387}
			v {188.46707,395.44357,734.46588}
			v {188.46707,382.09717,784.27789}
			v {188.46707,345.63263,820.74274}
			v {188.46646,295.82083,734.46588}
			v {-0.00034,372.55157,448.09259}
			v {-0.00034,444.05609,477.71051}
			v {-0.00034,505.45807,524.82599}
			v {-0.00034,552.57373,586.22858}
			v {-0.00034,582.19165,657.73248}
			v {-0.00034,592.29382,734.46588}
			v {-0.00034,582.19165,811.20050}
			v {-0.00034,552.57373,882.70441}
			v {-0.00034,505.45792,944.10699}
			v {-0.00034,444.05609,991.22125}
			v {-0.00034,372.55157,1020.84039}
			v {-0.00034,295.81815,1030.94165}
			v {-0.00034,219.08446,1020.84039}
			v {-0.00034,147.57993,991.22125}
			v {-0.00034,86.17799,944.10699}
			v {-0.00034,39.06258,882.70441}
			v {-0.00034,9.44434,811.20050}
			v {-0.00034,-0.65787,734.46588}
			v {-0.00034,9.44436,657.73248}
			v {-0.00034,39.06261,586.22858}
			v {-0.00034,86.17802,524.82599}
			v {-0.00034,147.58005,477.71051}
			v {-0.00034,219.08453,448.09259}
			v {-0.00034,295.81815,437.99127}
			v {87.21783,369.42703,459.75519}
			v {87.21783,438.01926,488.16583}
			v {87.21783,496.92108,533.36359}
			v {87.21783,542.11780,592.26495}
			v {87.21783,570.53009,660.85748}
			v {87.21799,580.22064,734.46588}
			v {87.21799,570.53009,808.07550}
			v {87.21799,542.11780,876.66803}
			v {87.21799,496.92093,935.56940}
			v {87.21799,438.01926,980.76593}
			v {87.21799,369.42688,1009.17780}
			v {87.21799,295.81808,1018.86896}
			v {87.21799,222.20908,1009.17780}
			v {87.21799,153.61668,980.76593}
			v {87.21799,94.71497,935.56940}
			v {87.21799,49.51827,876.66803}
			v {87.21799,21.10623,808.07550}
			v {87.21799,11.41534,734.46588}
			v {87.21783,21.10625,660.85748}
			v {87.21783,49.51829,592.26495}
			v {87.21783,94.71501,533.36359}
			v {87.21783,153.61676,488.16583}
			v {87.21783,222.20908,459.75519}
			v {87.21783,295.81815,450.06281}
			v {124.93909,356.91431,506.45074}
			v {124.93909,413.84674,530.03473}
			v {124.93909,462.73560,567.54694}
			v {124.93909,500.24948,616.43610}
			v {124.93924,523.83167,673.37091}
			v {124.93924,531.87512,734.46588}
			v {124.93924,523.83167,795.56207}
			v {124.93924,500.24948,852.49445}
			v {124.93924,462.73560,901.38361}
			v {124.93924,413.84674,938.89825}
			v {124.93924,356.91422,962.47980}
			v {124.93924,295.81815,970.52301}
			v {124.93924,234.72205,962.47980}
			v {124.93924,177.78929,938.89825}
			v {124.93924,128.90031,901.38361}
			v {124.93924,91.38646,852.49445}
			v {124.93924,67.80431,795.56207}
			v {124.93924,59.76081,734.46588}
			v {124.93924,67.80431,673.37091}
			v {124.93909,91.38650,616.43610}
			v {124.93909,128.90034,567.54694}
			v {124.93909,177.78937,530.03473}
			v {124.93909,234.72174,506.45074}
			v {124.93909,295.81815,498.40875}
			v {124.93909,336.17010,583.87018}
			v {124.93909,373.77213,599.44635}
			v {124.93909,406.06186,624.22174}
			v {124.93909,430.83878,656.51178}
			v {124.93924,446.41388,694.11432}
			v {124.93924,451.72638,734.46588}
			v {124.93924,446.41388,774.81866}
			v {124.93924,430.83878,812.41998}
			v {124.93924,406.06186,844.71002}
			v {124.93924,373.77213,869.48663}
			v {124.93924,336.17010,885.06281}
			v {124.93924,295.81815,890.37531}
			v {124.93924,255.46584,885.06281}
			v {124.93924,217.86391,869.48663}
			v {124.93924,185.57410,844.71002}
			v {124.93924,160.79759,812.41998}
			v {124.93924,145.22214,774.81866}
			v {124.93924,139.90971,734.46588}
			v {124.93924,145.22218,694.11432}
			v {124.93909,160.79759,656.51178}
			v {124.93909,185.57417,624.22174}
			v {124.93909,217.86391,599.44391}
			v {124.93909,255.46584,583.87018}
			v {124.93909,295.81815,578.55768}
			v {107.28055,330.69489,604.30475}
			v {107.28055,363.19464,617.76666}
			v {107.28055,391.10336,639.18146}
			v {107.28055,412.51801,667.08917}
			v {107.28055,425.98007,699.58917}
			v {107.28055,430.57159,734.46588}
			v {107.28055,425.98007,769.34259}
			v {107.28055,412.51801,801.84259}
			v {107.28055,391.10336,829.75153}
			v {107.28055,363.19464,851.16632}
			v {107.28055,330.69482,864.62823}
			v {107.28055,295.81815,869.21930}
			v {107.28055,260.94107,864.62823}
			v {107.28055,228.44130,851.16632}
			v {107.28055,200.53297,829.75153}
			v {107.28055,179.11795,801.84259}
			v {107.28055,165.65596,769.34259}
			v {107.28055,161.06444,734.46588}
			v {107.28055,165.65596,699.58917}
			v {107.28055,179.11795,667.08917}
			v {107.28055,200.53267,639.18146}
			v {107.28055,228.44130,617.76666}
			v {107.28055,260.94113,604.30475}
			v {107.28055,295.81815,599.71246}
			v {107.28055,325.16830,624.92975}
			v {107.28055,352.51807,636.25909}
			v {107.28055,376.00418,654.28033}
			v {107.28055,394.02542,677.76666}
			v {107.28055,405.35416,705.11652}
			v {107.28055,409.21814,734.46588}
			v {107.28055,405.35416,763.81647}
			v {107.28055,394.02542,791.16632}
			v {107.28055,376.00418,814.65265}
			v {107.28055,352.51807,832.67389}
			v {107.28055,325.16821,844.00201}
			v {107.28055,295.81815,847.86676}
			v {107.28055,266.46771,844.00201}
			v {107.28055,239.11787,832.67389}
			v {107.28055,215.63193,814.65265}
			v {107.28055,197.61061,791.16632}
			v {107.28055,186.28180,763.81647}
			v {107.28055,182.41797,734.46588}
			v {107.28055,186.28180,705.11652}
			v {107.28055,197.61061,677.76666}
			v {107.28055,215.63193,654.28033}
			v {107.28055,239.11787,636.25909}
			v {107.28055,266.46771,624.92975}
			v {107.28055,295.81815,621.06622}
			v {143.17517,322.55042,634.69904}
			v {143.17517,347.46124,645.01642}
			v {143.17502,368.85284,661.42999}
			v {143.17502,385.26672,682.82159}
			v {143.17502,395.58517,707.73370}
			v {143.17502,399.10461,734.46588}
			v {143.17502,395.58517,761.19928}
			v {143.17502,385.26672,786.10895}
			v {143.17502,368.85284,807.50055}
			v {143.17502,347.46124,823.91534}
			v {143.17502,322.55042,834.23395}
			v {143.17502,295.81815,837.75323}
			v {143.17502,269.08551,834.23395}
			v {143.17502,244.17471,823.91534}
			v {143.17502,222.78349,807.50055}
			v {143.17502,206.36923,786.10895}
			v {143.17502,196.05086,761.19928}
			v {143.17502,192.53134,734.46588}
			v {143.17502,196.05086,707.73370}
			v {143.17502,206.36923,682.82159}
			v {143.17502,222.78349,661.42999}
			v {143.17517,244.17471,645.01642}
			v {143.17517,269.08551,634.69904}
			v {143.17517,295.81815,631.17853}
			v {110.02240,484.68018,545.60236}
			v {110.02240,429.36371,503.15851}
			v {110.02240,364.94653,476.47638}
			v {110.02240,295.81815,467.37482}
			v {110.02240,226.68990,476.47638}
			v {110.02240,162.27240,503.15851}
			v {110.02240,106.95580,545.60236}
			v {110.02240,64.51009,600.92096}
			v {110.02240,37.82745,665.33868}
			v {110.02225,28.72659,734.46588}
			v {110.02225,37.82742,803.59430}
			v {110.02225,64.51007,868.01202}
			v {110.02225,106.95576,923.32819}
			v {110.02225,162.27232,965.77448}
			v {110.02225,226.68982,992.45660}
			v {110.02225,295.81815,1001.55817}
			v {110.02225,364.94653,992.45660}
			v {110.02225,429.36371,965.77448}
			v {110.02225,484.68018,923.32819}
			v {110.02225,527.12585,868.01202}
			v {110.02225,553.80859,803.59430}
			v {110.02225,562.90942,734.46588}
			v {110.02240,553.80859,665.33868}
			v {110.02240,527.12585,600.92096}
		}
		CVertNorms
		{
			numVertNorms 314
			vn {-0.33054,0.00000,0.94379}
			vn {-0.33054,-0.47190,0.81735}
			vn {-0.33055,-0.81734,0.47190}
			vn {-0.33056,-0.94379,0.00000}
			vn {-0.33056,-0.81734,-0.47189}
			vn {-0.33056,-0.47189,-0.81734}
			vn {-0.33055,0.00000,-0.94379}
			vn {-1,-0.00000,0}
			vn {-0.33055,0.47190,-0.81734}
			vn {-0.33055,0.81735,-0.47189}
			vn {-0.33055,0.94379,-0.00001}
			vn {-0.33055,0.81735,0.47189}
			vn {-0.33054,0.47190,0.81735}
			vn {-0.13712,0.25637,-0.95680}
			vn {-0.38372,0.23901,-0.89198}
			vn {-0.38372,0.46172,-0.79973}
			vn {-0.13712,0.49528,-0.85785}
			vn {-0.38371,0.65298,-0.65298}
			vn {-0.13712,0.70043,-0.70043}
			vn {-0.38372,0.79973,-0.46173}
			vn {-0.13712,0.85785,-0.49528}
			vn {-0.38372,0.89198,-0.23901}
			vn {-0.13712,0.95680,-0.25638}
			vn {-0.38372,0.92345,-0.00000}
			vn {-0.13712,0.99055,-0.00000}
			vn {-0.38372,0.89198,0.23901}
			vn {-0.13712,0.95680,0.25637}
			vn {-0.38372,0.79973,0.46173}
			vn {-0.13712,0.85784,0.49528}
			vn {-0.38372,0.65298,0.65298}
			vn {-0.13712,0.70043,0.70043}
			vn {-0.38371,0.46173,0.79973}
			vn {-0.13712,0.49528,0.85785}
			vn {-0.38371,0.23901,0.89199}
			vn {-0.13712,0.25638,0.95680}
			vn {-0.38371,0.00000,0.92345}
			vn {-0.13712,0.00000,0.99055}
			vn {-0.38371,-0.23901,0.89199}
			vn {-0.13712,-0.25638,0.95680}
			vn {-0.38371,-0.46172,0.79973}
			vn {-0.13712,-0.49528,0.85785}
			vn {-0.38372,-0.65298,0.65298}
			vn {-0.13712,-0.70043,0.70043}
			vn {-0.38372,-0.79973,0.46173}
			vn {-0.13712,-0.85785,0.49528}
			vn {-0.38372,-0.89199,0.23901}
			vn {-0.13712,-0.95680,0.25638}
			vn {-0.38372,-0.92345,-0.00000}
			vn {-0.13712,-0.99055,-0.00000}
			vn {-0.38372,-0.89198,-0.23901}
			vn {-0.13712,-0.95680,-0.25638}
			vn {-0.38371,-0.79973,-0.46172}
			vn {-0.13712,-0.85785,-0.49528}
			vn {-0.38371,-0.65298,-0.65298}
			vn {-0.13712,-0.70043,-0.70043}
			vn {-0.38372,-0.46172,-0.79973}
			vn {-0.13712,-0.49528,-0.85785}
			vn {-0.38372,-0.23901,-0.89198}
			vn {-0.13712,-0.25637,-0.95680}
			vn {-0.38372,0.00000,-0.92345}
			vn {-0.13711,0.00000,-0.99056}
			vn {-0.77485,0.16361,-0.61060}
			vn {-0.77485,0.31607,-0.54745}
			vn {-0.77485,0.44699,-0.44699}
			vn {-0.77485,0.54745,-0.31607}
			vn {-0.77486,0.61059,-0.16361}
			vn {-0.77486,0.63213,-0.00000}
			vn {-0.77486,0.61059,0.16361}
			vn {-0.77486,0.54744,0.31607}
			vn {-0.77486,0.44699,0.44699}
			vn {-0.77486,0.31607,0.54745}
			vn {-0.77486,0.16361,0.61060}
			vn {-0.77486,0.00000,0.63214}
			vn {-0.77486,-0.16361,0.61060}
			vn {-0.77486,-0.31607,0.54745}
			vn {-0.77486,-0.44699,0.44699}
			vn {-0.77486,-0.54744,0.31607}
			vn {-0.77486,-0.61060,0.16361}
			vn {-0.77486,-0.63214,-0.00000}
			vn {-0.77486,-0.61060,-0.16361}
			vn {-0.77485,-0.54745,-0.31607}
			vn {-0.77485,-0.44699,-0.44699}
			vn {-0.77485,-0.31607,-0.54745}
			vn {-0.77486,-0.16361,-0.61060}
			vn {-0.77486,0.00000,-0.63214}
			vn {-0.97505,0.05745,-0.21442}
			vn {-0.97505,0.11099,-0.19224}
			vn {-0.97505,0.15696,-0.15696}
			vn {-0.97505,0.19224,-0.11099}
			vn {-0.97505,0.21441,-0.05745}
			vn {-0.97505,0.22198,-0.00000}
			vn {-0.97505,0.21441,0.05745}
			vn {-0.97505,0.19224,0.11099}
			vn {-0.97505,0.15696,0.15696}
			vn {-0.97505,0.11099,0.19224}
			vn {-0.97505,0.05745,0.21441}
			vn {-0.97505,0.00000,0.22197}
			vn {-0.97505,-0.05745,0.21441}
			vn {-0.97505,-0.11099,0.19224}
			vn {-0.97505,-0.15696,0.15696}
			vn {-0.97505,-0.19224,0.11099}
			vn {-0.97505,-0.21441,0.05745}
			vn {-0.97505,-0.22198,-0.00000}
			vn {-0.97505,-0.21441,-0.05745}
			vn {-0.97505,-0.19224,-0.11099}
			vn {-0.97505,-0.15696,-0.15696}
			vn {-0.97505,-0.11099,-0.19224}
			vn {-0.97505,-0.05745,-0.21442}
			vn {-0.97505,-0.00000,-0.22199}
			vn {-0.76769,-0.16586,0.61898}
			vn {-0.76769,-0.32041,0.55496}
			vn {-0.76770,-0.45312,0.45313}
			vn {-0.76769,-0.55496,0.32041}
			vn {-0.76769,-0.61899,0.16586}
			vn {-0.76769,-0.64082,0.00000}
			vn {-0.76769,-0.61898,-0.16586}
			vn {-0.76769,-0.55497,-0.32041}
			vn {-0.76769,-0.45313,-0.45313}
			vn {-0.76769,-0.32041,-0.55497}
			vn {-0.76770,-0.16586,-0.61897}
			vn {-0.76770,-0.00000,-0.64080}
			vn {-0.76770,0.16586,-0.61897}
			vn {-0.76769,0.32041,-0.55497}
			vn {-0.76769,0.45313,-0.45313}
			vn {-0.76769,0.55497,-0.32041}
			vn {-0.76769,0.61899,-0.16586}
			vn {-0.76769,0.64082,0.00000}
			vn {-0.76769,0.61899,0.16586}
			vn {-0.76769,0.55497,0.32041}
			vn {-0.76770,0.45312,0.45312}
			vn {-0.76771,0.32040,0.55495}
			vn {-0.76770,0.16585,0.61897}
			vn {-0.76770,-0.00000,0.64081}
			vn {-0.27119,0.24912,-0.92973}
			vn {-0.27118,0.48126,-0.83358}
			vn {-0.27117,0.68061,-0.68061}
			vn {-0.27118,0.83358,-0.48126}
			vn {-0.27119,0.92973,-0.24912}
			vn {-0.27120,0.96252,-0.00000}
			vn {-0.27120,0.92973,0.24912}
			vn {-0.27120,0.83357,0.48126}
			vn {-0.27121,0.68061,0.68060}
			vn {-0.27120,0.48126,0.83357}
			vn {-0.27119,0.24912,0.92973}
			vn {-0.27119,0.00000,0.96253}
			vn {-0.27119,-0.24912,0.92973}
			vn {-0.27120,-0.48126,0.83357}
			vn {-0.27121,-0.68061,0.68060}
			vn {-0.27120,-0.83357,0.48126}
			vn {-0.27120,-0.92973,0.24912}
			vn {-0.27120,-0.96252,-0.00000}
			vn {-0.27119,-0.92973,-0.24912}
			vn {-0.27118,-0.83358,-0.48126}
			vn {-0.27117,-0.68061,-0.68061}
			vn {-0.27118,-0.48126,-0.83358}
			vn {-0.27119,-0.24912,-0.92973}
			vn {-0.27119,0.00000,-0.96253}
			vn {0.33054,0.00000,0.94379}
			vn {0.33054,-0.47190,0.81735}
			vn {0.33055,-0.81734,0.47190}
			vn {0.33056,-0.94379,0.00000}
			vn {0.33056,-0.81734,-0.47189}
			vn {0.33056,-0.47189,-0.81734}
			vn {0.33055,0.00000,-0.94379}
			vn {1,-0.00000,0}
			vn {0.33055,0.47190,-0.81734}
			vn {0.33055,0.81735,-0.47189}
			vn {0.33055,0.94379,-0.00001}
			vn {0.33055,0.81735,0.47189}
			vn {0.33054,0.47190,0.81735}
			vn {0.13712,0.25637,-0.95680}
			vn {0.13712,0.49528,-0.85785}
			vn {0.38371,0.46172,-0.79973}
			vn {0.38372,0.23901,-0.89198}
			vn {0.13712,0.70043,-0.70043}
			vn {0.38371,0.65298,-0.65298}
			vn {0.13712,0.85785,-0.49528}
			vn {0.38371,0.79973,-0.46173}
			vn {0.13712,0.95680,-0.25638}
			vn {0.38372,0.89198,-0.23901}
			vn {0.13712,0.99055,-0.00000}
			vn {0.38372,0.92345,-0.00000}
			vn {0.13712,0.95680,0.25637}
			vn {0.38372,0.89198,0.23901}
			vn {0.13712,0.85784,0.49528}
			vn {0.38372,0.79973,0.46173}
			vn {0.13712,0.70043,0.70043}
			vn {0.38372,0.65298,0.65298}
			vn {0.13712,0.49528,0.85785}
			vn {0.38372,0.46172,0.79973}
			vn {0.13712,0.25638,0.95680}
			vn {0.38372,0.23901,0.89198}
			vn {0.13712,0.00000,0.99055}
			vn {0.38372,0.00000,0.92345}
			vn {0.13712,-0.25638,0.95680}
			vn {0.38372,-0.23901,0.89198}
			vn {0.13712,-0.49528,0.85785}
			vn {0.38372,-0.46172,0.79973}
			vn {0.13712,-0.70043,0.70043}
			vn {0.38372,-0.65298,0.65298}
			vn {0.13712,-0.85785,0.49528}
			vn {0.38372,-0.79973,0.46173}
			vn {0.13712,-0.95680,0.25638}
			vn {0.38372,-0.89198,0.23901}
			vn {0.13712,-0.99055,-0.00000}
			vn {0.38372,-0.92345,-0.00000}
			vn {0.13712,-0.95680,-0.25638}
			vn {0.38372,-0.89198,-0.23901}
			vn {0.13712,-0.85785,-0.49528}
			vn {0.38371,-0.79973,-0.46173}
			vn {0.13712,-0.70043,-0.70043}
			vn {0.38371,-0.65298,-0.65298}
			vn {0.13712,-0.49528,-0.85785}
			vn {0.38372,-0.46172,-0.79973}
			vn {0.13712,-0.25637,-0.95680}
			vn {0.38372,-0.23901,-0.89198}
			vn {0.13711,0.00000,-0.99056}
			vn {0.38372,0.00000,-0.92345}
			vn {0.77485,0.31607,-0.54745}
			vn {0.77486,0.16361,-0.61060}
			vn {0.77485,0.44699,-0.44699}
			vn {0.77485,0.54745,-0.31607}
			vn {0.77486,0.61060,-0.16361}
			vn {0.77486,0.63213,-0.00000}
			vn {0.77486,0.61059,0.16361}
			vn {0.77486,0.54744,0.31607}
			vn {0.77486,0.44699,0.44699}
			vn {0.77486,0.31607,0.54745}
			vn {0.77486,0.16361,0.61060}
			vn {0.77486,0.00000,0.63214}
			vn {0.77486,-0.16361,0.61060}
			vn {0.77486,-0.31607,0.54745}
			vn {0.77486,-0.44699,0.44699}
			vn {0.77486,-0.54744,0.31607}
			vn {0.77486,-0.61060,0.16361}
			vn {0.77486,-0.63214,-0.00000}
			vn {0.77486,-0.61060,-0.16361}
			vn {0.77485,-0.54745,-0.31607}
			vn {0.77485,-0.44699,-0.44699}
			vn {0.77485,-0.31607,-0.54745}
			vn {0.77486,-0.16361,-0.61060}
			vn {0.77486,0.00000,-0.63214}
			vn {0.97505,0.05745,-0.21442}
			vn {0.97505,0.11099,-0.19224}
			vn {0.97505,0.15696,-0.15696}
			vn {0.97505,0.19224,-0.11099}
			vn {0.97505,0.21441,-0.05745}
			vn {0.97505,0.22198,0.00000}
			vn {0.97505,0.21442,0.05745}
			vn {0.97505,0.19224,0.11099}
			vn {0.97505,0.15696,0.15696}
			vn {0.97505,0.11099,0.19224}
			vn {0.97505,0.05745,0.21441}
			vn {0.97505,0.00000,0.22198}
			vn {0.97505,-0.05745,0.21441}
			vn {0.97505,-0.11099,0.19224}
			vn {0.97505,-0.15696,0.15696}
			vn {0.97505,-0.19224,0.11099}
			vn {0.97505,-0.21442,0.05745}
			vn {0.97505,-0.22198,0.00000}
			vn {0.97505,-0.21441,-0.05745}
			vn {0.97505,-0.19224,-0.11099}
			vn {0.97505,-0.15696,-0.15696}
			vn {0.97505,-0.11099,-0.19224}
			vn {0.97505,-0.05745,-0.21442}
			vn {0.97505,0.00000,-0.22198}
			vn {0.76770,-0.16586,0.61898}
			vn {0.76770,-0.32041,0.55496}
			vn {0.76770,-0.45312,0.45313}
			vn {0.76770,-0.55496,0.32041}
			vn {0.76769,-0.61899,0.16586}
			vn {0.76769,-0.64082,0.00000}
			vn {0.76769,-0.61898,-0.16586}
			vn {0.76769,-0.55497,-0.32041}
			vn {0.76769,-0.45313,-0.45313}
			vn {0.76769,-0.32041,-0.55497}
			vn {0.76770,-0.16586,-0.61897}
			vn {0.76770,-0.00000,-0.64080}
			vn {0.76770,0.16586,-0.61897}
			vn {0.76769,0.32041,-0.55497}
			vn {0.76769,0.45313,-0.45313}
			vn {0.76769,0.55497,-0.32041}
			vn {0.76769,0.61899,-0.16586}
			vn {0.76769,0.64082,0.00000}
			vn {0.76769,0.61899,0.16586}
			vn {0.76769,0.55497,0.32041}
			vn {0.76770,0.45312,0.45311}
			vn {0.76771,0.32039,0.55495}
			vn {0.76771,0.16585,0.61897}
			vn {0.76770,-0.00000,0.64081}
			vn {0.27119,0.24912,-0.92973}
			vn {0.27118,0.48126,-0.83358}
			vn {0.27117,0.68061,-0.68061}
			vn {0.27118,0.83358,-0.48126}
			vn {0.27119,0.92973,-0.24912}
			vn {0.27120,0.96252,-0.00000}
			vn {0.27120,0.92973,0.24912}
			vn {0.27121,0.83357,0.48126}
			vn {0.27121,0.68061,0.68060}
			vn {0.27120,0.48126,0.83357}
			vn {0.27119,0.24912,0.92973}
			vn {0.27119,0.00000,0.96253}
			vn {0.27119,-0.24912,0.92973}
			vn {0.27120,-0.48126,0.83357}
			vn {0.27121,-0.68061,0.68060}
			vn {0.27121,-0.83357,0.48126}
			vn {0.27120,-0.92973,0.24912}
			vn {0.27120,-0.96252,-0.00000}
			vn {0.27119,-0.92973,-0.24912}
			vn {0.27118,-0.83358,-0.48126}
			vn {0.27117,-0.68061,-0.68061}
			vn {0.27118,-0.48126,-0.83358}
			vn {0.27119,-0.24912,-0.92973}
			vn {0.27119,0.00000,-0.96253}
		}
		CVertCols
		{
			numVertCols 1
			col {0.50000,0.50000,0.50000,1}
		}
		CUVs
		{
			setID 0
			numUVs 258
			uv {0.54796,0.40348}
			uv {0.56586,0.40348}
			uv {0.26210,0.23286}
			uv {0.19951,0.23462}
			uv {0.56586,0.37602}
			uv {0.20372,0.25033}
			uv {0.54796,0.37602}
			uv {0.21522,0.26183}
			uv {0.58377,0.40348}
			uv {0.23092,0.26603}
			uv {0.58377,0.37602}
			uv {0.24663,0.26183}
			uv {0.60168,0.40348}
			uv {0.25812,0.25033}
			uv {0.60168,0.37602}
			uv {0.61959,0.40348}
			uv {0.25812,0.21892}
			uv {0.24663,0.20742}
			uv {0.61959,0.37602}
			uv {0.23092,0.20322}
			uv {0.63750,0.40348}
			uv {0.21522,0.20742}
			uv {0.63750,0.37602}
			uv {0.20372,0.21892}
			uv {0.65541,0.40348}
			uv {0.69122,0.37602}
			uv {0.65541,0.37602}
			uv {0.70913,0.37602}
			uv {0.67331,0.40348}
			uv {0.67331,0.37602}
			uv {0.49423,0.40348}
			uv {0.49423,0.37602}
			uv {0.51214,0.40348}
			uv {0.51214,0.37602}
			uv {0.53005,0.40348}
			uv {0.53005,0.37602}
			uv {0.69122,0.40348}
			uv {0.70913,0.40348}
			uv {0.23081,0.23374}
			uv {0.04876,0.83003}
			uv {0.04876,0.85992}
			uv {0.08574,0.85992}
			uv {0.08574,0.83003}
			uv {0.04876,0.88981}
			uv {0.08574,0.88981}
			uv {0.04876,0.91970}
			uv {0.08574,0.91970}
			uv {0.04876,0.94959}
			uv {0.08574,0.94959}
			uv {0.04876,0.97949}
			uv {0.08574,0.97949}
			uv {0.04876,0.26208}
			uv {0.04876,0.29197}
			uv {0.08574,0.29197}
			uv {0.08574,0.26208}
			uv {0.04876,0.32186}
			uv {0.08574,0.32186}
			uv {0.04876,0.35176}
			uv {0.08574,0.35176}
			uv {0.04876,0.38165}
			uv {0.08574,0.38165}
			uv {0.04876,0.41154}
			uv {0.08574,0.41154}
			uv {0.04876,0.44143}
			uv {0.08574,0.44143}
			uv {0.04876,0.47132}
			uv {0.08574,0.47132}
			uv {0.04876,0.50122}
			uv {0.08574,0.50122}
			uv {0.04876,0.53111}
			uv {0.08574,0.53111}
			uv {0.04876,0.56100}
			uv {0.08574,0.56100}
			uv {0.04876,0.59089}
			uv {0.08574,0.59089}
			uv {0.04876,0.62078}
			uv {0.08574,0.62078}
			uv {0.04876,0.65067}
			uv {0.08574,0.65067}
			uv {0.04876,0.68057}
			uv {0.08574,0.68057}
			uv {0.04876,0.71046}
			uv {0.08574,0.71046}
			uv {0.04876,0.74035}
			uv {0.08574,0.74035}
			uv {0.04876,0.77024}
			uv {0.08574,0.77024}
			uv {0.04876,0.80013}
			uv {0.08574,0.80013}
			uv {0.09316,0.85992}
			uv {0.09316,0.83003}
			uv {0.09316,0.88981}
			uv {0.09316,0.91970}
			uv {0.09316,0.94959}
			uv {0.09316,0.97949}
			uv {0.09316,0.29197}
			uv {0.09316,0.26208}
			uv {0.09316,0.32186}
			uv {0.09316,0.35176}
			uv {0.09316,0.38165}
			uv {0.09316,0.41154}
			uv {0.09316,0.44143}
			uv {0.09316,0.47132}
			uv {0.09316,0.50122}
			uv {0.09316,0.53111}
			uv {0.09316,0.56100}
			uv {0.09316,0.59089}
			uv {0.09316,0.62078}
			uv {0.09316,0.65067}
			uv {0.09316,0.68057}
			uv {0.09316,0.71046}
			uv {0.09316,0.74035}
			uv {0.09316,0.77024}
			uv {0.09316,0.80013}
			uv {0.48221,0.76364}
			uv {0.47209,0.73922}
			uv {0.44231,0.75641}
			uv {0.44899,0.77254}
			uv {0.45600,0.71824}
			uv {0.43168,0.74256}
			uv {0.43502,0.70215}
			uv {0.41783,0.73193}
			uv {0.41060,0.69203}
			uv {0.40170,0.72525}
			uv {0.38439,0.68858}
			uv {0.38439,0.72297}
			uv {0.35818,0.69203}
			uv {0.36708,0.72525}
			uv {0.33375,0.70215}
			uv {0.35094,0.73193}
			uv {0.31278,0.71824}
			uv {0.33709,0.74256}
			uv {0.29668,0.73922}
			uv {0.32646,0.75641}
			uv {0.28657,0.76364}
			uv {0.31978,0.77254}
			uv {0.28312,0.78985}
			uv {0.31750,0.78985}
			uv {0.28657,0.81606}
			uv {0.31978,0.80716}
			uv {0.29668,0.84049}
			uv {0.32646,0.82330}
			uv {0.31278,0.86146}
			uv {0.33709,0.83715}
			uv {0.33375,0.87756}
			uv {0.35094,0.84778}
			uv {0.35818,0.88767}
			uv {0.36708,0.85446}
			uv {0.38439,0.89112}
			uv {0.38439,0.85674}
			uv {0.41060,0.88767}
			uv {0.40170,0.85446}
			uv {0.43502,0.87756}
			uv {0.41783,0.84778}
			uv {0.45600,0.86146}
			uv {0.43168,0.83715}
			uv {0.47209,0.84049}
			uv {0.44231,0.82330}
			uv {0.48221,0.81606}
			uv {0.44899,0.80716}
			uv {0.48566,0.78985}
			uv {0.45127,0.78985}
			uv {0.43445,0.76095}
			uv {0.44023,0.77489}
			uv {0.42526,0.74898}
			uv {0.41329,0.73979}
			uv {0.39935,0.73401}
			uv {0.38439,0.73204}
			uv {0.36942,0.73401}
			uv {0.35548,0.73979}
			uv {0.34351,0.74898}
			uv {0.33432,0.76095}
			uv {0.32855,0.77489}
			uv {0.32658,0.78985}
			uv {0.32855,0.80482}
			uv {0.33432,0.81876}
			uv {0.34351,0.83073}
			uv {0.35548,0.83992}
			uv {0.36942,0.84569}
			uv {0.38439,0.84766}
			uv {0.39935,0.84569}
			uv {0.41329,0.83992}
			uv {0.42526,0.83073}
			uv {0.43445,0.81876}
			uv {0.44023,0.80482}
			uv {0.44220,0.78985}
			uv {0.42652,0.76553}
			uv {0.43138,0.77726}
			uv {0.41879,0.75545}
			uv {0.40871,0.74772}
			uv {0.39698,0.74286}
			uv {0.38439,0.74120}
			uv {0.37180,0.74286}
			uv {0.36006,0.74772}
			uv {0.34999,0.75545}
			uv {0.34226,0.76553}
			uv {0.33739,0.77726}
			uv {0.33574,0.78985}
			uv {0.33739,0.80245}
			uv {0.34226,0.81418}
			uv {0.34999,0.82425}
			uv {0.36006,0.83199}
			uv {0.37180,0.83685}
			uv {0.38439,0.83850}
			uv {0.39698,0.83685}
			uv {0.40871,0.83199}
			uv {0.41879,0.82425}
			uv {0.42652,0.81418}
			uv {0.43138,0.80245}
			uv {0.43304,0.78985}
			uv {0.42276,0.76770}
			uv {0.42719,0.77839}
			uv {0.41572,0.75852}
			uv {0.40654,0.75148}
			uv {0.39586,0.74705}
			uv {0.38439,0.74554}
			uv {0.37292,0.74705}
			uv {0.36223,0.75148}
			uv {0.35305,0.75852}
			uv {0.34601,0.76770}
			uv {0.34159,0.77839}
			uv {0.34008,0.78985}
			uv {0.34159,0.80132}
			uv {0.34601,0.81201}
			uv {0.35305,0.82119}
			uv {0.36223,0.82823}
			uv {0.37292,0.83265}
			uv {0.38439,0.83416}
			uv {0.39586,0.83265}
			uv {0.40654,0.82823}
			uv {0.41572,0.82119}
			uv {0.42276,0.81201}
			uv {0.42719,0.80132}
			uv {0.42870,0.78985}
			uv {0.48362,0.73256}
			uv {0.46541,0.70883}
			uv {0.49507,0.76020}
			uv {0.49897,0.78985}
			uv {0.49507,0.81951}
			uv {0.48362,0.84715}
			uv {0.46541,0.87088}
			uv {0.44168,0.88909}
			uv {0.41404,0.90053}
			uv {0.38439,0.90444}
			uv {0.35473,0.90053}
			uv {0.32709,0.88909}
			uv {0.30336,0.87088}
			uv {0.28515,0.84715}
			uv {0.27371,0.81951}
			uv {0.26980,0.78985}
			uv {0.27371,0.76020}
			uv {0.28515,0.73256}
			uv {0.30336,0.70883}
			uv {0.32709,0.69062}
			uv {0.35473,0.67917}
			uv {0.38439,0.67527}
			uv {0.41404,0.67917}
			uv {0.44168,0.69062}
		}
		CSurface
		{
			material "cleanBike2_phong14"
			CQuads
			{
				numQuads 24
				q {1,1,1,-1,0} {8,1,4,-1,0} {7,0,6,-1,0} {0,0,0,-1,0}
				q {2,2,8,-1,0} {9,2,10,-1,0} {8,1,4,-1,0} {1,1,1,-1,0}
				q {3,3,12,-1,0} {10,3,14,-1,0} {9,2,10,-1,0} {2,2,8,-1,0}
				q {4,4,15,-1,0} {11,4,18,-1,0} {10,3,14,-1,0} {3,3,12,-1,0}
				q {5,5,20,-1,0} {12,5,22,-1,0} {11,4,18,-1,0} {4,4,15,-1,0}
				q {6,6,24,-1,0} {13,6,26,-1,0} {12,5,22,-1,0} {5,5,20,-1,0}
				q {14,8,28,-1,0} {19,8,29,-1,0} {13,6,26,-1,0} {6,6,24,-1,0}
				q {15,9,36,-1,0} {20,9,25,-1,0} {19,8,29,-1,0} {14,8,28,-1,0}
				q {16,10,37,-1,0} {21,10,27,-1,0} {20,9,25,-1,0} {15,9,36,-1,0}
				q {17,11,32,-1,0} {22,11,33,-1,0} {21,10,31,-1,0} {16,10,30,-1,0}
				q {18,12,34,-1,0} {23,12,35,-1,0} {22,11,33,-1,0} {17,11,32,-1,0}
				q {0,0,0,-1,0} {7,0,6,-1,0} {23,12,35,-1,0} {18,12,34,-1,0}
				q {224,157,6,-1,0} {225,158,4,-1,0} {218,158,1,-1,0} {217,157,0,-1,0}
				q {225,158,4,-1,0} {226,159,10,-1,0} {219,159,8,-1,0} {218,158,1,-1,0}
				q {226,159,10,-1,0} {227,160,14,-1,0} {220,160,12,-1,0} {219,159,8,-1,0}
				q {227,160,14,-1,0} {228,161,18,-1,0} {221,161,15,-1,0} {220,160,12,-1,0}
				q {228,161,18,-1,0} {229,162,22,-1,0} {222,162,20,-1,0} {221,161,15,-1,0}
				q {229,162,22,-1,0} {230,163,26,-1,0} {223,163,24,-1,0} {222,162,20,-1,0}
				q {230,163,26,-1,0} {236,165,29,-1,0} {231,165,28,-1,0} {223,163,24,-1,0}
				q {236,165,29,-1,0} {237,166,25,-1,0} {232,166,36,-1,0} {231,165,28,-1,0}
				q {237,166,25,-1,0} {238,167,27,-1,0} {233,167,37,-1,0} {232,166,36,-1,0}
				q {238,167,31,-1,0} {239,168,33,-1,0} {234,168,32,-1,0} {233,167,30,-1,0}
				q {239,168,33,-1,0} {240,169,35,-1,0} {235,169,34,-1,0} {234,168,32,-1,0}
				q {240,169,35,-1,0} {224,157,6,-1,0} {217,157,0,-1,0} {235,169,34,-1,0}
			}
			CTris
			{
				numTris 24
				t {24,7,38,-1,0} {12,7,13,-1,0} {13,7,2,-1,0}
				t {13,7,2,-1,0} {19,7,16,-1,0} {24,7,38,-1,0}
				t {24,7,38,-1,0} {21,7,19,-1,0} {22,7,21,-1,0}
				t {24,7,38,-1,0} {7,7,3,-1,0} {8,7,5,-1,0}
				t {24,7,38,-1,0} {9,7,7,-1,0} {10,7,9,-1,0}
				t {24,7,38,-1,0} {8,7,5,-1,0} {9,7,7,-1,0}
				t {24,7,38,-1,0} {23,7,23,-1,0} {7,7,3,-1,0}
				t {24,7,38,-1,0} {22,7,21,-1,0} {23,7,23,-1,0}
				t {20,7,17,-1,0} {21,7,19,-1,0} {24,7,38,-1,0}
				t {19,7,16,-1,0} {20,7,17,-1,0} {24,7,38,-1,0}
				t {24,7,38,-1,0} {10,7,9,-1,0} {11,7,11,-1,0}
				t {24,7,38,-1,0} {11,7,11,-1,0} {12,7,13,-1,0}
				t {229,164,13,-1,0} {241,164,38,-1,0} {230,164,2,-1,0}
				t {236,164,16,-1,0} {230,164,2,-1,0} {241,164,38,-1,0}
				t {238,164,19,-1,0} {241,164,38,-1,0} {239,164,21,-1,0}
				t {224,164,3,-1,0} {241,164,38,-1,0} {225,164,5,-1,0}
				t {226,164,7,-1,0} {241,164,38,-1,0} {227,164,9,-1,0}
				t {225,164,5,-1,0} {241,164,38,-1,0} {226,164,7,-1,0}
				t {240,164,23,-1,0} {241,164,38,-1,0} {224,164,3,-1,0}
				t {239,164,21,-1,0} {241,164,38,-1,0} {240,164,23,-1,0}
				t {238,164,19,-1,0} {237,164,17,-1,0} {241,164,38,-1,0}
				t {237,164,17,-1,0} {236,164,16,-1,0} {241,164,38,-1,0}
				t {227,164,9,-1,0} {241,164,38,-1,0} {228,164,11,-1,0}
				t {228,164,11,-1,0} {241,164,38,-1,0} {229,164,13,-1,0}
			}
		}
		CSurface
		{
			material "phong16"
			CQuads
			{
				numQuads 336
				q {26,16,40,-1,0} {50,15,41,-1,0} {49,14,42,-1,0} {25,13,39,-1,0}
				q {27,18,43,-1,0} {51,17,44,-1,0} {50,15,41,-1,0} {26,16,40,-1,0}
				q {28,20,45,-1,0} {52,19,46,-1,0} {51,17,44,-1,0} {27,18,43,-1,0}
				q {29,22,47,-1,0} {53,21,48,-1,0} {52,19,46,-1,0} {28,20,45,-1,0}
				q {30,24,49,-1,0} {54,23,50,-1,0} {53,21,48,-1,0} {29,22,47,-1,0}
				q {31,26,52,-1,0} {55,25,53,-1,0} {54,23,54,-1,0} {30,24,51,-1,0}
				q {32,28,55,-1,0} {56,27,56,-1,0} {55,25,53,-1,0} {31,26,52,-1,0}
				q {33,30,57,-1,0} {57,29,58,-1,0} {56,27,56,-1,0} {32,28,55,-1,0}
				q {34,32,59,-1,0} {58,31,60,-1,0} {57,29,58,-1,0} {33,30,57,-1,0}
				q {35,34,61,-1,0} {59,33,62,-1,0} {58,31,60,-1,0} {34,32,59,-1,0}
				q {36,36,63,-1,0} {60,35,64,-1,0} {59,33,62,-1,0} {35,34,61,-1,0}
				q {37,38,65,-1,0} {61,37,66,-1,0} {60,35,64,-1,0} {36,36,63,-1,0}
				q {38,40,67,-1,0} {62,39,68,-1,0} {61,37,66,-1,0} {37,38,65,-1,0}
				q {39,42,69,-1,0} {63,41,70,-1,0} {62,39,68,-1,0} {38,40,67,-1,0}
				q {40,44,71,-1,0} {64,43,72,-1,0} {63,41,70,-1,0} {39,42,69,-1,0}
				q {41,46,73,-1,0} {65,45,74,-1,0} {64,43,72,-1,0} {40,44,71,-1,0}
				q {42,48,75,-1,0} {66,47,76,-1,0} {65,45,74,-1,0} {41,46,73,-1,0}
				q {43,50,77,-1,0} {67,49,78,-1,0} {66,47,76,-1,0} {42,48,75,-1,0}
				q {44,52,79,-1,0} {68,51,80,-1,0} {67,49,78,-1,0} {43,50,77,-1,0}
				q {45,54,81,-1,0} {69,53,82,-1,0} {68,51,80,-1,0} {44,52,79,-1,0}
				q {46,56,83,-1,0} {70,55,84,-1,0} {69,53,82,-1,0} {45,54,81,-1,0}
				q {47,58,85,-1,0} {71,57,86,-1,0} {70,55,84,-1,0} {46,56,83,-1,0}
				q {48,60,87,-1,0} {72,59,88,-1,0} {71,57,86,-1,0} {47,58,85,-1,0}
				q {25,13,39,-1,0} {49,14,42,-1,0} {72,59,88,-1,0} {48,60,87,-1,0}
				q {50,15,41,-1,0} {194,62,89,-1,0} {195,61,90,-1,0} {49,14,42,-1,0}
				q {51,17,44,-1,0} {193,63,91,-1,0} {194,62,89,-1,0} {50,15,41,-1,0}
				q {52,19,46,-1,0} {216,64,92,-1,0} {193,63,91,-1,0} {51,17,44,-1,0}
				q {53,21,48,-1,0} {215,65,93,-1,0} {216,64,92,-1,0} {52,19,46,-1,0}
				q {54,23,50,-1,0} {214,66,94,-1,0} {215,65,93,-1,0} {53,21,48,-1,0}
				q {55,25,53,-1,0} {213,67,95,-1,0} {214,66,96,-1,0} {54,23,54,-1,0}
				q {56,27,56,-1,0} {212,68,97,-1,0} {213,67,95,-1,0} {55,25,53,-1,0}
				q {57,29,58,-1,0} {211,69,98,-1,0} {212,68,97,-1,0} {56,27,56,-1,0}
				q {58,31,60,-1,0} {210,70,99,-1,0} {211,69,98,-1,0} {57,29,58,-1,0}
				q {59,33,62,-1,0} {209,71,100,-1,0} {210,70,99,-1,0} {58,31,60,-1,0}
				q {60,35,64,-1,0} {208,72,101,-1,0} {209,71,100,-1,0} {59,33,62,-1,0}
				q {61,37,66,-1,0} {207,73,102,-1,0} {208,72,101,-1,0} {60,35,64,-1,0}
				q {62,39,68,-1,0} {206,74,103,-1,0} {207,73,102,-1,0} {61,37,66,-1,0}
				q {63,41,70,-1,0} {205,75,104,-1,0} {206,74,103,-1,0} {62,39,68,-1,0}
				q {64,43,72,-1,0} {204,76,105,-1,0} {205,75,104,-1,0} {63,41,70,-1,0}
				q {65,45,74,-1,0} {203,77,106,-1,0} {204,76,105,-1,0} {64,43,72,-1,0}
				q {66,47,76,-1,0} {202,78,107,-1,0} {203,77,106,-1,0} {65,45,74,-1,0}
				q {67,49,78,-1,0} {201,79,108,-1,0} {202,78,107,-1,0} {66,47,76,-1,0}
				q {68,51,80,-1,0} {200,80,109,-1,0} {201,79,108,-1,0} {67,49,78,-1,0}
				q {69,53,82,-1,0} {199,81,110,-1,0} {200,80,109,-1,0} {68,51,80,-1,0}
				q {70,55,84,-1,0} {198,82,111,-1,0} {199,81,110,-1,0} {69,53,82,-1,0}
				q {71,57,86,-1,0} {197,83,112,-1,0} {198,82,111,-1,0} {70,55,84,-1,0}
				q {72,59,88,-1,0} {196,84,113,-1,0} {197,83,112,-1,0} {71,57,86,-1,0}
				q {49,14,42,-1,0} {195,61,90,-1,0} {196,84,113,-1,0} {72,59,88,-1,0}
				q {74,86,115,-1,0} {98,7,116,-1,0} {97,7,117,-1,0} {73,85,114,-1,0}
				q {75,87,118,-1,0} {99,7,119,-1,0} {98,7,116,-1,0} {74,86,115,-1,0}
				q {76,88,120,-1,0} {100,7,121,-1,0} {99,7,119,-1,0} {75,87,118,-1,0}
				q {77,89,122,-1,0} {101,7,123,-1,0} {100,7,121,-1,0} {76,88,120,-1,0}
				q {78,90,124,-1,0} {102,7,125,-1,0} {101,7,123,-1,0} {77,89,122,-1,0}
				q {79,91,126,-1,0} {103,7,127,-1,0} {102,7,125,-1,0} {78,90,124,-1,0}
				q {80,92,128,-1,0} {104,7,129,-1,0} {103,7,127,-1,0} {79,91,126,-1,0}
				q {81,93,130,-1,0} {105,7,131,-1,0} {104,7,129,-1,0} {80,92,128,-1,0}
				q {82,94,132,-1,0} {106,7,133,-1,0} {105,7,131,-1,0} {81,93,130,-1,0}
				q {83,95,134,-1,0} {107,7,135,-1,0} {106,7,133,-1,0} {82,94,132,-1,0}
				q {84,96,136,-1,0} {108,7,137,-1,0} {107,7,135,-1,0} {83,95,134,-1,0}
				q {85,97,138,-1,0} {109,7,139,-1,0} {108,7,137,-1,0} {84,96,136,-1,0}
				q {86,98,140,-1,0} {110,7,141,-1,0} {109,7,139,-1,0} {85,97,138,-1,0}
				q {87,99,142,-1,0} {111,7,143,-1,0} {110,7,141,-1,0} {86,98,140,-1,0}
				q {88,100,144,-1,0} {112,7,145,-1,0} {111,7,143,-1,0} {87,99,142,-1,0}
				q {89,101,146,-1,0} {113,7,147,-1,0} {112,7,145,-1,0} {88,100,144,-1,0}
				q {90,102,148,-1,0} {114,7,149,-1,0} {113,7,147,-1,0} {89,101,146,-1,0}
				q {91,103,150,-1,0} {115,7,151,-1,0} {114,7,149,-1,0} {90,102,148,-1,0}
				q {92,104,152,-1,0} {116,7,153,-1,0} {115,7,151,-1,0} {91,103,150,-1,0}
				q {93,105,154,-1,0} {117,7,155,-1,0} {116,7,153,-1,0} {92,104,152,-1,0}
				q {94,106,156,-1,0} {118,7,157,-1,0} {117,7,155,-1,0} {93,105,154,-1,0}
				q {95,107,158,-1,0} {119,7,159,-1,0} {118,7,157,-1,0} {94,106,156,-1,0}
				q {96,108,160,-1,0} {120,7,161,-1,0} {119,7,159,-1,0} {95,107,158,-1,0}
				q {73,85,114,-1,0} {97,7,117,-1,0} {120,7,161,-1,0} {96,108,160,-1,0}
				q {98,110,116,-1,0} {122,110,162,-1,0} {121,109,163,-1,0} {97,109,117,-1,0}
				q {99,111,119,-1,0} {123,111,164,-1,0} {122,110,162,-1,0} {98,110,116,-1,0}
				q {100,112,121,-1,0} {124,112,165,-1,0} {123,111,164,-1,0} {99,111,119,-1,0}
				q {101,113,123,-1,0} {125,113,166,-1,0} {124,112,165,-1,0} {100,112,121,-1,0}
				q {102,114,125,-1,0} {126,114,167,-1,0} {125,113,166,-1,0} {101,113,123,-1,0}
				q {103,115,127,-1,0} {127,115,168,-1,0} {126,114,167,-1,0} {102,114,125,-1,0}
				q {104,116,129,-1,0} {128,116,169,-1,0} {127,115,168,-1,0} {103,115,127,-1,0}
				q {105,117,131,-1,0} {129,117,170,-1,0} {128,116,169,-1,0} {104,116,129,-1,0}
				q {106,118,133,-1,0} {130,118,171,-1,0} {129,117,170,-1,0} {105,117,131,-1,0}
				q {107,119,135,-1,0} {131,119,172,-1,0} {130,118,171,-1,0} {106,118,133,-1,0}
				q {108,120,137,-1,0} {132,120,173,-1,0} {131,119,172,-1,0} {107,119,135,-1,0}
				q {109,121,139,-1,0} {133,121,174,-1,0} {132,120,173,-1,0} {108,120,137,-1,0}
				q {110,122,141,-1,0} {134,122,175,-1,0} {133,121,174,-1,0} {109,121,139,-1,0}
				q {111,123,143,-1,0} {135,123,176,-1,0} {134,122,175,-1,0} {110,122,141,-1,0}
				q {112,124,145,-1,0} {136,124,177,-1,0} {135,123,176,-1,0} {111,123,143,-1,0}
				q {113,125,147,-1,0} {137,125,178,-1,0} {136,124,177,-1,0} {112,124,145,-1,0}
				q {114,126,149,-1,0} {138,126,179,-1,0} {137,125,178,-1,0} {113,125,147,-1,0}
				q {115,127,151,-1,0} {139,127,180,-1,0} {138,126,179,-1,0} {114,126,149,-1,0}
				q {116,128,153,-1,0} {140,128,181,-1,0} {139,127,180,-1,0} {115,127,151,-1,0}
				q {117,129,155,-1,0} {141,129,182,-1,0} {140,128,181,-1,0} {116,128,153,-1,0}
				q {118,130,157,-1,0} {142,130,183,-1,0} {141,129,182,-1,0} {117,129,155,-1,0}
				q {119,131,159,-1,0} {143,131,184,-1,0} {142,130,183,-1,0} {118,130,157,-1,0}
				q {120,132,161,-1,0} {144,132,185,-1,0} {143,131,184,-1,0} {119,131,159,-1,0}
				q {97,109,117,-1,0} {121,109,163,-1,0} {144,132,185,-1,0} {120,132,161,-1,0}
				q {122,7,162,-1,0} {146,7,186,-1,0} {145,7,187,-1,0} {121,7,163,-1,0}
				q {123,7,164,-1,0} {147,7,188,-1,0} {146,7,186,-1,0} {122,7,162,-1,0}
				q {124,7,165,-1,0} {148,7,189,-1,0} {147,7,188,-1,0} {123,7,164,-1,0}
				q {125,7,166,-1,0} {149,7,190,-1,0} {148,7,189,-1,0} {124,7,165,-1,0}
				q {126,7,167,-1,0} {150,7,191,-1,0} {149,7,190,-1,0} {125,7,166,-1,0}
				q {127,7,168,-1,0} {151,7,192,-1,0} {150,7,191,-1,0} {126,7,167,-1,0}
				q {128,7,169,-1,0} {152,7,193,-1,0} {151,7,192,-1,0} {127,7,168,-1,0}
				q {129,7,170,-1,0} {153,7,194,-1,0} {152,7,193,-1,0} {128,7,169,-1,0}
				q {130,7,171,-1,0} {154,7,195,-1,0} {153,7,194,-1,0} {129,7,170,-1,0}
				q {131,7,172,-1,0} {155,7,196,-1,0} {154,7,195,-1,0} {130,7,171,-1,0}
				q {132,7,173,-1,0} {156,7,197,-1,0} {155,7,196,-1,0} {131,7,172,-1,0}
				q {133,7,174,-1,0} {157,7,198,-1,0} {156,7,197,-1,0} {132,7,173,-1,0}
				q {134,7,175,-1,0} {158,7,199,-1,0} {157,7,198,-1,0} {133,7,174,-1,0}
				q {135,7,176,-1,0} {159,7,200,-1,0} {158,7,199,-1,0} {134,7,175,-1,0}
				q {136,7,177,-1,0} {160,7,201,-1,0} {159,7,200,-1,0} {135,7,176,-1,0}
				q {137,7,178,-1,0} {161,7,202,-1,0} {160,7,201,-1,0} {136,7,177,-1,0}
				q {138,7,179,-1,0} {162,7,203,-1,0} {161,7,202,-1,0} {137,7,178,-1,0}
				q {139,7,180,-1,0} {163,7,204,-1,0} {162,7,203,-1,0} {138,7,179,-1,0}
				q {140,7,181,-1,0} {164,7,205,-1,0} {163,7,204,-1,0} {139,7,180,-1,0}
				q {141,7,182,-1,0} {165,7,206,-1,0} {164,7,205,-1,0} {140,7,181,-1,0}
				q {142,7,183,-1,0} {166,7,207,-1,0} {165,7,206,-1,0} {141,7,182,-1,0}
				q {143,7,184,-1,0} {167,7,208,-1,0} {166,7,207,-1,0} {142,7,183,-1,0}
				q {144,7,185,-1,0} {168,7,209,-1,0} {167,7,208,-1,0} {143,7,184,-1,0}
				q {121,7,163,-1,0} {145,7,187,-1,0} {168,7,209,-1,0} {144,7,185,-1,0}
				q {146,134,186,-1,0} {170,134,210,-1,0} {169,133,211,-1,0} {145,133,187,-1,0}
				q {147,135,188,-1,0} {171,135,212,-1,0} {170,134,210,-1,0} {146,134,186,-1,0}
				q {148,136,189,-1,0} {172,136,213,-1,0} {171,135,212,-1,0} {147,135,188,-1,0}
				q {149,137,190,-1,0} {173,137,214,-1,0} {172,136,213,-1,0} {148,136,189,-1,0}
				q {150,138,191,-1,0} {174,138,215,-1,0} {173,137,214,-1,0} {149,137,190,-1,0}
				q {151,139,192,-1,0} {175,139,216,-1,0} {174,138,215,-1,0} {150,138,191,-1,0}
				q {152,140,193,-1,0} {176,140,217,-1,0} {175,139,216,-1,0} {151,139,192,-1,0}
				q {153,141,194,-1,0} {177,141,218,-1,0} {176,140,217,-1,0} {152,140,193,-1,0}
				q {154,142,195,-1,0} {178,142,219,-1,0} {177,141,218,-1,0} {153,141,194,-1,0}
				q {155,143,196,-1,0} {179,143,220,-1,0} {178,142,219,-1,0} {154,142,195,-1,0}
				q {156,144,197,-1,0} {180,144,221,-1,0} {179,143,220,-1,0} {155,143,196,-1,0}
				q {157,145,198,-1,0} {181,145,222,-1,0} {180,144,221,-1,0} {156,144,197,-1,0}
				q {158,146,199,-1,0} {182,146,223,-1,0} {181,145,222,-1,0} {157,145,198,-1,0}
				q {159,147,200,-1,0} {183,147,224,-1,0} {182,146,223,-1,0} {158,146,199,-1,0}
				q {160,148,201,-1,0} {184,148,225,-1,0} {183,147,224,-1,0} {159,147,200,-1,0}
				q {161,149,202,-1,0} {185,149,226,-1,0} {184,148,225,-1,0} {160,148,201,-1,0}
				q {162,150,203,-1,0} {186,150,227,-1,0} {185,149,226,-1,0} {161,149,202,-1,0}
				q {163,151,204,-1,0} {187,151,228,-1,0} {186,150,227,-1,0} {162,150,203,-1,0}
				q {164,152,205,-1,0} {188,152,229,-1,0} {187,151,228,-1,0} {163,151,204,-1,0}
				q {165,153,206,-1,0} {189,153,230,-1,0} {188,152,229,-1,0} {164,152,205,-1,0}
				q {166,154,207,-1,0} {190,154,231,-1,0} {189,153,230,-1,0} {165,153,206,-1,0}
				q {167,155,208,-1,0} {191,155,232,-1,0} {190,154,231,-1,0} {166,154,207,-1,0}
				q {168,156,209,-1,0} {192,156,233,-1,0} {191,155,232,-1,0} {167,155,208,-1,0}
				q {145,133,187,-1,0} {169,133,211,-1,0} {192,156,233,-1,0} {168,156,209,-1,0}
				q {193,63,235,-1,0} {75,87,118,-1,0} {74,86,115,-1,0} {194,62,234,-1,0}
				q {194,62,234,-1,0} {74,86,115,-1,0} {73,85,114,-1,0} {195,61,236,-1,0}
				q {195,61,236,-1,0} {73,85,114,-1,0} {96,108,160,-1,0} {196,84,237,-1,0}
				q {196,84,237,-1,0} {96,108,160,-1,0} {95,107,158,-1,0} {197,83,238,-1,0}
				q {197,83,238,-1,0} {95,107,158,-1,0} {94,106,156,-1,0} {198,82,239,-1,0}
				q {198,82,239,-1,0} {94,106,156,-1,0} {93,105,154,-1,0} {199,81,240,-1,0}
				q {199,81,240,-1,0} {93,105,154,-1,0} {92,104,152,-1,0} {200,80,241,-1,0}
				q {200,80,241,-1,0} {92,104,152,-1,0} {91,103,150,-1,0} {201,79,242,-1,0}
				q {201,79,242,-1,0} {91,103,150,-1,0} {90,102,148,-1,0} {202,78,243,-1,0}
				q {202,78,243,-1,0} {90,102,148,-1,0} {89,101,146,-1,0} {203,77,244,-1,0}
				q {203,77,244,-1,0} {89,101,146,-1,0} {88,100,144,-1,0} {204,76,245,-1,0}
				q {204,76,245,-1,0} {88,100,144,-1,0} {87,99,142,-1,0} {205,75,246,-1,0}
				q {205,75,246,-1,0} {87,99,142,-1,0} {86,98,140,-1,0} {206,74,247,-1,0}
				q {206,74,247,-1,0} {86,98,140,-1,0} {85,97,138,-1,0} {207,73,248,-1,0}
				q {207,73,248,-1,0} {85,97,138,-1,0} {84,96,136,-1,0} {208,72,249,-1,0}
				q {208,72,249,-1,0} {84,96,136,-1,0} {83,95,134,-1,0} {209,71,250,-1,0}
				q {209,71,250,-1,0} {83,95,134,-1,0} {82,94,132,-1,0} {210,70,251,-1,0}
				q {210,70,251,-1,0} {82,94,132,-1,0} {81,93,130,-1,0} {211,69,252,-1,0}
				q {211,69,252,-1,0} {81,93,130,-1,0} {80,92,128,-1,0} {212,68,253,-1,0}
				q {212,68,253,-1,0} {80,92,128,-1,0} {79,91,126,-1,0} {213,67,254,-1,0}
				q {213,67,254,-1,0} {79,91,126,-1,0} {78,90,124,-1,0} {214,66,255,-1,0}
				q {214,66,255,-1,0} {78,90,124,-1,0} {77,89,122,-1,0} {215,65,256,-1,0}
				q {215,65,256,-1,0} {77,89,122,-1,0} {76,88,120,-1,0} {216,64,257,-1,0}
				q {216,64,257,-1,0} {76,88,120,-1,0} {75,87,118,-1,0} {193,63,235,-1,0}
				q {266,173,42,-1,0} {267,172,41,-1,0} {243,171,40,-1,0} {242,170,39,-1,0}
				q {267,172,41,-1,0} {268,175,44,-1,0} {244,174,43,-1,0} {243,171,40,-1,0}
				q {268,175,44,-1,0} {269,177,46,-1,0} {245,176,45,-1,0} {244,174,43,-1,0}
				q {269,177,46,-1,0} {270,179,48,-1,0} {246,178,47,-1,0} {245,176,45,-1,0}
				q {270,179,48,-1,0} {271,181,50,-1,0} {247,180,49,-1,0} {246,178,47,-1,0}
				q {271,181,54,-1,0} {272,183,53,-1,0} {248,182,52,-1,0} {247,180,51,-1,0}
				q {272,183,53,-1,0} {273,185,56,-1,0} {249,184,55,-1,0} {248,182,52,-1,0}
				q {273,185,56,-1,0} {274,187,58,-1,0} {250,186,57,-1,0} {249,184,55,-1,0}
				q {274,187,58,-1,0} {275,189,60,-1,0} {251,188,59,-1,0} {250,186,57,-1,0}
				q {275,189,60,-1,0} {276,191,62,-1,0} {252,190,61,-1,0} {251,188,59,-1,0}
				q {276,191,62,-1,0} {277,193,64,-1,0} {253,192,63,-1,0} {252,190,61,-1,0}
				q {277,193,64,-1,0} {278,195,66,-1,0} {254,194,65,-1,0} {253,192,63,-1,0}
				q {278,195,66,-1,0} {279,197,68,-1,0} {255,196,67,-1,0} {254,194,65,-1,0}
				q {279,197,68,-1,0} {280,199,70,-1,0} {256,198,69,-1,0} {255,196,67,-1,0}
				q {280,199,70,-1,0} {281,201,72,-1,0} {257,200,71,-1,0} {256,198,69,-1,0}
				q {281,201,72,-1,0} {282,203,74,-1,0} {258,202,73,-1,0} {257,200,71,-1,0}
				q {282,203,74,-1,0} {283,205,76,-1,0} {259,204,75,-1,0} {258,202,73,-1,0}
				q {283,205,76,-1,0} {284,207,78,-1,0} {260,206,77,-1,0} {259,204,75,-1,0}
				q {284,207,78,-1,0} {285,209,80,-1,0} {261,208,79,-1,0} {260,206,77,-1,0}
				q {285,209,80,-1,0} {286,211,82,-1,0} {262,210,81,-1,0} {261,208,79,-1,0}
				q {286,211,82,-1,0} {287,213,84,-1,0} {263,212,83,-1,0} {262,210,81,-1,0}
				q {287,213,84,-1,0} {288,215,86,-1,0} {264,214,85,-1,0} {263,212,83,-1,0}
				q {288,215,86,-1,0} {289,217,88,-1,0} {265,216,87,-1,0} {264,214,85,-1,0}
				q {289,217,88,-1,0} {266,173,42,-1,0} {242,170,39,-1,0} {265,216,87,-1,0}
				q {412,219,90,-1,0} {411,218,89,-1,0} {267,172,41,-1,0} {266,173,42,-1,0}
				q {411,218,89,-1,0} {410,220,91,-1,0} {268,175,44,-1,0} {267,172,41,-1,0}
				q {410,220,91,-1,0} {433,221,92,-1,0} {269,177,46,-1,0} {268,175,44,-1,0}
				q {433,221,92,-1,0} {432,222,93,-1,0} {270,179,48,-1,0} {269,177,46,-1,0}
				q {432,222,93,-1,0} {431,223,94,-1,0} {271,181,50,-1,0} {270,179,48,-1,0}
				q {431,223,96,-1,0} {430,224,95,-1,0} {272,183,53,-1,0} {271,181,54,-1,0}
				q {430,224,95,-1,0} {429,225,97,-1,0} {273,185,56,-1,0} {272,183,53,-1,0}
				q {429,225,97,-1,0} {428,226,98,-1,0} {274,187,58,-1,0} {273,185,56,-1,0}
				q {428,226,98,-1,0} {427,227,99,-1,0} {275,189,60,-1,0} {274,187,58,-1,0}
				q {427,227,99,-1,0} {426,228,100,-1,0} {276,191,62,-1,0} {275,189,60,-1,0}
				q {426,228,100,-1,0} {425,229,101,-1,0} {277,193,64,-1,0} {276,191,62,-1,0}
				q {425,229,101,-1,0} {424,230,102,-1,0} {278,195,66,-1,0} {277,193,64,-1,0}
				q {424,230,102,-1,0} {423,231,103,-1,0} {279,197,68,-1,0} {278,195,66,-1,0}
				q {423,231,103,-1,0} {422,232,104,-1,0} {280,199,70,-1,0} {279,197,68,-1,0}
				q {422,232,104,-1,0} {421,233,105,-1,0} {281,201,72,-1,0} {280,199,70,-1,0}
				q {421,233,105,-1,0} {420,234,106,-1,0} {282,203,74,-1,0} {281,201,72,-1,0}
				q {420,234,106,-1,0} {419,235,107,-1,0} {283,205,76,-1,0} {282,203,74,-1,0}
				q {419,235,107,-1,0} {418,236,108,-1,0} {284,207,78,-1,0} {283,205,76,-1,0}
				q {418,236,108,-1,0} {417,237,109,-1,0} {285,209,80,-1,0} {284,207,78,-1,0}
				q {417,237,109,-1,0} {416,238,110,-1,0} {286,211,82,-1,0} {285,209,80,-1,0}
				q {416,238,110,-1,0} {415,239,111,-1,0} {287,213,84,-1,0} {286,211,82,-1,0}
				q {415,239,111,-1,0} {414,240,112,-1,0} {288,215,86,-1,0} {287,213,84,-1,0}
				q {414,240,112,-1,0} {413,241,113,-1,0} {289,217,88,-1,0} {288,215,86,-1,0}
				q {413,241,113,-1,0} {412,219,90,-1,0} {266,173,42,-1,0} {289,217,88,-1,0}
				q {314,164,117,-1,0} {315,164,116,-1,0} {291,243,115,-1,0} {290,242,114,-1,0}
				q {315,164,116,-1,0} {316,164,119,-1,0} {292,244,118,-1,0} {291,243,115,-1,0}
				q {316,164,119,-1,0} {317,164,121,-1,0} {293,245,120,-1,0} {292,244,118,-1,0}
				q {317,164,121,-1,0} {318,164,123,-1,0} {294,246,122,-1,0} {293,245,120,-1,0}
				q {318,164,123,-1,0} {319,164,125,-1,0} {295,247,124,-1,0} {294,246,122,-1,0}
				q {319,164,125,-1,0} {320,164,127,-1,0} {296,248,126,-1,0} {295,247,124,-1,0}
				q {320,164,127,-1,0} {321,164,129,-1,0} {297,249,128,-1,0} {296,248,126,-1,0}
				q {321,164,129,-1,0} {322,164,131,-1,0} {298,250,130,-1,0} {297,249,128,-1,0}
				q {322,164,131,-1,0} {323,164,133,-1,0} {299,251,132,-1,0} {298,250,130,-1,0}
				q {323,164,133,-1,0} {324,164,135,-1,0} {300,252,134,-1,0} {299,251,132,-1,0}
				q {324,164,135,-1,0} {325,164,137,-1,0} {301,253,136,-1,0} {300,252,134,-1,0}
				q {325,164,137,-1,0} {326,164,139,-1,0} {302,254,138,-1,0} {301,253,136,-1,0}
				q {326,164,139,-1,0} {327,164,141,-1,0} {303,255,140,-1,0} {302,254,138,-1,0}
				q {327,164,141,-1,0} {328,164,143,-1,0} {304,256,142,-1,0} {303,255,140,-1,0}
				q {328,164,143,-1,0} {329,164,145,-1,0} {305,257,144,-1,0} {304,256,142,-1,0}
				q {329,164,145,-1,0} {330,164,147,-1,0} {306,258,146,-1,0} {305,257,144,-1,0}
				q {330,164,147,-1,0} {331,164,149,-1,0} {307,259,148,-1,0} {306,258,146,-1,0}
				q {331,164,149,-1,0} {332,164,151,-1,0} {308,260,150,-1,0} {307,259,148,-1,0}
				q {332,164,151,-1,0} {333,164,153,-1,0} {309,261,152,-1,0} {308,260,150,-1,0}
				q {333,164,153,-1,0} {334,164,155,-1,0} {310,262,154,-1,0} {309,261,152,-1,0}
				q {334,164,155,-1,0} {335,164,157,-1,0} {311,263,156,-1,0} {310,262,154,-1,0}
				q {335,164,157,-1,0} {336,164,159,-1,0} {312,264,158,-1,0} {311,263,156,-1,0}
				q {336,164,159,-1,0} {337,164,161,-1,0} {313,265,160,-1,0} {312,264,158,-1,0}
				q {337,164,161,-1,0} {314,164,117,-1,0} {290,242,114,-1,0} {313,265,160,-1,0}
				q {338,266,163,-1,0} {339,267,162,-1,0} {315,267,116,-1,0} {314,266,117,-1,0}
				q {339,267,162,-1,0} {340,268,164,-1,0} {316,268,119,-1,0} {315,267,116,-1,0}
				q {340,268,164,-1,0} {341,269,165,-1,0} {317,269,121,-1,0} {316,268,119,-1,0}
				q {341,269,165,-1,0} {342,270,166,-1,0} {318,270,123,-1,0} {317,269,121,-1,0}
				q {342,270,166,-1,0} {343,271,167,-1,0} {319,271,125,-1,0} {318,270,123,-1,0}
				q {343,271,167,-1,0} {344,272,168,-1,0} {320,272,127,-1,0} {319,271,125,-1,0}
				q {344,272,168,-1,0} {345,273,169,-1,0} {321,273,129,-1,0} {320,272,127,-1,0}
				q {345,273,169,-1,0} {346,274,170,-1,0} {322,274,131,-1,0} {321,273,129,-1,0}
				q {346,274,170,-1,0} {347,275,171,-1,0} {323,275,133,-1,0} {322,274,131,-1,0}
				q {347,275,171,-1,0} {348,276,172,-1,0} {324,276,135,-1,0} {323,275,133,-1,0}
				q {348,276,172,-1,0} {349,277,173,-1,0} {325,277,137,-1,0} {324,276,135,-1,0}
				q {349,277,173,-1,0} {350,278,174,-1,0} {326,278,139,-1,0} {325,277,137,-1,0}
				q {350,278,174,-1,0} {351,279,175,-1,0} {327,279,141,-1,0} {326,278,139,-1,0}
				q {351,279,175,-1,0} {352,280,176,-1,0} {328,280,143,-1,0} {327,279,141,-1,0}
				q {352,280,176,-1,0} {353,281,177,-1,0} {329,281,145,-1,0} {328,280,143,-1,0}
				q {353,281,177,-1,0} {354,282,178,-1,0} {330,282,147,-1,0} {329,281,145,-1,0}
				q {354,282,178,-1,0} {355,283,179,-1,0} {331,283,149,-1,0} {330,282,147,-1,0}
				q {355,283,179,-1,0} {356,284,180,-1,0} {332,284,151,-1,0} {331,283,149,-1,0}
				q {356,284,180,-1,0} {357,285,181,-1,0} {333,285,153,-1,0} {332,284,151,-1,0}
				q {357,285,181,-1,0} {358,286,182,-1,0} {334,286,155,-1,0} {333,285,153,-1,0}
				q {358,286,182,-1,0} {359,287,183,-1,0} {335,287,157,-1,0} {334,286,155,-1,0}
				q {359,287,183,-1,0} {360,288,184,-1,0} {336,288,159,-1,0} {335,287,157,-1,0}
				q {360,288,184,-1,0} {361,289,185,-1,0} {337,289,161,-1,0} {336,288,159,-1,0}
				q {361,289,185,-1,0} {338,266,163,-1,0} {314,266,117,-1,0} {337,289,161,-1,0}
				q {362,164,187,-1,0} {363,164,186,-1,0} {339,164,162,-1,0} {338,164,163,-1,0}
				q {363,164,186,-1,0} {364,164,188,-1,0} {340,164,164,-1,0} {339,164,162,-1,0}
				q {364,164,188,-1,0} {365,164,189,-1,0} {341,164,165,-1,0} {340,164,164,-1,0}
				q {365,164,189,-1,0} {366,164,190,-1,0} {342,164,166,-1,0} {341,164,165,-1,0}
				q {366,164,190,-1,0} {367,164,191,-1,0} {343,164,167,-1,0} {342,164,166,-1,0}
				q {367,164,191,-1,0} {368,164,192,-1,0} {344,164,168,-1,0} {343,164,167,-1,0}
				q {368,164,192,-1,0} {369,164,193,-1,0} {345,164,169,-1,0} {344,164,168,-1,0}
				q {369,164,193,-1,0} {370,164,194,-1,0} {346,164,170,-1,0} {345,164,169,-1,0}
				q {370,164,194,-1,0} {371,164,195,-1,0} {347,164,171,-1,0} {346,164,170,-1,0}
				q {371,164,195,-1,0} {372,164,196,-1,0} {348,164,172,-1,0} {347,164,171,-1,0}
				q {372,164,196,-1,0} {373,164,197,-1,0} {349,164,173,-1,0} {348,164,172,-1,0}
				q {373,164,197,-1,0} {374,164,198,-1,0} {350,164,174,-1,0} {349,164,173,-1,0}
				q {374,164,198,-1,0} {375,164,199,-1,0} {351,164,175,-1,0} {350,164,174,-1,0}
				q {375,164,199,-1,0} {376,164,200,-1,0} {352,164,176,-1,0} {351,164,175,-1,0}
				q {376,164,200,-1,0} {377,164,201,-1,0} {353,164,177,-1,0} {352,164,176,-1,0}
				q {377,164,201,-1,0} {378,164,202,-1,0} {354,164,178,-1,0} {353,164,177,-1,0}
				q {378,164,202,-1,0} {379,164,203,-1,0} {355,164,179,-1,0} {354,164,178,-1,0}
				q {379,164,203,-1,0} {380,164,204,-1,0} {356,164,180,-1,0} {355,164,179,-1,0}
				q {380,164,204,-1,0} {381,164,205,-1,0} {357,164,181,-1,0} {356,164,180,-1,0}
				q {381,164,205,-1,0} {382,164,206,-1,0} {358,164,182,-1,0} {357,164,181,-1,0}
				q {382,164,206,-1,0} {383,164,207,-1,0} {359,164,183,-1,0} {358,164,182,-1,0}
				q {383,164,207,-1,0} {384,164,208,-1,0} {360,164,184,-1,0} {359,164,183,-1,0}
				q {384,164,208,-1,0} {385,164,209,-1,0} {361,164,185,-1,0} {360,164,184,-1,0}
				q {385,164,209,-1,0} {362,164,187,-1,0} {338,164,163,-1,0} {361,164,185,-1,0}
				q {386,290,211,-1,0} {387,291,210,-1,0} {363,291,186,-1,0} {362,290,187,-1,0}
				q {387,291,210,-1,0} {388,292,212,-1,0} {364,292,188,-1,0} {363,291,186,-1,0}
				q {388,292,212,-1,0} {389,293,213,-1,0} {365,293,189,-1,0} {364,292,188,-1,0}
				q {389,293,213,-1,0} {390,294,214,-1,0} {366,294,190,-1,0} {365,293,189,-1,0}
				q {390,294,214,-1,0} {391,295,215,-1,0} {367,295,191,-1,0} {366,294,190,-1,0}
				q {391,295,215,-1,0} {392,296,216,-1,0} {368,296,192,-1,0} {367,295,191,-1,0}
				q {392,296,216,-1,0} {393,297,217,-1,0} {369,297,193,-1,0} {368,296,192,-1,0}
				q {393,297,217,-1,0} {394,298,218,-1,0} {370,298,194,-1,0} {369,297,193,-1,0}
				q {394,298,218,-1,0} {395,299,219,-1,0} {371,299,195,-1,0} {370,298,194,-1,0}
				q {395,299,219,-1,0} {396,300,220,-1,0} {372,300,196,-1,0} {371,299,195,-1,0}
				q {396,300,220,-1,0} {397,301,221,-1,0} {373,301,197,-1,0} {372,300,196,-1,0}
				q {397,301,221,-1,0} {398,302,222,-1,0} {374,302,198,-1,0} {373,301,197,-1,0}
				q {398,302,222,-1,0} {399,303,223,-1,0} {375,303,199,-1,0} {374,302,198,-1,0}
				q {399,303,223,-1,0} {400,304,224,-1,0} {376,304,200,-1,0} {375,303,199,-1,0}
				q {400,304,224,-1,0} {401,305,225,-1,0} {377,305,201,-1,0} {376,304,200,-1,0}
				q {401,305,225,-1,0} {402,306,226,-1,0} {378,306,202,-1,0} {377,305,201,-1,0}
				q {402,306,226,-1,0} {403,307,227,-1,0} {379,307,203,-1,0} {378,306,202,-1,0}
				q {403,307,227,-1,0} {404,308,228,-1,0} {380,308,204,-1,0} {379,307,203,-1,0}
				q {404,308,228,-1,0} {405,309,229,-1,0} {381,309,205,-1,0} {380,308,204,-1,0}
				q {405,309,229,-1,0} {406,310,230,-1,0} {382,310,206,-1,0} {381,309,205,-1,0}
				q {406,310,230,-1,0} {407,311,231,-1,0} {383,311,207,-1,0} {382,310,206,-1,0}
				q {407,311,231,-1,0} {408,312,232,-1,0} {384,312,208,-1,0} {383,311,207,-1,0}
				q {408,312,232,-1,0} {409,313,233,-1,0} {385,313,209,-1,0} {384,312,208,-1,0}
				q {409,313,233,-1,0} {386,290,211,-1,0} {362,290,187,-1,0} {385,313,209,-1,0}
				q {291,243,115,-1,0} {292,244,118,-1,0} {410,220,235,-1,0} {411,218,234,-1,0}
				q {290,242,114,-1,0} {291,243,115,-1,0} {411,218,234,-1,0} {412,219,236,-1,0}
				q {313,265,160,-1,0} {290,242,114,-1,0} {412,219,236,-1,0} {413,241,237,-1,0}
				q {312,264,158,-1,0} {313,265,160,-1,0} {413,241,237,-1,0} {414,240,238,-1,0}
				q {311,263,156,-1,0} {312,264,158,-1,0} {414,240,238,-1,0} {415,239,239,-1,0}
				q {310,262,154,-1,0} {311,263,156,-1,0} {415,239,239,-1,0} {416,238,240,-1,0}
				q {309,261,152,-1,0} {310,262,154,-1,0} {416,238,240,-1,0} {417,237,241,-1,0}
				q {308,260,150,-1,0} {309,261,152,-1,0} {417,237,241,-1,0} {418,236,242,-1,0}
				q {307,259,148,-1,0} {308,260,150,-1,0} {418,236,242,-1,0} {419,235,243,-1,0}
				q {306,258,146,-1,0} {307,259,148,-1,0} {419,235,243,-1,0} {420,234,244,-1,0}
				q {305,257,144,-1,0} {306,258,146,-1,0} {420,234,244,-1,0} {421,233,245,-1,0}
				q {304,256,142,-1,0} {305,257,144,-1,0} {421,233,245,-1,0} {422,232,246,-1,0}
				q {303,255,140,-1,0} {304,256,142,-1,0} {422,232,246,-1,0} {423,231,247,-1,0}
				q {302,254,138,-1,0} {303,255,140,-1,0} {423,231,247,-1,0} {424,230,248,-1,0}
				q {301,253,136,-1,0} {302,254,138,-1,0} {424,230,248,-1,0} {425,229,249,-1,0}
				q {300,252,134,-1,0} {301,253,136,-1,0} {425,229,249,-1,0} {426,228,250,-1,0}
				q {299,251,132,-1,0} {300,252,134,-1,0} {426,228,250,-1,0} {427,227,251,-1,0}
				q {298,250,130,-1,0} {299,251,132,-1,0} {427,227,251,-1,0} {428,226,252,-1,0}
				q {297,249,128,-1,0} {298,250,130,-1,0} {428,226,252,-1,0} {429,225,253,-1,0}
				q {296,248,126,-1,0} {297,249,128,-1,0} {429,225,253,-1,0} {430,224,254,-1,0}
				q {295,247,124,-1,0} {296,248,126,-1,0} {430,224,254,-1,0} {431,223,255,-1,0}
				q {294,246,122,-1,0} {295,247,124,-1,0} {431,223,255,-1,0} {432,222,256,-1,0}
				q {293,245,120,-1,0} {294,246,122,-1,0} {432,222,256,-1,0} {433,221,257,-1,0}
				q {292,244,118,-1,0} {293,245,120,-1,0} {433,221,257,-1,0} {410,220,235,-1,0}
			}
		}
	}
}
