// Source file: Untitled_recover.max
CIwModel
{
	name "b_metal_ltBinC"
	CMesh
	{
		name "b_metal_ltBinC"
		scale 1.0
		CVerts
		{
			numVerts 18
			v {-10.23755,74.02972,18.13211}
			v {9.90576,74.02971,18.13211}
			v {20,74.02972,0}
			v {9.90576,74.02972,-18.13256}
			v {-10.23755,74.02971,-18.13256}
			v {-20,74.02972,0}
			v {-10.23755,0,18.13211}
			v {9.90576,0,18.13211}
			v {20,0,0}
			v {9.90576,0,-18.13256}
			v {-10.23755,0,-18.13256}
			v {-20,0,0}
			v {-8.29077,51.48953,14.66670}
			v {7.95874,51.48953,14.66670}
			v {16.08374,51.48954,0}
			v {7.95874,51.48953,-14.47763}
			v {-8.29077,51.48953,-14.47763}
			v {-16.41577,51.48954,0}
		}
		CVertNorms
		{
			numVertNorms 18
			vn {-0.51280,0,0.85851}
			vn {0.50675,0,0.86209}
			vn {0.03096,0.99777,0.05919}
			vn {-0.03923,0.99843,0.03995}
			vn {1,0,0.00001}
			vn {0.50675,0,-0.86209}
			vn {0.03461,0.99788,-0.05503}
			vn {0.06686,0.99774,0.00657}
			vn {-0.51281,0,-0.85850}
			vn {-1,0,0.00001}
			vn {-0.08507,0.99635,0.00684}
			vn {-0.04255,0.99843,-0.03634}
			vn {0.40645,0.60576,-0.68400}
			vn {-0.40315,0.60692,-0.68492}
			vn {-0.60041,0.79970,0.00068}
			vn {-0.40134,0.60991,0.68332}
			vn {0.40465,0.60876,0.68240}
			vn {0.60453,0.79658,0.00069}
		}
		CVertCols
		{
			numVertCols 5
			col {0.59375,0.59375,0.59375,1}
			col {0.84375,0.84375,0.84375,1}
			col {0,0,0,1}
			col {0.12500,0.12500,0.12500,1}
			col {0.06250,0.06250,0.06250,1}
		}
		CUVs
		{
			setID 0
			numUVs 24
			uv {0.33476,0.10207}
			uv {0.66670,0.10207}
			uv {0.66670,-1.10207}
			uv {0.33476,-1.10207}
			uv {0.99864,0.10207}
			uv {0.28497,-0.77146}
			uv {0.77804,-0.22136}
			uv {0.77804,-0.04231}
			uv {0.49957,-0.77146}
			uv {0.28497,-0.02201}
			uv {1.33056,-1.10207}
			uv {0.99864,-1.10207}
			uv {-0.32910,0.10207}
			uv {0.00283,0.10207}
			uv {0.00283,-1.10207}
			uv {-0.32910,-1.10207}
			uv {0.49957,-0.02201}
			uv {0.89654,-0.13184}
			uv {0.85704,-0.22136}
			uv {0.73855,-0.13184}
			uv {0.85704,-0.04231}
			uv {1.33056,0.10207}
			uv {1.66250,0.10207}
			uv {1.66250,-1.10207}
		}
		CSurface
		{
			material "lambert2"
			CQuads
			{
				numQuads 6
				q {7,1,1,-1,3} {6,0,0,-1,2} {0,3,3,-1,0} {1,2,2,-1,1}
				q {9,5,21,-1,2} {8,4,4,-1,2} {2,7,11,-1,0} {3,6,10,-1,0}
				q {10,8,12,-1,2} {4,11,15,-1,0} {5,10,14,-1,0} {11,9,13,-1,2}
				q {8,4,4,-1,2} {7,1,1,-1,3} {1,2,2,-1,1} {2,7,11,-1,0}
				q {9,5,21,-1,2} {3,6,10,-1,0} {4,11,23,-1,0} {10,8,22,-1,2}
				q {11,9,13,-1,2} {5,10,14,-1,0} {0,3,3,-1,0} {6,0,0,-1,2}
			}
		}
		CSurface
		{
			material "lambert47"
			CQuads
			{
				numQuads 8
				q {1,2,8,-1,1} {0,3,5,-1,0} {12,12,9,-1,2} {13,13,16,-1,4}
				q {2,7,5,-1,0} {14,14,9,-1,2} {15,15,16,-1,2} {3,6,8,-1,0}
				q {5,10,8,-1,0} {4,11,5,-1,0} {16,16,9,-1,2} {17,17,16,-1,2}
				q {2,7,8,-1,0} {1,2,5,-1,1} {13,13,9,-1,4} {14,14,16,-1,2}
				q {3,6,5,-1,0} {15,15,9,-1,2} {16,16,16,-1,2} {4,11,8,-1,0}
				q {5,10,5,-1,0} {17,17,9,-1,2} {12,12,16,-1,2} {0,3,8,-1,0}
				q {14,14,19,-1,2} {17,17,17,-1,2} {16,16,18,-1,2} {15,15,6,-1,2}
				q {14,14,19,-1,2} {13,13,7,-1,4} {12,12,20,-1,2} {17,17,17,-1,2}
			}
		}
	}
}
