// Source file: Untitled_recover.max
CIwModel
{
	name "b_wood_crateSml"
	CMesh
	{
		name "b_wood_crateSml"
		scale 1.0
		CVerts
		{
			numVerts 8
			v {-22.68304,0,11.25006}
			v {-22.68304,25,11.25006}
			v {22.50000,25,11.24997}
			v {22.50000,0,11.24997}
			v {22.50000,25,-11.34147}
			v {22.50000,0,-11.34146}
			v {-22.68304,25,-11.34149}
			v {-22.68304,0,-11.34149}
		}
		CVertNorms
		{
			numVertNorms 5
			vn {0,0,1}
			vn {1,0,0}
			vn {-1,0,0}
			vn {0,1,0}
			vn {0,0,-1}
		}
		CVertCols
		{
			numVertCols 5
			col {0.33800,0.33800,0.33800,1}
			col {1.08800,1.08800,1.08800,1}
			col {0.93175,0.93175,0.93175,1}
			col {0.21300,0.21300,0.21300,1}
			col {1.05675,1.05675,1.05675,1}
		}
		CUVs
		{
			setID 0
			numUVs 8
			uv {0.00297,0}
			uv {0.99587,0}
			uv {-0.00058,-0.99645}
			uv {0.00297,-1}
			uv {0.99587,-1}
			uv {0.99942,-0.99645}
			uv {0.99942,-0.00355}
			uv {-0.00058,-0.00355}
		}
		CSurface
		{
			material "lambert224"
			CQuads
			{
				numQuads 5
				q {0,0,0,-1,0} {1,0,3,-1,4} {2,0,4,-1,4} {3,0,1,-1,0}
				q {3,1,0,-1,3} {2,1,3,-1,2} {4,1,4,-1,2} {5,1,1,-1,3}
				q {0,2,0,-1,3} {7,2,1,-1,3} {6,2,4,-1,2} {1,2,3,-1,2}
				q {1,3,2,-1,1} {6,3,7,-1,1} {4,3,6,-1,1} {2,3,5,-1,1}
				q {7,4,0,-1,0} {5,4,1,-1,0} {4,4,4,-1,4} {6,4,3,-1,4}
			}
		}
	}
}
