// Source file: C:/dev/sdk/main/sdk_examples/Genres/Character/art/characters/urbanHero/Maya7/animation/UrbanHero_walk.mb
CIwModel
{
	name "urbanHero"
	CMesh
	{
		name "urbanHero"
		scale 1
		CVerts
		{
			numVerts 439
			v {13.54847,134.91867,28.13793}
			v {18.06200,135.51280,23.99065}
			v {18.10498,143.24817,22.11665}
			v {12.73174,144.52557,24.85654}
			v {9.97525,150.02278,9.62057}
			v {16.56610,149.08362,10.12478}
			v {11.37299,146.00569,1.36457}
			v {14.90752,125.52112,26.05714}
			v {18.68421,126.35818,22.35338}
			v {17.76481,149.12906,16.87817}
			v {12.34146,150.30891,18.44881}
			v {16.61744,102.01310,-2.12444}
			v {16.25472,108.39542,-2.10426}
			v {19.06632,119.91525,16.69544}
			v {17.01195,116.96572,20.81046}
			v {12.54604,146.61932,-4.26156}
			v {12.56444,142.02940,-6.11517}
			v {12.01117,142.20642,1.20982}
			v {12.60289,142.12943,-12.63976}
			v {-15.32250,143.26451,-8.49599}
			v {-13.72023,143.00717,-1.86801}
			v {-14.74957,137.67291,-16.46679}
			v {-15.42193,121.95465,-16.13619}
			v {14.72208,124.67138,-14.45829}
			v {-14.50368,114.12212,-15.74979}
			v {-15.55678,101.28231,-14.44794}
			v {16.19815,102.88242,-11.96322}
			v {14.65119,117.29189,-14.59296}
			v {-14.12247,100.94917,-1.79794}
			v {-17.01180,113.55451,-15.15758}
			v {-16.33987,112.66596,-2.11886}
			v {-15.36399,120.82466,-8.76696}
			v {-12.25828,113.30411,-0.12424}
			v {-14.26106,137.86353,-8.43428}
			v {-18.65462,137.10258,-12.75241}
			v {-19.53877,121.84995,-13.04210}
			v {-13.74016,138.06674,0.13117}
			v {-17.42425,137.30031,-4.48848}
			v {-13.38498,121.38174,0.55645}
			v {-18.75555,121.36873,-4.96807}
			v {16.84101,115.58303,-1.75277}
			v {17.69677,116.40619,-13.46824}
			v {14.70479,123.64311,-7.48325}
			v {12.73156,115.91064,0.16842}
			v {16.37693,141.94356,-9.52368}
			v {18.94591,124.65636,-11.87288}
			v {15.22010,142.11523,-2.46570}
			v {18.04328,124.18820,-3.84309}
			v {12.59724,123.87022,0.85156}
			v {-24.65968,93.02852,2.46953}
			v {-21.54390,133.39209,1.40458}
			v {-19.86392,133.04309,-2.28383}
			v {-24.09308,97.12545,-1.56726}
			v {-17.54933,142.92909,1.49153}
			v {-17.25225,141.28979,-2.34213}
			v {-22.20457,90.61134,-0.93620}
			v {-15.32865,106.39524,-1.95038}
			v {7.04442,146.27788,3.85665}
			v {-9.90630,143.48302,-1.16108}
			v {-14.65629,143.14201,-5.44855}
			v {-4.73876,95.85423,25.65684}
			v {4.30567,95.84465,25.72334}
			v {4.31062,102.40784,25.99484}
			v {-4.73381,102.41742,25.92834}
			v {-0.73820,101.18954,25.83297}
			v {-0.72938,101.73565,24.71167}
			v {-16.66926,103.40639,18.47348}
			v {-17.67303,102.99158,19.08920}
			v {-18.18994,99.34521,0.62705}
			v {-0.51880,97.39852,-4.55139}
			v {-0.51074,103.15367,-4.81960}
			v {-17.53832,103.91646,0.92941}
			v {-17.45077,98.54967,18.53971}
			v {-0.73625,96.26950,24.85894}
			v {17.18735,102.95467,19.34552}
			v {16.19362,103.37160,18.71512}
			v {17.11903,99.34664,0.83371}
			v {16.07115,103.97610,1.18047}
			v {16.96379,98.51327,18.79276}
			v {-1.79401,49.14683,-3.20256}
			v {-4.34079,54.54160,-14.89347}
			v {-1.25219,63.70330,-11.77331}
			v {-0.54317,61.66451,1.37282}
			v {-0.72173,80.52260,-6.59594}
			v {-1.57524,74.43133,11.74236}
			v {-1.54027,41.00179,-8.04122}
			v {-1.83943,44.54701,-18.18108}
			v {-10.05621,61.59639,-15.99960}
			v {-9.87372,47.41886,-22.37493}
			v {2.68661,19.47948,-27.86252}
			v {-3.53453,22.97791,-34.81960}
			v {-18.18298,45.02021,-19.42760}
			v {-15.92439,21.23788,-33.89528}
			v {-18.16434,63.96091,-11.94758}
			v {-16.76222,55.43163,-16.17075}
			v {-19.05654,49.81425,-7.79370}
			v {-19.93535,61.81276,-1.87110}
			v {-19.94452,41.30880,-10.75100}
			v {-21.17627,18.23785,-18.38832}
			v {-13.05049,15.61736,-8.07721}
			v {-11.58587,39.08512,-3.48098}
			v {-11.77574,45.84175,-0.56031}
			v {-12.13090,55.78170,4.25592}
			v {-0.86484,14.35774,-13.51400}
			v {-10.89223,77.75752,15.33253}
			v {-20.39604,80.98125,9.46466}
			v {-19.44910,84.04480,-1.71862}
			v {-10.75953,83.88185,-7.98975}
			v {-19.67290,12.91627,-20.01370}
			v {-13.39711,12.25496,-11.87859}
			v {-15.62741,16.00779,-35.25129}
			v {-3.34726,14.82193,-35.87334}
			v {-0.37112,11.85590,-29.83581}
			v {-3.43407,10.22710,-16.78774}
			v {1.58044,57.47446,40.26213}
			v {0.58999,71.67812,35.79036}
			v {0.77142,64.87028,26.08513}
			v {3.53339,55.84659,28.04273}
			v {1.75181,83.88033,28.93484}
			v {0.29602,76.49440,11.55488}
			v {0.39393,45.82063,34.91119}
			v {0.09091,47.08915,24.24470}
			v {9.28083,60.72825,23.32989}
			v {7.90739,48.52490,19.02674}
			v {3.01727,19.23713,10.99420}
			v {-3.89668,18.20761,18.09922}
			v {16.30180,46.33446,21.89378}
			v {15.24654,19.12199,13.79106}
			v {17.64240,62.26937,25.11782}
			v {15.86719,55.41563,25.96963}
			v {19.83561,68.77322,33.00301}
			v {18.55078,55.00664,35.40752}
			v {18.54202,44.47092,31.04088}
			v {10.65889,44.34465,39.13443}
			v {9.30564,23.85796,39.26062}
			v {18.57602,22.93814,29.64665}
			v {12.35067,69.99735,41.79508}
			v {11.64050,55.73627,43.56287}
			v {-2.01325,19.47398,33.57730}
			v {11.00498,88.70056,29.11850}
			v {20.25626,87.32732,22.41381}
			v {18.96708,82.34166,12.24960}
			v {10.16651,78.11824,8.03211}
			v {10.28057,19.31888,37.18158}
			v {17.51977,17.29401,30.14618}
			v {15.34703,13.77589,14.62169}
			v {3.31045,11.34166,13.28352}
			v {-0.29218,10.73019,19.66738}
			v {1.12809,14.63888,32.51229}
			v {7.95800,90.77958,-1.64562}
			v {17.24035,89.81504,8.28406}
			v {-1.30073,77.69419,10.89615}
			v {-0.53311,90.03151,-3.66647}
			v {18.09453,93.45188,19.45640}
			v {7.53190,95.50772,25.07392}
			v {0.25988,96.68256,26.51368}
			v {0.09289,85.63566,28.45604}
			v {-8.84723,90.79143,-1.62548}
			v {-18.09709,91.19081,1.88195}
			v {-18.72100,88.46836,13.72032}
			v {-8.04015,87.39072,19.65083}
			v {14.51996,13.84229,38.52337}
			v {15.25292,10.90926,44.66895}
			v {7.46762,11.06155,47.44549}
			v {5.41318,13.85607,39.45985}
			v {15.51617,16.81042,24.10992}
			v {7.30916,18.89404,33.46989}
			v {2.47016,16.85990,25.47979}
			v {13.83383,18.89576,32.79826}
			v {2.71394,14.26034,15.35606}
			v {10.79066,14.25522,14.51475}
			v {1.05242,6.55344,21.25484}
			v {2.29784,7.16450,15.11807}
			v {11.70859,7.16458,14.14661}
			v {14.75210,6.55344,19.84172}
			v {3.06162,4.93684,36.94289}
			v {18.22434,5.02789,34.48367}
			v {15.32727,3.96186,45.26433}
			v {7.30609,3.76749,48.00282}
			v {-16.31378,8.48886,-16.60703}
			v {-17.97040,5.77469,-10.54099}
			v {-10.65529,5.89374,-6.69134}
			v {-7.43312,8.38678,-14.38568}
			v {-16.90513,14.97651,-25.41297}
			v {-9.91169,13.47827,-15.01325}
			v {-4.12325,15.02129,-22.46359}
			v {-16.30810,13.47470,-16.46566}
			v {-11.01920,16.68095,-34.54409}
			v {-3.10294,16.68804,-32.73431}
			v {-1.36256,7.34062,-30.17521}
			v {-14.79204,7.33097,-33.22884}
			v {-11.25338,10.30010,-37.78217}
			v {-2.02834,10.30636,-35.68390}
			v {-4.93415,-0.64827,-16.26732}
			v {-10.72562,-1.37932,-5.89287}
			v {-18.27231,-1.14687,-9.74904}
			v {-19.59050,-0.39440,-20.85985}
			v {-18.73629,139.35323,19.97180}
			v {-16.38413,126.60201,22.33682}
			v {-0.58740,128.59029,28.69857}
			v {-4.38447,145.62785,25.68712}
			v {-15.90169,110.34739,1.74086}
			v {-0.40570,109.46629,-2.09060}
			v {-20.35049,87.22665,0.39434}
			v {-0.48577,85.59171,-6.24784}
			v {-0.60621,107.13577,24.84329}
			v {-16.16973,109.49559,18.78006}
			v {-20.06202,85.56230,16.93996}
			v {0.08492,91.50085,29.63710}
			v {-11.57938,132.43793,1.14089}
			v {-0.39105,132.20572,2.06239}
			v {-0.55235,144.42934,25.75861}
			v {3.41023,145.61960,25.74443}
			v {5.63513,151.84541,29.83045}
			v {-0.59156,150.48772,31.96377}
			v {9.32357,163.09610,12.15961}
			v {9.87420,155.84697,6.85936}
			v {-0.35827,159.89833,1.59149}
			v {-0.39464,165.03575,7.27742}
			v {10.15234,158.17134,20.95701}
			v {7.61598,150.77495,15.15447}
			v {-0.39571,146.84843,4.80332}
			v {-0.38807,147.38907,3.84240}
			v {-0.36540,147.48392,0.77322}
			v {-0.33750,149.73659,-2.69673}
			v {15.05520,110.31461,1.96849}
			v {19.47437,87.18449,0.68717}
			v {15.07085,109.46252,19.00977}
			v {17.98872,139.26242,20.23448}
			v {15.28313,126.56847,22.56967}
			v {14.59066,134.54346,7.14832}
			v {11.73371,137.59032,0.21048}
			v {19.51650,91.26779,22.70332}
			v {21.41768,142.90120,13.20326}
			v {26.96155,127.18721,-2.35618}
			v {25.49302,132.83870,-0.36105}
			v {24.32222,128.28159,8.80270}
			v {25.64870,123.36623,5.72749}
			v {28.04387,122.91930,-5.28169}
			v {19.44606,115.83045,-5.57446}
			v {18.81846,122.71207,-3.39355}
			v {15.22241,128.16603,-2.02476}
			v {28.01760,115.08127,3.10447}
			v {31.75769,90.73760,-6.50500}
			v {28.94392,91.42977,-1.00207}
			v {29.37723,117.05038,-6.24690}
			v {26.71471,92.04212,-11.82544}
			v {20.87565,93.28667,-6.67163}
			v {18.19604,120.40409,5.12776}
			v {15.17855,125.41920,7.92348}
			v {18.94299,113.28184,2.61998}
			v {21.97802,93.58278,0.80537}
			v {16.46687,135.62218,17.48036}
			v {10.11472,136.21490,2.02759}
			v {17.39936,143.16284,2.44212}
			v {21.31453,141.45042,2.35413}
			v {-6.78332,151.85857,29.73914}
			v {-10.18768,163.11674,12.01614}
			v {-10.67556,155.86873,6.70826}
			v {-10.97484,158.19370,20.80166}
			v {-7.75114,150.79121,15.04147}
			v {-13.58603,132.51392,8.71332}
			v {-22.28846,143.53284,14.50269}
			v {-26.75726,119.30430,9.68543}
			v {-26.09678,122.71091,18.03454}
			v {-24.81403,128.62805,17.66943}
			v {-25.02380,126.54461,7.58342}
			v {-27.06950,114.45985,10.44502}
			v {-18.09418,116.93474,12.30054}
			v {-17.95296,110.48009,15.47591}
			v {-14.74312,122.26299,10.04589}
			v {-27.43098,114.73019,21.91502}
			v {-28.89343,88.68098,27.74938}
			v {-26.44155,91.53162,32.70478}
			v {-27.79374,109.45089,13.84212}
			v {-23.58045,88.11703,22.56335}
			v {-19.26062,91.60126,27.61595}
			v {-15.69059,126.20858,19.53537}
			v {-18.45614,120.94550,20.00802}
			v {-19.63849,94.51701,33.87035}
			v {-18.24918,114.42550,23.10773}
			v {-14.75271,135.66794,20.17994}
			v {-10.39418,131.05057,8.19201}
			v {-17.66648,140.63802,2.09377}
			v {-21.32858,137.71400,3.80611}
			v {26.90605,89.51600,-9.55613}
			v {28.75147,93.37058,-9.39975}
			v {31.46681,93.17846,-7.11619}
			v {29.42346,88.87318,-8.36391}
			v {26.41956,82.80107,-8.87311}
			v {24.72598,83.89257,-9.44292}
			v {24.98590,91.86412,-0.30667}
			v {22.34985,91.71793,0.88903}
			v {23.44414,92.90789,-1.63897}
			v {19.36043,88.02660,0.05478}
			v {19.83822,88.00371,-1.11037}
			v {17.72061,88.96914,-0.40535}
			v {18.36773,88.91319,-2.00562}
			v {22.44473,87.26965,-0.88935}
			v {23.84337,86.40375,-0.78625}
			v {20.35073,82.76038,-2.54119}
			v {21.67012,81.58484,-1.99709}
			v {25.38861,91.45782,-2.87182}
			v {25.68429,93.84769,-6.38237}
			v {22.18669,93.32262,-1.99580}
			v {25.13977,94.33605,-1.87215}
			v {21.80995,93.45007,-0.33241}
			v {24.25395,86.44170,-4.09483}
			v {22.92516,80.00523,-4.69536}
			v {21.83147,80.88456,-5.08412}
			v {27.94889,90.18816,-2.42857}
			v {25.65295,85.40321,-3.43202}
			v {29.01547,93.69608,-2.20734}
			v {-23.81151,85.66600,26.64144}
			v {-26.62726,85.11559,27.35456}
			v {-28.15150,89.91508,26.62267}
			v {-25.19190,89.49940,24.80942}
			v {-21.39407,80.61253,28.91878}
			v {-23.10094,79.75691,29.77827}
			v {-22.50315,91.40739,34.39244}
			v {-20.91418,91.94502,32.83423}
			v {-20.01241,92.53132,35.33026}
			v {-17.21500,87.77522,35.33685}
			v {-16.80758,88.25709,36.42691}
			v {-15.71935,88.34951,34.23045}
			v {-15.16947,89.03358,35.71790}
			v {-19.68581,87.07611,35.63267}
			v {-21.07393,86.26237,35.98984}
			v {-18.75426,81.43152,36.82227}
			v {-17.42374,82.36039,35.93589}
			v {-22.74301,90.04791,32.15601}
			v {-22.32170,91.22012,27.55545}
			v {-19.84023,94.03610,31.51890}
			v {-19.26397,95.14056,33.65224}
			v {-22.05698,93.39364,31.56579}
			v {-21.28546,85.02203,32.90216}
			v {-19.81914,78.89713,34.87450}
			v {-18.71854,79.60291,34.23363}
			v {-22.70479,84.26196,33.84175}
			v {-25.28989,88.91898,32.93224}
			v {-25.88757,92.49266,31.32578}
			v {-26.94210,69.60091,1.25566}
			v {-24.41539,81.30421,3.95590}
			v {-23.28871,78.55303,12.08487}
			v {-17.87872,98.73502,19.47302}
			v {-18.99184,101.82607,11.17549}
			v {-26.53588,80.39843,9.02879}
			v {-22.05246,101.05058,15.74960}
			v {-15.99212,113.47995,21.54578}
			v {-16.58056,114.66888,17.11846}
			v {-18.27621,114.54391,19.49408}
			v {-19.51889,98.13544,16.74223}
			v {-19.79737,99.40820,12.55708}
			v {-21.66156,99.22104,14.84963}
			v {17.03961,85.60777,-1.32544}
			v {-0.79494,99.06690,-5.09831}
			v {18.17960,97.88950,-5.10739}
			v {0.57135,97.50298,-10.42240}
			v {18.44669,86.24178,-6.74253}
			v {0.83868,86.18006,-12.04411}
			v {6.25811,158.68208,22.04316}
			v {7.28524,158.77968,20.17109}
			v {8.63685,162.41537,19.70741}
			v {7.06557,164.63786,22.45794}
			v {-9.92102,162.48660,19.56517}
			v {-8.36992,164.65421,22.34444}
			v {-9.53742,164.58205,19.39817}
			v {-7.56906,158.69672,21.94149}
			v {-8.56834,158.79646,20.05452}
			v {8.27611,164.56319,19.52915}
			v {4.07591,154.17740,20.01459}
			v {4.26178,153.48250,24.49086}
			v {-0.68358,151.47607,24.77652}
			v {3.70614,156.51004,28.57064}
			v {2.29797,155.53929,30.13439}
			v {0.90541,155.50031,31.32026}
			v {2.42640,151.55385,29.06763}
			v {5.85054,159.18370,25.06244}
			v {6.28277,164.61081,26.69506}
			v {5.07621,161.04393,29.76706}
			v {-0.73178,155.30951,31.88352}
			v {-0.72528,150.97195,30.37408}
			v {0.98242,158.26869,31.64682}
			v {-0.73221,157.64525,32.27778}
			v {0.33955,162.67931,31.97290}
			v {3.53932,162.99075,30.72141}
			v {0.01838,158.42105,33.78820}
			v {-0.74766,158.10242,34.44498}
			v {-0.73248,162.57707,33.02491}
			v {3.92894,164.53474,31.72308}
			v {-0.75122,164.56575,33.80123}
			v {-5.36671,154.18741,19.94516}
			v {-5.61986,153.49297,24.41820}
			v {-5.11795,156.51938,28.50575}
			v {-3.85606,151.56050,29.02143}
			v {-2.36008,155.50377,31.29625}
			v {-3.73489,155.54568,30.09003}
			v {-7.20478,159.19753,24.96644}
			v {-6.49587,161.05618,29.68197}
			v {-7.64948,164.62555,26.59262}
			v {-2.43595,158.27231,31.62168}
			v {-1.78870,162.68156,31.95725}
			v {-4.96897,162.99976,30.65885}
			v {-1.50319,158.42258,33.77700}
			v {-5.37000,164.54459,31.65471}
			v {4.50566,156.89732,14.10206}
			v {-5.70372,156.90814,14.02700}
			v {4.95275,166.92439,16.00006}
			v {8.69821,155.92973,14.96169}
			v {5.53087,153.11009,9.65255}
			v {-0.54926,152.37523,6.63766}
			v {-0.58225,167.29266,13.27271}
			v {-6.15744,166.93616,15.91837}
			v {-6.35811,153.12268,9.56513}
			v {-9.91049,155.94943,14.82486}
			v {6.06817,154.42802,11.89270}
			v {6.02608,165.42917,19.21356}
			v {-7.23888,154.44211,11.79486}
			v {-1.49998,175.32303,23.47132}
			v {-6.19901,173.42860,17.32599}
			v {-8.17360,173.39139,24.54195}
			v {-6.03049,172.85976,31.65248}
			v {-0.76307,172.41837,34.48500}
			v {4.89432,173.41685,17.40756}
			v {5.80285,165.23300,15.34876}
			v {-0.46974,165.50739,11.80442}
			v {-0.65145,173.09839,14.44046}
			v {-8.93888,164.59570,23.29102}
			v {-6.65276,164.64882,31.15040}
			v {-7.09458,165.24666,15.25393}
			v {-7.14734,161.22461,35.67336}
			v {-0.82054,161.88156,40.78288}
			v {4.57505,172.84854,31.73046}
			v {5.15855,164.63622,31.23724}
			v {7.56007,164.57823,23.41233}
			v {6.83762,173.37418,24.66093}
			v {5.57950,161.21114,35.76694}
			v {-13.72023,143.00717,-1.86801}
			v {-17.25225,141.28979,-2.34213}
		}
		CVertNorms
		{
			numVertNorms 439
			vn {0.63856,0.09569,0.76360}
			vn {0.63856,0.09569,0.76360}
			vn {0.49693,0.47113,0.72877}
			vn {0.49693,0.47113,0.72877}
			vn {0.08323,0.91578,-0.39297}
			vn {0.37936,0.78228,-0.49410}
			vn {0.46898,0.71854,-0.51358}
			vn {0.76992,-0.15229,0.61971}
			vn {0.76992,-0.15229,0.61971}
			vn {0.31201,0.89669,0.31399}
			vn {0.31201,0.89669,0.31399}
			vn {0.84478,-0.43493,0.31175}
			vn {0.98497,-0.16836,0.03851}
			vn {0.93910,-0.20785,0.27365}
			vn {0.93910,-0.20785,0.27365}
			vn {0.66981,0.73217,-0.12362}
			vn {0.84341,0.53490,0.05044}
			vn {0.89998,0.43590,0.00489}
			vn {0.45117,0.57861,-0.67945}
			vn {-0.78635,0.60975,-0.09929}
			vn {-0.50356,0.84236,-0.19198}
			vn {-0.49369,0.50863,-0.70539}
			vn {-0.44402,-0.27671,-0.85222}
			vn {0.50372,-0.20821,-0.83840}
			vn {-0.62468,0.10033,-0.77441}
			vn {-0.41147,-0.52247,-0.74681}
			vn {0.50865,-0.48353,-0.71238}
			vn {0.68205,0.13890,-0.71799}
			vn {-0.77372,-0.63259,0.03448}
			vn {-0.78185,0.42045,-0.46037}
			vn {-0.79457,0.31929,0.51645}
			vn {-0.88133,-0.46737,0.06942}
			vn {-0.87637,0.17607,0.44831}
			vn {-0.90156,0.42905,0.05567}
			vn {-0.82145,0.56893,-0.03929}
			vn {-0.83443,-0.54054,-0.10745}
			vn {-0.84422,0.40851,0.34701}
			vn {-0.84481,0.53505,0.00440}
			vn {-0.77102,-0.48579,0.41175}
			vn {-0.86791,-0.49393,0.05260}
			vn {0.76626,0.42225,0.48431}
			vn {0.79385,0.41723,-0.44241}
			vn {0.91653,-0.39231,0.07783}
			vn {0.85151,0.26703,0.45125}
			vn {0.73947,0.67200,-0.04000}
			vn {0.85294,-0.50600,-0.12827}
			vn {0.77516,0.63097,0.03160}
			vn {0.88409,-0.46082,0.07768}
			vn {0.78315,-0.42836,0.45075}
			vn {-0.93650,-0.10374,-0.33497}
			vn {-0.93589,0.21082,-0.28226}
			vn {-0.93589,0.21082,-0.28226}
			vn {-0.74214,-0.10803,-0.66148}
			vn {-0.50485,0.80882,-0.30156}
			vn {-0.66884,0.28959,-0.68468}
			vn {-0.50835,-0.20982,-0.83520}
			vn {0.00180,-0.06490,-0.99789}
			vn {-0.08700,0.82070,-0.56469}
			vn {-0.10546,0.98966,-0.09720}
			vn {-0.44856,0.88100,0.15045}
			vn {-0.00739,-0.04133,0.99912}
			vn {-0.00739,-0.04133,0.99912}
			vn {-0.00739,-0.04133,0.99912}
			vn {-0.00739,-0.04133,0.99912}
			vn {-0.01251,0.45084,0.89252}
			vn {-0.01000,0.49481,0.86894}
			vn {-0.60100,0.66583,0.44211}
			vn {-0.62509,0.60562,0.49243}
			vn {-0.80259,0.12714,-0.58283}
			vn {0.00642,0.08572,-0.99630}
			vn {0.00998,0.21328,-0.97694}
			vn {-0.78322,0.42019,-0.45827}
			vn {-0.81041,0.06793,0.58191}
			vn {-0.01361,-0.01655,0.99977}
			vn {0.61753,0.62325,0.47980}
			vn {0.59902,0.67196,0.43549}
			vn {0.90039,0.34448,-0.26578}
			vn {0.77651,0.42238,-0.46757}
			vn {0.80880,0.07410,0.58340}
			vn {0.86051,-0.27915,0.42614}
			vn {0.83923,0.24177,-0.48708}
			vn {0.80977,0.15656,-0.56548}
			vn {0.83143,-0.30140,0.46678}
			vn {0.60620,-0.07773,-0.79150}
			vn {0.62506,-0.44670,0.64012}
			vn {0.85625,-0.10354,0.50607}
			vn {0.87083,0.29524,-0.39306}
			vn {0.02300,0.44344,-0.89601}
			vn {0.13141,0.44826,-0.88419}
			vn {0.97654,0.03144,-0.21302}
			vn {0.37113,0.38247,-0.84616}
			vn {-0.76353,0.29346,-0.57524}
			vn {-0.64834,0.24589,-0.72055}
			vn {-0.78915,0.20020,-0.58065}
			vn {-0.75599,0.32315,-0.56925}
			vn {-0.96443,-0.15467,0.21437}
			vn {-0.94833,-0.17859,0.26223}
			vn {-0.95146,-0.05477,0.30287}
			vn {-0.97179,-0.19857,0.12724}
			vn {-0.29379,-0.54701,0.78388}
			vn {-0.15727,-0.31962,0.93440}
			vn {-0.21323,-0.52987,0.82083}
			vn {-0.20464,-0.44353,0.87258}
			vn {0.70736,-0.43793,0.55484}
			vn {-0.17273,-0.27296,0.94639}
			vn {-0.90786,-0.01206,0.41910}
			vn {-0.84173,0.22555,-0.49053}
			vn {-0.14110,0.23616,-0.96141}
			vn {-0.95340,-0.27811,0.11699}
			vn {-0.31508,-0.65686,0.68503}
			vn {-0.61896,0.05964,-0.78315}
			vn {0.42576,0.08058,-0.90124}
			vn {0.92373,-0.27310,-0.26860}
			vn {0.61161,-0.66282,0.43198}
			vn {-0.81920,0.21191,0.53292}
			vn {-0.80944,0.20182,0.55143}
			vn {-0.84461,-0.35911,-0.39709}
			vn {-0.87340,-0.24953,-0.41822}
			vn {-0.63330,-0.15458,0.75831}
			vn {-0.61783,-0.37016,-0.69373}
			vn {-0.82312,0.03075,0.56704}
			vn {-0.88916,0.23017,-0.39549}
			vn {-0.09587,-0.48737,-0.86792}
			vn {-0.17948,0.25244,-0.95082}
			vn {-0.27256,-0.01635,-0.96200}
			vn {-0.93976,-0.14986,-0.30723}
			vn {0.72954,0.14124,-0.66919}
			vn {0.73118,0.00734,-0.68214}
			vn {0.76374,-0.34857,-0.54332}
			vn {0.70347,-0.30340,-0.64271}
			vn {0.96012,0.07086,0.27047}
			vn {0.98038,0.07084,0.18396}
			vn {0.96854,-0.01562,0.24839}
			vn {0.21279,-0.11788,0.96996}
			vn {0.21443,-0.16518,0.96267}
			vn {0.95512,-0.03504,0.29414}
			vn {0.24478,0.40184,0.88239}
			vn {0.28388,0.37237,0.88360}
			vn {-0.75217,-0.25433,0.60791}
			vn {0.18034,0.11324,0.97706}
			vn {0.91170,0.13380,0.38846}
			vn {0.84963,0.00270,-0.52738}
			vn {0.14190,-0.16202,-0.97653}
			vn {0.25142,-0.30384,0.91895}
			vn {0.94118,-0.12285,0.31477}
			vn {0.71174,-0.19728,-0.67417}
			vn {-0.30898,-0.31846,-0.89617}
			vn {-0.86907,-0.43853,-0.22895}
			vn {-0.63381,-0.49202,0.59682}
			vn {0.17305,0.02856,-0.98450}
			vn {0.84064,0.16431,-0.51606}
			vn {-0.03480,-0.62245,-0.78188}
			vn {-0.00379,-0.17841,-0.98395}
			vn {0.87425,0.23990,0.42206}
			vn {0.08496,0.00383,0.99638}
			vn {0.02686,-0.12081,0.99231}
			vn {0.03032,-0.35543,0.93421}
			vn {-0.16396,0.03334,-0.98590}
			vn {-0.83411,0.32564,-0.44522}
			vn {-0.87343,0.08288,0.47984}
			vn {-0.07916,-0.32393,0.94276}
			vn {0.70623,0.63215,0.31879}
			vn {0.74990,0.41582,0.51453}
			vn {-0.53399,0.44501,0.71891}
			vn {-0.60836,0.65151,0.45325}
			vn {0.97399,0.19595,-0.11375}
			vn {-0.37146,0.76492,0.52622}
			vn {-0.95366,0.26377,0.14475}
			vn {0.62434,0.62149,0.47324}
			vn {-0.69916,0.10915,-0.70658}
			vn {0.46683,0.10263,-0.87837}
			vn {-0.74764,-0.66095,-0.06461}
			vn {-0.60214,-0.45190,-0.65819}
			vn {0.39755,-0.42940,-0.81091}
			vn {0.67065,-0.66597,-0.32667}
			vn {-0.91238,-0.35783,0.19879}
			vn {0.95448,-0.29818,0.00820}
			vn {0.68729,-0.41409,0.59679}
			vn {-0.38133,-0.54274,0.74835}
			vn {-0.73101,0.65375,0.19553}
			vn {-0.80643,0.44481,0.38962}
			vn {0.43589,0.46006,0.77353}
			vn {0.55141,0.65635,0.51493}
			vn {-0.97107,0.18398,-0.15225}
			vn {0.24580,0.50487,0.82746}
			vn {0.90642,0.22351,0.35838}
			vn {-0.72252,0.35297,0.59445}
			vn {-0.38256,0.42624,-0.81973}
			vn {0.75463,0.41239,-0.51037}
			vn {0.80674,-0.54763,-0.22196}
			vn {-0.57138,-0.50684,-0.64548}
			vn {-0.27291,-0.08481,-0.95829}
			vn {0.70406,-0.12458,-0.69913}
			vn {0.86741,-0.36569,0.33743}
			vn {0.26016,-0.52356,0.81129}
			vn {-0.77332,-0.38280,0.50541}
			vn {-0.95199,-0.28228,-0.11848}
			vn {-0.48352,0.07873,0.87178}
			vn {-0.77234,-0.10973,0.62567}
			vn {-0.01008,-0.00068,0.99995}
			vn {-0.56688,0.15608,0.80888}
			vn {-0.79412,0.11448,-0.59688}
			vn {0.01049,0.21422,-0.97673}
			vn {-0.79382,0.19163,-0.57718}
			vn {-0.59650,-0.43741,-0.67295}
			vn {-0.01342,-0.14626,0.98916}
			vn {-0.87319,-0.07316,0.48185}
			vn {-0.80028,0.12606,0.58622}
			vn {0.01980,0.31023,0.95045}
			vn {-0.61469,-0.13914,-0.77640}
			vn {0.00979,0.13974,-0.99014}
			vn {-0.01034,-0.04366,0.99899}
			vn {0.53325,0.17402,0.82787}
			vn {0.66115,-0.58558,0.46902}
			vn {-0.00807,-0.67767,0.73532}
			vn {0.88668,0.26838,-0.37652}
			vn {0.85654,-0.28343,-0.43128}
			vn {0.00675,0.54245,-0.84006}
			vn {0.00613,0.67695,-0.73600}
			vn {0.95578,-0.28347,0.07832}
			vn {0.96901,0.19497,-0.15167}
			vn {0.00599,0.45777,-0.88905}
			vn {0.00057,-0.98420,-0.17707}
			vn {0.00110,-0.95779,-0.28746}
			vn {0.00694,-0.21869,-0.97577}
			vn {0.79750,0.10724,-0.59372}
			vn {0.79772,0.17832,-0.57606}
			vn {0.86320,-0.07615,0.49909}
			vn {0.46535,0.02352,0.88481}
			vn {0.75473,-0.12156,0.64467}
			vn {0.79022,-0.51566,-0.33113}
			vn {0.62379,-0.00826,-0.78155}
			vn {0.81000,0.27132,0.51989}
			vn {0.40325,0.81723,0.41173}
			vn {0.82995,0.22180,-0.51185}
			vn {0.70612,0.45381,-0.54356}
			vn {0.67054,-0.16923,0.72231}
			vn {0.46986,-0.47921,0.74134}
			vn {0.68034,0.37302,-0.63087}
			vn {-0.61287,0.12684,-0.77993}
			vn {-0.54071,0.37723,-0.75189}
			vn {-0.59839,-0.12043,-0.79210}
			vn {0.76647,-0.01559,0.64209}
			vn {0.98673,-0.16212,0.00925}
			vn {0.63972,-0.06735,0.76565}
			vn {0.63528,0.33150,-0.69751}
			vn {0.25883,-0.08209,-0.96243}
			vn {-0.91635,0.11110,-0.38465}
			vn {-0.78531,-0.36287,0.50162}
			vn {-0.52601,-0.71676,0.45778}
			vn {-0.72901,-0.32444,0.60273}
			vn {-0.48585,0.13012,0.86430}
			vn {-0.08957,-0.32404,0.94179}
			vn {-0.52051,0.10858,-0.84693}
			vn {0.51850,0.23203,-0.82299}
			vn {0.26022,0.27333,-0.92605}
			vn {-0.67505,-0.59658,0.43405}
			vn {-0.89160,0.24091,-0.38342}
			vn {-0.85230,-0.29621,-0.43109}
			vn {-0.94740,-0.31594,0.05112}
			vn {-0.97214,0.14985,-0.18023}
			vn {-0.75380,-0.63784,-0.15793}
			vn {-0.38154,0.86237,0.33278}
			vn {-0.65509,-0.25821,-0.71006}
			vn {-0.73455,0.30324,0.60703}
			vn {-0.73752,0.28463,0.61241}
			vn {-0.64566,-0.01146,-0.76354}
			vn {-0.62617,-0.27084,-0.73113}
			vn {0.78232,-0.36193,-0.50693}
			vn {0.69278,-0.36863,-0.61982}
			vn {0.66647,-0.55892,-0.49339}
			vn {-0.83577,0.31949,0.44655}
			vn {-0.98097,-0.19246,0.02559}
			vn {-0.24346,0.22137,0.94431}
			vn {-0.55680,-0.34470,-0.75575}
			vn {-0.16847,-0.44452,-0.87978}
			vn {0.93710,-0.01501,-0.34874}
			vn {0.46765,-0.25618,0.84598}
			vn {0.65418,0.21496,0.72515}
			vn {0.46480,0.43524,0.77105}
			vn {0.68461,0.27196,0.67628}
			vn {0.12675,-0.19588,0.97240}
			vn {0.63760,-0.42017,-0.64569}
			vn {-0.49677,0.14923,-0.85496}
			vn {-0.29147,0.14625,-0.94533}
			vn {-0.26382,0.27942,-0.92321}
			vn {-0.27143,-0.04047,-0.96161}
			vn {0.93007,-0.20678,-0.30365}
			vn {0.68104,-0.67367,-0.28697}
			vn {0.62757,-0.66669,-0.40209}
			vn {-0.58862,-0.04705,-0.80704}
			vn {-0.02674,-0.18902,0.98161}
			vn {-0.11920,-0.37867,0.91783}
			vn {-0.42345,-0.64084,-0.64033}
			vn {-0.03636,-0.77688,0.62860}
			vn {0.05115,-0.79895,-0.59921}
			vn {-0.95927,-0.09603,0.26566}
			vn {-0.56363,-0.31708,-0.76275}
			vn {-0.93125,0.26193,0.25333}
			vn {-0.02247,-0.21436,0.97650}
			vn {-0.93559,-0.23265,0.26559}
			vn {-0.15841,-0.61562,0.77196}
			vn {-0.77321,0.13589,-0.61942}
			vn {-0.85662,0.11715,-0.50247}
			vn {-0.64414,0.16710,-0.74643}
			vn {-0.04703,0.49499,0.86763}
			vn {-0.44081,0.65684,0.61175}
			vn {-0.83424,0.34460,-0.43046}
			vn {0.16459,-0.97714,0.13456}
			vn {-0.84452,-0.22779,-0.48466}
			vn {0.52679,-0.41413,0.74229}
			vn {0.75924,-0.44133,0.47831}
			vn {0.69688,-0.07784,0.71295}
			vn {0.39802,-0.03104,-0.91685}
			vn {-0.59699,-0.79954,-0.06589}
			vn {-0.88152,-0.35181,-0.31490}
			vn {0.39320,-0.33720,-0.85539}
			vn {0.65952,-0.30334,-0.68776}
			vn {-0.55096,-0.82096,-0.14988}
			vn {-0.11651,0.15844,0.98047}
			vn {0.47654,-0.81104,-0.33929}
			vn {-0.05025,-0.06650,0.99652}
			vn {0.08667,-0.97565,-0.20148}
			vn {-0.02926,-0.50474,0.86278}
			vn {0.60716,-0.55799,-0.56569}
			vn {0.92600,-0.01713,0.37714}
			vn {0.90551,0.38705,0.17390}
			vn {-0.10009,0.15988,0.98205}
			vn {0.12167,-0.26881,0.95548}
			vn {0.92159,-0.07836,0.38018}
			vn {0.80538,-0.05491,-0.59021}
			vn {0.87742,-0.04484,-0.47763}
			vn {0.67363,-0.10542,-0.73151}
			vn {0.53154,0.77570,0.34024}
			vn {-0.08196,0.77369,0.62824}
			vn {0.84290,0.20228,-0.49860}
			vn {-0.15656,-0.85777,0.48962}
			vn {0.87569,-0.36301,-0.31842}
			vn {-0.76563,-0.26951,0.58411}
			vn {-0.56892,-0.12561,0.81274}
			vn {-0.73301,0.16541,0.65980}
			vn {-0.92791,-0.36880,0.05451}
			vn {0.14805,0.22558,-0.96291}
			vn {0.36393,-0.62141,0.69383}
			vn {0.41785,-0.41275,0.80934}
			vn {0.17709,0.24702,-0.95269}
			vn {-0.98395,0.04671,0.17220}
			vn {-0.96666,0.16350,0.19705}
			vn {0.44655,0.59033,0.67239}
			vn {0.35244,0.85783,-0.37405}
			vn {-0.68783,0.69045,0.22399}
			vn {0.42137,-0.34651,0.83808}
			vn {0.28370,0.21522,-0.93445}
			vn {-0.97742,0.17730,0.11497}
			vn {0.41892,-0.66332,0.62009}
			vn {-0.77725,0.55169,0.30251}
			vn {0.67039,0.55010,-0.49797}
			vn {-0.32744,0.57996,-0.74594}
			vn {0.72942,-0.49569,-0.47143}
			vn {-0.39200,-0.50751,-0.76731}
			vn {0.97710,-0.20925,0.03857}
			vn {0.81921,-0.18163,0.54398}
			vn {0.88380,0.00105,0.46787}
			vn {0.97717,-0.06570,0.20206}
			vn {-0.89053,0.00805,0.45485}
			vn {-0.98037,-0.05831,0.18834}
			vn {-0.91333,0.19566,0.35713}
			vn {-0.97829,-0.20577,0.02468}
			vn {-0.82742,-0.17993,0.53197}
			vn {0.91009,0.18369,0.37148}
			vn {0.92734,-0.27979,0.24851}
			vn {0.77325,-0.63400,0.01128}
			vn {-0.00739,-0.94175,0.33624}
			vn {0.81103,-0.22986,0.53795}
			vn {0.70649,-0.10932,0.69923}
			vn {0.51731,-0.18850,0.83478}
			vn {0.70865,-0.42642,0.56212}
			vn {0.94477,-0.23189,0.23159}
			vn {0.92418,-0.11789,0.36331}
			vn {0.78648,-0.13518,0.60264}
			vn {-0.00739,-0.24779,0.96879}
			vn {-0.00454,-0.87080,0.49162}
			vn {0.64760,-0.22031,0.72944}
			vn {-0.00617,-0.66967,0.74263}
			vn {0.64546,-0.10957,0.75589}
			vn {0.63918,-0.21302,0.73897}
			vn {0.80683,-0.20126,0.55545}
			vn {-0.00657,-0.59214,0.80581}
			vn {-0.00751,-0.00884,0.99993}
			vn {0.60612,-0.52763,0.59517}
			vn {-0.00690,-0.00271,0.99997}
			vn {-0.92865,-0.30681,0.20851}
			vn {-0.77467,-0.63237,-0.00010}
			vn {-0.81934,-0.22814,0.52597}
			vn {-0.71775,-0.42492,0.55162}
			vn {-0.52994,-0.18738,0.82707}
			vn {-0.71692,-0.10782,0.68876}
			vn {-0.94856,-0.22988,0.21767}
			vn {-0.79554,-0.13350,0.59101}
			vn {-0.92967,-0.11592,0.34968}
			vn {-0.65872,-0.21893,0.71983}
			vn {-0.65690,-0.11069,0.74581}
			vn {-0.65068,-0.21212,0.72912}
			vn {-0.81534,-0.19956,0.54350}
			vn {-0.61617,-0.52708,0.58525}
			vn {0.94107,-0.11329,-0.31867}
			vn {-0.91498,-0.16700,-0.36732}
			vn {0.84034,0.19003,-0.50766}
			vn {0.73626,0.30773,-0.60268}
			vn {0.58041,0.35384,-0.73343}
			vn {0.00174,0.41673,-0.90903}
			vn {0.00174,0.41673,-0.90903}
			vn {-0.82938,0.19123,-0.52494}
			vn {-0.56059,0.34853,-0.75117}
			vn {-0.70532,0.30464,-0.64009}
			vn {0.99186,0.10975,-0.06456}
			vn {0.93193,-0.11253,-0.34474}
			vn {-0.99057,0.11186,-0.07914}
			vn {-0.01384,0.99961,0.02423}
			vn {-0.54277,0.71953,-0.43321}
			vn {-0.76667,0.64090,0.03824}
			vn {-0.58218,0.61070,0.53676}
			vn {-0.00676,0.58810,0.80876}
			vn {0.53643,0.73154,-0.42082}
			vn {0.77938,0.22890,-0.58324}
			vn {0.01093,0.31227,-0.94993}
			vn {0.00558,0.75419,-0.65664}
			vn {-0.96933,0.22283,0.10362}
			vn {-0.75037,0.37746,0.54265}
			vn {-0.76985,0.22736,-0.59636}
			vn {-0.62574,0.69061,0.36264}
			vn {-0.00189,0.88864,0.45861}
			vn {0.56565,0.61899,0.54488}
			vn {0.74345,0.37453,0.55408}
			vn {0.96876,0.21916,0.11609}
			vn {0.75093,0.65860,0.04848}
			vn {0.62218,0.68885,0.37198}
			vn {0.50356,-0.84236,0.19198}
			vn {0.66884,-0.28959,0.68468}
		}
		CVertCols
		{
			numVertCols 337
			col {0.82348,0.82348,0.82348,1}
			col {0.80464,0.80464,0.80464,1}
			col {1.13112,1.13112,1.13112,1}
			col {1.15201,1.15201,1.15201,1}
			col {1.36998,1.36998,1.36998,1}
			col {1.18902,1.18902,1.18902,1}
			col {1.28663,1.28663,1.28663,1}
			col {0.52035,0.52035,0.52035,1}
			col {0.50571,0.50571,0.50571,1}
			col {1.04417,1.04417,1.04417,1}
			col {1.06171,1.06171,1.06171,1}
			col {0,0,0,1}
			col {0.16346,0.16346,0.16346,1}
			col {0.16820,0.16820,0.16820,1}
			col {0.86081,0.86081,0.86081,1}
			col {0.57498,0.57498,0.57498,1}
			col {0.88027,0.88027,0.88027,1}
			col {1.20028,1.20028,1.20028,1}
			col {0.66909,0.66909,0.66909,1}
			col {0.72805,0.72805,0.72805,1}
			col {1.11901,1.11901,1.11901,1}
			col {0.66014,0.66014,0.66014,1}
			col {0.68739,0.68739,0.68739,1}
			col {0.71015,0.71015,0.71015,1}
			col {0.44609,0.44609,0.44609,1}
			col {0.43384,0.43384,0.43384,1}
			col {0.69162,0.69162,0.69162,1}
			col {0.71303,0.71303,0.71303,1}
			col {0.73253,0.73253,0.73253,1}
			col {0.77738,0.77738,0.77738,1}
			col {0.72379,0.72379,0.72379,1}
			col {0.03194,0.03194,0.03194,1}
			col {0.73376,0.73376,0.73376,1}
			col {0.37531,0.37531,0.37531,1}
			col {0.43249,0.43249,0.43249,1}
			col {0.58853,0.58853,0.58853,1}
			col {0.68777,0.68777,0.68777,1}
			col {0.55007,0.55007,0.55007,1}
			col {0.12735,0.12735,0.12735,1}
			col {0.74977,0.74977,0.74977,1}
			col {0.76341,0.76341,0.76341,1}
			col {0.04844,0.04844,0.04844,1}
			col {0.75962,0.75962,0.75962,1}
			col {0.68348,0.68348,0.68348,1}
			col {0.31383,0.31383,0.31383,1}
			col {0.16785,0.16785,0.16785,1}
			col {0.17589,0.17589,0.17589,1}
			col {0.30756,0.30756,0.30756,1}
			col {0.31817,0.31817,0.31817,1}
			col {0.47439,0.47439,0.47439,1}
			col {1.05404,1.05404,1.05404,1}
			col {1.21391,1.21391,1.21391,1}
			col {0.89457,0.89457,0.89457,1}
			col {0.83587,0.83587,0.83587,1}
			col {0.58509,0.58509,0.58509,1}
			col {0.84779,0.84779,0.84779,1}
			col {0.72889,0.72889,0.72889,1}
			col {1.41580,1.41580,1.41580,1}
			col {1.23101,1.23101,1.23101,1}
			col {0.86538,0.86538,0.86538,1}
			col {0.87767,0.87767,0.87767,1}
			col {1.28779,1.28779,1.28779,1}
			col {1.35054,1.35054,1.35054,1}
			col {1.25414,1.25414,1.25414,1}
			col {1.01535,1.01535,1.01535,1}
			col {0.34750,0.34750,0.34750,1}
			col {0.31910,0.31910,0.31910,1}
			col {0.69981,0.69981,0.69981,1}
			col {0.80347,0.80347,0.80347,1}
			col {0.51686,0.51686,0.51686,1}
			col {0.87165,0.87165,0.87165,1}
			col {1.01247,1.01247,1.01247,1}
			col {1.25250,1.25250,1.25250,1}
			col {0.41130,0.41130,0.41130,1}
			col {0.83923,0.83923,0.83923,1}
			col {0.14180,0.14180,0.14180,1}
			col {0.51114,0.51114,0.51114,1}
			col {0.24923,0.24923,0.24923,1}
			col {0.29080,0.29080,0.29080,1}
			col {0.37962,0.37962,0.37962,1}
			col {0.27072,0.27072,0.27072,1}
			col {0.54129,0.54129,0.54129,1}
			col {0.39010,0.39010,0.39010,1}
			col {0.31505,0.31505,0.31505,1}
			col {0.38640,0.38640,0.38640,1}
			col {0.23400,0.23400,0.23400,1}
			col {0.86507,0.86507,0.86507,1}
			col {0.17477,0.17477,0.17477,1}
			col {0.61986,0.61986,0.61986,1}
			col {0.64370,0.64370,0.64370,1}
			col {0.51760,0.51760,0.51760,1}
			col {0.57554,0.57554,0.57554,1}
			col {0.47840,0.47840,0.47840,1}
			col {0.35575,0.35575,0.35575,1}
			col {0.34728,0.34728,0.34728,1}
			col {0.40785,0.40785,0.40785,1}
			col {0.21303,0.21303,0.21303,1}
			col {0.73760,0.73760,0.73760,1}
			col {0.69624,0.69624,0.69624,1}
			col {0.85820,0.85820,0.85820,1}
			col {0.28951,0.28951,0.28951,1}
			col {0.78801,0.78801,0.78801,1}
			col {0.47895,0.47895,0.47895,1}
			col {0.58248,0.58248,0.58248,1}
			col {0.85380,0.85380,0.85380,1}
			col {0.17286,0.17286,0.17286,1}
			col {0.36080,0.36080,0.36080,1}
			col {0.20183,0.20183,0.20183,1}
			col {0.00600,0.00600,0.00600,1}
			col {0.22758,0.22758,0.22758,1}
			col {0.25001,0.25001,0.25001,1}
			col {0.37949,0.37949,0.37949,1}
			col {0.53674,0.53674,0.53674,1}
			col {0.31582,0.31582,0.31582,1}
			col {0.38719,0.38719,0.38719,1}
			col {0.17556,0.17556,0.17556,1}
			col {0.64237,0.64237,0.64237,1}
			col {0.57635,0.57635,0.57635,1}
			col {0.34801,0.34801,0.34801,1}
			col {0.35422,0.35422,0.35422,1}
			col {0.40637,0.40637,0.40637,1}
			col {0.21220,0.21220,0.21220,1}
			col {0.69597,0.69597,0.69597,1}
			col {0.29017,0.29017,0.29017,1}
			col {0.78835,0.78835,0.78835,1}
			col {0.48571,0.48571,0.48571,1}
			col {0.58583,0.58583,0.58583,1}
			col {0.84949,0.84949,0.84949,1}
			col {0.17206,0.17206,0.17206,1}
			col {0.20109,0.20109,0.20109,1}
			col {0.00673,0.00673,0.00673,1}
			col {0.22814,0.22814,0.22814,1}
			col {0.21990,0.21990,0.21990,1}
			col {0.25530,0.25530,0.25530,1}
			col {0.39720,0.39720,0.39720,1}
			col {0.46100,0.46100,0.46100,1}
			col {0.85244,0.85244,0.85244,1}
			col {0.80678,0.80678,0.80678,1}
			col {1.00805,1.00805,1.00805,1}
			col {1.04914,1.04914,1.04914,1}
			col {0.09989,0.09989,0.09989,1}
			col {0.43666,0.43666,0.43666,1}
			col {0.59439,0.59439,0.59439,1}
			col {0.52376,0.52376,0.52376,1}
			col {0.31210,0.31210,0.31210,1}
			col {0.85463,0.85463,0.85463,1}
			col {0.80827,0.80827,0.80827,1}
			col {1.00706,1.00706,1.00706,1}
			col {1.04725,1.04725,1.04725,1}
			col {0.10176,0.10176,0.10176,1}
			col {0.52456,0.52456,0.52456,1}
			col {0.59330,0.59330,0.59330,1}
			col {0.90495,0.90495,0.90495,1}
			col {0.58390,0.58390,0.58390,1}
			col {0.97584,0.97584,0.97584,1}
			col {0.54900,0.54900,0.54900,1}
			col {0.48526,0.48526,0.48526,1}
			col {0.57510,0.57510,0.57510,1}
			col {0.48940,0.48940,0.48940,1}
			col {0.49839,0.49839,0.49839,1}
			col {0.86458,0.86458,0.86458,1}
			col {0.87418,0.87418,0.87418,1}
			col {0.40004,0.40004,0.40004,1}
			col {0.64899,0.64899,0.64899,1}
			col {0.99605,0.99605,0.99605,1}
			col {0.69029,0.69029,0.69029,1}
			col {0.14890,0.14890,0.14890,1}
			col {0.41840,0.41840,0.41840,1}
			col {0.49650,0.49650,0.49650,1}
			col {0.51597,0.51597,0.51597,1}
			col {0.81346,0.81346,0.81346,1}
			col {0.63997,0.63997,0.63997,1}
			col {0.33827,0.33827,0.33827,1}
			col {1.28992,1.28992,1.28992,1}
			col {1.37724,1.37724,1.37724,1}
			col {0.07179,0.07179,0.07179,1}
			col {0.16310,0.16310,0.16310,1}
			col {0.70510,0.70510,0.70510,1}
			col {0.48656,0.48656,0.48656,1}
			col {0.56951,0.56951,0.56951,1}
			col {0.49612,0.49612,0.49612,1}
			col {0.39636,0.39636,0.39636,1}
			col {0.34040,0.34040,0.34040,1}
			col {0.58336,0.58336,0.58336,1}
			col {0.62851,0.62851,0.62851,1}
			col {0.97727,0.97727,0.97727,1}
			col {0.57450,0.57450,0.57450,1}
			col {0.86658,0.86658,0.86658,1}
			col {0.45491,0.45491,0.45491,1}
			col {0.50496,0.50496,0.50496,1}
			col {0.60293,0.60293,0.60293,1}
			col {0.67383,0.67383,0.67383,1}
			col {0.74216,0.74216,0.74216,1}
			col {0.81078,0.81078,0.81078,1}
			col {0.74470,0.74470,0.74470,1}
			col {0.56030,0.56030,0.56030,1}
			col {0.83674,0.83674,0.83674,1}
			col {0.93765,0.93765,0.93765,1}
			col {0.88194,0.88194,0.88194,1}
			col {0.90595,0.90595,0.90595,1}
			col {0.84393,0.84393,0.84393,1}
			col {0.89936,0.89936,0.89936,1}
			col {0.51731,0.51731,0.51731,1}
			col {0.63960,0.63960,0.63960,1}
			col {0.33729,0.33729,0.33729,1}
			col {0.07873,0.07873,0.07873,1}
			col {0.97710,0.97710,0.97710,1}
			col {0.50692,0.50692,0.50692,1}
			col {0.45318,0.45318,0.45318,1}
			col {0.86627,0.86627,0.86627,1}
			col {0.87434,0.87434,0.87434,1}
			col {0.60422,0.60422,0.60422,1}
			col {0.67507,0.67507,0.67507,1}
			col {0.74336,0.74336,0.74336,1}
			col {0.81097,0.81097,0.81097,1}
			col {0.74484,0.74484,0.74484,1}
			col {0.83648,0.83648,0.83648,1}
			col {0.84469,0.84469,0.84469,1}
			col {0.89819,0.89819,0.89819,1}
			col {0.42265,0.42265,0.42265,1}
			col {0.57133,0.57133,0.57133,1}
			col {0.72920,0.72920,0.72920,1}
			col {0.43438,0.43438,0.43438,1}
			col {0.33111,0.33111,0.33111,1}
			col {0.36343,0.36343,0.36343,1}
			col {0.72340,0.72340,0.72340,1}
			col {0.30287,0.30287,0.30287,1}
			col {0.11069,0.11069,0.11069,1}
			col {0.10490,0.10490,0.10490,1}
			col {0.22400,0.22400,0.22400,1}
			col {0.64169,0.64169,0.64169,1}
			col {0.49033,0.49033,0.49033,1}
			col {0.45043,0.45043,0.45043,1}
			col {0.31491,0.31491,0.31491,1}
			col {0.11196,0.11196,0.11196,1}
			col {0.05765,0.05765,0.05765,1}
			col {1.25195,1.25195,1.25195,1}
			col {1.07657,1.07657,1.07657,1}
			col {0.38946,0.38946,0.38946,1}
			col {0.05561,0.05561,0.05561,1}
			col {0.48334,0.48334,0.48334,1}
			col {0.42208,0.42208,0.42208,1}
			col {0.43515,0.43515,0.43515,1}
			col {0.73034,0.73034,0.73034,1}
			col {0.57097,0.57097,0.57097,1}
			col {0.36283,0.36283,0.36283,1}
			col {0.33167,0.33167,0.33167,1}
			col {0.30364,0.30364,0.30364,1}
			col {0.22443,0.22443,0.22443,1}
			col {0.10554,0.10554,0.10554,1}
			col {0.42248,0.42248,0.42248,1}
			col {0.64083,0.64083,0.64083,1}
			col {0.49101,0.49101,0.49101,1}
			col {0.31531,0.31531,0.31531,1}
			col {0.45008,0.45008,0.45008,1}
			col {0.11130,0.11130,0.11130,1}
			col {0.05693,0.05693,0.05693,1}
			col {1.07609,1.07609,1.07609,1}
			col {0.38736,0.38736,0.38736,1}
			col {0.05492,0.05492,0.05492,1}
			col {0.48476,0.48476,0.48476,1}
			col {0.53900,0.53900,0.53900,1}
			col {0.39828,0.39828,0.39828,1}
			col {0.61261,0.61261,0.61261,1}
			col {0.24373,0.24373,0.24373,1}
			col {1.26713,1.26713,1.26713,1}
			col {1.28716,1.28716,1.28716,1}
			col {0.86596,0.86596,0.86596,1}
			col {0.65060,0.65060,0.65060,1}
			col {0.56740,0.56740,0.56740,1}
			col {0.18686,0.18686,0.18686,1}
			col {0.30522,0.30522,0.30522,1}
			col {0.95765,0.95765,0.95765,1}
			col {1.25774,1.25774,1.25774,1}
			col {0.16955,0.16955,0.16955,1}
			col {0.45214,0.45214,0.45214,1}
			col {0.27660,0.27660,0.27660,1}
			col {0.48006,0.48006,0.48006,1}
			col {0.69500,0.69500,0.69500,1}
			col {0.51916,0.51916,0.51916,1}
			col {0.51062,0.51062,0.51062,1}
			col {0.05166,0.05166,0.05166,1}
			col {0.13452,0.13452,0.13452,1}
			col {0.75180,0.75180,0.75180,1}
			col {0.65844,0.65844,0.65844,1}
			col {0.77807,0.77807,0.77807,1}
			col {0.51399,0.51399,0.51399,1}
			col {0.19441,0.19441,0.19441,1}
			col {0.32003,0.32003,0.32003,1}
			col {0.55860,0.55860,0.55860,1}
			col {0.90376,0.90376,0.90376,1}
			col {0.44033,0.44033,0.44033,1}
			col {0.81271,0.81271,0.81271,1}
			col {0.95446,0.95446,0.95446,1}
			col {0.95687,0.95687,0.95687,1}
			col {0.72483,0.72483,0.72483,1}
			col {0.70102,0.70102,0.70102,1}
			col {0.53189,0.53189,0.53189,1}
			col {0.82124,0.82124,0.82124,1}
			col {1.05354,1.05354,1.05354,1}
			col {0.40430,0.40430,0.40430,1}
			col {0.06304,0.06304,0.06304,1}
			col {0.72437,0.72437,0.72437,1}
			col {0.70065,0.70065,0.70065,1}
			col {0.33208,0.33208,0.33208,1}
			col {0.85115,0.85115,0.85115,1}
			col {0.42004,0.42004,0.42004,1}
			col {0.87043,0.87043,0.87043,1}
			col {0.40988,0.40988,0.40988,1}
			col {0.63830,0.63830,0.63830,1}
			col {0.14552,0.14552,0.14552,1}
			col {0.27204,0.27204,0.27204,1}
			col {1.19645,1.19645,1.19645,1}
			col {1.17937,1.17937,1.17937,1}
			col {0.71348,0.71348,0.71348,1}
			col {1.15237,1.15237,1.15237,1}
			col {1.43193,1.43193,1.43193,1}
			col {1.19291,1.19291,1.19291,1}
			col {0.69086,0.69086,0.69086,1}
			col {1.09647,1.09647,1.09647,1}
			col {1.41595,1.41595,1.41595,1}
			col {0.07310,0.07310,0.07310,1}
			col {0.64938,0.64938,0.64938,1}
			col {0.65943,0.65943,0.65943,1}
			col {1.02538,1.02538,1.02538,1}
			col {1.02392,1.02392,1.02392,1}
			col {1.34140,1.34140,1.34140,1}
			col {1.33946,1.33946,1.33946,1}
			col {1.00833,1.00833,1.00833,1}
			col {1.16191,1.16191,1.16191,1}
			col {0.65793,0.65793,0.65793,1}
			col {0.06801,0.06801,0.06801,1}
			col {0.64989,0.64989,0.64989,1}
			col {0.73981,0.73981,0.73981,1}
			col {0.65048,0.65048,0.65048,1}
			col {0.29472,0.29472,0.29472,1}
			col {0.47398,0.47398,0.47398,1}
		}
		CUVs
		{
			setID 0
			numUVs 332
			uv {0.26627,0.44445}
			uv {0.26649,0.54873}
			uv {0.41460,0.54871}
			uv {0.41438,0.44442}
			uv {0.46522,0.44481}
			uv {0.46522,0.54881}
			uv {0.39448,0.49670}
			uv {0.17600,0.44446}
			uv {0.17600,0.54875}
			uv {0.49119,0.54869}
			uv {0.49119,0.44441}
			uv {0.00641,0.44450}
			uv {0.00663,0.54878}
			uv {0.03325,0.54876}
			uv {0.03303,0.44448}
			uv {0.39606,0.23765}
			uv {0.30574,0.23765}
			uv {0.25212,0.06552}
			uv {0.02011,0.06552}
			uv {0.01875,0.01831}
			uv {0.27590,0.01831}
			uv {0.27590,0.15241}
			uv {0.01875,0.14067}
			uv {0.29800,0.28833}
			uv {0.00578,0.27151}
			uv {0.30149,0.34349}
			uv {0.30759,0.43265}
			uv {0.00734,0.43265}
			uv {0.00627,0.32410}
			uv {0.30574,0.42882}
			uv {0.30574,0.30766}
			uv {0.49324,0.31091}
			uv {0.49324,0.42727}
			uv {0.30574,0.02182}
			uv {0.39648,0.02182}
			uv {0.35111,0.02182}
			uv {0.35110,0.23765}
			uv {0.49324,0.02182}
			uv {0.44486,0.02182}
			uv {0.44485,0.23765}
			uv {0.39646,0.23765}
			uv {0.49324,0.23765}
			uv {0.35591,0.26878}
			uv {0.41692,0.44524}
			uv {0.47409,0.44524}
			uv {0.47409,0.54889}
			uv {0.43282,0.54889}
			uv {0.41275,0.44524}
			uv {0.36947,0.49534}
			uv {0.41275,0.54889}
			uv {0.44570,0.44524}
			uv {0.46712,0.44524}
			uv {0.44570,0.54889}
			uv {0.40155,0.54881}
			uv {0.40081,0.44481}
			uv {0.36947,0.44524}
			uv {0.36947,0.54889}
			uv {0.66499,0.99166}
			uv {0.99193,0.99166}
			uv {0.99193,0.75398}
			uv {0.66499,0.75398}
			uv {0.01259,0.00506}
			uv {0.01280,0.02811}
			uv {0.50006,0.02811}
			uv {0.49991,0.00506}
			uv {0.01267,0.01658}
			uv {0.49962,0.01658}
			uv {0.49988,0.01658}
			uv {0.01293,0.01658}
			uv {0.01243,0.01658}
			uv {0.22656,0.48769}
			uv {0.37222,0.44351}
			uv {0.37449,0.37607}
			uv {0.22656,0.38816}
			uv {0.40512,0.17808}
			uv {0.22656,0.18419}
			uv {0.22779,0.56058}
			uv {0.37587,0.54269}
			uv {0.49846,0.41911}
			uv {0.49846,0.53611}
			uv {0.41143,0.76770}
			uv {0.49846,0.75621}
			uv {0.37033,0.56058}
			uv {0.37499,0.79933}
			uv {0.37406,0.41281}
			uv {0.37358,0.48769}
			uv {0.25075,0.48769}
			uv {0.24547,0.39184}
			uv {0.25135,0.56058}
			uv {0.23858,0.76770}
			uv {0.11491,0.79397}
			uv {0.12456,0.55049}
			uv {0.10831,0.49004}
			uv {0.11445,0.41273}
			uv {0.00353,0.48769}
			uv {0.00353,0.38980}
			uv {0.00353,0.56058}
			uv {0.22656,0.76770}
			uv {0.00353,0.76770}
			uv {0.12896,0.15668}
			uv {0.00353,0.18419}
			uv {0.23240,0.17347}
			uv {0.36301,0.17149}
			uv {0.49846,0.17250}
			uv {0.21299,0.83500}
			uv {0.11843,0.83501}
			uv {0.37222,0.83500}
			uv {0.49846,0.83500}
			uv {0.38004,0.83500}
			uv {0.22656,0.83500}
			uv {0.00353,0.83500}
			uv {0.24489,0.38816}
			uv {0.49846,0.03258}
			uv {0.36301,0.07052}
			uv {0.38488,0.15569}
			uv {0.40174,0.03258}
			uv {0.23240,0.07052}
			uv {0.11486,0.03258}
			uv {0.00353,0.03258}
			uv {0.00353,0.14973}
			uv {0.40690,0.15569}
			uv {0.22656,0.15480}
			uv {0.59226,0.44290}
			uv {0.59025,0.51922}
			uv {0.59237,0.44285}
			uv {0.60812,0.26311}
			uv {0.63453,0.34330}
			uv {0.57680,0.14245}
			uv {0.57672,0.02823}
			uv {0.59026,0.54851}
			uv {0.51306,0.65310}
			uv {0.52315,0.59012}
			uv {0.57423,0.59012}
			uv {0.58742,0.65314}
			uv {0.51031,0.55944}
			uv {0.58578,0.55848}
			uv {0.57105,0.61777}
			uv {0.53333,0.62506}
			uv {0.51372,0.14804}
			uv {0.51374,0.22272}
			uv {0.51370,0.01352}
			uv {0.51379,0.42028}
			uv {0.51381,0.53273}
			uv {0.51381,0.54775}
			uv {0.69818,0.59383}
			uv {0.59056,0.59355}
			uv {0.60825,0.65042}
			uv {0.68034,0.65042}
			uv {0.69818,0.50039}
			uv {0.59010,0.50042}
			uv {0.99237,0.49920}
			uv {0.85548,0.66860}
			uv {0.70592,0.66860}
			uv {0.78942,0.42694}
			uv {0.54887,0.99447}
			uv {0.54887,0.94191}
			uv {0.70592,0.94594}
			uv {0.70592,0.99447}
			uv {0.85548,0.99447}
			uv {0.85548,0.94191}
			uv {0.85526,0.99447}
			uv {0.85526,0.94191}
			uv {0.54887,0.66860}
			uv {0.70592,0.42203}
			uv {0.82515,0.28431}
			uv {0.70608,0.28692}
			uv {0.78656,0.78278}
			uv {0.83741,0.87199}
			uv {0.89854,0.84719}
			uv {0.80782,0.75323}
			uv {0.65489,0.85052}
			uv {0.73004,0.92130}
			uv {0.54887,0.88132}
			uv {0.54887,0.95683}
			uv {0.84578,0.96055}
			uv {0.85811,0.95639}
			uv {0.89849,0.97615}
			uv {0.93982,0.94853}
			uv {0.99604,0.99447}
			uv {0.99604,0.94191}
			uv {0.92997,0.66860}
			uv {0.99604,0.66860}
			uv {0.99220,0.32247}
			uv {0.85054,0.28089}
			uv {0.30391,0.91470}
			uv {0.37411,0.91474}
			uv {0.37335,0.84119}
			uv {0.30314,0.84115}
			uv {0.26139,0.91467}
			uv {0.18215,0.99386}
			uv {0.24471,0.99390}
			uv {0.30034,0.99394}
			uv {0.22422,0.84109}
			uv {0.00959,0.88118}
			uv {0.00962,0.84095}
			uv {0.22498,0.91464}
			uv {0.00957,0.91450}
			uv {0.00952,0.99374}
			uv {0.53651,0.84130}
			uv {0.45987,0.91481}
			uv {0.38079,0.99399}
			uv {0.49815,0.91484}
			uv {0.42140,0.99400}
			uv {0.00738,0.72222}
			uv {0.00110,0.56223}
			uv {0.03939,0.56192}
			uv {0.03713,0.72474}
			uv {0.04118,0.85197}
			uv {0.04162,0.90842}
			uv {0.20365,0.69871}
			uv {0.23055,0.70291}
			uv {0.22001,0.72954}
			uv {0.23618,0.79519}
			uv {0.23999,0.82327}
			uv {0.27257,0.79900}
			uv {0.27628,0.81788}
			uv {0.22418,0.75518}
			uv {0.22470,0.81247}
			uv {0.25659,0.81640}
			uv {0.21885,0.93299}
			uv {0.21916,0.89909}
			uv {0.40479,0.72659}
			uv {0.35317,0.57495}
			uv {0.28046,0.56332}
			uv {0.27707,0.73784}
			uv {0.43353,0.70934}
			uv {0.45145,0.69509}
			uv {0.19417,0.58459}
			uv {0.26723,0.68730}
			uv {0.49421,0.69415}
			uv {0.41421,0.56773}
			uv {0.39346,0.85014}
			uv {0.27949,0.88764}
			uv {0.45687,0.80583}
			uv {0.49600,0.80723}
			uv {0.42728,0.80572}
			uv {0.15376,0.94777}
			uv {0.15255,0.99065}
			uv {0.16972,0.70193}
			uv {0.16043,0.82136}
			uv {0.14840,0.56380}
			uv {0.44710,0.93987}
			uv {0.44854,0.84734}
			uv {0.38545,0.99214}
			uv {0.70369,0.12526}
			uv {0.78329,0.12564}
			uv {0.73788,0.00946}
			uv {0.99541,0.00946}
			uv {0.99541,0.12608}
			uv {0.74756,0.05412}
			uv {0.99070,0.05412}
			uv {0.83126,0.26713}
			uv {0.83139,0.17189}
			uv {0.83134,0.20972}
			uv {0.71195,0.13785}
			uv {0.83143,0.13822}
			uv {0.71178,0.26676}
			uv {0.71186,0.21093}
			uv {0.91179,0.00636}
			uv {0.91179,0.16734}
			uv {0.80522,0.16734}
			uv {0.80522,0.00636}
			uv {0.80580,0.99385}
			uv {0.45833,0.99387}
			uv {0.45832,0.81710}
			uv {0.80579,0.81708}
			uv {0.63467,0.63420}
			uv {0.94678,0.57772}
			uv {0.99334,0.21337}
			uv {0.63625,0.00777}
			uv {0.99528,0.00423}
			uv {0.50521,0.69068}
			uv {0.54717,0.51607}
			uv {0.68794,0.74573}
			uv {0.97772,1.00150}
			uv {0.83825,0.87634}
			uv {0.99180,0.94172}
			uv {0.76925,0.57013}
			uv {0.85992,0.62364}
			uv {0.93647,0.63599}
			uv {0.84594,0.78953}
			uv {0.65089,0.49291}
			uv {0.61542,0.26314}
			uv {0.74612,0.37376}
			uv {0.50265,0.26096}
			uv {0.99144,0.64111}
			uv {0.99144,0.80566}
			uv {0.90973,0.48944}
			uv {0.99144,0.53692}
			uv {0.95268,0.27813}
			uv {0.79894,0.27582}
			uv {0.94904,0.44995}
			uv {0.98543,0.46327}
			uv {0.99410,0.27845}
			uv {0.78865,0.19907}
			uv {0.96881,0.21179}
			uv {0.70267,0.16710}
			uv {0.55624,0.16710}
			uv {0.55624,0.00929}
			uv {0.70506,0.00929}
			uv {0.79140,0.16710}
			uv {0.79140,0.00929}
			uv {0.60843,0.16710}
			uv {0.60843,0.00929}
			uv {0.50405,0.00929}
			uv {0.50405,0.16710}
			uv {0.58678,0.01106}
			uv {0.00335,0.97933}
			uv {0.56218,0.97933}
			uv {0.05908,0.97933}
			uv {0.05908,0.01106}
			uv {0.04891,0.96569}
			uv {0.05894,0.02456}
			uv {0.61261,0.96298}
			uv {0.61261,0.08707}
			uv {0.42715,0.05631}
			uv {0.88881,0.26123}
			uv {0.88881,0.14959}
			uv {0.93613,0.14959}
			uv {0.99159,0.13862}
			uv {0.99159,0.24876}
			uv {0.91869,0.24876}
			uv {0.91648,0.13862}
			uv {0.84201,0.13862}
			uv {0.84201,0.24876}
			uv {0.87315,0.26699}
			uv {0.85402,0.15685}
			uv {0.98668,0.18108}
			uv {0.98902,0.26699}
			uv {0.98902,0.15685}
			uv {0.91237,0.14959}
			uv {0.33026,0.28865}
		}
		CSurface
		{
			material "lambert2"
			CQuads
			{
				numQuads 160
				q {67,67,64,-1,64} {66,66,63,-1,63} {65,65,62,-1,62} {64,64,61,-1,61}
				q {64,64,61,-1,61} {73,73,69,-1,70} {72,72,67,-1,69} {67,67,64,-1,64}
				q {72,72,67,-1,69} {68,68,65,-1,65} {71,71,68,-1,68} {67,67,64,-1,64}
				q {70,70,67,-1,75} {71,71,68,-1,68} {68,68,65,-1,65} {69,69,66,-1,66}
				q {65,65,62,-1,62} {75,75,63,-1,72} {74,74,64,-1,71} {64,64,61,-1,61}
				q {78,78,67,-1,76} {73,73,69,-1,70} {64,64,61,-1,61} {74,74,64,-1,71}
				q {76,76,65,-1,73} {78,78,67,-1,76} {74,74,64,-1,71} {77,77,68,-1,74}
				q {77,77,68,-1,74} {70,70,67,-1,75} {69,69,66,-1,66} {76,76,65,-1,73}
				q {81,81,72,-1,79} {80,80,71,-1,78} {79,79,70,-1,77} {82,82,73,-1,80}
				q {83,83,74,-1,81} {81,81,72,-1,79} {82,82,73,-1,80} {84,84,75,-1,82}
				q {86,86,77,-1,84} {85,85,76,-1,83} {79,79,70,-1,77} {80,80,71,-1,78}
				q {90,90,81,-1,88} {89,89,80,-1,87} {86,86,77,-1,84} {88,88,79,-1,86}
				q {88,88,79,-1,86} {91,91,82,-1,89} {92,92,83,-1,90} {90,90,81,-1,88}
				q {88,88,79,-1,86} {86,86,77,-1,84} {80,80,71,-1,78} {87,87,78,-1,85}
				q {87,87,78,-1,85} {94,94,85,-1,92} {91,91,82,-1,89} {88,88,79,-1,86}
				q {95,95,86,-1,93} {94,94,85,-1,92} {93,93,84,-1,91} {96,96,87,-1,94}
				q {95,95,86,-1,93} {97,97,88,-1,95} {91,91,82,-1,89} {94,94,85,-1,92}
				q {97,97,88,-1,95} {100,100,91,-1,92} {99,99,90,-1,97} {98,98,89,-1,96}
				q {96,96,87,-1,94} {102,102,93,-1,99} {101,101,92,-1,98} {95,95,86,-1,93}
				q {82,82,95,-1,80} {79,79,94,-1,77} {101,101,92,-1,98} {102,102,93,-1,99}
				q {101,101,92,-1,98} {100,100,91,-1,92} {97,97,88,-1,95} {95,95,86,-1,93}
				q {100,100,91,-1,92} {101,101,92,-1,98} {79,79,94,-1,77} {85,85,96,-1,83}
				q {85,85,76,-1,83} {86,86,77,-1,84} {89,89,80,-1,87} {103,103,97,-1,100}
				q {91,91,82,-1,89} {97,97,88,-1,95} {98,98,89,-1,96} {92,92,83,-1,90}
				q {103,103,98,-1,100} {99,99,90,-1,97} {100,100,91,-1,92} {85,85,96,-1,83}
				q {84,84,100,-1,82} {82,82,95,-1,80} {102,102,93,-1,99} {104,104,99,-1,101}
				q {102,102,93,-1,99} {96,96,87,-1,94} {105,105,101,-1,102} {104,104,99,-1,101}
				q {106,106,102,-1,103} {105,105,101,-1,102} {96,96,87,-1,94} {93,93,84,-1,91}
				q {107,107,103,-1,104} {106,106,102,-1,103} {93,93,84,-1,91} {87,87,78,-1,85}
				q {87,87,78,-1,85} {81,81,72,-1,79} {83,83,74,-1,81} {107,107,103,-1,104}
				q {109,109,105,-1,106} {108,108,104,-1,105} {98,98,89,-1,96} {99,99,90,-1,97}
				q {98,98,89,-1,96} {108,108,104,-1,105} {110,110,106,-1,107} {92,92,83,-1,90}
				q {90,90,81,-1,88} {92,92,83,-1,90} {110,110,106,-1,107} {111,111,107,-1,78}
				q {111,111,107,-1,78} {112,112,108,-1,108} {89,89,80,-1,87} {90,90,81,-1,88}
				q {112,112,108,-1,108} {113,113,109,-1,109} {103,103,97,-1,100} {89,89,80,-1,87}
				q {113,113,110,-1,109} {109,109,105,-1,106} {99,99,90,-1,97} {103,103,98,-1,100}
				q {117,117,71,-1,78} {116,116,72,-1,111} {115,115,111,-1,80} {114,114,70,-1,110}
				q {118,118,75,-1,82} {115,115,111,-1,80} {116,116,72,-1,111} {119,119,74,-1,112}
				q {121,121,77,-1,114} {117,117,71,-1,78} {114,114,70,-1,110} {120,120,76,-1,113}
				q {121,121,77,-1,114} {125,125,80,-1,115} {124,124,81,-1,88} {123,123,79,-1,86}
				q {127,127,83,-1,90} {126,126,82,-1,116} {123,123,79,-1,86} {124,124,81,-1,88}
				q {117,117,71,-1,78} {121,121,77,-1,114} {123,123,79,-1,86} {122,122,78,-1,85}
				q {126,126,82,-1,116} {129,129,85,-1,92} {122,122,78,-1,85} {123,123,79,-1,86}
				q {128,128,84,-1,117} {129,129,85,-1,92} {131,131,86,-1,119} {130,130,87,-1,118}
				q {131,131,86,-1,119} {129,129,85,-1,92} {126,126,82,-1,116} {132,132,88,-1,120}
				q {133,133,91,-1,92} {132,132,88,-1,120} {135,135,89,-1,121} {134,134,90,-1,97}
				q {130,130,87,-1,118} {131,131,86,-1,119} {137,137,92,-1,122} {136,136,93,-1,99}
				q {136,136,93,-1,99} {137,137,92,-1,122} {114,114,94,-1,110} {115,115,95,-1,80}
				q {137,137,92,-1,122} {131,131,86,-1,119} {132,132,88,-1,120} {133,133,91,-1,92}
				q {114,114,94,-1,110} {137,137,92,-1,122} {133,133,91,-1,92} {120,120,96,-1,113}
				q {120,120,76,-1,113} {138,138,97,-1,123} {125,125,80,-1,115} {121,121,77,-1,114}
				q {127,127,83,-1,90} {135,135,89,-1,121} {132,132,88,-1,120} {126,126,82,-1,116}
				q {133,133,91,-1,92} {134,134,90,-1,97} {138,138,98,-1,123} {120,120,96,-1,113}
				q {136,136,93,-1,99} {115,115,95,-1,80} {118,118,100,-1,82} {139,139,99,-1,124}
				q {140,140,101,-1,125} {130,130,87,-1,118} {136,136,93,-1,99} {139,139,99,-1,124}
				q {130,130,87,-1,118} {140,140,101,-1,125} {141,141,102,-1,126} {128,128,84,-1,117}
				q {142,142,103,-1,127} {122,122,78,-1,85} {128,128,84,-1,117} {141,141,102,-1,126}
				q {119,119,74,-1,112} {116,116,72,-1,111} {122,122,78,-1,85} {142,142,103,-1,127}
				q {135,135,89,-1,121} {144,144,104,-1,128} {143,143,105,-1,106} {134,134,90,-1,97}
				q {145,145,106,-1,129} {144,144,104,-1,128} {135,135,89,-1,121} {127,127,83,-1,90}
				q {145,145,106,-1,129} {127,127,83,-1,90} {124,124,81,-1,88} {146,146,107,-1,78}
				q {125,125,80,-1,115} {147,147,108,-1,130} {146,146,107,-1,78} {124,124,81,-1,88}
				q {138,138,97,-1,123} {148,148,109,-1,131} {147,147,108,-1,130} {125,125,80,-1,115}
				q {134,134,90,-1,97} {143,143,105,-1,106} {148,148,110,-1,131} {138,138,98,-1,123}
				q {141,141,102,-1,126} {150,150,113,-1,133} {149,149,112,-1,132} {142,142,103,-1,127}
				q {140,140,101,-1,125} {153,153,116,-1,133} {150,150,113,-1,133} {141,141,102,-1,126}
				q {153,153,116,-1,133} {140,140,101,-1,125} {139,139,99,-1,124} {154,154,117,-1,133}
				q {118,118,74,-1,82} {119,119,75,-1,112} {151,151,121,-1,134} {156,156,120,-1,135}
				q {157,157,112,-1,132} {158,158,113,-1,133} {106,106,102,-1,103} {107,107,103,-1,104}
				q {105,105,101,-1,102} {106,106,102,-1,103} {158,158,113,-1,133} {159,159,116,-1,133}
				q {104,104,99,-1,101} {105,105,101,-1,102} {159,159,116,-1,133} {160,160,117,-1,133}
				q {84,84,74,-1,82} {156,156,120,-1,135} {151,151,121,-1,134} {83,83,75,-1,81}
				q {170,170,128,-1,143} {169,169,127,-1,142} {172,172,138,-1,144} {173,173,140,-1,144}
				q {170,170,127,-1,143} {173,173,138,-1,144} {174,174,139,-1,144} {165,165,125,-1,140}
				q {171,171,139,-1,144} {172,172,138,-1,144} {169,169,127,-1,142} {167,167,125,-1,141}
				q {163,163,129,-1,138} {162,162,123,-1,137} {177,177,142,-1,144} {178,178,143,-1,144}
				q {174,174,133,-1,11} {173,173,132,-1,11} {172,172,131,-1,11} {171,171,130,-1,11}
				q {178,178,137,-1,11} {177,177,136,-1,11} {176,176,135,-1,11} {175,175,134,-1,11}
				q {174,174,133,-1,11} {171,171,130,-1,11} {175,175,134,-1,11} {176,176,135,-1,11}
				q {161,161,144,-1,136} {162,162,147,-1,137} {163,163,146,-1,138} {164,164,145,-1,139}
				q {166,166,149,-1,73} {168,168,148,-1,73} {161,161,144,-1,136} {164,164,145,-1,139}
				q {192,192,138,-1,144} {188,188,127,-1,151} {187,187,128,-1,150} {191,191,140,-1,144}
				q {190,190,139,-1,144} {191,191,138,-1,144} {187,187,127,-1,150} {183,183,125,-1,149}
				q {188,188,127,-1,151} {192,192,138,-1,144} {189,189,139,-1,144} {185,185,125,-1,25}
				q {195,195,142,-1,144} {180,180,123,-1,146} {181,181,129,-1,147} {194,194,143,-1,144}
				q {192,192,131,-1,11} {191,191,132,-1,11} {190,190,133,-1,11} {189,189,130,-1,11}
				q {196,196,135,-1,11} {195,195,136,-1,11} {194,194,137,-1,11} {193,193,134,-1,11}
				q {193,193,134,-1,11} {189,189,130,-1,11} {190,190,133,-1,11} {196,196,135,-1,11}
				q {181,181,146,-1,147} {180,180,147,-1,146} {179,179,144,-1,145} {182,182,145,-1,148}
				q {179,179,144,-1,145} {186,186,148,-1,73} {184,184,149,-1,73} {182,182,145,-1,148}
				q {70,70,157,-1,75} {202,202,156,-1,75} {201,201,155,-1,156} {71,71,154,-1,67}
				q {204,204,157,-1,158} {69,69,156,-1,66} {68,68,159,-1,65} {203,203,158,-1,157}
				q {206,206,155,-1,162} {205,205,156,-1,161} {65,65,157,-1,160} {66,66,154,-1,159}
				q {207,207,160,-1,163} {72,72,161,-1,69} {73,73,156,-1,70} {208,208,157,-1,164}
				q {205,205,156,-1,161} {206,206,155,-1,162} {198,198,162,-1,153} {199,199,152,-1,154}
				q {202,202,156,-1,75} {210,210,152,-1,166} {209,209,162,-1,165} {201,201,155,-1,156}
				q {225,225,159,-1,178} {202,202,156,-1,75} {70,70,157,-1,75} {77,77,158,-1,177}
				q {226,226,158,-1,179} {76,76,159,-1,73} {69,69,156,-1,66} {204,204,157,-1,158}
				q {227,227,159,-1,181} {225,225,179,-1,178} {77,77,178,-1,177} {75,75,158,-1,180}
				q {232,232,178,-1,184} {78,78,179,-1,76} {76,76,159,-1,73} {226,226,158,-1,179}
				q {65,65,157,-1,160} {205,205,156,-1,161} {227,227,159,-1,181} {75,75,158,-1,180}
				q {208,208,157,-1,164} {73,73,156,-1,70} {78,78,159,-1,76} {232,232,158,-1,184}
				q {229,229,151,-1,183} {227,227,159,-1,181} {205,205,156,-1,161} {199,199,152,-1,154}
				q {231,231,151,-1,165} {210,210,152,-1,166} {202,202,156,-1,75} {225,225,159,-1,178}
				q {234,234,184,-1,186} {237,237,187,-1,189} {236,236,186,-1,188} {235,235,185,-1,187}
				q {238,238,188,-1,161} {234,234,184,-1,186} {240,240,190,-1,11} {239,239,189,-1,11}
				q {240,240,190,-1,11} {234,234,184,-1,186} {235,235,185,-1,187} {241,241,191,-1,11}
				q {234,234,184,-1,186} {238,238,188,-1,161} {242,242,192,-1,190} {237,237,187,-1,189}
				q {245,245,195,-1,193} {246,246,196,-1,194} {243,243,194,-1,191} {242,242,192,-1,190}
				q {239,239,189,-1,11} {247,247,197,-1,11} {246,246,196,-1,194} {245,245,195,-1,193}
				q {248,248,184,-1,195} {240,240,190,-1,11} {241,241,191,-1,11} {249,249,185,-1,196}
				q {237,237,187,-1,189} {248,248,184,-1,195} {249,249,185,-1,196} {236,236,186,-1,188}
				q {251,251,196,-1,198} {250,250,195,-1,197} {242,242,192,-1,190} {244,244,194,-1,192}
				q {250,250,195,-1,197} {248,248,184,-1,195} {237,237,187,-1,189} {242,242,192,-1,190}
				q {239,239,189,-1,11} {240,240,190,-1,11} {248,248,184,-1,195} {250,250,195,-1,197}
				q {236,236,186,-1,188} {249,249,185,-1,196} {252,252,199,-1,199} {233,233,198,-1,185}
				q {249,249,185,-1,196} {241,241,191,-1,11} {253,253,200,-1,11} {252,252,199,-1,199}
				q {250,250,195,-1,197} {251,251,196,-1,198} {247,247,197,-1,11} {239,239,189,-1,11}
				q {230,230,202,-1,11} {228,228,201,-1,182} {252,252,199,-1,199} {253,253,200,-1,11}
				q {221,221,153,-1,176} {210,210,152,-1,166} {231,231,151,-1,165} {254,254,150,-1,200}
				q {233,233,198,-1,185} {255,255,199,-1,201} {235,235,185,-1,187} {236,236,186,-1,188}
				q {241,241,191,-1,11} {235,235,185,-1,187} {255,255,199,-1,201} {253,253,200,-1,11}
				q {253,253,200,-1,11} {255,255,199,-1,201} {254,254,201,-1,200} {230,230,202,-1,11}
				q {71,71,178,-1,67} {201,201,179,-1,156} {206,206,159,-1,162} {66,66,158,-1,159}
				q {207,207,178,-1,163} {203,203,158,-1,157} {68,68,159,-1,65} {72,72,179,-1,69}
				q {264,264,187,-1,207} {263,263,184,-1,186} {266,266,185,-1,209} {265,265,186,-1,208}
				q {269,269,189,-1,11} {268,268,190,-1,11} {263,263,184,-1,186} {267,267,188,-1,210}
				q {263,263,184,-1,186} {268,268,190,-1,11} {270,270,191,-1,11} {266,266,185,-1,209}
				q {271,271,192,-1,211} {267,267,188,-1,210} {263,263,184,-1,186} {264,264,187,-1,207}
				q {272,272,194,-1,212} {275,275,196,-1,215} {274,274,195,-1,214} {271,271,192,-1,211}
				q {275,275,196,-1,215} {276,276,197,-1,11} {269,269,189,-1,11} {274,274,195,-1,214}
				q {268,268,190,-1,11} {278,278,184,-1,195} {277,277,185,-1,216} {270,270,191,-1,11}
				q {277,277,185,-1,216} {278,278,184,-1,195} {264,264,187,-1,207} {265,265,186,-1,208}
				q {280,280,195,-1,197} {279,279,196,-1,198} {273,273,194,-1,213} {271,271,192,-1,211}
				q {264,264,187,-1,207} {278,278,184,-1,195} {280,280,195,-1,197} {271,271,192,-1,211}
				q {268,268,190,-1,11} {269,269,189,-1,11} {280,280,195,-1,197} {278,278,184,-1,195}
				q {281,281,199,-1,152} {277,277,185,-1,216} {265,265,186,-1,208} {262,262,198,-1,206}
				q {282,282,200,-1,11} {270,270,191,-1,11} {277,277,185,-1,216} {281,281,199,-1,152}
				q {276,276,197,-1,11} {279,279,196,-1,198} {280,280,195,-1,197} {269,269,189,-1,11}
				q {261,261,202,-1,11} {282,282,200,-1,11} {281,281,199,-1,152} {197,197,201,-1,152}
				q {283,283,150,-1,217} {209,209,151,-1,165} {210,210,152,-1,166} {221,221,153,-1,176}
				q {266,266,185,-1,209} {284,284,199,-1,218} {262,262,198,-1,206} {265,265,186,-1,208}
				q {270,270,191,-1,11} {282,282,200,-1,11} {284,284,199,-1,218} {266,266,185,-1,209}
				q {284,284,199,-1,218} {282,282,200,-1,11} {261,261,202,-1,11} {283,283,201,-1,217}
				q {343,343,246,-1,262} {344,344,247,-1,263} {345,345,248,-1,261} {342,342,245,-1,261}
				q {347,347,250,-1,264} {346,346,249,-1,167} {342,342,245,-1,261} {345,345,248,-1,261}
				q {344,344,247,-1,263} {343,343,246,-1,262} {346,346,249,-1,167} {347,347,250,-1,264}
				q {348,348,254,-1,265} {349,349,256,-1,266} {352,352,251,-1,269} {351,351,255,-1,268}
				q {353,353,257,-1,270} {352,352,254,-1,269} {349,349,255,-1,266} {350,350,253,-1,267}
				q {353,353,257,-1,270} {350,350,253,-1,267} {348,348,251,-1,265} {351,351,256,-1,268}
				q {423,423,319,-1,317} {426,426,322,-1,320} {425,425,321,-1,319} {424,424,320,-1,318}
				q {420,420,319,-1,314} {421,421,323,-1,315} {428,428,324,-1,323} {427,427,320,-1,321}
				q {429,429,324,-1,36} {419,419,323,-1,313} {420,420,319,-1,314} {427,427,320,-1,321}
				q {428,428,326,-1,324} {390,390,329,-1,327} {431,431,328,-1,326} {430,430,325,-1,325}
				q {422,422,319,-1,316} {390,390,320,-1,328} {428,428,324,-1,323} {421,421,323,-1,315}
				q {433,433,324,-1,330} {432,432,323,-1,329} {435,435,319,-1,333} {434,434,320,-1,331}
				q {435,435,319,-1,333} {423,423,323,-1,317} {424,424,324,-1,318} {434,434,320,-1,331}
				q {431,431,328,-1,326} {390,390,329,-1,327} {433,433,326,-1,324} {436,436,325,-1,325}
				q {422,422,319,-1,316} {432,432,323,-1,329} {433,433,324,-1,330} {390,390,320,-1,328}
				q {425,425,321,-1,319} {426,426,322,-1,320} {419,419,323,-1,313} {429,429,324,-1,36}
			}
			CTris
			{
				numTris 86
				t {67,67,64,-1,64} {71,71,68,-1,67} {66,66,63,-1,63}
				t {77,77,68,-1,74} {74,74,64,-1,71} {75,75,63,-1,72}
				t {80,80,71,-1,78} {81,81,72,-1,79} {87,87,78,-1,85}
				t {94,94,85,-1,92} {87,87,78,-1,85} {93,93,84,-1,91}
				t {116,116,72,-1,111} {117,117,71,-1,78} {122,122,78,-1,85}
				t {122,122,78,-1,85} {129,129,85,-1,92} {128,128,84,-1,117}
				t {119,119,74,-1,112} {142,142,103,-1,127} {149,149,112,-1,132}
				t {149,149,112,-1,132} {152,152,115,-1,132} {151,151,114,-1,134}
				t {139,139,99,-1,124} {118,118,100,-1,82} {154,154,117,-1,133}
				t {156,156,119,-1,135} {155,155,118,-1,133} {154,154,117,-1,133}
				t {118,118,100,-1,82} {156,156,119,-1,135} {154,154,117,-1,133}
				t {151,151,114,-1,134} {119,119,74,-1,112} {149,149,112,-1,132}
				t {107,107,103,-1,104} {83,83,74,-1,81} {157,157,112,-1,132}
				t {152,152,115,-1,132} {157,157,112,-1,132} {151,151,114,-1,134}
				t {84,84,100,-1,82} {104,104,99,-1,101} {160,160,117,-1,133}
				t {155,155,118,-1,133} {156,156,119,-1,135} {160,160,117,-1,133}
				t {156,156,119,-1,135} {84,84,100,-1,82} {160,160,117,-1,133}
				t {83,83,74,-1,81} {151,151,114,-1,134} {157,157,112,-1,132}
				t {176,176,141,-1,144} {162,162,123,-1,137} {161,161,122,-1,136}
				t {163,163,123,-1,138} {175,175,141,-1,144} {164,164,124,-1,139}
				t {176,176,141,-1,144} {161,161,122,-1,136} {165,165,125,-1,140}
				t {164,164,124,-1,139} {167,167,125,-1,141} {166,166,126,-1,73}
				t {161,161,122,-1,136} {168,168,126,-1,73} {165,165,125,-1,140}
				t {175,175,141,-1,144} {167,167,125,-1,141} {164,164,124,-1,139}
				t {196,196,141,-1,144} {179,179,122,-1,145} {180,180,123,-1,146}
				t {182,182,124,-1,148} {193,193,141,-1,144} {181,181,123,-1,147}
				t {196,196,141,-1,144} {183,183,125,-1,149} {179,179,122,-1,145}
				t {185,185,125,-1,25} {182,182,124,-1,148} {184,184,126,-1,73}
				t {186,186,126,-1,73} {179,179,122,-1,145} {183,183,125,-1,149}
				t {193,193,141,-1,144} {182,182,124,-1,148} {185,185,125,-1,25}
				t {200,200,153,-1,155} {199,199,152,-1,154} {197,197,150,-1,152}
				t {230,230,180,-1,11} {229,229,151,-1,183} {228,228,150,-1,182}
				t {230,230,180,-1,11} {231,231,181,-1,165} {225,225,179,-1,178}
				t {227,227,159,-1,181} {230,230,180,-1,11} {225,225,179,-1,178}
				t {229,229,151,-1,183} {230,230,180,-1,11} {227,227,159,-1,181}
				t {199,199,152,-1,154} {211,211,163,-1,168} {212,212,153,-1,155}
				t {199,199,152,-1,154} {212,212,153,-1,155} {228,228,150,-1,182}
				t {220,220,183,-1,82} {233,233,182,-1,185} {212,212,153,-1,155}
				t {244,244,194,-1,192} {242,242,192,-1,190} {243,243,193,-1,191}
				t {238,238,188,-1,161} {245,245,195,-1,193} {242,242,192,-1,190}
				t {238,238,188,-1,161} {239,239,189,-1,11} {245,245,195,-1,193}
				t {252,252,199,-1,199} {228,228,201,-1,182} {233,233,198,-1,185}
				t {231,231,151,-1,165} {230,230,180,-1,11} {254,254,150,-1,200}
				t {220,220,183,-1,82} {221,221,153,-1,176} {233,233,182,-1,185}
				t {254,254,201,-1,200} {255,255,199,-1,201} {233,233,198,-1,185}
				t {198,198,151,-1,153} {261,261,180,-1,11} {197,197,150,-1,152}
				t {209,209,181,-1,165} {261,261,180,-1,11} {201,201,179,-1,156}
				t {261,261,180,-1,11} {206,206,159,-1,162} {201,201,179,-1,156}
				t {261,261,180,-1,11} {198,198,151,-1,153} {206,206,159,-1,162}
				t {211,211,163,-1,168} {199,199,152,-1,154} {200,200,153,-1,155}
				t {262,262,182,-1,206} {200,200,153,-1,155} {197,197,150,-1,152}
				t {271,271,192,-1,211} {273,273,194,-1,213} {272,272,193,-1,212}
				t {274,274,195,-1,214} {267,267,188,-1,210} {271,271,192,-1,211}
				t {269,269,189,-1,11} {267,267,188,-1,210} {274,274,195,-1,214}
				t {197,197,201,-1,152} {281,281,199,-1,152} {262,262,198,-1,206}
				t {261,261,180,-1,11} {209,209,151,-1,165} {283,283,150,-1,217}
				t {221,221,153,-1,176} {262,262,182,-1,206} {283,283,150,-1,217}
				t {284,284,199,-1,218} {283,283,201,-1,217} {262,262,198,-1,206}
				t {343,343,246,-1,262} {342,342,245,-1,261} {341,341,244,-1,11}
				t {342,342,245,-1,261} {346,346,249,-1,167} {341,341,244,-1,11}
				t {346,346,249,-1,167} {343,343,246,-1,262} {341,341,244,-1,11}
				t {350,350,253,-1,267} {349,349,252,-1,266} {348,348,251,-1,265}
				t {420,420,318,-1,314} {419,419,317,-1,313} {418,418,316,-1,312}
				t {420,420,317,-1,314} {418,418,316,-1,312} {421,421,318,-1,315}
				t {418,418,316,-1,312} {422,422,317,-1,316} {421,421,318,-1,315}
				t {427,427,327,-1,322} {428,428,326,-1,324} {430,430,325,-1,325}
				t {433,433,326,-1,324} {434,434,327,-1,332} {436,436,325,-1,325}
				t {435,435,317,-1,333} {418,418,316,-1,312} {423,423,318,-1,317}
				t {418,418,316,-1,312} {426,426,330,-1,320} {423,423,318,-1,317}
				t {432,432,318,-1,329} {418,418,316,-1,312} {435,435,317,-1,333}
				t {432,432,318,-1,329} {422,422,317,-1,316} {418,418,316,-1,312}
				t {419,419,317,-1,313} {426,426,330,-1,320} {418,418,316,-1,312}
				t {194,194,142,-1,144} {181,181,123,-1,147} {193,193,141,-1,144}
				t {189,189,139,-1,144} {193,193,141,-1,144} {185,185,125,-1,25}
				t {196,196,141,-1,144} {190,190,139,-1,144} {183,183,125,-1,149}
				t {195,195,142,-1,144} {196,196,141,-1,144} {180,180,123,-1,146}
				t {175,175,141,-1,144} {171,171,139,-1,144} {167,167,125,-1,141}
				t {178,178,142,-1,144} {175,175,141,-1,144} {163,163,123,-1,138}
				t {177,177,142,-1,144} {162,162,123,-1,137} {176,176,141,-1,144}
				t {174,174,139,-1,144} {176,176,141,-1,144} {165,165,125,-1,140}
				t {199,199,152,-1,154} {198,198,151,-1,153} {197,197,150,-1,152}
				t {229,229,151,-1,183} {199,199,152,-1,154} {228,228,150,-1,182}
				t {260,260,183,-1,82} {200,200,153,-1,155} {262,262,182,-1,206}
				t {260,260,183,-1,82} {262,262,182,-1,206} {221,221,153,-1,176}
				t {212,212,153,-1,155} {233,233,182,-1,185} {228,228,150,-1,182}
				t {233,233,182,-1,185} {221,221,153,-1,176} {254,254,150,-1,200}
			}
		}
		CSurface
		{
			material "lambert5"
			CQuads
			{
				numQuads 6
				q {63,63,60,-1,60} {62,62,59,-1,60} {61,61,58,-1,59} {60,60,57,-1,59}
				q {363,363,269,-1,276} {362,362,268,-1,278} {361,361,267,-1,277} {360,360,266,-1,276}
				q {368,368,267,-1,277} {364,364,268,-1,278} {365,365,269,-1,276} {367,367,266,-1,276}
				q {409,409,308,-1,276} {407,407,306,-1,309} {411,411,310,-1,309} {410,410,309,-1,276}
				q {411,411,310,-1,309} {412,412,306,-1,309} {413,413,308,-1,276} {410,410,309,-1,276}
				q {360,360,313,-1,276} {363,363,314,-1,276} {416,416,315,-1,311} {407,407,312,-1,309}
			}
			CTris
			{
				numTris 7
				t {366,366,270,-1,279} {365,365,269,-1,276} {364,364,268,-1,278}
				t {369,369,270,-1,280} {362,362,268,-1,278} {363,363,269,-1,276}
				t {409,409,308,-1,276} {408,408,307,-1,276} {407,407,306,-1,309}
				t {414,414,307,-1,276} {413,413,308,-1,276} {412,412,306,-1,309}
				t {360,360,313,-1,276} {407,407,312,-1,309} {415,415,311,-1,310}
				t {367,367,313,-1,276} {412,412,312,-1,309} {365,365,314,-1,276}
				t {412,412,312,-1,309} {367,367,313,-1,276} {417,417,311,-1,310}
			}
		}
		CSurface
		{
			material "lambert3"
			CQuads
			{
				numQuads 97
				q {3,3,3,-1,3} {2,2,2,-1,2} {1,1,1,-1,1} {0,0,0,-1,0}
				q {1,1,1,-1,1} {8,8,8,-1,8} {7,7,7,-1,7} {0,0,0,-1,0}
				q {10,10,10,-1,10} {9,9,9,-1,9} {2,2,2,-1,2} {3,3,3,-1,3}
				q {14,14,14,-1,13} {13,13,13,-1,12} {12,12,12,-1,11} {11,11,11,-1,11}
				q {4,4,4,-1,4} {5,5,5,-1,5} {9,9,9,-1,9} {10,10,10,-1,10}
				q {17,17,42,-1,292} {6,6,331,-1,16} {15,15,30,-1,14} {16,16,15,-1,15}
				q {15,15,18,-1,14} {6,6,19,-1,16} {20,20,20,-1,19} {19,19,17,-1,18}
				q {21,21,21,-1,20} {18,18,22,-1,17} {15,15,18,-1,14} {19,19,17,-1,18}
				q {23,23,24,-1,22} {18,18,22,-1,17} {21,21,21,-1,20} {22,22,23,-1,21}
				q {26,26,27,-1,25} {27,27,28,-1,26} {24,24,25,-1,23} {25,25,26,-1,24}
				q {28,28,20,-1,11} {11,11,19,-1,11} {26,26,18,-1,25} {25,25,17,-1,24}
				q {29,29,30,-1,29} {30,30,31,-1,334} {28,28,32,-1,11} {25,25,29,-1,24}
				q {32,32,31,-1,33} {30,30,31,-1,334} {29,29,30,-1,29} {24,24,30,-1,23}
				q {35,35,36,-1,11} {34,34,35,-1,35} {33,33,34,-1,34} {31,31,15,-1,11}
				q {34,34,35,-1,35} {35,35,36,-1,11} {22,22,16,-1,21} {21,21,33,-1,20}
				q {39,39,39,-1,11} {37,37,38,-1,37} {36,36,37,-1,36} {38,38,41,-1,335}
				q {33,33,34,-1,34} {37,37,38,-1,37} {39,39,39,-1,11} {31,31,15,-1,11}
				q {41,41,30,-1,40} {26,26,29,-1,25} {11,11,32,-1,11} {40,40,31,-1,122}
				q {41,41,30,-1,40} {40,40,31,-1,122} {43,43,31,-1,336} {27,27,30,-1,26}
				q {16,16,34,-1,15} {44,44,35,-1,32} {45,45,36,-1,11} {42,42,40,-1,11}
				q {23,23,16,-1,22} {45,45,36,-1,11} {44,44,35,-1,32} {18,18,33,-1,17}
				q {17,17,37,-1,292} {46,46,38,-1,43} {47,47,39,-1,11} {48,48,41,-1,44}
				q {47,47,39,-1,11} {46,46,38,-1,43} {16,16,34,-1,15} {42,42,40,-1,11}
				q {24,24,25,-1,23} {27,27,28,-1,26} {23,23,24,-1,22} {22,22,23,-1,21}
				q {19,19,30,-1,18} {20,20,331,-1,19} {36,36,42,-1,36} {33,33,15,-1,34}
				q {8,8,8,-1,8} {13,13,13,-1,12} {14,14,14,-1,13} {7,7,7,-1,7}
				q {286,286,204,-1,220} {285,285,203,-1,219} {288,288,206,-1,222} {287,287,205,-1,221}
				q {285,285,203,-1,219} {290,290,208,-1,224} {289,289,207,-1,223} {288,288,206,-1,222}
				q {294,294,212,-1,228} {292,292,210,-1,226} {293,293,211,-1,227} {295,295,213,-1,229}
				q {296,296,214,-1,219} {294,294,212,-1,228} {295,295,213,-1,229} {297,297,215,-1,225}
				q {291,291,209,-1,225} {299,299,217,-1,231} {298,298,216,-1,230} {293,293,211,-1,227}
				q {300,300,219,-1,232} {298,298,218,-1,230} {299,299,217,-1,231} {301,301,220,-1,233}
				q {286,286,223,-1,220} {303,303,222,-1,235} {302,302,221,-1,234} {285,285,224,-1,219}
				q {293,293,225,-1,227} {302,302,221,-1,234} {303,303,222,-1,235} {304,304,226,-1,225}
				q {305,305,227,-1,236} {291,291,209,-1,225} {292,292,210,-1,226} {306,306,228,-1,237}
				q {305,305,230,-1,236} {306,306,229,-1,237} {304,304,226,-1,225} {303,303,222,-1,235}
				q {296,296,234,-1,219} {297,297,233,-1,225} {304,304,226,-1,225} {306,306,229,-1,237}
				q {292,292,210,-1,226} {294,294,212,-1,228} {296,296,214,-1,219} {306,306,228,-1,237}
				q {293,293,225,-1,227} {304,304,226,-1,225} {297,297,233,-1,225} {295,295,235,-1,229}
				q {290,290,208,-1,224} {309,309,237,-1,239} {308,308,236,-1,11} {289,289,207,-1,223}
				q {310,310,238,-1,225} {312,312,240,-1,240} {287,287,205,-1,221} {288,288,206,-1,222}
				q {310,310,238,-1,225} {311,311,239,-1,225} {299,299,217,-1,231} {291,291,209,-1,225}
				q {308,308,236,-1,11} {309,309,237,-1,239} {300,300,219,-1,232} {301,301,220,-1,233}
				q {298,298,242,-1,230} {300,300,241,-1,232} {309,309,243,-1,239} {307,307,231,-1,238}
				q {301,301,220,-1,233} {299,299,217,-1,231} {311,311,239,-1,225} {308,308,236,-1,11}
				q {291,291,209,-1,225} {305,305,227,-1,236} {312,312,240,-1,240} {310,310,238,-1,225}
				q {298,298,242,-1,230} {307,307,231,-1,238} {302,302,221,-1,234} {293,293,225,-1,227}
				q {314,314,206,-1,242} {313,313,203,-1,241} {316,316,204,-1,244} {315,315,205,-1,243}
				q {318,318,207,-1,246} {317,317,208,-1,245} {313,313,203,-1,241} {314,314,206,-1,242}
				q {323,323,212,-1,249} {322,322,213,-1,248} {320,320,211,-1,227} {321,321,210,-1,247}
				q {322,322,213,-1,248} {323,323,212,-1,249} {325,325,214,-1,250} {324,324,215,-1,225}
				q {326,326,216,-1,251} {327,327,217,-1,252} {319,319,209,-1,225} {320,320,211,-1,227}
				q {327,327,217,-1,252} {326,326,218,-1,251} {329,329,219,-1,254} {328,328,220,-1,253}
				q {330,330,221,-1,255} {331,331,222,-1,256} {316,316,223,-1,244} {313,313,224,-1,241}
				q {331,331,222,-1,256} {330,330,221,-1,255} {320,320,225,-1,227} {332,332,226,-1,225}
				q {321,321,210,-1,247} {319,319,209,-1,225} {334,334,227,-1,72} {333,333,228,-1,257}
				q {332,332,226,-1,225} {333,333,229,-1,257} {334,334,230,-1,72} {331,331,222,-1,256}
				q {332,332,226,-1,225} {324,324,233,-1,225} {325,325,234,-1,250} {333,333,229,-1,257}
				q {325,325,214,-1,250} {323,323,212,-1,249} {321,321,210,-1,247} {333,333,228,-1,257}
				q {320,320,225,-1,227} {322,322,235,-1,248} {324,324,233,-1,225} {332,332,226,-1,225}
				q {318,318,207,-1,246} {336,336,236,-1,11} {337,337,237,-1,259} {317,317,208,-1,245}
				q {315,315,205,-1,243} {340,340,240,-1,260} {339,339,238,-1,225} {314,314,206,-1,242}
				q {327,327,217,-1,252} {338,338,239,-1,225} {339,339,238,-1,225} {319,319,209,-1,225}
				q {329,329,219,-1,254} {337,337,237,-1,259} {336,336,236,-1,11} {328,328,220,-1,253}
				q {337,337,243,-1,259} {329,329,241,-1,254} {326,326,242,-1,251} {335,335,231,-1,258}
				q {338,338,239,-1,225} {327,327,217,-1,252} {328,328,220,-1,253} {336,336,236,-1,11}
				q {340,340,240,-1,260} {334,334,227,-1,72} {319,319,209,-1,225} {339,339,238,-1,225}
				q {330,330,221,-1,255} {335,335,231,-1,258} {326,326,242,-1,251} {320,320,225,-1,227}
				q {354,354,259,-1,271} {204,204,258,-1,158} {355,355,261,-1,66} {76,76,260,-1,73}
				q {357,357,261,-1,273} {356,356,260,-1,272} {76,76,259,-1,73} {355,355,258,-1,66}
				q {356,356,263,-1,272} {357,357,262,-1,273} {359,359,265,-1,275} {358,358,264,-1,274}
				q {204,204,258,-1,158} {354,354,259,-1,271} {358,358,260,-1,274} {359,359,261,-1,275}
				q {76,76,258,-1,73} {356,356,261,-1,272} {358,358,260,-1,274} {354,354,259,-1,271}
				q {204,204,259,-1,65} {359,359,260,-1,275} {357,357,261,-1,273} {355,355,258,-1,66}
				q {376,376,280,-1,286} {373,373,277,-1,283} {377,377,281,-1,287} {371,371,273,-1,11}
				q {363,363,284,-1,276} {360,360,272,-1,276} {377,377,281,-1,287} {378,378,282,-1,288}
				q {372,372,276,-1,282} {381,381,286,-1,291} {376,376,280,-1,286} {371,371,275,-1,11}
				q {380,380,285,-1,290} {375,375,279,-1,285} {376,376,280,-1,286} {381,381,286,-1,291}
				q {380,380,285,-1,293} {383,383,288,-1,294} {382,382,287,-1,278} {375,375,279,-1,292}
				q {382,382,287,-1,278} {384,384,289,-1,295} {385,385,290,-1,296} {379,379,283,-1,289}
				q {383,383,288,-1,264} {387,387,292,-1,298} {386,386,291,-1,297} {382,382,287,-1,278}
				q {384,384,289,-1,295} {386,386,291,-1,297} {387,387,292,-1,298} {388,388,293,-1,299}
				q {389,389,294,-1,300} {385,385,290,-1,296} {384,384,289,-1,295} {390,390,295,-1,300}
				q {397,397,281,-1,287} {393,393,277,-1,283} {394,394,280,-1,286} {392,392,273,-1,11}
				q {397,397,281,-1,287} {367,367,272,-1,276} {365,365,284,-1,276} {399,399,282,-1,288}
				q {394,394,280,-1,286} {381,381,286,-1,291} {372,372,276,-1,282} {392,392,275,-1,11}
				q {394,394,280,-1,286} {395,395,279,-1,285} {380,380,285,-1,290} {381,381,286,-1,291}
				q {400,400,287,-1,278} {383,383,288,-1,294} {380,380,285,-1,293} {395,395,279,-1,292}
				q {402,402,290,-1,303} {401,401,289,-1,302} {400,400,287,-1,278} {398,398,283,-1,289}
				q {403,403,291,-1,297} {387,387,292,-1,298} {383,383,288,-1,264} {400,400,287,-1,278}
				q {387,387,292,-1,298} {403,403,291,-1,297} {401,401,289,-1,302} {388,388,293,-1,299}
				q {401,401,289,-1,302} {402,402,290,-1,303} {404,404,294,-1,300} {390,390,295,-1,300}
				q {370,370,299,-1,281} {405,405,298,-1,306} {220,220,297,-1,305} {212,212,296,-1,304}
				q {211,211,300,-1,300} {372,372,301,-1,282} {370,370,299,-1,281} {212,212,296,-1,304}
				q {405,405,304,-1,306} {406,406,303,-1,308} {260,260,302,-1,307} {220,220,305,-1,305}
				q {260,260,302,-1,307} {406,406,303,-1,308} {391,391,299,-1,301} {200,200,296,-1,93}
				q {391,391,299,-1,301} {372,372,301,-1,282} {211,211,300,-1,300} {200,200,296,-1,93}
			}
			CTris
			{
				numTris 70
				t {6,6,6,-1,6} {5,5,5,-1,5} {4,4,4,-1,4}
				t {18,18,16,-1,17} {16,16,15,-1,15} {15,15,30,-1,14}
				t {31,31,15,-1,31} {32,32,31,-1,33} {24,24,30,-1,23}
				t {24,24,30,-1,23} {29,29,30,-1,29} {25,25,29,-1,24}
				t {28,28,32,-1,27} {30,30,31,-1,30} {32,32,31,-1,32}
				t {33,33,34,-1,34} {34,34,35,-1,35} {21,21,33,-1,20}
				t {22,22,16,-1,21} {35,35,36,-1,11} {31,31,15,-1,11}
				t {36,36,37,-1,36} {37,37,38,-1,37} {33,33,34,-1,34}
				t {31,31,15,-1,11} {39,39,39,-1,11} {38,38,41,-1,335}
				t {42,42,40,-1,41} {23,23,16,-1,22} {27,27,30,-1,26}
				t {41,41,30,-1,40} {27,27,30,-1,26} {26,26,29,-1,25}
				t {40,40,31,-1,39} {11,11,32,-1,28} {43,43,31,-1,42}
				t {44,44,35,-1,32} {16,16,34,-1,15} {18,18,33,-1,17}
				t {45,45,36,-1,11} {23,23,16,-1,22} {42,42,40,-1,11}
				t {46,46,38,-1,43} {17,17,37,-1,292} {16,16,34,-1,15}
				t {47,47,39,-1,11} {42,42,40,-1,11} {48,48,41,-1,44}
				t {22,22,16,-1,21} {31,31,15,-1,31} {24,24,30,-1,23}
				t {31,31,15,-1,31} {38,38,41,-1,38} {32,32,31,-1,33}
				t {43,43,31,-1,336} {48,48,41,-1,45} {42,42,40,-1,41}
				t {43,43,31,-1,336} {42,42,40,-1,41} {27,27,30,-1,26}
				t {33,33,15,-1,34} {21,21,16,-1,20} {19,19,30,-1,18}
				t {54,54,49,-1,52} {20,20,48,-1,51} {53,53,47,-1,50}
				t {17,17,53,-1,56} {5,5,5,-1,5} {6,6,6,-1,6}
				t {57,57,54,-1,57} {6,6,6,-1,6} {4,4,4,-1,4}
				t {20,20,48,-1,51} {58,58,55,-1,58} {53,53,47,-1,50}
				t {59,59,56,-1,11} {437,437,48,-1,11} {438,438,49,-1,11}
				t {293,293,211,-1,227} {292,292,210,-1,226} {291,291,209,-1,225}
				t {290,290,232,-1,224} {285,285,224,-1,219} {307,307,231,-1,238}
				t {311,311,239,-1,225} {310,310,238,-1,225} {288,288,206,-1,222}
				t {289,289,207,-1,223} {308,308,236,-1,11} {311,311,239,-1,225}
				t {307,307,231,-1,238} {309,309,243,-1,239} {290,290,232,-1,224}
				t {289,289,207,-1,223} {311,311,239,-1,225} {288,288,206,-1,222}
				t {307,307,231,-1,238} {285,285,224,-1,219} {302,302,221,-1,234}
				t {321,321,210,-1,247} {320,320,211,-1,227} {319,319,209,-1,225}
				t {313,313,224,-1,241} {317,317,232,-1,245} {335,335,231,-1,258}
				t {339,339,238,-1,225} {338,338,239,-1,225} {314,314,206,-1,242}
				t {336,336,236,-1,11} {318,318,207,-1,246} {338,338,239,-1,225}
				t {337,337,243,-1,259} {335,335,231,-1,258} {317,317,232,-1,245}
				t {338,338,239,-1,225} {318,318,207,-1,246} {314,314,206,-1,242}
				t {313,313,224,-1,241} {335,335,231,-1,258} {330,330,221,-1,255}
				t {371,371,273,-1,11} {360,360,272,-1,276} {370,370,271,-1,281}
				t {372,372,276,-1,282} {371,371,275,-1,11} {370,370,274,-1,281}
				t {376,376,280,-1,286} {374,374,278,-1,284} {373,373,277,-1,283}
				t {379,379,283,-1,289} {378,378,282,-1,288} {377,377,281,-1,287}
				t {371,371,273,-1,11} {377,377,281,-1,287} {360,360,272,-1,276}
				t {382,382,287,-1,278} {379,379,283,-1,289} {373,373,277,-1,283}
				t {382,382,287,-1,278} {373,373,277,-1,283} {374,374,278,-1,284}
				t {384,384,289,-1,295} {382,382,287,-1,278} {386,386,291,-1,297}
				t {379,379,283,-1,289} {385,385,290,-1,296} {378,378,282,-1,288}
				t {385,385,290,-1,296} {389,389,294,-1,300} {378,378,282,-1,288}
				t {384,384,289,-1,295} {388,388,293,-1,299} {390,390,295,-1,300}
				t {373,373,277,-1,283} {379,379,283,-1,289} {377,377,281,-1,287}
				t {367,367,272,-1,276} {392,392,273,-1,11} {391,391,271,-1,301}
				t {392,392,275,-1,11} {372,372,276,-1,282} {391,391,274,-1,301}
				t {395,395,279,-1,285} {394,394,280,-1,286} {396,396,278,-1,284}
				t {399,399,282,-1,288} {398,398,283,-1,289} {397,397,281,-1,287}
				t {397,397,281,-1,287} {392,392,273,-1,11} {367,367,272,-1,276}
				t {398,398,283,-1,289} {400,400,287,-1,278} {393,393,277,-1,283}
				t {393,393,277,-1,283} {400,400,287,-1,278} {396,396,278,-1,284}
				t {400,400,287,-1,278} {401,401,289,-1,302} {403,403,291,-1,297}
				t {402,402,290,-1,303} {398,398,283,-1,289} {399,399,282,-1,288}
				t {404,404,294,-1,300} {402,402,290,-1,303} {399,399,282,-1,288}
				t {388,388,293,-1,299} {401,401,289,-1,302} {390,390,295,-1,300}
				t {398,398,283,-1,289} {393,393,277,-1,283} {397,397,281,-1,287}
				t {367,367,302,-1,276} {391,391,299,-1,301} {406,406,303,-1,308}
				t {370,370,299,-1,281} {360,360,302,-1,276} {405,405,303,-1,306}
				t {400,400,287,-1,278} {395,395,279,-1,292} {396,396,278,-1,284}
				t {375,375,279,-1,292} {382,382,287,-1,278} {374,374,278,-1,284}
				t {396,396,278,-1,284} {394,394,280,-1,286} {393,393,277,-1,283}
				t {375,375,279,-1,285} {374,374,278,-1,284} {376,376,280,-1,286}
			}
		}
		CSurface
		{
			material "lambert6"
			CQuads
			{
				numQuads 10
				q {212,212,153,-1,73} {211,211,163,-1,167} {214,214,165,-1,170} {213,213,164,-1,169}
				q {215,215,166,-1,171} {218,218,169,-1,174} {217,217,168,-1,173} {216,216,167,-1,172}
				q {215,215,166,-1,171} {216,216,167,-1,172} {220,220,171,-1,82} {219,219,170,-1,175}
				q {212,212,173,-1,73} {213,213,172,-1,169} {219,219,170,-1,175} {220,220,171,-1,82}
				q {221,221,174,-1,176} {220,220,171,-1,82} {216,216,167,-1,172} {222,222,175,-1,11}
				q {214,214,165,-1,170} {211,211,163,-1,167} {200,200,153,-1,73} {256,256,164,-1,202}
				q {217,217,168,-1,173} {218,218,169,-1,174} {257,257,166,-1,203} {258,258,167,-1,204}
				q {260,260,171,-1,82} {258,258,167,-1,204} {257,257,166,-1,203} {259,259,170,-1,205}
				q {259,259,170,-1,205} {256,256,172,-1,202} {200,200,173,-1,73} {260,260,171,-1,82}
				q {258,258,167,-1,204} {260,260,171,-1,82} {221,221,174,-1,176} {222,222,175,-1,11}
			}
			CTris
			{
				numTris 6
				t {223,223,176,-1,11} {222,222,175,-1,11} {216,216,167,-1,172}
				t {224,224,177,-1,82} {216,216,167,-1,172} {217,217,168,-1,173}
				t {223,223,176,-1,11} {216,216,167,-1,172} {224,224,177,-1,82}
				t {222,222,175,-1,11} {223,223,176,-1,11} {258,258,167,-1,204}
				t {258,258,167,-1,204} {224,224,177,-1,82} {217,217,168,-1,173}
				t {258,258,167,-1,204} {223,223,176,-1,11} {224,224,177,-1,82}
			}
		}
		CSurface
		{
			material "lambert7"
			CQuads
			{
				numQuads 3
				q {49,49,43,-1,46} {52,52,46,-1,49} {51,51,45,-1,48} {50,50,44,-1,47}
				q {50,50,44,-1,47} {51,51,45,-1,48} {54,54,49,-1,52} {53,53,47,-1,50}
				q {28,28,50,-1,53} {56,56,52,-1,55} {52,52,46,-1,49} {55,55,51,-1,54}
			}
			CTris
			{
				numTris 1
				t {52,52,46,-1,49} {49,49,43,-1,46} {55,55,51,-1,54}
			}
		}
	}
}
