// Source file: worldexportscene_world.max
//Template: C:\Program Files\Autodesk\3dsMax8\Plugins\metabase.txt  Version:
//Template: C:\Marmalade\tools\Director\data\expmetatemplate.txt  Version:

CStatic
{
	name "crate"
	pos  { -95.402298 0 -68.965515 }
	rot  { 1 0 0 0 }
	model "crate"
}
CStatic
{
	name "crate01"
	pos  { -39.292511 0 -68.965515 }
	rot  { 1 0 0 0 }
	model "crate"
}
CStatic
{
	name "crate02"
	pos  { 17.476074 0 -68.965515 }
	rot  { 1 0 0 0 }
	model "crate"
}
CStatic
{
	name "crate03"
	pos  { -10.921572 0 -12.944691 }
	rot  { 1 0 0 0 }
	model "crate"
}
CStatic
{
	name "crate04"
	pos  { -67.61731 0 -12.944691 }
	rot  { 1 0 0 0 }
	model "crate"
}
CStatic
{
	name "crate05"
	pos  { -69.648361 50.162781 -45.952454 }
	rot  { 1 0 0 0 }
	model "crate"
}
CStatic
{
	name "crate06"
	pos  { -12.177094 50.162781 -45.952454 }
	rot  { 1 0 0 0 }
	model "crate"
}
CStatic
{
	name "crate07"
	pos  { -10.921572 0 79.718033 }
	rot  { 1 0 0 0 }
	model "crate"
}
CStatic
{
	name "apple"
	pos  { -17.551701 52.831043 81.735695 }
	rot  { 1 0 0 0 }
	model "apple"
}
CStatic
{
	name "bowl"
	pos  { -10.476925 50.104721 80.457764 }
	rot  { 1 0 0 0 }
	model "bowl"
}
CStatic
{
	name "apple01"
	pos  { -10.239782 52.831043 75.775948 }
	rot  { 0.853806 -0.181482 -0.477271 0.101447 }
	model "apple"
}
CStatic
{
	name "apple02"
	pos  { -6.463863 52.831043 80.903793 }
	rot  { 0.748308 0.26499 -0.573244 -0.202996 }
	model "apple"
}
