// Source file: C:/dev/sdk/main/sdk_examples/ArtAssets/OpenGLES/maya7/bike_v2.mb
CIwModel
{
	name "swingarmFront"
	CMesh
	{
		name "swingarmFront"
		scale 10
		CVerts
		{
			numVerts 132
			v {-299.59930,741.44501,410.73041}
			v {-274.21088,805.26184,382.86664}
			v {-339.05090,765.88043,389.96625}
			v {-338.16238,754.19678,389.01166}
			v {-309.17328,830.25940,366.42621}
			v {-316.78748,824.35425,374.24603}
			v {-333.55148,768.84491,384.55365}
			v {-332.55829,755.79620,383.48676}
			v {-307.98639,821.55029,363.99701}
			v {-316.51007,813.60291,372.52240}
			v {-314.77936,771.83044,420.93793}
			v {-313.88068,760.38055,419.98090}
			v {-303.90295,800.39856,413.25726}
			v {-297.18948,806.29517,406.47992}
			v {-270.91467,828.34320,322.62738}
			v {-245.24216,818.36060,592.59320}
			v {-260.16129,740.38727,628.96039}
			v {-314.81409,717.43591,371.05267}
			v {-311.19904,726.16943,365.63763}
			v {-274.10284,819.97803,324.79535}
			v {-245.95459,814.63470,594.32904}
			v {-259.23264,745.23987,626.69720}
			v {-271.22269,503.81607,539.24359}
			v {-249.69818,539.65320,729.54639}
			v {-223.29285,537.93042,746.62158}
			v {-242.00027,491.02570,532.73969}
			v {-310.80002,595.75488,473.90179}
			v {-280.74631,586.69983,464.80511}
			v {-287.71133,704.91272,349.64886}
			v {-317.32385,713.96362,364.60736}
			v {-261.11710,628.51257,691.07471}
			v {-240.10101,822.25952,300.51556}
			v {-270.48578,831.69739,313.19867}
			v {-218.41675,818.20404,618.71869}
			v {-234.61594,626.60858,708.70166}
			v {-234.66690,736.65314,657.73242}
			v {-200.26398,914.89136,568.92865}
			v {-210.86914,892.03003,582.71527}
			v {-198.24646,922.88330,541.41156}
			v {-166.99707,915.77209,562.41742}
			v {-181.19080,885.40314,602.78241}
			v {-169.51691,907.62268,589.50238}
			v {-214.48425,923.96790,325.77679}
			v {-208.24051,931.27533,349.86371}
			v {-227.25456,903.90961,315.43011}
			v {-184.63387,918.97858,315.64008}
			v {-196.94664,898.54889,304.86859}
			v {-178.65517,926.20178,340.07367}
			v {-212.76169,246.04395,680.07617}
			v {-216.05392,254.24677,665.39844}
			v {-211.66595,250.64531,696.54468}
			v {-184.24362,223.78740,680.07495}
			v {-183.65707,228.29759,696.68384}
			v {-187.15988,232.12030,665.29102}
			v {-219.20593,353.94775,794.90894}
			v {-217.31293,334.87473,782.17944}
			v {-223.18878,376.16333,790.43750}
			v {-196.26007,348.01178,813.98242}
			v {-199.83978,370.24414,809.54761}
			v {-193.99384,329.07654,801.21265}
			v {-316.06689,622.64862,451.85834}
			v {-286.10153,613.59448,441.58002}
			v {-235.80688,656.57275,695.46191}
			v {-262.32025,658.43719,677.79590}
			v {-258.96759,738.32764,638.38666}
			v {-243.12943,821.10016,599.78070}
			v {299.59930,741.44501,410.73041}
			v {274.21097,805.26184,382.86664}
			v {339.05090,765.88043,389.96625}
			v {338.16238,754.19678,389.01166}
			v {309.17328,830.25940,366.42621}
			v {316.78741,824.35425,374.24603}
			v {333.55148,768.84491,384.55365}
			v {332.55829,755.79620,383.48676}
			v {307.98645,821.55029,363.99701}
			v {316.51016,813.60291,372.52240}
			v {314.77936,771.83044,420.93793}
			v {313.88077,760.38055,419.98090}
			v {303.90289,800.39856,413.25726}
			v {297.18948,806.29517,406.47992}
			v {270.91467,828.34320,322.62738}
			v {245.24216,818.36060,592.59320}
			v {260.16113,740.38727,628.96039}
			v {314.81400,717.43591,371.05267}
			v {311.19904,726.16943,365.63763}
			v {274.10284,819.97803,324.79535}
			v {245.95459,814.63470,594.32904}
			v {259.23279,745.23987,626.69720}
			v {271.22269,503.81607,539.24359}
			v {249.69818,539.65320,729.54639}
			v {223.29285,537.93042,746.62158}
			v {242.00027,491.02570,532.73969}
			v {310.80002,595.75488,473.90179}
			v {280.74631,586.69983,464.80511}
			v {287.71133,704.91272,349.64886}
			v {317.32376,713.96362,364.60736}
			v {261.11694,628.51257,691.07471}
			v {240.10101,822.25952,300.51556}
			v {270.48569,831.69739,313.19867}
			v {218.41675,818.20404,618.71869}
			v {234.61578,626.60858,708.70166}
			v {234.66675,736.65314,657.73242}
			v {200.26398,914.89136,568.92865}
			v {210.86914,892.03003,582.71527}
			v {198.24646,922.88330,541.41156}
			v {166.99707,915.77209,562.41742}
			v {181.19080,885.40314,602.78241}
			v {169.51691,907.62268,589.50238}
			v {214.48433,923.96790,325.77679}
			v {208.24051,931.27533,349.86371}
			v {227.25464,903.90961,315.43011}
			v {184.63379,918.97858,315.64008}
			v {196.94672,898.54889,304.86859}
			v {178.65517,926.20178,340.07367}
			v {212.76169,246.04395,680.07617}
			v {216.05377,254.24677,665.39844}
			v {211.66595,250.64531,696.54468}
			v {184.24362,223.78740,680.07495}
			v {183.65707,228.29759,696.68384}
			v {187.15988,232.12030,665.29102}
			v {219.20593,353.94775,794.90894}
			v {217.31293,334.87473,782.17944}
			v {223.18878,376.16333,790.43750}
			v {196.26007,348.01178,813.98242}
			v {199.83978,370.24414,809.54761}
			v {193.99384,329.07654,801.21265}
			v {316.06689,622.64862,451.85834}
			v {286.10153,613.59448,441.58002}
			v {235.80688,656.57275,695.46191}
			v {262.32025,658.43719,677.79590}
			v {258.96744,738.32764,638.38666}
			v {243.12943,821.10016,599.78070}
		}
		CVertNorms
		{
			numVertNorms 124
			vn {-0.92678,0.19753,0.31947}
			vn {-0.76999,0.57512,0.27632}
			vn {0.08302,0.99613,0.02894}
			vn {-0.28904,0.94756,0.13631}
			vn {-0.91087,-0.30134,0.28198}
			vn {-0.77264,-0.59666,0.21683}
			vn {-0.70768,-0.04925,-0.70481}
			vn {-0.71053,-0.10304,-0.69608}
			vn {-0.74909,0.09782,-0.65520}
			vn {-0.74668,0.09160,-0.65884}
			vn {-0.71364,0.04799,-0.69887}
			vn {-0.73371,0.08829,-0.67370}
			vn {0.62131,0.67656,-0.39526}
			vn {-0.30881,-0.91998,-0.24138}
			vn {0.82111,-0.41731,-0.38940}
			vn {-0.67193,-0.01394,-0.74049}
			vn {0.87988,0.10621,-0.46317}
			vn {0.37093,-0.84178,-0.39220}
			vn {0.97957,0.15472,-0.12848}
			vn {0.98699,0.14612,-0.06713}
			vn {0.98228,0.16611,-0.08681}
			vn {-0.59036,-0.55284,0.58808}
			vn {-0.58462,-0.70254,0.40576}
			vn {-0.50473,-0.64816,-0.57020}
			vn {-0.39560,-0.56255,-0.72598}
			vn {-0.59264,0.13380,0.79428}
			vn {-0.53256,0.25063,0.80843}
			vn {-0.43109,-0.63065,-0.64532}
			vn {-0.47284,-0.42024,-0.77448}
			vn {-0.97531,-0.06657,0.21055}
			vn {-0.97609,-0.15125,0.15609}
			vn {-0.38975,0.01515,-0.92080}
			vn {-0.87300,0.48250,0.07119}
			vn {-0.87517,0.47719,0.07982}
			vn {-0.50160,0.43487,0.74785}
			vn {-0.41413,0.51671,0.74934}
			vn {0.90442,-0.41871,-0.08190}
			vn {0.86909,-0.49000,-0.06772}
			vn {0.86692,-0.49383,-0.06777}
			vn {-0.24941,0.38661,-0.88788}
			vn {-0.50945,0.30779,0.80357}
			vn {0.98049,0.07961,-0.17973}
			vn {-0.40553,-0.63510,-0.65742}
			vn {-0.52629,0.41342,0.74304}
			vn {0.96345,-0.23365,-0.13104}
			vn {-0.51679,0.35684,0.77820}
			vn {0.98213,-0.06480,-0.17668}
			vn {0.12739,0.98262,-0.13503}
			vn {0.11159,0.98046,0.16199}
			vn {-0.16719,0.82886,0.53390}
			vn {-0.06816,0.79887,-0.59762}
			vn {0.86569,-0.49586,-0.06866}
			vn {0.87003,-0.48821,-0.06856}
			vn {-0.98155,-0.15572,0.11098}
			vn {-0.61565,-0.78741,-0.03114}
			vn {-0.65306,-0.22447,0.72328}
			vn {0.97808,0.18965,-0.08604}
			vn {-0.97981,-0.16948,0.10607}
			vn {0.98763,0.14970,-0.04671}
			vn {-0.90449,0.41176,0.11111}
			vn {-0.97303,0.09323,0.21102}
			vn {-0.95241,0.25535,0.16649}
			vn {0.92678,0.19752,0.31947}
			vn {0.76999,0.57512,0.27632}
			vn {-0.08302,0.99613,0.02894}
			vn {0.28904,0.94756,0.13631}
			vn {0.91086,-0.30135,0.28198}
			vn {0.77264,-0.59667,0.21683}
			vn {0.70768,-0.04925,-0.70481}
			vn {0.71053,-0.10304,-0.69608}
			vn {0.74909,0.09783,-0.65520}
			vn {0.74668,0.09160,-0.65884}
			vn {0.71364,0.04799,-0.69886}
			vn {0.73372,0.08830,-0.67369}
			vn {-0.62131,0.67656,-0.39526}
			vn {0.30881,-0.91998,-0.24138}
			vn {-0.82111,-0.41731,-0.38940}
			vn {0.67193,-0.01394,-0.74049}
			vn {-0.87988,0.10621,-0.46317}
			vn {-0.37093,-0.84178,-0.39220}
			vn {-0.97957,0.15472,-0.12848}
			vn {-0.98228,0.16611,-0.08681}
			vn {-0.98699,0.14612,-0.06713}
			vn {0.59036,-0.55284,0.58808}
			vn {0.58463,-0.70254,0.40576}
			vn {0.50473,-0.64816,-0.57020}
			vn {0.39560,-0.56255,-0.72597}
			vn {0.59264,0.13380,0.79428}
			vn {0.53256,0.25063,0.80843}
			vn {0.43109,-0.63065,-0.64532}
			vn {0.47284,-0.42024,-0.77448}
			vn {0.97531,-0.06657,0.21055}
			vn {0.97609,-0.15125,0.15609}
			vn {0.38975,0.01515,-0.92080}
			vn {0.87300,0.48250,0.07119}
			vn {0.87517,0.47719,0.07982}
			vn {0.50160,0.43487,0.74785}
			vn {0.41413,0.51671,0.74934}
			vn {-0.90442,-0.41871,-0.08190}
			vn {-0.86692,-0.49383,-0.06777}
			vn {-0.86908,-0.49001,-0.06772}
			vn {0.24941,0.38661,-0.88788}
			vn {0.50945,0.30779,0.80357}
			vn {-0.98049,0.07961,-0.17973}
			vn {0.40553,-0.63510,-0.65742}
			vn {0.52629,0.41342,0.74304}
			vn {-0.96345,-0.23365,-0.13104}
			vn {0.51679,0.35684,0.77820}
			vn {-0.98213,-0.06480,-0.17668}
			vn {-0.12739,0.98262,-0.13503}
			vn {-0.11159,0.98046,0.16199}
			vn {0.16719,0.82886,0.53390}
			vn {0.06816,0.79887,-0.59762}
			vn {-0.86569,-0.49586,-0.06866}
			vn {-0.87003,-0.48822,-0.06856}
			vn {0.98155,-0.15572,0.11098}
			vn {0.61565,-0.78740,-0.03114}
			vn {0.65306,-0.22447,0.72328}
			vn {-0.97808,0.18965,-0.08604}
			vn {0.97981,-0.16948,0.10607}
			vn {-0.98763,0.14970,-0.04671}
			vn {0.90449,0.41176,0.11111}
			vn {0.97303,0.09323,0.21102}
			vn {0.95241,0.25535,0.16649}
		}
		CVertCols
		{
			numVertCols 1
			col {0.50000,0.50000,0.50000,1}
		}
		CUVs
		{
			setID 0
			numUVs 130
			uv {0.67658,0.16417}
			uv {0.69842,0.17934}
			uv {0.72704,0.08691}
			uv {0.70315,0.06324}
			uv {0.70403,0.20301}
			uv {0.72860,0.08729}
			uv {0.69944,0.18434}
			uv {0.70148,0.06159}
			uv {0.65375,0.16480}
			uv {0.67161,0.16283}
			uv {0.70219,0.22122}
			uv {0.70241,0.21773}
			uv {0.68554,0.22393}
			uv {0.68911,0.22668}
			uv {0.74351,0.24898}
			uv {0.73458,0.23196}
			uv {0.73137,0.23369}
			uv {0.73733,0.24833}
			uv {0.70756,0.21784}
			uv {0.70794,0.22134}
			uv {0.72829,0.22961}
			uv {0.73239,0.22734}
			uv {0.39450,0.06241}
			uv {0.39630,0.04529}
			uv {0.38271,0.04528}
			uv {0.38459,0.06240}
			uv {0.45013,0.04533}
			uv {0.42738,0.04532}
			uv {0.41649,0.06242}
			uv {0.43094,0.06243}
			uv {0.40177,0.04530}
			uv {0.39930,0.06241}
			uv {0.41229,0.06242}
			uv {0.42210,0.04531}
			uv {0.36444,0.06018}
			uv {0.36900,0.05802}
			uv {0.37453,0.04919}
			uv {0.34437,0.04877}
			uv {0.34754,0.05835}
			uv {0.35101,0.06019}
			uv {0.46220,0.16292}
			uv {0.47852,0.06693}
			uv {0.34968,0.07842}
			uv {0.34287,0.09072}
			uv {0.36700,0.15062}
			uv {0.38258,0.16091}
			uv {0.02359,0.74951}
			uv {0.03601,0.74951}
			uv {0.03601,0.69425}
			uv {0.02359,0.69425}
			uv {0.02365,0.67386}
			uv {0.03595,0.67386}
			uv {0.03589,0.56183}
			uv {0.02371,0.56183}
			uv {0.03601,0.77635}
			uv {0.02359,0.77635}
			uv {0.02359,0.85032}
			uv {0.03601,0.85032}
			uv {0.02371,0.50810}
			uv {0.03589,0.50810}
			uv {0.03589,0.46751}
			uv {0.02371,0.46751}
			uv {0.95478,0.37890}
			uv {0.85760,0.39096}
			uv {0.85178,0.43374}
			uv {0.93778,0.42623}
			uv {0.03589,0.41621}
			uv {0.02371,0.41621}
			uv {0.96766,0.21994}
			uv {0.88644,0.24658}
			uv {0.87559,0.25333}
			uv {0.87242,0.26480}
			uv {0.98573,0.22754}
			uv {0.97888,0.22018}
			uv {0.03589,0.21303}
			uv {0.02371,0.21303}
			uv {0.02371,0.24717}
			uv {0.03589,0.24717}
			uv {0.65379,0.02640}
			uv {0.59907,0.15691}
			uv {0.62943,0.16154}
			uv {0.64868,0.14996}
			uv {0.69004,0.06004}
			uv {0.68451,0.04091}
			uv {0.03589,0.38504}
			uv {0.02371,0.38504}
			uv {0.02359,0.89320}
			uv {0.03601,0.89320}
			uv {0.50508,0.16207}
			uv {0.52929,0.05487}
			uv {0.03589,0.52016}
			uv {0.02371,0.52016}
			uv {0.03601,0.99158}
			uv {0.03601,0.95101}
			uv {0.02359,0.95101}
			uv {0.02359,0.99158}
			uv {0.59722,0.02710}
			uv {0.55895,0.15940}
			uv {0.03601,0.91150}
			uv {0.02359,0.91150}
			uv {0.54424,0.04977}
			uv {0.51964,0.16161}
			uv {0.02371,0.36539}
			uv {0.03589,0.36539}
			uv {0.03589,0.27190}
			uv {0.02371,0.27190}
			uv {0.02371,0.25819}
			uv {0.03589,0.25819}
			uv {0.02371,0.37638}
			uv {0.03589,0.37638}
			uv {0.64081,0.15977}
			uv {0.69114,0.04876}
			uv {0.84530,0.51125}
			uv {0.91365,0.54855}
			uv {0.02359,0.68102}
			uv {0.03601,0.68102}
			uv {0.02359,0.76334}
			uv {0.03601,0.76334}
			uv {0.34378,0.08312}
			uv {0.84606,0.52132}
			uv {0.85382,0.52798}
			uv {0.90071,0.55384}
			uv {0.90834,0.55383}
			uv {0.37268,0.15904}
			uv {0.87363,0.29730}
			uv {0.99538,0.25828}
			uv {0.96100,0.36470}
			uv {0.85970,0.37652}
			uv {0.86701,0.33748}
			uv {0.98748,0.31500}
		}
		CSurface
		{
			material "cleanBike2_phong14"
			CQuads
			{
				numQuads 100
				q {2,0,0,-1,0} {5,1,1,-1,0} {20,1,2,-1,0} {21,0,3,-1,0}
				q {17,7,12,-1,0} {18,7,13,-1,0} {7,6,10,-1,0} {3,6,11,-1,0}
				q {4,9,15,-1,0} {8,9,16,-1,0} {19,8,17,-1,0} {14,8,14,-1,0}
				q {2,10,18,-1,0} {6,10,19,-1,0} {9,11,20,-1,0} {5,11,21,-1,0}
				q {0,12,25,-1,0} {11,12,22,-1,0} {7,12,23,-1,0} {18,12,24,-1,0}
				q {8,13,27,-1,0} {13,13,28,-1,0} {1,13,29,-1,0} {19,13,26,-1,0}
				q {6,14,30,-1,0} {10,14,31,-1,0} {12,14,32,-1,0} {9,14,33,-1,0}
				q {13,15,38,-1,0} {12,15,39,-1,0} {10,15,34,-1,0} {11,15,35,-1,0}
				q {2,10,18,-1,0} {3,6,11,-1,0} {7,6,10,-1,0} {6,10,19,-1,0}
				q {8,9,16,-1,0} {4,9,15,-1,0} {5,11,21,-1,0} {9,11,20,-1,0}
				q {11,16,22,-1,0} {10,16,31,-1,0} {6,16,30,-1,0} {7,16,23,-1,0}
				q {9,17,33,-1,0} {12,17,32,-1,0} {13,17,28,-1,0} {8,17,27,-1,0}
				q {3,4,9,-1,0} {2,0,0,-1,0} {21,0,3,-1,0} {16,4,7,-1,0}
				q {5,1,1,-1,0} {4,3,6,-1,0} {15,3,5,-1,0} {20,1,2,-1,0}
				q {52,20,43,-1,0} {59,19,44,-1,0} {58,19,45,-1,0} {24,18,40,-1,0}
				q {50,22,49,-1,0} {55,21,46,-1,0} {59,21,47,-1,0} {52,22,48,-1,0}
				q {25,24,52,-1,0} {22,24,53,-1,0} {49,23,50,-1,0} {53,23,51,-1,0}
				q {56,25,55,-1,0} {23,26,56,-1,0} {24,26,57,-1,0} {58,25,54,-1,0}
				q {29,28,61,-1,0} {60,27,58,-1,0} {61,27,59,-1,0} {28,28,60,-1,0}
				q {30,29,63,-1,0} {23,30,64,-1,0} {22,30,65,-1,0} {26,29,62,-1,0}
				q {28,28,60,-1,0} {31,31,66,-1,0} {32,31,67,-1,0} {29,28,61,-1,0}
				q {42,32,73,-1,0} {43,32,68,-1,0} {38,32,69,-1,0} {44,33,72,-1,0}
				q {33,34,74,-1,0} {65,34,75,-1,0} {37,35,76,-1,0} {40,35,77,-1,0}
				q {47,37,82,-1,0} {46,37,83,-1,0} {31,36,78,-1,0} {39,38,81,-1,0}
				q {44,39,85,-1,0} {32,31,67,-1,0} {31,31,66,-1,0} {46,39,84,-1,0}
				q {23,26,56,-1,0} {30,40,86,-1,0} {34,40,87,-1,0} {24,26,57,-1,0}
				q {25,18,41,-1,0} {24,18,40,-1,0} {34,41,88,-1,0} {27,41,89,-1,0}
				q {27,42,90,-1,0} {26,42,91,-1,0} {22,24,53,-1,0} {25,24,52,-1,0}
				q {33,34,92,-1,0} {35,43,93,-1,0} {64,43,94,-1,0} {65,34,95,-1,0}
				q {28,44,96,-1,0} {35,44,97,-1,0} {33,36,79,-1,0} {31,36,78,-1,0}
				q {35,43,93,-1,0} {62,45,98,-1,0} {63,45,99,-1,0} {64,43,94,-1,0}
				q {61,46,100,-1,0} {62,46,101,-1,0} {35,44,97,-1,0} {28,44,96,-1,0}
				q {38,48,105,-1,0} {43,47,102,-1,0} {47,47,103,-1,0} {39,48,104,-1,0}
				q {41,49,107,-1,0} {40,35,77,-1,0} {37,35,76,-1,0} {36,49,106,-1,0}
				q {36,49,106,-1,0} {38,48,105,-1,0} {39,48,104,-1,0} {41,49,107,-1,0}
				q {47,47,103,-1,0} {43,47,102,-1,0} {42,50,108,-1,0} {45,50,109,-1,0}
				q {46,39,84,-1,0} {45,50,109,-1,0} {42,50,108,-1,0} {44,39,85,-1,0}
				q {23,30,64,-1,0} {56,53,112,-1,0} {49,53,113,-1,0} {22,30,65,-1,0}
				q {48,54,114,-1,0} {51,54,115,-1,0} {53,23,51,-1,0} {49,23,50,-1,0}
				q {48,54,114,-1,0} {50,22,49,-1,0} {52,22,48,-1,0} {51,54,115,-1,0}
				q {54,55,116,-1,0} {57,55,117,-1,0} {59,21,47,-1,0} {55,21,46,-1,0}
				q {58,25,54,-1,0} {57,55,117,-1,0} {54,55,116,-1,0} {56,25,55,-1,0}
				q {55,57,120,-1,0} {50,57,121,-1,0} {48,57,122,-1,0} {49,53,113,-1,0}
				q {32,59,125,-1,0} {44,33,72,-1,0} {37,33,71,-1,0} {65,59,124,-1,0}
				q {61,27,59,-1,0} {60,27,58,-1,0} {26,42,91,-1,0} {27,42,90,-1,0}
				q {27,41,89,-1,0} {34,41,88,-1,0} {62,46,101,-1,0} {61,46,100,-1,0}
				q {30,40,86,-1,0} {63,45,99,-1,0} {62,45,98,-1,0} {34,40,87,-1,0}
				q {63,60,127,-1,0} {30,29,63,-1,0} {26,29,62,-1,0} {60,60,126,-1,0}
				q {64,61,128,-1,0} {63,60,127,-1,0} {60,60,126,-1,0} {29,61,129,-1,0}
				q {65,59,124,-1,0} {64,61,128,-1,0} {29,61,129,-1,0} {32,59,125,-1,0}
				q {86,63,2,-1,0} {71,63,1,-1,0} {68,62,0,-1,0} {87,62,3,-1,0}
				q {73,68,10,-1,0} {84,69,13,-1,0} {83,69,12,-1,0} {69,68,11,-1,0}
				q {85,70,17,-1,0} {74,71,16,-1,0} {70,71,15,-1,0} {80,70,14,-1,0}
				q {75,73,20,-1,0} {72,72,19,-1,0} {68,72,18,-1,0} {71,73,21,-1,0}
				q {73,74,23,-1,0} {77,74,22,-1,0} {66,74,25,-1,0} {84,74,24,-1,0}
				q {67,75,29,-1,0} {79,75,28,-1,0} {74,75,27,-1,0} {85,75,26,-1,0}
				q {78,76,32,-1,0} {76,76,31,-1,0} {72,76,30,-1,0} {75,76,33,-1,0}
				q {76,77,34,-1,0} {78,77,39,-1,0} {79,77,38,-1,0} {77,77,35,-1,0}
				q {73,68,10,-1,0} {69,68,11,-1,0} {68,72,18,-1,0} {72,72,19,-1,0}
				q {71,73,21,-1,0} {70,71,15,-1,0} {74,71,16,-1,0} {75,73,20,-1,0}
				q {72,78,30,-1,0} {76,78,31,-1,0} {77,78,22,-1,0} {73,78,23,-1,0}
				q {79,79,28,-1,0} {78,79,32,-1,0} {75,79,33,-1,0} {74,79,27,-1,0}
				q {87,62,3,-1,0} {68,62,0,-1,0} {69,66,9,-1,0} {82,66,7,-1,0}
				q {81,65,5,-1,0} {70,65,6,-1,0} {71,63,1,-1,0} {86,63,2,-1,0}
				q {124,82,45,-1,0} {125,82,44,-1,0} {118,81,43,-1,0} {90,80,40,-1,0}
				q {125,83,47,-1,0} {121,83,46,-1,0} {116,84,49,-1,0} {118,84,48,-1,0}
				q {115,85,50,-1,0} {88,86,53,-1,0} {91,86,52,-1,0} {119,85,51,-1,0}
				q {90,88,57,-1,0} {89,88,56,-1,0} {122,87,55,-1,0} {124,87,54,-1,0}
				q {127,89,59,-1,0} {126,89,58,-1,0} {95,90,61,-1,0} {94,90,60,-1,0}
				q {88,92,65,-1,0} {89,92,64,-1,0} {96,91,63,-1,0} {92,91,62,-1,0}
				q {98,93,67,-1,0} {97,93,66,-1,0} {94,90,60,-1,0} {95,90,61,-1,0}
				q {104,94,69,-1,0} {109,94,68,-1,0} {108,94,73,-1,0} {110,95,72,-1,0}
				q {99,96,74,-1,0} {106,97,77,-1,0} {103,97,76,-1,0} {131,96,75,-1,0}
				q {97,98,78,-1,0} {112,100,83,-1,0} {113,100,82,-1,0} {105,99,81,-1,0}
				q {97,93,66,-1,0} {98,93,67,-1,0} {110,101,85,-1,0} {112,101,84,-1,0}
				q {100,102,87,-1,0} {96,102,86,-1,0} {89,88,56,-1,0} {90,88,57,-1,0}
				q {100,103,88,-1,0} {90,80,40,-1,0} {91,80,41,-1,0} {93,103,89,-1,0}
				q {88,86,53,-1,0} {92,104,91,-1,0} {93,104,90,-1,0} {91,86,52,-1,0}
				q {130,105,94,-1,0} {101,105,93,-1,0} {99,96,92,-1,0} {131,96,95,-1,0}
				q {99,98,79,-1,0} {101,106,97,-1,0} {94,106,96,-1,0} {97,98,78,-1,0}
				q {129,107,99,-1,0} {128,107,98,-1,0} {101,105,93,-1,0} {130,105,94,-1,0}
				q {101,106,97,-1,0} {128,108,101,-1,0} {127,108,100,-1,0} {94,106,96,-1,0}
				q {113,109,103,-1,0} {109,109,102,-1,0} {104,110,105,-1,0} {105,110,104,-1,0}
				q {103,97,76,-1,0} {106,97,77,-1,0} {107,111,107,-1,0} {102,111,106,-1,0}
				q {102,111,106,-1,0} {107,111,107,-1,0} {105,110,104,-1,0} {104,110,105,-1,0}
				q {108,112,108,-1,0} {109,109,102,-1,0} {113,109,103,-1,0} {111,112,109,-1,0}
				q {108,112,108,-1,0} {111,112,109,-1,0} {112,101,84,-1,0} {110,101,85,-1,0}
				q {122,115,112,-1,0} {89,92,64,-1,0} {88,92,65,-1,0} {115,115,113,-1,0}
				q {119,85,51,-1,0} {117,116,115,-1,0} {114,116,114,-1,0} {115,85,50,-1,0}
				q {118,84,48,-1,0} {116,84,49,-1,0} {114,116,114,-1,0} {117,116,115,-1,0}
				q {125,83,47,-1,0} {123,117,117,-1,0} {120,117,116,-1,0} {121,83,46,-1,0}
				q {120,117,116,-1,0} {123,117,117,-1,0} {124,87,54,-1,0} {122,87,55,-1,0}
				q {114,119,122,-1,0} {116,119,121,-1,0} {121,119,120,-1,0} {115,115,113,-1,0}
				q {103,95,71,-1,0} {110,95,72,-1,0} {98,121,125,-1,0} {131,121,124,-1,0}
				q {92,104,91,-1,0} {126,89,58,-1,0} {127,89,59,-1,0} {93,104,90,-1,0}
				q {128,108,101,-1,0} {100,103,88,-1,0} {93,103,89,-1,0} {127,108,100,-1,0}
				q {128,107,98,-1,0} {129,107,99,-1,0} {96,102,86,-1,0} {100,102,87,-1,0}
				q {92,91,62,-1,0} {96,91,63,-1,0} {129,122,127,-1,0} {126,122,126,-1,0}
				q {126,122,126,-1,0} {129,122,127,-1,0} {130,123,128,-1,0} {95,123,129,-1,0}
				q {95,123,129,-1,0} {130,123,128,-1,0} {131,121,124,-1,0} {98,121,125,-1,0}
			}
			CTris
			{
				numTris 32
				t {15,3,5,-1,0} {4,3,6,-1,0} {14,2,4,-1,0}
				t {17,5,8,-1,0} {3,4,9,-1,0} {16,4,7,-1,0}
				t {13,15,38,-1,0} {0,15,36,-1,0} {1,15,37,-1,0}
				t {13,15,38,-1,0} {11,15,35,-1,0} {0,15,36,-1,0}
				t {53,20,42,-1,0} {24,18,40,-1,0} {25,18,41,-1,0}
				t {52,20,43,-1,0} {24,18,40,-1,0} {53,20,42,-1,0}
				t {44,33,72,-1,0} {36,32,70,-1,0} {37,33,71,-1,0}
				t {44,33,72,-1,0} {38,32,69,-1,0} {36,32,70,-1,0}
				t {40,38,80,-1,0} {31,36,78,-1,0} {33,36,79,-1,0}
				t {39,38,81,-1,0} {31,36,78,-1,0} {40,38,80,-1,0}
				t {40,38,80,-1,0} {41,51,110,-1,0} {39,38,81,-1,0}
				t {46,37,83,-1,0} {47,37,82,-1,0} {45,52,111,-1,0}
				t {52,20,43,-1,0} {53,20,42,-1,0} {51,56,118,-1,0}
				t {54,57,119,-1,0} {49,53,113,-1,0} {56,53,112,-1,0}
				t {55,57,120,-1,0} {49,53,113,-1,0} {54,57,119,-1,0}
				t {58,19,45,-1,0} {59,19,44,-1,0} {57,58,123,-1,0}
				t {70,65,6,-1,0} {81,65,5,-1,0} {80,64,4,-1,0}
				t {69,66,9,-1,0} {83,67,8,-1,0} {82,66,7,-1,0}
				t {66,77,36,-1,0} {79,77,38,-1,0} {67,77,37,-1,0}
				t {77,77,35,-1,0} {79,77,38,-1,0} {66,77,36,-1,0}
				t {90,80,40,-1,0} {119,81,42,-1,0} {91,80,41,-1,0}
				t {90,80,40,-1,0} {118,81,43,-1,0} {119,81,42,-1,0}
				t {102,94,70,-1,0} {110,95,72,-1,0} {103,95,71,-1,0}
				t {104,94,69,-1,0} {110,95,72,-1,0} {102,94,70,-1,0}
				t {97,98,78,-1,0} {106,99,80,-1,0} {99,98,79,-1,0}
				t {97,98,78,-1,0} {105,99,81,-1,0} {106,99,80,-1,0}
				t {107,113,110,-1,0} {106,99,80,-1,0} {105,99,81,-1,0}
				t {113,100,82,-1,0} {112,100,83,-1,0} {111,114,111,-1,0}
				t {119,81,42,-1,0} {118,81,43,-1,0} {117,118,118,-1,0}
				t {115,115,113,-1,0} {120,119,119,-1,0} {122,115,112,-1,0}
				t {115,115,113,-1,0} {121,119,120,-1,0} {120,119,119,-1,0}
				t {125,82,44,-1,0} {124,82,45,-1,0} {123,120,123,-1,0}
			}
		}
	}
}
