// Source file: C:/dev/sdk/main/sdk_examples/ArtAssets/OpenGLES/maya7/bike_v2.mb
CIwModel
{
	name "wheelRear"
	CMesh
	{
		name "wheelRear"
		scale 10
		CVerts
		{
			numVerts 384
			v {-0.00028,372.55157,-991.71167}
			v {-0.00028,444.05609,-962.09375}
			v {-0.00028,505.45807,-914.97827}
			v {-0.00028,552.57373,-853.57690}
			v {-0.00028,582.19165,-782.07178}
			v {-0.00028,592.29382,-705.33838}
			v {-0.00028,582.19165,-628.60498}
			v {-0.00028,552.57373,-557.10107}
			v {-0.00028,505.45792,-495.69849}
			v {-0.00028,444.05609,-448.58301}
			v {-0.00028,372.55157,-418.96509}
			v {-0.00028,295.81815,-408.86255}
			v {-0.00028,219.08446,-418.96509}
			v {-0.00028,147.57994,-448.58301}
			v {-0.00028,86.17804,-495.69849}
			v {-0.00028,39.06259,-557.10107}
			v {-0.00028,9.44433,-628.60498}
			v {-0.00028,-0.65783,-705.33838}
			v {-0.00028,9.44433,-782.07178}
			v {-0.00028,39.06263,-853.57690}
			v {-0.00028,86.17807,-914.97827}
			v {-0.00028,147.58005,-962.09375}
			v {-0.00028,219.08453,-991.71167}
			v {-0.00028,295.81815,-1001.81421}
			v {-87.21890,369.42703,-980.05029}
			v {-87.21890,438.01926,-951.63843}
			v {-87.21890,496.92108,-906.44189}
			v {-87.21890,542.11780,-847.53931}
			v {-87.21890,570.53009,-778.94678}
			v {-87.21890,580.22064,-705.33838}
			v {-87.21890,570.53009,-631.72998}
			v {-87.21890,542.11780,-563.13745}
			v {-87.21890,496.92093,-504.23608}
			v {-87.21860,438.01926,-459.03833}
			v {-87.21860,369.42688,-430.62646}
			v {-87.21860,295.81808,-420.93652}
			v {-87.21860,222.20908,-430.62646}
			v {-87.21860,153.61670,-459.03833}
			v {-87.21890,94.71503,-504.23608}
			v {-87.21890,49.51826,-563.13745}
			v {-87.21890,21.10624,-631.72998}
			v {-87.21890,11.41534,-705.33838}
			v {-87.21890,21.10628,-778.94678}
			v {-87.21890,49.51830,-847.53931}
			v {-87.21890,94.71503,-906.44189}
			v {-87.21890,153.61678,-951.63843}
			v {-87.21890,222.20908,-980.05029}
			v {-87.21890,295.81815,-989.74146}
			v {-124.93985,356.91431,-933.35229}
			v {-124.93985,413.84674,-909.76953}
			v {-124.93985,462.73560,-872.25610}
			v {-124.93985,500.24948,-823.36694}
			v {-124.93985,523.83167,-766.43457}
			v {-124.93985,531.87512,-705.33838}
			v {-124.93985,523.83167,-644.24219}
			v {-124.93985,500.24948,-587.30981}
			v {-124.93985,462.73560,-538.42065}
			v {-124.93985,413.84674,-500.90723}
			v {-124.93985,356.91422,-477.32446}
			v {-124.93985,295.81815,-469.28125}
			v {-124.93985,234.72205,-477.32446}
			v {-124.93985,177.78929,-500.90723}
			v {-124.93985,128.90031,-538.42065}
			v {-124.93985,91.38647,-587.30981}
			v {-124.93985,67.80431,-644.24219}
			v {-124.93985,59.76083,-705.33838}
			v {-124.93985,67.80431,-766.43457}
			v {-124.93985,91.38647,-823.36694}
			v {-124.93985,128.90036,-872.25610}
			v {-124.93985,177.78937,-909.77075}
			v {-124.93985,234.72174,-933.35229}
			v {-124.93985,295.81815,-941.39551}
			v {-124.93985,336.17010,-855.93408}
			v {-124.93985,373.77213,-840.35913}
			v {-124.93985,406.06186,-815.58252}
			v {-124.93985,430.83878,-783.29248}
			v {-124.93985,446.41388,-745.69116}
			v {-124.93985,451.72638,-705.33838}
			v {-124.93985,446.41388,-664.98682}
			v {-124.93985,430.83878,-627.38428}
			v {-124.93985,406.06186,-595.09424}
			v {-124.93985,373.77213,-570.31763}
			v {-124.93985,336.17010,-554.74268}
			v {-124.93985,295.81815,-549.43018}
			v {-124.93985,255.46584,-554.74268}
			v {-124.93985,217.86391,-570.31763}
			v {-124.93985,185.57410,-595.09424}
			v {-124.93985,160.79759,-627.38428}
			v {-124.93985,145.22215,-664.98682}
			v {-124.93985,139.90973,-705.33838}
			v {-124.93985,145.22218,-745.69116}
			v {-124.93985,160.79759,-783.29248}
			v {-124.93985,185.57417,-815.58252}
			v {-124.93985,217.86391,-840.35913}
			v {-124.93985,255.46584,-855.93408}
			v {-124.93985,295.81815,-861.24658}
			v {-112.62173,330.69489,-835.50073}
			v {-112.62173,363.19464,-822.03882}
			v {-112.62173,391.10336,-800.62402}
			v {-112.62173,412.51801,-772.71509}
			v {-112.62173,425.98007,-740.21509}
			v {-112.62173,430.57159,-705.33838}
			v {-112.62173,425.98007,-670.46167}
			v {-112.62173,412.51801,-637.96167}
			v {-112.62173,391.10336,-610.05396}
			v {-112.62173,363.19464,-588.63916}
			v {-112.62173,330.69482,-575.17725}
			v {-112.62173,295.81815,-570.58496}
			v {-112.62173,260.94107,-575.17725}
			v {-112.62173,228.44130,-588.63916}
			v {-112.62173,200.53297,-610.05396}
			v {-112.62173,179.11795,-637.96167}
			v {-112.62173,165.65596,-670.46167}
			v {-112.62173,161.06444,-705.33838}
			v {-112.62173,165.65596,-740.21509}
			v {-112.62173,179.11795,-772.71509}
			v {-112.62173,200.53267,-800.62402}
			v {-112.62173,228.44130,-822.03882}
			v {-112.62173,260.94113,-835.50073}
			v {-112.62173,295.81815,-840.09180}
			v {-112.62173,325.16830,-814.87451}
			v {-112.62173,352.51807,-803.54639}
			v {-112.62173,376.00418,-785.52515}
			v {-112.62173,394.02542,-762.03882}
			v {-112.62173,405.35416,-734.68896}
			v {-112.62173,409.21814,-705.33838}
			v {-112.62173,405.35416,-675.98901}
			v {-112.62173,394.02542,-648.63916}
			v {-112.62173,376.00418,-625.15283}
			v {-112.62173,352.51807,-607.13159}
			v {-112.62173,325.16821,-595.80225}
			v {-112.62173,295.81815,-591.93872}
			v {-112.62173,266.46771,-595.80225}
			v {-112.62173,239.11787,-607.13159}
			v {-112.62173,215.63193,-625.15283}
			v {-112.62173,197.61061,-648.63916}
			v {-112.62173,186.28180,-675.98901}
			v {-112.62173,182.41797,-705.33838}
			v {-112.62173,186.28180,-734.68896}
			v {-112.62173,197.61061,-762.03882}
			v {-112.62173,215.63193,-785.52515}
			v {-112.62173,239.11787,-803.54639}
			v {-112.62173,266.46771,-814.87451}
			v {-112.62173,295.81815,-818.73926}
			v {-143.17593,322.55042,-805.10645}
			v {-143.17593,347.46124,-794.78784}
			v {-143.17593,368.85284,-778.37305}
			v {-143.17593,385.26672,-756.98267}
			v {-143.17593,395.58517,-732.07178}
			v {-143.17593,399.10461,-705.33838}
			v {-143.17593,395.58517,-678.60620}
			v {-143.17593,385.26672,-653.69531}
			v {-143.17593,368.85284,-632.30371}
			v {-143.17593,347.46124,-615.89014}
			v {-143.17593,322.55042,-605.57153}
			v {-143.17593,295.81815,-602.05225}
			v {-143.17593,269.08551,-605.57153}
			v {-143.17593,244.17471,-615.89014}
			v {-143.17593,222.78349,-632.30371}
			v {-143.17593,206.36923,-653.69531}
			v {-143.17593,196.05086,-678.60620}
			v {-143.17593,192.53134,-705.33838}
			v {-143.17593,196.05086,-732.07178}
			v {-143.17593,206.36923,-756.98267}
			v {-143.17593,222.78349,-778.37305}
			v {-143.17593,244.17471,-794.78784}
			v {-143.17593,269.08551,-805.10645}
			v {-143.17593,295.81815,-808.62573}
			v {-110.02347,484.68018,-894.20068}
			v {-110.02347,429.36371,-936.64697}
			v {-110.02347,364.94653,-963.32910}
			v {-110.02347,295.81815,-972.43066}
			v {-110.02347,226.68990,-963.32910}
			v {-110.02347,162.27240,-936.64697}
			v {-110.02347,106.95581,-894.20068}
			v {-110.02347,64.51009,-838.88452}
			v {-110.02347,37.82747,-774.46680}
			v {-110.02347,28.72655,-705.33838}
			v {-110.02347,37.82743,-636.20996}
			v {-110.02347,64.51009,-571.79346}
			v {-110.02347,106.95578,-516.47607}
			v {-110.02316,162.27232,-474.03101}
			v {-110.02286,226.68982,-447.34888}
			v {-110.02286,295.81815,-438.24731}
			v {-110.02286,364.94653,-447.34888}
			v {-110.02316,429.36371,-474.03101}
			v {-110.02347,484.68018,-516.47607}
			v {-110.02347,527.12585,-571.79346}
			v {-110.02347,553.80859,-636.20996}
			v {-110.02347,562.90942,-705.33838}
			v {-110.02347,553.80859,-774.46680}
			v {-110.02347,527.12585,-838.88452}
			v {-0.00028,372.55157,-991.71167}
			v {-0.00028,444.05609,-962.09375}
			v {-0.00028,505.45807,-914.97827}
			v {-0.00028,552.57373,-853.57690}
			v {-0.00028,582.19165,-782.07178}
			v {-0.00028,592.29382,-705.33838}
			v {-0.00028,582.19165,-628.60498}
			v {-0.00028,552.57373,-557.10107}
			v {-0.00028,505.45792,-495.69849}
			v {-0.00028,444.05609,-448.58301}
			v {-0.00028,372.55157,-418.96509}
			v {-0.00028,295.81815,-408.86255}
			v {-0.00028,219.08446,-418.96509}
			v {-0.00028,147.57994,-448.58301}
			v {-0.00028,86.17804,-495.69849}
			v {-0.00028,39.06259,-557.10107}
			v {-0.00028,9.44433,-628.60498}
			v {-0.00028,-0.65783,-705.33838}
			v {-0.00028,9.44433,-782.07178}
			v {-0.00028,39.06263,-853.57690}
			v {-0.00028,86.17807,-914.97827}
			v {-0.00028,147.58005,-962.09375}
			v {-0.00028,219.08453,-991.71167}
			v {-0.00028,295.81815,-1001.81421}
			v {87.21774,369.42703,-980.05029}
			v {87.21774,438.01926,-951.63843}
			v {87.21774,496.92108,-906.44189}
			v {87.21774,542.11780,-847.53931}
			v {87.21774,570.53009,-778.94678}
			v {87.21774,580.22064,-705.33838}
			v {87.21774,570.53009,-631.72998}
			v {87.21774,542.11780,-563.13745}
			v {87.21805,496.92093,-504.23608}
			v {87.21805,438.01926,-459.03833}
			v {87.21805,369.42688,-430.62646}
			v {87.21805,295.81808,-420.93652}
			v {87.21805,222.20908,-430.62646}
			v {87.21805,153.61670,-459.03833}
			v {87.21805,94.71503,-504.23608}
			v {87.21774,49.51826,-563.13745}
			v {87.21774,21.10624,-631.72998}
			v {87.21774,11.41534,-705.33838}
			v {87.21774,21.10628,-778.94678}
			v {87.21774,49.51830,-847.53931}
			v {87.21774,94.71503,-906.44189}
			v {87.21774,153.61678,-951.63843}
			v {87.21774,222.20908,-980.05029}
			v {87.21774,295.81815,-989.74146}
			v {124.93869,356.91431,-933.35229}
			v {124.93869,413.84674,-909.76953}
			v {124.93869,462.73560,-872.25610}
			v {124.93869,500.24948,-823.36694}
			v {124.93869,523.83167,-766.43457}
			v {124.93869,531.87512,-705.33838}
			v {124.93869,523.83167,-644.24219}
			v {124.93869,500.24948,-587.30981}
			v {124.93869,462.73560,-538.42065}
			v {124.93930,413.84674,-500.90723}
			v {124.93930,356.91422,-477.32446}
			v {124.93930,295.81815,-469.28125}
			v {124.93930,234.72205,-477.32446}
			v {124.93930,177.78929,-500.90723}
			v {124.93869,128.90031,-538.42065}
			v {124.93869,91.38647,-587.30981}
			v {124.93869,67.80431,-644.24219}
			v {124.93869,59.76083,-705.33838}
			v {124.93869,67.80431,-766.43457}
			v {124.93869,91.38647,-823.36694}
			v {124.93869,128.90036,-872.25610}
			v {124.93869,177.78937,-909.77075}
			v {124.93869,234.72174,-933.35229}
			v {124.93869,295.81815,-941.39551}
			v {124.93869,336.17010,-855.93408}
			v {124.93869,373.77213,-840.35913}
			v {124.93869,406.06186,-815.58252}
			v {124.93869,430.83878,-783.29248}
			v {124.93869,446.41388,-745.69116}
			v {124.93869,451.72638,-705.33838}
			v {124.93869,446.41388,-664.98682}
			v {124.93869,430.83878,-627.38428}
			v {124.93869,406.06186,-595.09424}
			v {124.93869,373.77213,-570.31763}
			v {124.93869,336.17010,-554.74268}
			v {124.93869,295.81815,-549.43018}
			v {124.93869,255.46584,-554.74268}
			v {124.93869,217.86391,-570.31763}
			v {124.93869,185.57410,-595.09424}
			v {124.93869,160.79759,-627.38428}
			v {124.93869,145.22215,-664.98682}
			v {124.93869,139.90973,-705.33838}
			v {124.93869,145.22218,-745.69116}
			v {124.93869,160.79759,-783.29248}
			v {124.93869,185.57417,-815.58252}
			v {124.93869,217.86391,-840.35913}
			v {124.93869,255.46584,-855.93408}
			v {124.93869,295.81815,-861.24658}
			v {112.62057,330.69489,-835.50073}
			v {112.62057,363.19464,-822.03882}
			v {112.62057,391.10336,-800.62402}
			v {112.62057,412.51801,-772.71509}
			v {112.62057,425.98007,-740.21509}
			v {112.62057,430.57159,-705.33838}
			v {112.62057,425.98007,-670.46167}
			v {112.62057,412.51801,-637.96167}
			v {112.62057,391.10336,-610.05396}
			v {112.62057,363.19464,-588.63916}
			v {112.62057,330.69482,-575.17725}
			v {112.62057,295.81815,-570.58496}
			v {112.62057,260.94107,-575.17725}
			v {112.62057,228.44130,-588.63916}
			v {112.62057,200.53297,-610.05396}
			v {112.62057,179.11795,-637.96167}
			v {112.62057,165.65596,-670.46167}
			v {112.62057,161.06444,-705.33838}
			v {112.62057,165.65596,-740.21509}
			v {112.62057,179.11795,-772.71509}
			v {112.62057,200.53267,-800.62402}
			v {112.62057,228.44130,-822.03882}
			v {112.62057,260.94113,-835.50073}
			v {112.62057,295.81815,-840.09180}
			v {112.62057,325.16830,-814.87451}
			v {112.62057,352.51807,-803.54639}
			v {112.62057,376.00418,-785.52515}
			v {112.62057,394.02542,-762.03882}
			v {112.62057,405.35416,-734.68896}
			v {112.62057,409.21814,-705.33838}
			v {112.62057,405.35416,-675.98901}
			v {112.62057,394.02542,-648.63916}
			v {112.62057,376.00418,-625.15283}
			v {112.62057,352.51807,-607.13159}
			v {112.62057,325.16821,-595.80225}
			v {112.62057,295.81815,-591.93872}
			v {112.62057,266.46771,-595.80225}
			v {112.62057,239.11787,-607.13159}
			v {112.62057,215.63193,-625.15283}
			v {112.62057,197.61061,-648.63916}
			v {112.62057,186.28180,-675.98901}
			v {112.62057,182.41797,-705.33838}
			v {112.62057,186.28180,-734.68896}
			v {112.62057,197.61061,-762.03882}
			v {112.62057,215.63193,-785.52515}
			v {112.62057,239.11787,-803.54639}
			v {112.62057,266.46771,-814.87451}
			v {112.62057,295.81815,-818.73926}
			v {143.17477,322.55042,-805.10645}
			v {143.17477,347.46124,-794.78784}
			v {143.17477,368.85284,-778.37305}
			v {143.17477,385.26672,-756.98267}
			v {143.17477,395.58517,-732.07178}
			v {143.17477,399.10461,-705.33838}
			v {143.17477,395.58517,-678.60620}
			v {143.17477,385.26672,-653.69531}
			v {143.17477,368.85284,-632.30371}
			v {143.17477,347.46124,-615.89014}
			v {143.17477,322.55042,-605.57153}
			v {143.17477,295.81815,-602.05225}
			v {143.17477,269.08551,-605.57153}
			v {143.17477,244.17471,-615.89014}
			v {143.17477,222.78349,-632.30371}
			v {143.17477,206.36923,-653.69531}
			v {143.17477,196.05086,-678.60620}
			v {143.17477,192.53134,-705.33838}
			v {143.17477,196.05086,-732.07178}
			v {143.17477,206.36923,-756.98267}
			v {143.17477,222.78349,-778.37305}
			v {143.17477,244.17471,-794.78784}
			v {143.17477,269.08551,-805.10645}
			v {143.17477,295.81815,-808.62573}
			v {110.02231,484.68018,-894.20068}
			v {110.02231,429.36371,-936.64697}
			v {110.02231,364.94653,-963.32910}
			v {110.02231,295.81815,-972.43066}
			v {110.02231,226.68990,-963.32910}
			v {110.02231,162.27240,-936.64697}
			v {110.02231,106.95581,-894.20068}
			v {110.02231,64.51009,-838.88452}
			v {110.02231,37.82747,-774.46680}
			v {110.02231,28.72655,-705.33838}
			v {110.02231,37.82743,-636.20996}
			v {110.02231,64.51009,-571.79346}
			v {110.02231,106.95578,-516.47607}
			v {110.02261,162.27232,-474.03101}
			v {110.02261,226.68982,-447.34888}
			v {110.02261,295.81815,-438.24731}
			v {110.02261,364.94653,-447.34888}
			v {110.02261,429.36371,-474.03101}
			v {110.02231,484.68018,-516.47607}
			v {110.02231,527.12585,-571.79346}
			v {110.02231,553.80859,-636.20996}
			v {110.02231,562.90942,-705.33838}
			v {110.02231,553.80859,-774.46680}
			v {110.02231,527.12585,-838.88452}
		}
		CVertNorms
		{
			numVertNorms 336
			vn {-0.13711,0.25638,-0.95680}
			vn {-0.38371,0.23901,-0.89199}
			vn {-0.38371,0.46173,-0.79973}
			vn {-0.13711,0.49528,-0.85785}
			vn {-0.38371,0.65298,-0.65298}
			vn {-0.13712,0.70043,-0.70043}
			vn {-0.38371,0.79973,-0.46173}
			vn {-0.13712,0.85785,-0.49528}
			vn {-0.38371,0.89199,-0.23901}
			vn {-0.13712,0.95680,-0.25637}
			vn {-0.38372,0.92345,-0.00000}
			vn {-0.13712,0.99056,-0.00000}
			vn {-0.38372,0.89199,0.23901}
			vn {-0.13712,0.95680,0.25638}
			vn {-0.38371,0.79973,0.46173}
			vn {-0.13712,0.85784,0.49528}
			vn {-0.38371,0.65298,0.65298}
			vn {-0.13712,0.70043,0.70043}
			vn {-0.38372,0.46172,0.79973}
			vn {-0.13712,0.49528,0.85784}
			vn {-0.38372,0.23900,0.89198}
			vn {-0.13712,0.25637,0.95680}
			vn {-0.38372,0.00000,0.92345}
			vn {-0.13712,0.00000,0.99055}
			vn {-0.38373,-0.23900,0.89198}
			vn {-0.13712,-0.25637,0.95680}
			vn {-0.38372,-0.46172,0.79973}
			vn {-0.13712,-0.49528,0.85784}
			vn {-0.38371,-0.65298,0.65298}
			vn {-0.13712,-0.70043,0.70043}
			vn {-0.38371,-0.79973,0.46173}
			vn {-0.13712,-0.85785,0.49528}
			vn {-0.38371,-0.89199,0.23901}
			vn {-0.13712,-0.95680,0.25638}
			vn {-0.38371,-0.92345,-0.00000}
			vn {-0.13712,-0.99055,-0.00000}
			vn {-0.38371,-0.89199,-0.23901}
			vn {-0.13712,-0.95680,-0.25637}
			vn {-0.38371,-0.79973,-0.46173}
			vn {-0.13712,-0.85785,-0.49528}
			vn {-0.38371,-0.65298,-0.65298}
			vn {-0.13712,-0.70043,-0.70043}
			vn {-0.38371,-0.46173,-0.79973}
			vn {-0.13711,-0.49528,-0.85785}
			vn {-0.38371,-0.23901,-0.89199}
			vn {-0.13711,-0.25638,-0.95680}
			vn {-0.38371,0.00000,-0.92345}
			vn {-0.13711,0.00000,-0.99056}
			vn {-0.77486,0.16361,-0.61059}
			vn {-0.77486,0.31607,-0.54744}
			vn {-0.77486,0.44699,-0.44698}
			vn {-0.77486,0.54744,-0.31607}
			vn {-0.77486,0.61059,-0.16361}
			vn {-0.77486,0.63213,0.00000}
			vn {-0.77486,0.61059,0.16361}
			vn {-0.77486,0.54744,0.31607}
			vn {-0.77486,0.44699,0.44699}
			vn {-0.77486,0.31606,0.54744}
			vn {-0.77486,0.16361,0.61059}
			vn {-0.77486,0.00000,0.63214}
			vn {-0.77486,-0.16361,0.61059}
			vn {-0.77486,-0.31606,0.54744}
			vn {-0.77486,-0.44699,0.44699}
			vn {-0.77486,-0.54745,0.31607}
			vn {-0.77486,-0.61059,0.16361}
			vn {-0.77486,-0.63213,-0.00000}
			vn {-0.77486,-0.61060,-0.16361}
			vn {-0.77486,-0.54745,-0.31607}
			vn {-0.77486,-0.44699,-0.44699}
			vn {-0.77486,-0.31607,-0.54744}
			vn {-0.77486,-0.16361,-0.61060}
			vn {-0.77486,0.00000,-0.63213}
			vn {-0.97505,0.05745,-0.21441}
			vn {-0.96552,-0.06737,0.25145}
			vn {-0.96552,-0.13016,0.22544}
			vn {-0.97505,0.11098,-0.19223}
			vn {-0.96552,-0.18407,0.18407}
			vn {-0.97505,0.15696,-0.15696}
			vn {-0.96552,-0.22544,0.13016}
			vn {-0.97505,0.19223,-0.11099}
			vn {-0.96552,-0.25145,0.06737}
			vn {-0.97505,0.21441,-0.05745}
			vn {-0.96552,-0.26032,-0.00000}
			vn {-0.97505,0.22197,0.00000}
			vn {-0.96552,-0.25145,-0.06737}
			vn {-0.97505,0.21441,0.05745}
			vn {-0.96552,-0.22544,-0.13016}
			vn {-0.97505,0.19223,0.11099}
			vn {-0.96552,-0.18407,-0.18407}
			vn {-0.97505,0.15696,0.15696}
			vn {-0.96553,-0.13015,-0.22544}
			vn {-0.97505,0.11099,0.19224}
			vn {-0.96552,-0.06737,-0.25144}
			vn {-0.97505,0.05745,0.21442}
			vn {-0.96552,-0.00000,-0.26031}
			vn {-0.97505,0.00000,0.22198}
			vn {-0.96552,0.06737,-0.25144}
			vn {-0.97505,-0.05745,0.21442}
			vn {-0.96553,0.13015,-0.22543}
			vn {-0.97505,-0.11099,0.19224}
			vn {-0.96552,0.18407,-0.18407}
			vn {-0.97505,-0.15696,0.15696}
			vn {-0.96552,0.22544,-0.13016}
			vn {-0.97505,-0.19223,0.11099}
			vn {-0.96552,0.25145,-0.06738}
			vn {-0.97505,-0.21441,0.05745}
			vn {-0.96552,0.26032,-0.00000}
			vn {-0.97505,-0.22197,-0.00000}
			vn {-0.96552,0.25145,0.06738}
			vn {-0.97505,-0.21441,-0.05745}
			vn {-0.96552,0.22544,0.13016}
			vn {-0.97505,-0.19223,-0.11099}
			vn {-0.96552,0.18407,0.18407}
			vn {-0.97505,-0.15696,-0.15696}
			vn {-0.96552,0.13016,0.22544}
			vn {-0.97505,-0.11099,-0.19223}
			vn {-0.96552,0.06737,0.25145}
			vn {-0.97505,-0.05745,-0.21441}
			vn {-0.96552,-0.00000,0.26032}
			vn {-0.97505,-0.00000,-0.22197}
			vn {-0.81226,0.15097,-0.56342}
			vn {-0.81226,0.29164,-0.50514}
			vn {-0.81227,0.41245,-0.41245}
			vn {-0.81226,0.50514,-0.29165}
			vn {-0.81226,0.56342,-0.15097}
			vn {-0.81226,0.58329,0.00000}
			vn {-0.81226,0.56342,0.15097}
			vn {-0.81226,0.50515,0.29164}
			vn {-0.81226,0.41245,0.41245}
			vn {-0.81226,0.29165,0.50514}
			vn {-0.81227,0.15097,0.56341}
			vn {-0.81227,0.00000,0.58329}
			vn {-0.81227,-0.15097,0.56341}
			vn {-0.81226,-0.29165,0.50514}
			vn {-0.81226,-0.41245,0.41245}
			vn {-0.81226,-0.50515,0.29164}
			vn {-0.81226,-0.56342,0.15097}
			vn {-0.81226,-0.58329,0.00000}
			vn {-0.81226,-0.56342,-0.15097}
			vn {-0.81226,-0.50514,-0.29165}
			vn {-0.81227,-0.41245,-0.41245}
			vn {-0.81226,-0.29165,-0.50514}
			vn {-0.81226,-0.15097,-0.56342}
			vn {-0.81226,0.00000,-0.58329}
			vn {-0.31423,0.24571,-0.91700}
			vn {-0.31424,0.47467,-0.82216}
			vn {-0.31424,0.67129,-0.67129}
			vn {-0.31424,0.82216,-0.47467}
			vn {-0.31423,0.91700,-0.24571}
			vn {-0.31424,0.94934,0.00000}
			vn {-0.31423,0.91700,0.24571}
			vn {-0.31423,0.82216,0.47467}
			vn {-0.31423,0.67129,0.67129}
			vn {-0.31424,0.47467,0.82216}
			vn {-0.31424,0.24571,0.91699}
			vn {-0.31424,0.00000,0.94934}
			vn {-0.31424,-0.24571,0.91699}
			vn {-0.31424,-0.47467,0.82216}
			vn {-0.31423,-0.67129,0.67129}
			vn {-0.31423,-0.82216,0.47467}
			vn {-0.31423,-0.91700,0.24571}
			vn {-0.31424,-0.94935,0.00000}
			vn {-0.31423,-0.91700,-0.24571}
			vn {-0.31424,-0.82215,-0.47468}
			vn {-0.31424,-0.67129,-0.67129}
			vn {-0.31424,-0.47467,-0.82216}
			vn {-0.31422,-0.24571,-0.91700}
			vn {-0.31422,0.00000,-0.94935}
			vn {0.13711,0.25638,-0.95680}
			vn {0.13711,0.49528,-0.85785}
			vn {0.38371,0.46173,-0.79973}
			vn {0.38371,0.23901,-0.89199}
			vn {0.13712,0.70043,-0.70043}
			vn {0.38371,0.65298,-0.65298}
			vn {0.13712,0.85785,-0.49528}
			vn {0.38371,0.79973,-0.46173}
			vn {0.13712,0.95680,-0.25637}
			vn {0.38372,0.89199,-0.23901}
			vn {0.13712,0.99055,-0.00000}
			vn {0.38372,0.92345,-0.00000}
			vn {0.13712,0.95680,0.25638}
			vn {0.38372,0.89198,0.23901}
			vn {0.13712,0.85784,0.49528}
			vn {0.38372,0.79973,0.46173}
			vn {0.13712,0.70043,0.70043}
			vn {0.38372,0.65298,0.65298}
			vn {0.13712,0.49528,0.85784}
			vn {0.38372,0.46173,0.79973}
			vn {0.13712,0.25637,0.95680}
			vn {0.38372,0.23900,0.89198}
			vn {0.13712,0.00000,0.99055}
			vn {0.38372,0.00000,0.92345}
			vn {0.13712,-0.25637,0.95680}
			vn {0.38372,-0.23900,0.89198}
			vn {0.13712,-0.49528,0.85784}
			vn {0.38372,-0.46173,0.79973}
			vn {0.13712,-0.70043,0.70043}
			vn {0.38372,-0.65298,0.65298}
			vn {0.13712,-0.85785,0.49528}
			vn {0.38371,-0.79973,0.46173}
			vn {0.13712,-0.95680,0.25638}
			vn {0.38371,-0.89199,0.23901}
			vn {0.13712,-0.99055,-0.00000}
			vn {0.38371,-0.92345,-0.00000}
			vn {0.13712,-0.95680,-0.25637}
			vn {0.38371,-0.89199,-0.23901}
			vn {0.13712,-0.85785,-0.49528}
			vn {0.38371,-0.79973,-0.46173}
			vn {0.13712,-0.70043,-0.70043}
			vn {0.38371,-0.65298,-0.65298}
			vn {0.13711,-0.49528,-0.85785}
			vn {0.38371,-0.46173,-0.79973}
			vn {0.13711,-0.25638,-0.95680}
			vn {0.38371,-0.23901,-0.89199}
			vn {0.13711,0.00000,-0.99056}
			vn {0.38371,0.00000,-0.92345}
			vn {0.77486,0.31607,-0.54744}
			vn {0.77486,0.16361,-0.61059}
			vn {0.77486,0.44699,-0.44698}
			vn {0.77486,0.54744,-0.31607}
			vn {0.77486,0.61059,-0.16361}
			vn {0.77486,0.63213,-0.00000}
			vn {0.77486,0.61059,0.16361}
			vn {0.77486,0.54744,0.31607}
			vn {0.77486,0.44699,0.44698}
			vn {0.77486,0.31607,0.54744}
			vn {0.77486,0.16361,0.61059}
			vn {0.77486,0.00000,0.63214}
			vn {0.77486,-0.16361,0.61059}
			vn {0.77486,-0.31607,0.54744}
			vn {0.77486,-0.44699,0.44698}
			vn {0.77486,-0.54745,0.31607}
			vn {0.77486,-0.61059,0.16361}
			vn {0.77486,-0.63213,-0.00000}
			vn {0.77486,-0.61060,-0.16361}
			vn {0.77486,-0.54745,-0.31607}
			vn {0.77486,-0.44699,-0.44699}
			vn {0.77486,-0.31607,-0.54745}
			vn {0.77486,-0.16361,-0.61060}
			vn {0.77486,0.00000,-0.63213}
			vn {0.97505,0.05745,-0.21441}
			vn {0.97505,0.11098,-0.19223}
			vn {0.96552,-0.13016,0.22544}
			vn {0.96552,-0.06737,0.25145}
			vn {0.97505,0.15696,-0.15696}
			vn {0.96552,-0.18407,0.18407}
			vn {0.97505,0.19223,-0.11099}
			vn {0.96552,-0.22544,0.13016}
			vn {0.97505,0.21441,-0.05745}
			vn {0.96552,-0.25145,0.06737}
			vn {0.97505,0.22197,-0.00000}
			vn {0.96552,-0.26032,-0.00000}
			vn {0.97505,0.21441,0.05745}
			vn {0.96552,-0.25145,-0.06737}
			vn {0.97505,0.19223,0.11099}
			vn {0.96552,-0.22544,-0.13016}
			vn {0.97505,0.15696,0.15696}
			vn {0.96552,-0.18407,-0.18407}
			vn {0.97505,0.11099,0.19223}
			vn {0.96552,-0.13015,-0.22544}
			vn {0.97505,0.05745,0.21441}
			vn {0.96552,-0.06738,-0.25145}
			vn {0.97505,0.00000,0.22198}
			vn {0.96552,-0.00000,-0.26032}
			vn {0.97505,-0.05745,0.21441}
			vn {0.96552,0.06738,-0.25145}
			vn {0.97505,-0.11099,0.19223}
			vn {0.96552,0.13015,-0.22544}
			vn {0.97505,-0.15696,0.15696}
			vn {0.96552,0.18407,-0.18407}
			vn {0.97505,-0.19223,0.11099}
			vn {0.96552,0.22544,-0.13016}
			vn {0.97505,-0.21441,0.05745}
			vn {0.96552,0.25145,-0.06738}
			vn {0.97505,-0.22197,-0.00000}
			vn {0.96552,0.26032,-0.00000}
			vn {0.97505,-0.21441,-0.05745}
			vn {0.96552,0.25145,0.06738}
			vn {0.97505,-0.19223,-0.11099}
			vn {0.96552,0.22544,0.13016}
			vn {0.97505,-0.15696,-0.15696}
			vn {0.96552,0.18407,0.18407}
			vn {0.97505,-0.11099,-0.19223}
			vn {0.96552,0.13016,0.22544}
			vn {0.97505,-0.05745,-0.21441}
			vn {0.96552,0.06737,0.25145}
			vn {0.97505,-0.00000,-0.22197}
			vn {0.96552,-0.00000,0.26032}
			vn {0.81226,0.29164,-0.50514}
			vn {0.81226,0.15097,-0.56342}
			vn {0.81227,0.41245,-0.41245}
			vn {0.81226,0.50514,-0.29165}
			vn {0.81226,0.56342,-0.15097}
			vn {0.81226,0.58329,0.00000}
			vn {0.81226,0.56342,0.15097}
			vn {0.81226,0.50515,0.29164}
			vn {0.81226,0.41245,0.41245}
			vn {0.81226,0.29165,0.50514}
			vn {0.81227,0.15097,0.56341}
			vn {0.81227,0.00000,0.58329}
			vn {0.81227,-0.15097,0.56341}
			vn {0.81226,-0.29165,0.50514}
			vn {0.81226,-0.41245,0.41245}
			vn {0.81226,-0.50515,0.29164}
			vn {0.81226,-0.56342,0.15097}
			vn {0.81226,-0.58329,0.00000}
			vn {0.81226,-0.56342,-0.15097}
			vn {0.81226,-0.50514,-0.29165}
			vn {0.81227,-0.41245,-0.41245}
			vn {0.81226,-0.29165,-0.50514}
			vn {0.81226,-0.15097,-0.56342}
			vn {0.81226,0.00000,-0.58329}
			vn {0.31424,0.47467,-0.82216}
			vn {0.31423,0.24571,-0.91700}
			vn {0.31424,0.67129,-0.67129}
			vn {0.31424,0.82216,-0.47467}
			vn {0.31423,0.91700,-0.24571}
			vn {0.31424,0.94934,0.00000}
			vn {0.31423,0.91700,0.24571}
			vn {0.31423,0.82216,0.47467}
			vn {0.31423,0.67129,0.67129}
			vn {0.31424,0.47467,0.82216}
			vn {0.31424,0.24571,0.91699}
			vn {0.31424,0.00000,0.94934}
			vn {0.31424,-0.24571,0.91699}
			vn {0.31424,-0.47467,0.82216}
			vn {0.31423,-0.67129,0.67129}
			vn {0.31423,-0.82216,0.47467}
			vn {0.31423,-0.91700,0.24571}
			vn {0.31423,-0.94935,0.00000}
			vn {0.31423,-0.91700,-0.24571}
			vn {0.31424,-0.82215,-0.47468}
			vn {0.31424,-0.67129,-0.67129}
			vn {0.31424,-0.47467,-0.82216}
			vn {0.31422,-0.24571,-0.91700}
			vn {0.31422,0.00000,-0.94935}
		}
		CVertCols
		{
			numVertCols 1
			col {0.50000,0.50000,0.50000,1}
		}
		CUVs
		{
			setID 0
			numUVs 219
			uv {0.04876,0.83003}
			uv {0.04876,0.85992}
			uv {0.08574,0.85992}
			uv {0.08574,0.83003}
			uv {0.04876,0.88981}
			uv {0.08574,0.88981}
			uv {0.04876,0.91970}
			uv {0.08574,0.91970}
			uv {0.04876,0.94959}
			uv {0.08574,0.94959}
			uv {0.04876,0.97949}
			uv {0.08574,0.97949}
			uv {0.04876,0.26208}
			uv {0.04876,0.29197}
			uv {0.08574,0.29197}
			uv {0.08574,0.26208}
			uv {0.04876,0.32186}
			uv {0.08574,0.32186}
			uv {0.04876,0.35176}
			uv {0.08574,0.35176}
			uv {0.04876,0.38165}
			uv {0.08574,0.38165}
			uv {0.04876,0.41154}
			uv {0.08574,0.41154}
			uv {0.04876,0.44143}
			uv {0.08574,0.44143}
			uv {0.04876,0.47132}
			uv {0.08574,0.47132}
			uv {0.04876,0.50121}
			uv {0.08574,0.50122}
			uv {0.04876,0.53111}
			uv {0.08574,0.53111}
			uv {0.04876,0.56100}
			uv {0.08574,0.56100}
			uv {0.04876,0.59089}
			uv {0.08574,0.59089}
			uv {0.04876,0.62078}
			uv {0.08574,0.62078}
			uv {0.04876,0.65067}
			uv {0.08574,0.65067}
			uv {0.04876,0.68057}
			uv {0.08574,0.68057}
			uv {0.04876,0.71046}
			uv {0.08574,0.71046}
			uv {0.04876,0.74035}
			uv {0.08574,0.74035}
			uv {0.04876,0.77024}
			uv {0.08574,0.77024}
			uv {0.04876,0.80013}
			uv {0.08574,0.80014}
			uv {0.09372,0.85992}
			uv {0.09372,0.83003}
			uv {0.09372,0.88981}
			uv {0.09372,0.91970}
			uv {0.09372,0.94959}
			uv {0.09372,0.97949}
			uv {0.09372,0.29197}
			uv {0.09372,0.26208}
			uv {0.09372,0.32186}
			uv {0.09372,0.35176}
			uv {0.09372,0.38165}
			uv {0.09372,0.41154}
			uv {0.09372,0.44143}
			uv {0.09372,0.47132}
			uv {0.09372,0.50122}
			uv {0.09372,0.53111}
			uv {0.09372,0.56100}
			uv {0.09372,0.59089}
			uv {0.09372,0.62078}
			uv {0.09372,0.65067}
			uv {0.09372,0.68057}
			uv {0.09372,0.71046}
			uv {0.09372,0.74035}
			uv {0.09372,0.77024}
			uv {0.09372,0.80013}
			uv {0.48221,0.76364}
			uv {0.47209,0.73922}
			uv {0.44231,0.75641}
			uv {0.44899,0.77254}
			uv {0.45600,0.71824}
			uv {0.43168,0.74256}
			uv {0.43502,0.70215}
			uv {0.41783,0.73193}
			uv {0.41060,0.69203}
			uv {0.40170,0.72525}
			uv {0.38439,0.68858}
			uv {0.38439,0.72297}
			uv {0.35818,0.69203}
			uv {0.36708,0.72525}
			uv {0.33375,0.70215}
			uv {0.35094,0.73193}
			uv {0.31278,0.71824}
			uv {0.33709,0.74256}
			uv {0.29668,0.73922}
			uv {0.32646,0.75641}
			uv {0.28657,0.76364}
			uv {0.31978,0.77254}
			uv {0.28312,0.78985}
			uv {0.31750,0.78985}
			uv {0.28657,0.81606}
			uv {0.31978,0.80716}
			uv {0.29668,0.84049}
			uv {0.32646,0.82330}
			uv {0.31278,0.86146}
			uv {0.33709,0.83715}
			uv {0.33375,0.87756}
			uv {0.35094,0.84778}
			uv {0.35818,0.88767}
			uv {0.36708,0.85446}
			uv {0.38439,0.89112}
			uv {0.38439,0.85674}
			uv {0.41060,0.88767}
			uv {0.40170,0.85446}
			uv {0.43502,0.87756}
			uv {0.41783,0.84778}
			uv {0.45600,0.86146}
			uv {0.43168,0.83715}
			uv {0.47209,0.84049}
			uv {0.44231,0.82330}
			uv {0.48221,0.81606}
			uv {0.44899,0.80716}
			uv {0.48566,0.78985}
			uv {0.45127,0.78985}
			uv {0.43445,0.76095}
			uv {0.44023,0.77489}
			uv {0.42526,0.74898}
			uv {0.41329,0.73979}
			uv {0.39935,0.73401}
			uv {0.38439,0.73204}
			uv {0.36942,0.73401}
			uv {0.35548,0.73979}
			uv {0.34351,0.74898}
			uv {0.33432,0.76095}
			uv {0.32855,0.77489}
			uv {0.32658,0.78985}
			uv {0.32855,0.80482}
			uv {0.33432,0.81876}
			uv {0.34351,0.83073}
			uv {0.35548,0.83992}
			uv {0.36942,0.84569}
			uv {0.38439,0.84766}
			uv {0.39935,0.84569}
			uv {0.41329,0.83992}
			uv {0.42526,0.83073}
			uv {0.43445,0.81876}
			uv {0.44023,0.80482}
			uv {0.44220,0.78985}
			uv {0.42652,0.76553}
			uv {0.43138,0.77726}
			uv {0.41879,0.75545}
			uv {0.40871,0.74772}
			uv {0.39698,0.74286}
			uv {0.38439,0.74120}
			uv {0.37180,0.74286}
			uv {0.36006,0.74772}
			uv {0.34999,0.75545}
			uv {0.34225,0.76553}
			uv {0.33739,0.77726}
			uv {0.33574,0.78985}
			uv {0.33739,0.80245}
			uv {0.34225,0.81418}
			uv {0.34999,0.82425}
			uv {0.36006,0.83199}
			uv {0.37180,0.83685}
			uv {0.38439,0.83850}
			uv {0.39698,0.83685}
			uv {0.40871,0.83199}
			uv {0.41879,0.82425}
			uv {0.42652,0.81418}
			uv {0.43138,0.80245}
			uv {0.43304,0.78985}
			uv {0.41443,0.77251}
			uv {0.41790,0.78087}
			uv {0.40892,0.76532}
			uv {0.40173,0.75981}
			uv {0.39337,0.75634}
			uv {0.38439,0.75516}
			uv {0.37541,0.75634}
			uv {0.36704,0.75981}
			uv {0.35985,0.76532}
			uv {0.35434,0.77251}
			uv {0.35088,0.78087}
			uv {0.34969,0.78985}
			uv {0.35088,0.79883}
			uv {0.35434,0.80720}
			uv {0.35985,0.81439}
			uv {0.36704,0.81990}
			uv {0.37541,0.82336}
			uv {0.38439,0.82455}
			uv {0.39337,0.82336}
			uv {0.40173,0.81990}
			uv {0.40892,0.81439}
			uv {0.41443,0.80720}
			uv {0.41790,0.79883}
			uv {0.41908,0.78985}
			uv {0.48149,0.73379}
			uv {0.46367,0.71057}
			uv {0.49269,0.76083}
			uv {0.49652,0.78985}
			uv {0.49269,0.81887}
			uv {0.48149,0.84592}
			uv {0.46367,0.86914}
			uv {0.44045,0.88696}
			uv {0.41341,0.89816}
			uv {0.38439,0.90198}
			uv {0.35537,0.89816}
			uv {0.32832,0.88696}
			uv {0.30510,0.86914}
			uv {0.28728,0.84592}
			uv {0.27608,0.81887}
			uv {0.27226,0.78985}
			uv {0.27608,0.76083}
			uv {0.28728,0.73379}
			uv {0.30510,0.71057}
			uv {0.32832,0.69275}
			uv {0.35537,0.68155}
			uv {0.38439,0.67773}
			uv {0.41341,0.68155}
			uv {0.44045,0.69275}
		}
		CSurface
		{
			material "phong16"
			CQuads
			{
				numQuads 336
				q {1,3,1,-1,0} {25,2,2,-1,0} {24,1,3,-1,0} {0,0,0,-1,0}
				q {2,5,4,-1,0} {26,4,5,-1,0} {25,2,2,-1,0} {1,3,1,-1,0}
				q {3,7,6,-1,0} {27,6,7,-1,0} {26,4,5,-1,0} {2,5,4,-1,0}
				q {4,9,8,-1,0} {28,8,9,-1,0} {27,6,7,-1,0} {3,7,6,-1,0}
				q {5,11,10,-1,0} {29,10,11,-1,0} {28,8,9,-1,0} {4,9,8,-1,0}
				q {6,13,13,-1,0} {30,12,14,-1,0} {29,10,15,-1,0} {5,11,12,-1,0}
				q {7,15,16,-1,0} {31,14,17,-1,0} {30,12,14,-1,0} {6,13,13,-1,0}
				q {8,17,18,-1,0} {32,16,19,-1,0} {31,14,17,-1,0} {7,15,16,-1,0}
				q {9,19,20,-1,0} {33,18,21,-1,0} {32,16,19,-1,0} {8,17,18,-1,0}
				q {10,21,22,-1,0} {34,20,23,-1,0} {33,18,21,-1,0} {9,19,20,-1,0}
				q {11,23,24,-1,0} {35,22,25,-1,0} {34,20,23,-1,0} {10,21,22,-1,0}
				q {12,25,26,-1,0} {36,24,27,-1,0} {35,22,25,-1,0} {11,23,24,-1,0}
				q {13,27,28,-1,0} {37,26,29,-1,0} {36,24,27,-1,0} {12,25,26,-1,0}
				q {14,29,30,-1,0} {38,28,31,-1,0} {37,26,29,-1,0} {13,27,28,-1,0}
				q {15,31,32,-1,0} {39,30,33,-1,0} {38,28,31,-1,0} {14,29,30,-1,0}
				q {16,33,34,-1,0} {40,32,35,-1,0} {39,30,33,-1,0} {15,31,32,-1,0}
				q {17,35,36,-1,0} {41,34,37,-1,0} {40,32,35,-1,0} {16,33,34,-1,0}
				q {18,37,38,-1,0} {42,36,39,-1,0} {41,34,37,-1,0} {17,35,36,-1,0}
				q {19,39,40,-1,0} {43,38,41,-1,0} {42,36,39,-1,0} {18,37,38,-1,0}
				q {20,41,42,-1,0} {44,40,43,-1,0} {43,38,41,-1,0} {19,39,40,-1,0}
				q {21,43,44,-1,0} {45,42,45,-1,0} {44,40,43,-1,0} {20,41,42,-1,0}
				q {22,45,46,-1,0} {46,44,47,-1,0} {45,42,45,-1,0} {21,43,44,-1,0}
				q {23,47,48,-1,0} {47,46,49,-1,0} {46,44,47,-1,0} {22,45,46,-1,0}
				q {0,0,0,-1,0} {24,1,3,-1,0} {47,46,49,-1,0} {23,47,48,-1,0}
				q {25,2,2,-1,0} {169,49,50,-1,0} {170,48,51,-1,0} {24,1,3,-1,0}
				q {26,4,5,-1,0} {168,50,52,-1,0} {169,49,50,-1,0} {25,2,2,-1,0}
				q {27,6,7,-1,0} {191,51,53,-1,0} {168,50,52,-1,0} {26,4,5,-1,0}
				q {28,8,9,-1,0} {190,52,54,-1,0} {191,51,53,-1,0} {27,6,7,-1,0}
				q {29,10,11,-1,0} {189,53,55,-1,0} {190,52,54,-1,0} {28,8,9,-1,0}
				q {30,12,14,-1,0} {188,54,56,-1,0} {189,53,57,-1,0} {29,10,15,-1,0}
				q {31,14,17,-1,0} {187,55,58,-1,0} {188,54,56,-1,0} {30,12,14,-1,0}
				q {32,16,19,-1,0} {186,56,59,-1,0} {187,55,58,-1,0} {31,14,17,-1,0}
				q {33,18,21,-1,0} {185,57,60,-1,0} {186,56,59,-1,0} {32,16,19,-1,0}
				q {34,20,23,-1,0} {184,58,61,-1,0} {185,57,60,-1,0} {33,18,21,-1,0}
				q {35,22,25,-1,0} {183,59,62,-1,0} {184,58,61,-1,0} {34,20,23,-1,0}
				q {36,24,27,-1,0} {182,60,63,-1,0} {183,59,62,-1,0} {35,22,25,-1,0}
				q {37,26,29,-1,0} {181,61,64,-1,0} {182,60,63,-1,0} {36,24,27,-1,0}
				q {38,28,31,-1,0} {180,62,65,-1,0} {181,61,64,-1,0} {37,26,29,-1,0}
				q {39,30,33,-1,0} {179,63,66,-1,0} {180,62,65,-1,0} {38,28,31,-1,0}
				q {40,32,35,-1,0} {178,64,67,-1,0} {179,63,66,-1,0} {39,30,33,-1,0}
				q {41,34,37,-1,0} {177,65,68,-1,0} {178,64,67,-1,0} {40,32,35,-1,0}
				q {42,36,39,-1,0} {176,66,69,-1,0} {177,65,68,-1,0} {41,34,37,-1,0}
				q {43,38,41,-1,0} {175,67,70,-1,0} {176,66,69,-1,0} {42,36,39,-1,0}
				q {44,40,43,-1,0} {174,68,71,-1,0} {175,67,70,-1,0} {43,38,41,-1,0}
				q {45,42,45,-1,0} {173,69,72,-1,0} {174,68,71,-1,0} {44,40,43,-1,0}
				q {46,44,47,-1,0} {172,70,73,-1,0} {173,69,72,-1,0} {45,42,45,-1,0}
				q {47,46,49,-1,0} {171,71,74,-1,0} {172,70,73,-1,0} {46,44,47,-1,0}
				q {24,1,3,-1,0} {170,48,51,-1,0} {171,71,74,-1,0} {47,46,49,-1,0}
				q {49,75,76,-1,0} {73,74,77,-1,0} {72,73,78,-1,0} {48,72,75,-1,0}
				q {50,77,79,-1,0} {74,76,80,-1,0} {73,74,77,-1,0} {49,75,76,-1,0}
				q {51,79,81,-1,0} {75,78,82,-1,0} {74,76,80,-1,0} {50,77,79,-1,0}
				q {52,81,83,-1,0} {76,80,84,-1,0} {75,78,82,-1,0} {51,79,81,-1,0}
				q {53,83,85,-1,0} {77,82,86,-1,0} {76,80,84,-1,0} {52,81,83,-1,0}
				q {54,85,87,-1,0} {78,84,88,-1,0} {77,82,86,-1,0} {53,83,85,-1,0}
				q {55,87,89,-1,0} {79,86,90,-1,0} {78,84,88,-1,0} {54,85,87,-1,0}
				q {56,89,91,-1,0} {80,88,92,-1,0} {79,86,90,-1,0} {55,87,89,-1,0}
				q {57,91,93,-1,0} {81,90,94,-1,0} {80,88,92,-1,0} {56,89,91,-1,0}
				q {58,93,95,-1,0} {82,92,96,-1,0} {81,90,94,-1,0} {57,91,93,-1,0}
				q {59,95,97,-1,0} {83,94,98,-1,0} {82,92,96,-1,0} {58,93,95,-1,0}
				q {60,97,99,-1,0} {84,96,100,-1,0} {83,94,98,-1,0} {59,95,97,-1,0}
				q {61,99,101,-1,0} {85,98,102,-1,0} {84,96,100,-1,0} {60,97,99,-1,0}
				q {62,101,103,-1,0} {86,100,104,-1,0} {85,98,102,-1,0} {61,99,101,-1,0}
				q {63,103,105,-1,0} {87,102,106,-1,0} {86,100,104,-1,0} {62,101,103,-1,0}
				q {64,105,107,-1,0} {88,104,108,-1,0} {87,102,106,-1,0} {63,103,105,-1,0}
				q {65,107,109,-1,0} {89,106,110,-1,0} {88,104,108,-1,0} {64,105,107,-1,0}
				q {66,109,111,-1,0} {90,108,112,-1,0} {89,106,110,-1,0} {65,107,109,-1,0}
				q {67,111,113,-1,0} {91,110,114,-1,0} {90,108,112,-1,0} {66,109,111,-1,0}
				q {68,113,115,-1,0} {92,112,116,-1,0} {91,110,114,-1,0} {67,111,113,-1,0}
				q {69,115,117,-1,0} {93,114,118,-1,0} {92,112,116,-1,0} {68,113,115,-1,0}
				q {70,117,119,-1,0} {94,116,120,-1,0} {93,114,118,-1,0} {69,115,117,-1,0}
				q {71,119,121,-1,0} {95,118,122,-1,0} {94,116,120,-1,0} {70,117,119,-1,0}
				q {48,72,75,-1,0} {72,73,78,-1,0} {95,118,122,-1,0} {71,119,121,-1,0}
				q {73,74,77,-1,0} {97,74,123,-1,0} {96,73,124,-1,0} {72,73,78,-1,0}
				q {74,76,80,-1,0} {98,76,125,-1,0} {97,74,123,-1,0} {73,74,77,-1,0}
				q {75,78,82,-1,0} {99,78,126,-1,0} {98,76,125,-1,0} {74,76,80,-1,0}
				q {76,80,84,-1,0} {100,80,127,-1,0} {99,78,126,-1,0} {75,78,82,-1,0}
				q {77,82,86,-1,0} {101,82,128,-1,0} {100,80,127,-1,0} {76,80,84,-1,0}
				q {78,84,88,-1,0} {102,84,129,-1,0} {101,82,128,-1,0} {77,82,86,-1,0}
				q {79,86,90,-1,0} {103,86,130,-1,0} {102,84,129,-1,0} {78,84,88,-1,0}
				q {80,88,92,-1,0} {104,88,131,-1,0} {103,86,130,-1,0} {79,86,90,-1,0}
				q {81,90,94,-1,0} {105,90,132,-1,0} {104,88,131,-1,0} {80,88,92,-1,0}
				q {82,92,96,-1,0} {106,92,133,-1,0} {105,90,132,-1,0} {81,90,94,-1,0}
				q {83,94,98,-1,0} {107,94,134,-1,0} {106,92,133,-1,0} {82,92,96,-1,0}
				q {84,96,100,-1,0} {108,96,135,-1,0} {107,94,134,-1,0} {83,94,98,-1,0}
				q {85,98,102,-1,0} {109,98,136,-1,0} {108,96,135,-1,0} {84,96,100,-1,0}
				q {86,100,104,-1,0} {110,100,137,-1,0} {109,98,136,-1,0} {85,98,102,-1,0}
				q {87,102,106,-1,0} {111,102,138,-1,0} {110,100,137,-1,0} {86,100,104,-1,0}
				q {88,104,108,-1,0} {112,104,139,-1,0} {111,102,138,-1,0} {87,102,106,-1,0}
				q {89,106,110,-1,0} {113,106,140,-1,0} {112,104,139,-1,0} {88,104,108,-1,0}
				q {90,108,112,-1,0} {114,108,141,-1,0} {113,106,140,-1,0} {89,106,110,-1,0}
				q {91,110,114,-1,0} {115,110,142,-1,0} {114,108,141,-1,0} {90,108,112,-1,0}
				q {92,112,116,-1,0} {116,112,143,-1,0} {115,110,142,-1,0} {91,110,114,-1,0}
				q {93,114,118,-1,0} {117,114,144,-1,0} {116,112,143,-1,0} {92,112,116,-1,0}
				q {94,116,120,-1,0} {118,116,145,-1,0} {117,114,144,-1,0} {93,114,118,-1,0}
				q {95,118,122,-1,0} {119,118,146,-1,0} {118,116,145,-1,0} {94,116,120,-1,0}
				q {72,73,78,-1,0} {96,73,124,-1,0} {119,118,146,-1,0} {95,118,122,-1,0}
				q {97,74,123,-1,0} {121,121,147,-1,0} {120,120,148,-1,0} {96,73,124,-1,0}
				q {98,76,125,-1,0} {122,122,149,-1,0} {121,121,147,-1,0} {97,74,123,-1,0}
				q {99,78,126,-1,0} {123,123,150,-1,0} {122,122,149,-1,0} {98,76,125,-1,0}
				q {100,80,127,-1,0} {124,124,151,-1,0} {123,123,150,-1,0} {99,78,126,-1,0}
				q {101,82,128,-1,0} {125,125,152,-1,0} {124,124,151,-1,0} {100,80,127,-1,0}
				q {102,84,129,-1,0} {126,126,153,-1,0} {125,125,152,-1,0} {101,82,128,-1,0}
				q {103,86,130,-1,0} {127,127,154,-1,0} {126,126,153,-1,0} {102,84,129,-1,0}
				q {104,88,131,-1,0} {128,128,155,-1,0} {127,127,154,-1,0} {103,86,130,-1,0}
				q {105,90,132,-1,0} {129,129,156,-1,0} {128,128,155,-1,0} {104,88,131,-1,0}
				q {106,92,133,-1,0} {130,130,157,-1,0} {129,129,156,-1,0} {105,90,132,-1,0}
				q {107,94,134,-1,0} {131,131,158,-1,0} {130,130,157,-1,0} {106,92,133,-1,0}
				q {108,96,135,-1,0} {132,132,159,-1,0} {131,131,158,-1,0} {107,94,134,-1,0}
				q {109,98,136,-1,0} {133,133,160,-1,0} {132,132,159,-1,0} {108,96,135,-1,0}
				q {110,100,137,-1,0} {134,134,161,-1,0} {133,133,160,-1,0} {109,98,136,-1,0}
				q {111,102,138,-1,0} {135,135,162,-1,0} {134,134,161,-1,0} {110,100,137,-1,0}
				q {112,104,139,-1,0} {136,136,163,-1,0} {135,135,162,-1,0} {111,102,138,-1,0}
				q {113,106,140,-1,0} {137,137,164,-1,0} {136,136,163,-1,0} {112,104,139,-1,0}
				q {114,108,141,-1,0} {138,138,165,-1,0} {137,137,164,-1,0} {113,106,140,-1,0}
				q {115,110,142,-1,0} {139,139,166,-1,0} {138,138,165,-1,0} {114,108,141,-1,0}
				q {116,112,143,-1,0} {140,140,167,-1,0} {139,139,166,-1,0} {115,110,142,-1,0}
				q {117,114,144,-1,0} {141,141,168,-1,0} {140,140,167,-1,0} {116,112,143,-1,0}
				q {118,116,145,-1,0} {142,142,169,-1,0} {141,141,168,-1,0} {117,114,144,-1,0}
				q {119,118,146,-1,0} {143,143,170,-1,0} {142,142,169,-1,0} {118,116,145,-1,0}
				q {96,73,124,-1,0} {120,120,148,-1,0} {143,143,170,-1,0} {119,118,146,-1,0}
				q {121,121,147,-1,0} {145,145,171,-1,0} {144,144,172,-1,0} {120,120,148,-1,0}
				q {122,122,149,-1,0} {146,146,173,-1,0} {145,145,171,-1,0} {121,121,147,-1,0}
				q {123,123,150,-1,0} {147,147,174,-1,0} {146,146,173,-1,0} {122,122,149,-1,0}
				q {124,124,151,-1,0} {148,148,175,-1,0} {147,147,174,-1,0} {123,123,150,-1,0}
				q {125,125,152,-1,0} {149,149,176,-1,0} {148,148,175,-1,0} {124,124,151,-1,0}
				q {126,126,153,-1,0} {150,150,177,-1,0} {149,149,176,-1,0} {125,125,152,-1,0}
				q {127,127,154,-1,0} {151,151,178,-1,0} {150,150,177,-1,0} {126,126,153,-1,0}
				q {128,128,155,-1,0} {152,152,179,-1,0} {151,151,178,-1,0} {127,127,154,-1,0}
				q {129,129,156,-1,0} {153,153,180,-1,0} {152,152,179,-1,0} {128,128,155,-1,0}
				q {130,130,157,-1,0} {154,154,181,-1,0} {153,153,180,-1,0} {129,129,156,-1,0}
				q {131,131,158,-1,0} {155,155,182,-1,0} {154,154,181,-1,0} {130,130,157,-1,0}
				q {132,132,159,-1,0} {156,156,183,-1,0} {155,155,182,-1,0} {131,131,158,-1,0}
				q {133,133,160,-1,0} {157,157,184,-1,0} {156,156,183,-1,0} {132,132,159,-1,0}
				q {134,134,161,-1,0} {158,158,185,-1,0} {157,157,184,-1,0} {133,133,160,-1,0}
				q {135,135,162,-1,0} {159,159,186,-1,0} {158,158,185,-1,0} {134,134,161,-1,0}
				q {136,136,163,-1,0} {160,160,187,-1,0} {159,159,186,-1,0} {135,135,162,-1,0}
				q {137,137,164,-1,0} {161,161,188,-1,0} {160,160,187,-1,0} {136,136,163,-1,0}
				q {138,138,165,-1,0} {162,162,189,-1,0} {161,161,188,-1,0} {137,137,164,-1,0}
				q {139,139,166,-1,0} {163,163,190,-1,0} {162,162,189,-1,0} {138,138,165,-1,0}
				q {140,140,167,-1,0} {164,164,191,-1,0} {163,163,190,-1,0} {139,139,166,-1,0}
				q {141,141,168,-1,0} {165,165,192,-1,0} {164,164,191,-1,0} {140,140,167,-1,0}
				q {142,142,169,-1,0} {166,166,193,-1,0} {165,165,192,-1,0} {141,141,168,-1,0}
				q {143,143,170,-1,0} {167,167,194,-1,0} {166,166,193,-1,0} {142,142,169,-1,0}
				q {120,120,148,-1,0} {144,144,172,-1,0} {167,167,194,-1,0} {143,143,170,-1,0}
				q {168,50,196,-1,0} {50,77,79,-1,0} {49,75,76,-1,0} {169,49,195,-1,0}
				q {169,49,195,-1,0} {49,75,76,-1,0} {48,72,75,-1,0} {170,48,197,-1,0}
				q {170,48,197,-1,0} {48,72,75,-1,0} {71,119,121,-1,0} {171,71,198,-1,0}
				q {171,71,198,-1,0} {71,119,121,-1,0} {70,117,119,-1,0} {172,70,199,-1,0}
				q {172,70,199,-1,0} {70,117,119,-1,0} {69,115,117,-1,0} {173,69,200,-1,0}
				q {173,69,200,-1,0} {69,115,117,-1,0} {68,113,115,-1,0} {174,68,201,-1,0}
				q {174,68,201,-1,0} {68,113,115,-1,0} {67,111,113,-1,0} {175,67,202,-1,0}
				q {175,67,202,-1,0} {67,111,113,-1,0} {66,109,111,-1,0} {176,66,203,-1,0}
				q {176,66,203,-1,0} {66,109,111,-1,0} {65,107,109,-1,0} {177,65,204,-1,0}
				q {177,65,204,-1,0} {65,107,109,-1,0} {64,105,107,-1,0} {178,64,205,-1,0}
				q {178,64,205,-1,0} {64,105,107,-1,0} {63,103,105,-1,0} {179,63,206,-1,0}
				q {179,63,206,-1,0} {63,103,105,-1,0} {62,101,103,-1,0} {180,62,207,-1,0}
				q {180,62,207,-1,0} {62,101,103,-1,0} {61,99,101,-1,0} {181,61,208,-1,0}
				q {181,61,208,-1,0} {61,99,101,-1,0} {60,97,99,-1,0} {182,60,209,-1,0}
				q {182,60,209,-1,0} {60,97,99,-1,0} {59,95,97,-1,0} {183,59,210,-1,0}
				q {183,59,210,-1,0} {59,95,97,-1,0} {58,93,95,-1,0} {184,58,211,-1,0}
				q {184,58,211,-1,0} {58,93,95,-1,0} {57,91,93,-1,0} {185,57,212,-1,0}
				q {185,57,212,-1,0} {57,91,93,-1,0} {56,89,91,-1,0} {186,56,213,-1,0}
				q {186,56,213,-1,0} {56,89,91,-1,0} {55,87,89,-1,0} {187,55,214,-1,0}
				q {187,55,214,-1,0} {55,87,89,-1,0} {54,85,87,-1,0} {188,54,215,-1,0}
				q {188,54,215,-1,0} {54,85,87,-1,0} {53,83,85,-1,0} {189,53,216,-1,0}
				q {189,53,216,-1,0} {53,83,85,-1,0} {52,81,83,-1,0} {190,52,217,-1,0}
				q {190,52,217,-1,0} {52,81,83,-1,0} {51,79,81,-1,0} {191,51,218,-1,0}
				q {191,51,218,-1,0} {51,79,81,-1,0} {50,77,79,-1,0} {168,50,196,-1,0}
				q {216,171,3,-1,0} {217,170,2,-1,0} {193,169,1,-1,0} {192,168,0,-1,0}
				q {217,170,2,-1,0} {218,173,5,-1,0} {194,172,4,-1,0} {193,169,1,-1,0}
				q {218,173,5,-1,0} {219,175,7,-1,0} {195,174,6,-1,0} {194,172,4,-1,0}
				q {219,175,7,-1,0} {220,177,9,-1,0} {196,176,8,-1,0} {195,174,6,-1,0}
				q {220,177,9,-1,0} {221,179,11,-1,0} {197,178,10,-1,0} {196,176,8,-1,0}
				q {221,179,15,-1,0} {222,181,14,-1,0} {198,180,13,-1,0} {197,178,12,-1,0}
				q {222,181,14,-1,0} {223,183,17,-1,0} {199,182,16,-1,0} {198,180,13,-1,0}
				q {223,183,17,-1,0} {224,185,19,-1,0} {200,184,18,-1,0} {199,182,16,-1,0}
				q {224,185,19,-1,0} {225,187,21,-1,0} {201,186,20,-1,0} {200,184,18,-1,0}
				q {225,187,21,-1,0} {226,189,23,-1,0} {202,188,22,-1,0} {201,186,20,-1,0}
				q {226,189,23,-1,0} {227,191,25,-1,0} {203,190,24,-1,0} {202,188,22,-1,0}
				q {227,191,25,-1,0} {228,193,27,-1,0} {204,192,26,-1,0} {203,190,24,-1,0}
				q {228,193,27,-1,0} {229,195,29,-1,0} {205,194,28,-1,0} {204,192,26,-1,0}
				q {229,195,29,-1,0} {230,197,31,-1,0} {206,196,30,-1,0} {205,194,28,-1,0}
				q {230,197,31,-1,0} {231,199,33,-1,0} {207,198,32,-1,0} {206,196,30,-1,0}
				q {231,199,33,-1,0} {232,201,35,-1,0} {208,200,34,-1,0} {207,198,32,-1,0}
				q {232,201,35,-1,0} {233,203,37,-1,0} {209,202,36,-1,0} {208,200,34,-1,0}
				q {233,203,37,-1,0} {234,205,39,-1,0} {210,204,38,-1,0} {209,202,36,-1,0}
				q {234,205,39,-1,0} {235,207,41,-1,0} {211,206,40,-1,0} {210,204,38,-1,0}
				q {235,207,41,-1,0} {236,209,43,-1,0} {212,208,42,-1,0} {211,206,40,-1,0}
				q {236,209,43,-1,0} {237,211,45,-1,0} {213,210,44,-1,0} {212,208,42,-1,0}
				q {237,211,45,-1,0} {238,213,47,-1,0} {214,212,46,-1,0} {213,210,44,-1,0}
				q {238,213,47,-1,0} {239,215,49,-1,0} {215,214,48,-1,0} {214,212,46,-1,0}
				q {239,215,49,-1,0} {216,171,3,-1,0} {192,168,0,-1,0} {215,214,48,-1,0}
				q {362,217,51,-1,0} {361,216,50,-1,0} {217,170,2,-1,0} {216,171,3,-1,0}
				q {361,216,50,-1,0} {360,218,52,-1,0} {218,173,5,-1,0} {217,170,2,-1,0}
				q {360,218,52,-1,0} {383,219,53,-1,0} {219,175,7,-1,0} {218,173,5,-1,0}
				q {383,219,53,-1,0} {382,220,54,-1,0} {220,177,9,-1,0} {219,175,7,-1,0}
				q {382,220,54,-1,0} {381,221,55,-1,0} {221,179,11,-1,0} {220,177,9,-1,0}
				q {381,221,57,-1,0} {380,222,56,-1,0} {222,181,14,-1,0} {221,179,15,-1,0}
				q {380,222,56,-1,0} {379,223,58,-1,0} {223,183,17,-1,0} {222,181,14,-1,0}
				q {379,223,58,-1,0} {378,224,59,-1,0} {224,185,19,-1,0} {223,183,17,-1,0}
				q {378,224,59,-1,0} {377,225,60,-1,0} {225,187,21,-1,0} {224,185,19,-1,0}
				q {377,225,60,-1,0} {376,226,61,-1,0} {226,189,23,-1,0} {225,187,21,-1,0}
				q {376,226,61,-1,0} {375,227,62,-1,0} {227,191,25,-1,0} {226,189,23,-1,0}
				q {375,227,62,-1,0} {374,228,63,-1,0} {228,193,27,-1,0} {227,191,25,-1,0}
				q {374,228,63,-1,0} {373,229,64,-1,0} {229,195,29,-1,0} {228,193,27,-1,0}
				q {373,229,64,-1,0} {372,230,65,-1,0} {230,197,31,-1,0} {229,195,29,-1,0}
				q {372,230,65,-1,0} {371,231,66,-1,0} {231,199,33,-1,0} {230,197,31,-1,0}
				q {371,231,66,-1,0} {370,232,67,-1,0} {232,201,35,-1,0} {231,199,33,-1,0}
				q {370,232,67,-1,0} {369,233,68,-1,0} {233,203,37,-1,0} {232,201,35,-1,0}
				q {369,233,68,-1,0} {368,234,69,-1,0} {234,205,39,-1,0} {233,203,37,-1,0}
				q {368,234,69,-1,0} {367,235,70,-1,0} {235,207,41,-1,0} {234,205,39,-1,0}
				q {367,235,70,-1,0} {366,236,71,-1,0} {236,209,43,-1,0} {235,207,41,-1,0}
				q {366,236,71,-1,0} {365,237,72,-1,0} {237,211,45,-1,0} {236,209,43,-1,0}
				q {365,237,72,-1,0} {364,238,73,-1,0} {238,213,47,-1,0} {237,211,45,-1,0}
				q {364,238,73,-1,0} {363,239,74,-1,0} {239,215,49,-1,0} {238,213,47,-1,0}
				q {363,239,74,-1,0} {362,217,51,-1,0} {216,171,3,-1,0} {239,215,49,-1,0}
				q {264,243,78,-1,0} {265,242,77,-1,0} {241,241,76,-1,0} {240,240,75,-1,0}
				q {265,242,77,-1,0} {266,245,80,-1,0} {242,244,79,-1,0} {241,241,76,-1,0}
				q {266,245,80,-1,0} {267,247,82,-1,0} {243,246,81,-1,0} {242,244,79,-1,0}
				q {267,247,82,-1,0} {268,249,84,-1,0} {244,248,83,-1,0} {243,246,81,-1,0}
				q {268,249,84,-1,0} {269,251,86,-1,0} {245,250,85,-1,0} {244,248,83,-1,0}
				q {269,251,86,-1,0} {270,253,88,-1,0} {246,252,87,-1,0} {245,250,85,-1,0}
				q {270,253,88,-1,0} {271,255,90,-1,0} {247,254,89,-1,0} {246,252,87,-1,0}
				q {271,255,90,-1,0} {272,257,92,-1,0} {248,256,91,-1,0} {247,254,89,-1,0}
				q {272,257,92,-1,0} {273,259,94,-1,0} {249,258,93,-1,0} {248,256,91,-1,0}
				q {273,259,94,-1,0} {274,261,96,-1,0} {250,260,95,-1,0} {249,258,93,-1,0}
				q {274,261,96,-1,0} {275,263,98,-1,0} {251,262,97,-1,0} {250,260,95,-1,0}
				q {275,263,98,-1,0} {276,265,100,-1,0} {252,264,99,-1,0} {251,262,97,-1,0}
				q {276,265,100,-1,0} {277,267,102,-1,0} {253,266,101,-1,0} {252,264,99,-1,0}
				q {277,267,102,-1,0} {278,269,104,-1,0} {254,268,103,-1,0} {253,266,101,-1,0}
				q {278,269,104,-1,0} {279,271,106,-1,0} {255,270,105,-1,0} {254,268,103,-1,0}
				q {279,271,106,-1,0} {280,273,108,-1,0} {256,272,107,-1,0} {255,270,105,-1,0}
				q {280,273,108,-1,0} {281,275,110,-1,0} {257,274,109,-1,0} {256,272,107,-1,0}
				q {281,275,110,-1,0} {282,277,112,-1,0} {258,276,111,-1,0} {257,274,109,-1,0}
				q {282,277,112,-1,0} {283,279,114,-1,0} {259,278,113,-1,0} {258,276,111,-1,0}
				q {283,279,114,-1,0} {284,281,116,-1,0} {260,280,115,-1,0} {259,278,113,-1,0}
				q {284,281,116,-1,0} {285,283,118,-1,0} {261,282,117,-1,0} {260,280,115,-1,0}
				q {285,283,118,-1,0} {286,285,120,-1,0} {262,284,119,-1,0} {261,282,117,-1,0}
				q {286,285,120,-1,0} {287,287,122,-1,0} {263,286,121,-1,0} {262,284,119,-1,0}
				q {287,287,122,-1,0} {264,243,78,-1,0} {240,240,75,-1,0} {263,286,121,-1,0}
				q {288,243,124,-1,0} {289,242,123,-1,0} {265,242,77,-1,0} {264,243,78,-1,0}
				q {289,242,123,-1,0} {290,245,125,-1,0} {266,245,80,-1,0} {265,242,77,-1,0}
				q {290,245,125,-1,0} {291,247,126,-1,0} {267,247,82,-1,0} {266,245,80,-1,0}
				q {291,247,126,-1,0} {292,249,127,-1,0} {268,249,84,-1,0} {267,247,82,-1,0}
				q {292,249,127,-1,0} {293,251,128,-1,0} {269,251,86,-1,0} {268,249,84,-1,0}
				q {293,251,128,-1,0} {294,253,129,-1,0} {270,253,88,-1,0} {269,251,86,-1,0}
				q {294,253,129,-1,0} {295,255,130,-1,0} {271,255,90,-1,0} {270,253,88,-1,0}
				q {295,255,130,-1,0} {296,257,131,-1,0} {272,257,92,-1,0} {271,255,90,-1,0}
				q {296,257,131,-1,0} {297,259,132,-1,0} {273,259,94,-1,0} {272,257,92,-1,0}
				q {297,259,132,-1,0} {298,261,133,-1,0} {274,261,96,-1,0} {273,259,94,-1,0}
				q {298,261,133,-1,0} {299,263,134,-1,0} {275,263,98,-1,0} {274,261,96,-1,0}
				q {299,263,134,-1,0} {300,265,135,-1,0} {276,265,100,-1,0} {275,263,98,-1,0}
				q {300,265,135,-1,0} {301,267,136,-1,0} {277,267,102,-1,0} {276,265,100,-1,0}
				q {301,267,136,-1,0} {302,269,137,-1,0} {278,269,104,-1,0} {277,267,102,-1,0}
				q {302,269,137,-1,0} {303,271,138,-1,0} {279,271,106,-1,0} {278,269,104,-1,0}
				q {303,271,138,-1,0} {304,273,139,-1,0} {280,273,108,-1,0} {279,271,106,-1,0}
				q {304,273,139,-1,0} {305,275,140,-1,0} {281,275,110,-1,0} {280,273,108,-1,0}
				q {305,275,140,-1,0} {306,277,141,-1,0} {282,277,112,-1,0} {281,275,110,-1,0}
				q {306,277,141,-1,0} {307,279,142,-1,0} {283,279,114,-1,0} {282,277,112,-1,0}
				q {307,279,142,-1,0} {308,281,143,-1,0} {284,281,116,-1,0} {283,279,114,-1,0}
				q {308,281,143,-1,0} {309,283,144,-1,0} {285,283,118,-1,0} {284,281,116,-1,0}
				q {309,283,144,-1,0} {310,285,145,-1,0} {286,285,120,-1,0} {285,283,118,-1,0}
				q {310,285,145,-1,0} {311,287,146,-1,0} {287,287,122,-1,0} {286,285,120,-1,0}
				q {311,287,146,-1,0} {288,243,124,-1,0} {264,243,78,-1,0} {287,287,122,-1,0}
				q {312,289,148,-1,0} {313,288,147,-1,0} {289,242,123,-1,0} {288,243,124,-1,0}
				q {313,288,147,-1,0} {314,290,149,-1,0} {290,245,125,-1,0} {289,242,123,-1,0}
				q {314,290,149,-1,0} {315,291,150,-1,0} {291,247,126,-1,0} {290,245,125,-1,0}
				q {315,291,150,-1,0} {316,292,151,-1,0} {292,249,127,-1,0} {291,247,126,-1,0}
				q {316,292,151,-1,0} {317,293,152,-1,0} {293,251,128,-1,0} {292,249,127,-1,0}
				q {317,293,152,-1,0} {318,294,153,-1,0} {294,253,129,-1,0} {293,251,128,-1,0}
				q {318,294,153,-1,0} {319,295,154,-1,0} {295,255,130,-1,0} {294,253,129,-1,0}
				q {319,295,154,-1,0} {320,296,155,-1,0} {296,257,131,-1,0} {295,255,130,-1,0}
				q {320,296,155,-1,0} {321,297,156,-1,0} {297,259,132,-1,0} {296,257,131,-1,0}
				q {321,297,156,-1,0} {322,298,157,-1,0} {298,261,133,-1,0} {297,259,132,-1,0}
				q {322,298,157,-1,0} {323,299,158,-1,0} {299,263,134,-1,0} {298,261,133,-1,0}
				q {323,299,158,-1,0} {324,300,159,-1,0} {300,265,135,-1,0} {299,263,134,-1,0}
				q {324,300,159,-1,0} {325,301,160,-1,0} {301,267,136,-1,0} {300,265,135,-1,0}
				q {325,301,160,-1,0} {326,302,161,-1,0} {302,269,137,-1,0} {301,267,136,-1,0}
				q {326,302,161,-1,0} {327,303,162,-1,0} {303,271,138,-1,0} {302,269,137,-1,0}
				q {327,303,162,-1,0} {328,304,163,-1,0} {304,273,139,-1,0} {303,271,138,-1,0}
				q {328,304,163,-1,0} {329,305,164,-1,0} {305,275,140,-1,0} {304,273,139,-1,0}
				q {329,305,164,-1,0} {330,306,165,-1,0} {306,277,141,-1,0} {305,275,140,-1,0}
				q {330,306,165,-1,0} {331,307,166,-1,0} {307,279,142,-1,0} {306,277,141,-1,0}
				q {331,307,166,-1,0} {332,308,167,-1,0} {308,281,143,-1,0} {307,279,142,-1,0}
				q {332,308,167,-1,0} {333,309,168,-1,0} {309,283,144,-1,0} {308,281,143,-1,0}
				q {333,309,168,-1,0} {334,310,169,-1,0} {310,285,145,-1,0} {309,283,144,-1,0}
				q {334,310,169,-1,0} {335,311,170,-1,0} {311,287,146,-1,0} {310,285,145,-1,0}
				q {335,311,170,-1,0} {312,289,148,-1,0} {288,243,124,-1,0} {311,287,146,-1,0}
				q {336,313,172,-1,0} {337,312,171,-1,0} {313,288,147,-1,0} {312,289,148,-1,0}
				q {337,312,171,-1,0} {338,314,173,-1,0} {314,290,149,-1,0} {313,288,147,-1,0}
				q {338,314,173,-1,0} {339,315,174,-1,0} {315,291,150,-1,0} {314,290,149,-1,0}
				q {339,315,174,-1,0} {340,316,175,-1,0} {316,292,151,-1,0} {315,291,150,-1,0}
				q {340,316,175,-1,0} {341,317,176,-1,0} {317,293,152,-1,0} {316,292,151,-1,0}
				q {341,317,176,-1,0} {342,318,177,-1,0} {318,294,153,-1,0} {317,293,152,-1,0}
				q {342,318,177,-1,0} {343,319,178,-1,0} {319,295,154,-1,0} {318,294,153,-1,0}
				q {343,319,178,-1,0} {344,320,179,-1,0} {320,296,155,-1,0} {319,295,154,-1,0}
				q {344,320,179,-1,0} {345,321,180,-1,0} {321,297,156,-1,0} {320,296,155,-1,0}
				q {345,321,180,-1,0} {346,322,181,-1,0} {322,298,157,-1,0} {321,297,156,-1,0}
				q {346,322,181,-1,0} {347,323,182,-1,0} {323,299,158,-1,0} {322,298,157,-1,0}
				q {347,323,182,-1,0} {348,324,183,-1,0} {324,300,159,-1,0} {323,299,158,-1,0}
				q {348,324,183,-1,0} {349,325,184,-1,0} {325,301,160,-1,0} {324,300,159,-1,0}
				q {349,325,184,-1,0} {350,326,185,-1,0} {326,302,161,-1,0} {325,301,160,-1,0}
				q {350,326,185,-1,0} {351,327,186,-1,0} {327,303,162,-1,0} {326,302,161,-1,0}
				q {351,327,186,-1,0} {352,328,187,-1,0} {328,304,163,-1,0} {327,303,162,-1,0}
				q {352,328,187,-1,0} {353,329,188,-1,0} {329,305,164,-1,0} {328,304,163,-1,0}
				q {353,329,188,-1,0} {354,330,189,-1,0} {330,306,165,-1,0} {329,305,164,-1,0}
				q {354,330,189,-1,0} {355,331,190,-1,0} {331,307,166,-1,0} {330,306,165,-1,0}
				q {355,331,190,-1,0} {356,332,191,-1,0} {332,308,167,-1,0} {331,307,166,-1,0}
				q {356,332,191,-1,0} {357,333,192,-1,0} {333,309,168,-1,0} {332,308,167,-1,0}
				q {357,333,192,-1,0} {358,334,193,-1,0} {334,310,169,-1,0} {333,309,168,-1,0}
				q {358,334,193,-1,0} {359,335,194,-1,0} {335,311,170,-1,0} {334,310,169,-1,0}
				q {359,335,194,-1,0} {336,313,172,-1,0} {312,289,148,-1,0} {335,311,170,-1,0}
				q {241,241,76,-1,0} {242,244,79,-1,0} {360,218,196,-1,0} {361,216,195,-1,0}
				q {240,240,75,-1,0} {241,241,76,-1,0} {361,216,195,-1,0} {362,217,197,-1,0}
				q {263,286,121,-1,0} {240,240,75,-1,0} {362,217,197,-1,0} {363,239,198,-1,0}
				q {262,284,119,-1,0} {263,286,121,-1,0} {363,239,198,-1,0} {364,238,199,-1,0}
				q {261,282,117,-1,0} {262,284,119,-1,0} {364,238,199,-1,0} {365,237,200,-1,0}
				q {260,280,115,-1,0} {261,282,117,-1,0} {365,237,200,-1,0} {366,236,201,-1,0}
				q {259,278,113,-1,0} {260,280,115,-1,0} {366,236,201,-1,0} {367,235,202,-1,0}
				q {258,276,111,-1,0} {259,278,113,-1,0} {367,235,202,-1,0} {368,234,203,-1,0}
				q {257,274,109,-1,0} {258,276,111,-1,0} {368,234,203,-1,0} {369,233,204,-1,0}
				q {256,272,107,-1,0} {257,274,109,-1,0} {369,233,204,-1,0} {370,232,205,-1,0}
				q {255,270,105,-1,0} {256,272,107,-1,0} {370,232,205,-1,0} {371,231,206,-1,0}
				q {254,268,103,-1,0} {255,270,105,-1,0} {371,231,206,-1,0} {372,230,207,-1,0}
				q {253,266,101,-1,0} {254,268,103,-1,0} {372,230,207,-1,0} {373,229,208,-1,0}
				q {252,264,99,-1,0} {253,266,101,-1,0} {373,229,208,-1,0} {374,228,209,-1,0}
				q {251,262,97,-1,0} {252,264,99,-1,0} {374,228,209,-1,0} {375,227,210,-1,0}
				q {250,260,95,-1,0} {251,262,97,-1,0} {375,227,210,-1,0} {376,226,211,-1,0}
				q {249,258,93,-1,0} {250,260,95,-1,0} {376,226,211,-1,0} {377,225,212,-1,0}
				q {248,256,91,-1,0} {249,258,93,-1,0} {377,225,212,-1,0} {378,224,213,-1,0}
				q {247,254,89,-1,0} {248,256,91,-1,0} {378,224,213,-1,0} {379,223,214,-1,0}
				q {246,252,87,-1,0} {247,254,89,-1,0} {379,223,214,-1,0} {380,222,215,-1,0}
				q {245,250,85,-1,0} {246,252,87,-1,0} {380,222,215,-1,0} {381,221,216,-1,0}
				q {244,248,83,-1,0} {245,250,85,-1,0} {381,221,216,-1,0} {382,220,217,-1,0}
				q {243,246,81,-1,0} {244,248,83,-1,0} {382,220,217,-1,0} {383,219,218,-1,0}
				q {242,244,79,-1,0} {243,246,81,-1,0} {383,219,218,-1,0} {360,218,196,-1,0}
			}
		}
	}
}
