// Source file: C:/Dev/sdk/main/sdk_examples/ArtAssets/combatEva/Maya7/combatEva_rig.mb
CIwModel
{
	name "combatEva"
	CMesh
	{
		name "combatEva"
		scale 4
		CVerts
		{
			numVerts 448
			v {-10.27517,272.13895,-4.23696}
			v {-13.88569,289.26178,-2.81632}
			v {-17.68684,278.18323,-10.78640}
			v {-8.93493,280.80969,0.82347}
			v {-4.54612,293.03934,-1.51377}
			v {-4.65017,284.31879,4.09143}
			v {-13.18243,287.15604,-4.34841}
			v {0.00743,285.06970,4.33266}
			v {-7.37694,292.64023,-1.23860}
			v {0.00000,295.64389,-0.60144}
			v {7.37694,292.64020,-1.23860}
			v {4.66999,284.31879,4.09143}
			v {4.54612,293.03937,-1.51377}
			v {8.95474,280.80969,0.82349}
			v {13.18243,288.11060,-5.99332}
			v {10.27517,272.13895,-4.23696}
			v {13.88569,290.26724,-4.54898}
			v {17.68685,279.18869,-12.51906}
			v {11.63071,265.65778,-8.77508}
			v {16.49982,278.12628,-15.96771}
			v {17.05260,266.71027,-19.97041}
			v {12.66484,274.55826,-8.56380}
			v {-12.03718,265.65778,-8.77508}
			v {-16.49982,278.12625,-15.96771}
			v {-17.05260,266.71024,-19.97041}
			v {-13.07131,274.55826,-8.56380}
			v {-5.02781,249.13184,-5.08005}
			v {-20.60635,241.80794,-23.00549}
			v {-8.11756,252.62317,-13.28391}
			v {-16.99076,249.90451,-15.32165}
			v {-14.70293,246.87825,-5.82943}
			v {0.00000,248.65619,-2.94498}
			v {-0.00000,252.12192,-15.92940}
			v {-0.00000,242.53331,-21.90369}
			v {5.02781,249.13182,-5.08005}
			v {21.12982,241.71002,-22.96704}
			v {8.11755,252.62317,-13.28390}
			v {17.21244,249.86208,-15.49665}
			v {14.70293,246.87823,-5.82944}
			v {-21.15146,246.30362,-6.74825}
			v {-64.26312,227.53992,-14.51270}
			v {-65.49756,238.28220,-16.57246}
			v {-60.47940,232.63292,-21.80896}
			v {-60.92953,228.51581,-15.11994}
			v {-60.55740,231.53592,-9.52983}
			v {-61.08823,236.07465,-10.14459}
			v {-60.81945,239.48213,-18.18802}
			v {-25.33852,248.29881,-17.35940}
			v {-66.05237,231.67992,-20.11796}
			v {-57.16482,240.25964,-17.97809}
			v {-54.82983,233.67633,-21.06698}
			v {-57.71624,228.96637,-14.78652}
			v {21.02698,246.32697,-6.74073}
			v {66.11127,226.85127,-11.79438}
			v {65.79311,238.67882,-16.09819}
			v {61.05120,232.53911,-19.38788}
			v {61.15955,228.48511,-12.64635}
			v {60.51941,231.55441,-5.15883}
			v {61.08052,236.08760,-5.78721}
			v {61.20811,239.42213,-15.81894}
			v {25.63186,248.24469,-17.18761}
			v {66.49788,231.60925,-19.20103}
			v {57.61370,240.85252,-17.22664}
			v {56.41029,233.57780,-20.41826}
			v {56.97833,228.04477,-12.49692}
			v {83.89552,227.38266,-3.56121}
			v {84.38744,231.29727,-3.99137}
			v {84.27302,232.54921,-9.97377}
			v {83.56822,228.64642,-12.85801}
			v {83.49854,225.19414,-8.39583}
			v {-16.99389,237.10703,-4.37108}
			v {0.00000,235.78931,5.66901}
			v {0.00000,230.68448,-19.64954}
			v {-18.08179,233.10298,-15.97117}
			v {16.84065,237.13541,-4.43690}
			v {18.25759,233.07002,-15.97496}
			v {0.00000,200.29015,11.48932}
			v {-9.88138,202.10062,8.09599}
			v {-13.17506,185.32259,7.33549}
			v {-0.00000,181.81184,9.18350}
			v {-14.54542,191.03934,-1.70195}
			v {-12.17027,203.55365,-1.20297}
			v {-10.27242,192.37492,-7.87471}
			v {-10.63487,203.93387,-7.82536}
			v {-0.00000,203.34560,-11.08355}
			v {0.00000,192.63213,-12.35170}
			v {13.17506,185.32259,7.33549}
			v {9.88138,202.10062,8.09599}
			v {12.17027,203.55365,-1.20297}
			v {14.54542,191.03935,-1.70195}
			v {10.63487,203.93387,-7.82536}
			v {10.27242,192.37491,-7.87470}
			v {-11.39540,99.33232,-17.47464}
			v {-3.87279,96.28439,-10.59309}
			v {-17.41029,97.54100,-10.65901}
			v {-10.16213,92.79491,-3.16221}
			v {-15.22153,177.28754,6.66668}
			v {-18.73967,183.40588,-1.56963}
			v {-13.70577,184.71587,-8.79318}
			v {15.77240,177.28754,6.69321}
			v {18.73967,183.40590,-1.56963}
			v {-17.00677,228.19272,9.49203}
			v {-0.00000,227.89133,15.90006}
			v {17.00677,228.19272,9.49203}
			v {-19.30785,171.90569,-13.35605}
			v {-6.26839,152.95389,7.18929}
			v {0.00000,162.59624,5.92749}
			v {-10.64471,113.64116,-12.78892}
			v {-21.23814,155.57483,-12.43530}
			v {-6.08701,111.79219,1.24927}
			v {-0.00000,155.70633,-2.74845}
			v {-24.41686,157.50793,-0.39625}
			v {-16.48466,112.49954,-4.03118}
			v {-9.66174,148.66185,-14.51711}
			v {-2.91020,105.22576,-7.96948}
			v {-12.12412,102.46693,1.41486}
			v {-15.92071,105.75525,-6.11901}
			v {-2.57457,111.63176,-5.42572}
			v {0.00000,173.25839,-19.22499}
			v {-0.00000,156.48682,-10.75977}
			v {-11.24225,106.72991,-13.65590}
			v {-6.29193,102.62669,0.41808}
			v {-18.91762,155.71927,7.95425}
			v {-7.65842,156.39539,-18.31249}
			v {-12.37402,111.89098,1.45272}
			v {19.30785,171.90565,-13.35605}
			v {6.26839,153.61858,7.18929}
			v {19.95104,155.57481,-12.43530}
			v {9.66174,145.03346,-12.63986}
			v {7.97736,157.29948,-18.31033}
			v {3.79156,145.40903,-3.27978}
			v {7.95914,146.88029,6.20041}
			v {19.33846,146.48650,-12.79410}
			v {24.14178,157.50793,-0.39625}
			v {23.31767,146.34239,-1.33804}
			v {18.63761,155.71927,7.35125}
			v {18.53841,146.86618,7.12393}
			v {-10.28919,90.25093,-0.54387}
			v {-20.43118,68.65044,-12.74648}
			v {-21.32607,96.61355,-8.97136}
			v {-1.30848,95.16750,-8.94555}
			v {-1.09773,69.78722,-15.67162}
			v {-2.97245,66.29199,-18.24476}
			v {-9.93112,66.70964,-19.93560}
			v {-16.08716,65.49149,-14.92835}
			v {-9.60587,66.04441,-5.08511}
			v {0.89907,15.27978,-17.03292}
			v {-5.55934,18.35719,-38.27188}
			v {-11.31127,22.06508,-3.86472}
			v {-12.04413,18.91489,-38.86197}
			v {-19.60419,14.68287,-16.71632}
			v {-3.78380,21.83125,-3.72389}
			v {-7.89086,288.12936,-17.00294}
			v {0.00000,280.77814,-23.93931}
			v {-12.66948,282.51971,-16.21769}
			v {-6.14525,273.91605,5.94631}
			v {0.00495,273.09146,7.39043}
			v {0,270.79526,5.97244}
			v {-2.29475,264.25641,6.35206}
			v {-10.34950,284.97836,-6.35775}
			v {-9.74558,266.83081,-5.02383}
			v {-5.84414,259.06412,1.46631}
			v {-8.56819,267.10791,0.03496}
			v {0.00000,264.13824,-26.22941}
			v {0.00000,290.36920,-5.29027}
			v {-13.83353,264.04678,-19.40483}
			v {0.00000,259.77271,-13.30827}
			v {-6.27813,259.79822,-10.47103}
			v {-8.52015,274.79044,2.93920}
			v {-3.42103,260.88138,4.87768}
			v {-1.58101,262.23962,7.07670}
			v {-6.94394,289.11859,-5.27855}
			v {-4.47769,258.28064,-5.57117}
			v {0.00000,256.30005,-2.72925}
			v {-6.05459,272.91818,4.38313}
			v {-0.00027,260.97458,6.03705}
			v {-8.70902,272.41776,1.61218}
			v {-0.00000,256.59775,6.49891}
			v {-0.00027,260.17334,6.75341}
			v {-8.71766,270.51074,1.10224}
			v {0.00000,288.12936,-17.00293}
			v {2.29475,264.25641,6.35206}
			v {1.58101,262.23962,7.07670}
			v {0.81755,265.77386,9.13248}
			v {-0.56826,264.89368,8.87992}
			v {-0.78784,265.77386,9.13248}
			v {3.42103,260.88138,4.87768}
			v {0.59795,264.89368,8.87992}
			v {7.89086,288.12936,-17.00294}
			v {12.66948,282.51971,-16.21769}
			v {6.14525,273.91605,5.94631}
			v {10.34950,284.97836,-6.35775}
			v {9.69564,266.83081,-5.02383}
			v {5.54744,259.06412,1.46631}
			v {8.54028,267.10791,0.52806}
			v {13.83353,264.04678,-19.40483}
			v {6.27813,259.79822,-10.47103}
			v {8.52015,274.79044,2.93920}
			v {6.94394,289.11859,-5.27855}
			v {4.47769,258.28064,-5.57117}
			v {6.05459,272.91818,4.38313}
			v {8.70902,272.41776,1.61218}
			v {8.83497,270.51074,1.10224}
			v {20.23862,282.99780,-25.98143}
			v {12.61409,273.04062,-15.22138}
			v {12.11334,285.47028,-7.13042}
			v {14.95074,293.17618,-16.01490}
			v {11.62304,285.24411,-3.91548}
			v {6.96651,299.10172,-13.42013}
			v {15.72903,292.04181,-14.81979}
			v {3.95241,286.90894,1.51631}
			v {-0.00000,299.45410,-12.80460}
			v {-0.00000,287.76608,1.57740}
			v {-6.14515,295.89413,-11.75467}
			v {-4.98595,286.90894,0.13506}
			v {6.14515,295.89413,-11.75467}
			v {4.98595,286.90894,0.13506}
			v {-11.62304,285.24411,-3.91548}
			v {-6.96651,299.10172,-13.42013}
			v {-15.72903,292.04181,-14.81979}
			v {-3.95241,286.90894,1.51631}
			v {-20.23862,282.99774,-25.98143}
			v {-12.61409,273.04056,-15.22138}
			v {-12.11334,285.47021,-7.13041}
			v {-14.95074,293.17612,-16.01490}
			v {14.23342,265.33331,-20.29165}
			v {17.17809,282.70496,-24.56315}
			v {18.99670,266.39435,-25.92536}
			v {13.09315,277.80890,-15.56547}
			v {-9.51869,287.92245,-6.02166}
			v {-0.00000,292.43793,-23.46204}
			v {-14.97487,281.31219,-27.86361}
			v {0.00000,291.45663,-5.95769}
			v {0.11531,281.31219,-33.61243}
			v {9.51869,287.92245,-6.02167}
			v {14.97486,281.31219,-27.86361}
			v {-0.00000,265.08057,-32.67129}
			v {-12.40363,282.14667,-20.08589}
			v {-15.61925,263.08481,-24.22995}
			v {0.00000,288.14090,-20.81692}
			v {12.40362,282.14670,-20.08589}
			v {15.61925,263.08484,-24.89840}
			v {0.00000,296.55765,-24.26984}
			v {-11.21209,292.64319,-22.19100}
			v {11.21210,292.64316,-22.19099}
			v {-14.23342,265.33331,-20.29165}
			v {-17.17809,282.70496,-24.56316}
			v {-18.99670,266.39435,-29.98630}
			v {-13.09315,277.80890,-15.56547}
			v {3.87279,96.28439,-10.59309}
			v {11.39540,99.33232,-19.21477}
			v {17.41029,97.54099,-10.65901}
			v {10.16213,92.79491,-3.16221}
			v {18.39936,140.88103,-15.86611}
			v {4.36191,141.60776,-9.82963}
			v {2.61828,143.04198,1.32337}
			v {9.05634,143.08037,9.03852}
			v {2.30834,111.58625,-2.53322}
			v {12.10560,113.34320,-12.85670}
			v {18.60288,112.10476,-3.25305}
			v {6.82591,112.14502,4.86211}
			v {26.11638,140.62726,1.61560}
			v {12.08768,106.62923,-15.39603}
			v {19.09647,142.48051,11.63157}
			v {13.91358,112.32301,5.10222}
			v {12.71500,101.46385,3.42665}
			v {3.44868,102.77795,-7.63927}
			v {7.48836,101.63731,3.78562}
			v {28.37779,160.97052,0.38863}
			v {19.98650,161.81578,13.13665}
			v {17.10568,150.18791,-20.31016}
			v {2.28960,148.28056,-13.35749}
			v {5.42788,154.02785,10.19212}
			v {1.13480,149.35223,2.08421}
			v {10.28919,90.25093,-0.54387}
			v {20.43118,68.65044,-12.74648}
			v {21.32607,96.61355,-8.97136}
			v {1.30848,95.16750,-8.94555}
			v {1.09773,69.78722,-15.67162}
			v {2.97245,66.29199,-18.24476}
			v {9.93112,67.02868,-22.18591}
			v {16.08716,65.49149,-14.92835}
			v {9.60587,66.04441,-5.08511}
			v {-0.89907,15.27978,-17.03292}
			v {5.55934,18.35719,-38.27188}
			v {11.31127,22.06508,-3.86472}
			v {12.04413,18.91489,-38.86197}
			v {19.60419,14.68287,-16.71632}
			v {3.78380,21.83125,-3.72389}
			v {-87.11939,228.23210,-17.53956}
			v {-86.76093,231.02470,-14.79984}
			v {-85.85440,226.32747,-14.01981}
			v {-85.39117,230.64679,-10.15014}
			v {-84.87325,227.53886,-9.98191}
			v {-111.04555,222.75844,-15.15876}
			v {-110.68709,225.55104,-12.41905}
			v {-109.78055,220.85381,-11.63901}
			v {-109.31732,225.17313,-7.76934}
			v {-108.79939,222.06520,-7.60111}
			v {-120.66973,224.18953,-8.69867}
			v {-127.01665,221.88907,-5.87152}
			v {-126.33703,221.00484,-5.94929}
			v {-121.80656,220.89520,-8.09515}
			v {-134.12004,216.28305,-4.94195}
			v {-121.16885,223.52879,-12.78187}
			v {-125.82005,221.69661,-11.33441}
			v {-121.33989,221.63979,-12.77809}
			v {-125.16899,221.00070,-11.21406}
			v {-129.37740,219.75363,-10.21847}
			v {-124.37109,221.24486,0.62127}
			v {-118.14922,224.58720,-3.14497}
			v {-125.07687,222.17926,0.88003}
			v {-131.71796,217.50092,1.91283}
			v {-114.00602,220.99934,-1.36716}
			v {-119.57651,219.07777,2.36172}
			v {-114.88453,223.04109,-1.60989}
			v {-120.49065,221.05363,1.90262}
			v {-123.17416,219.57645,1.78577}
			v {-120.59888,220.69839,0.66710}
			v {-119.79439,221.73451,-1.75637}
			v {-111.64455,223.28920,-4.50865}
			v {-112.76483,225.33141,-6.56966}
			v {-114.30837,225.28343,-10.43344}
			v {-115.44441,224.37717,-13.34563}
			v {-114.94913,219.64151,-1.94954}
			v {-119.69411,218.72458,1.09823}
			v {-122.32530,217.75131,2.20842}
			v {-111.33707,221.02834,-5.04809}
			v {-111.78484,220.24707,-6.75504}
			v {-114.71523,221.16580,-13.24074}
			v {-112.98209,220.28285,-9.76477}
			v {108.65359,225.55223,-6.23721}
			v {109.78058,221.78654,-8.10876}
			v {108.63272,225.17313,-3.24136}
			v {107.96117,222.69925,-3.07315}
			v {121.60722,226.79475,-4.17071}
			v {127.59011,224.26944,-1.34356}
			v {125.16898,220.14421,-6.68610}
			v {121.33990,221.63979,-8.25013}
			v {134.12003,216.28302,-0.41398}
			v {121.16885,224.36880,-8.25390}
			v {125.82003,222.53661,-6.80645}
			v {124.37110,220.38840,5.14924}
			v {119.20160,225.28838,1.38300}
			v {125.07690,222.83948,5.40799}
			v {131.71800,217.50098,6.44080}
			v {114.88453,223.04109,2.91807}
			v {119.38958,220.89076,6.88970}
			v {120.30369,222.86656,6.43060}
			v {122.98720,221.38940,6.31375}
			v {119.79439,221.73451,2.77159}
			v {111.04504,224.37714,-8.35583}
			v {114.94913,219.64154,2.57843}
			v {122.13834,219.56425,6.73638}
			v {106.73198,227.99763,-6.71913}
			v {110.63394,219.97523,-6.80988}
			v {108.65941,221.89343,2.55622}
			v {116.50453,228.87115,-6.02283}
			v {114.98283,222.65970,-10.65139}
			v {112.28796,226.77747,1.31242}
			v {79.08865,235.79692,2.12190}
			v {78.43842,229.14314,1.38702}
			v {75.38043,224.09842,-7.01460}
			v {72.24049,227.27269,-19.15909}
			v {105.27177,226.98361,-2.18593}
			v {76.95161,237.84633,-16.89704}
			v {104.86442,222.38885,-0.05277}
			v {105.40184,221.43729,-4.95637}
			v {106.96410,223.24339,-10.20239}
			v {22.65005,184.82828,0.29353}
			v {18.66799,191.55469,-0.37459}
			v {-22.03189,185.57033,-4.16832}
			v {-17.94364,193.93135,-4.86048}
			v {25.95580,140.38696,9.38788}
			v {24.23940,130.76840,8.99687}
			v {25.81406,131.69139,-0.84351}
			v {15.22225,132.77612,11.79976}
			v {-18.73660,-0.00000,-4.94561}
			v {-16.51438,18.17842,-16.90692}
			v {-17.35262,8.05289,-18.39323}
			v {-3.76929,7.22215,-17.14450}
			v {-4.28745,16.35392,-17.13447}
			v {-1.23007,-0.00000,-4.85259}
			v {-4.25208,15.26663,1.14822}
			v {-5.46797,9.31133,-32.04325}
			v {-12.96647,9.52369,-30.79041}
			v {-14.33197,14.21562,1.05865}
			v {-6.88277,0.00000,11.12304}
			v {-11.35521,23.80838,-10.75803}
			v {-6.24942,21.69635,-29.59665}
			v {-11.71966,22.06098,-30.10456}
			v {-7.50773,23.66994,-10.64800}
			v {-13.64193,0.00000,9.05174}
			v {-4.75507,12.51678,8.94645}
			v {-2.19043,-0.00000,8.05929}
			v {-12.99515,11.87516,8.18484}
			v {-17.23790,-0.00000,-17.50694}
			v {-5.57164,-0.00000,-28.83491}
			v {-3.45710,0.00000,-17.16930}
			v {-13.94543,-0.00000,-27.23630}
			v {18.73660,-0.00000,-4.94561}
			v {16.51438,18.17842,-16.90692}
			v {17.35262,8.05289,-18.39323}
			v {3.76929,7.22215,-17.14450}
			v {4.28745,16.35392,-17.13447}
			v {1.23007,-0.00000,-4.85259}
			v {4.25208,15.26663,1.14822}
			v {5.46797,9.31133,-32.04325}
			v {12.96647,9.52369,-30.79041}
			v {14.33197,14.21562,1.05865}
			v {6.88277,0.00000,11.12304}
			v {11.35521,23.80838,-10.75803}
			v {6.24942,21.69635,-29.59665}
			v {11.71966,22.06098,-30.10456}
			v {7.50773,23.66994,-10.64800}
			v {13.64193,0.00000,9.05174}
			v {4.75507,12.51678,8.94645}
			v {2.19043,-0.00000,8.05929}
			v {12.99515,11.87516,8.18484}
			v {17.23790,-0.00000,-17.50694}
			v {5.57164,-0.00000,-28.83491}
			v {3.45710,0.00000,-17.16930}
			v {13.94543,-0.00000,-27.23630}
			v {-106.12688,221.01497,-10.95326}
			v {-111.25330,219.33858,-12.66704}
			v {-109.03682,220.93526,-3.37802}
			v {-105.56114,221.74080,-6.05493}
			v {-112.96933,225.59668,-4.24121}
			v {-117.56218,227.73705,-11.24512}
			v {-107.86803,227.50932,-12.34125}
			v {-106.27815,226.36655,-7.92521}
			v {-72.57188,229.84949,-24.42467}
			v {-77.87414,238.11086,-21.62998}
			v {-107.87827,222.97069,-16.03308}
			v {-115.87133,221.89748,-16.17925}
			v {-79.93476,234.89639,-2.92523}
			v {-78.89185,228.39900,-4.01790}
			v {-75.53410,224.06297,-12.59659}
			v {55.43744,238.14304,-5.02262}
			v {54.82787,231.11581,-3.58173}
			v {-57.00958,237.11929,-9.13856}
			v {-56.71922,232.02676,-8.41616}
			v {65.53403,236.10170,-4.20014}
			v {64.90044,230.29807,-3.60962}
			v {-64.42561,235.90990,-9.41153}
			v {-63.58783,231.03778,-8.85236}
			v {-0.72043,145.40903,-3.00310}
			v {18.00659,104.82288,-6.95603}
		}
		CVertNorms
		{
			numVertNorms 448
			vn {-0.80532,0.15291,0.57278}
			vn {-0.75237,-0.22678,0.61847}
			vn {-0.75237,-0.22678,0.61847}
			vn {-0.88053,0.13628,0.45397}
			vn {-0.59650,0.35192,0.72134}
			vn {-0.46477,0.46947,0.75072}
			vn {-0.59650,0.35192,0.72134}
			vn {0.00000,0.55144,0.83421}
			vn {-0.20241,0.44467,0.87253}
			vn {-0.00000,0.45422,0.89089}
			vn {0.20241,0.44496,0.87238}
			vn {0.47369,0.47172,0.74370}
			vn {0.64149,0.36065,0.67707}
			vn {0.88920,0.14526,0.43385}
			vn {0.64149,0.36065,0.67707}
			vn {0.81424,0.16462,0.55670}
			vn {0.81621,-0.16374,0.55407}
			vn {0.81621,-0.16374,0.55407}
			vn {0.73946,-0.64111,-0.20539}
			vn {0.74505,-0.18856,0.63980}
			vn {0.74505,-0.18856,0.63980}
			vn {0.95799,0.28639,-0.01527}
			vn {-0.73949,-0.64111,-0.20527}
			vn {-0.74468,-0.18818,0.64035}
			vn {-0.74468,-0.18818,0.64035}
			vn {-0.95794,0.28658,-0.01517}
			vn {-0.51654,0.48778,0.70374}
			vn {-0.03640,0.28145,-0.95888}
			vn {-0.46946,0.75671,-0.45497}
			vn {-0.14893,0.96275,-0.22567}
			vn {-0.32280,0.70027,0.63673}
			vn {0.00000,0.35553,0.93466}
			vn {0.00060,0.51245,-0.85872}
			vn {0.00010,0.12236,-0.99249}
			vn {0.51829,0.48702,0.70298}
			vn {0.04297,0.27334,-0.96096}
			vn {0.46636,0.75432,-0.46207}
			vn {0.15056,0.96037,-0.23457}
			vn {0.32389,0.69929,0.63725}
			vn {-0.20763,0.64198,0.73807}
			vn {0.14703,-0.98680,-0.06789}
			vn {-0.30564,0.89665,-0.32032}
			vn {-0.04022,-0.26576,-0.96320}
			vn {0.16428,-0.97628,0.14102}
			vn {0.04296,-0.46074,0.88649}
			vn {-0.10356,0.60607,0.78864}
			vn {-0.20809,0.97592,-0.06536}
			vn {-0.16520,0.93687,-0.30818}
			vn {-0.17344,-0.22777,-0.95814}
			vn {-0.19507,0.90978,-0.36639}
			vn {0.05105,-0.19492,-0.97949}
			vn {0.13642,-0.98212,-0.12973}
			vn {0.16595,0.66364,0.72941}
			vn {-0.17048,-0.97924,-0.10965}
			vn {0.27320,0.87294,-0.40414}
			vn {0.09167,-0.29290,-0.95174}
			vn {-0.10938,-0.99230,0.05810}
			vn {-0.09298,-0.49052,0.86645}
			vn {0.04734,0.64475,0.76292}
			vn {0.23690,0.96086,-0.14365}
			vn {0.16261,0.93316,-0.32059}
			vn {0.12132,-0.26887,-0.95550}
			vn {0.31583,0.86925,-0.38032}
			vn {0.14296,-0.22430,-0.96398}
			vn {-0.03315,-0.98492,-0.16983}
			vn {-0.08520,-0.50353,0.85977}
			vn {0.15916,0.65057,0.74258}
			vn {0.38871,0.84544,-0.36624}
			vn {0.29820,-0.25600,-0.91953}
			vn {-0.05780,-0.99286,-0.10437}
			vn {-0.61846,0.34105,0.70795}
			vn {0.00000,0.68341,0.73004}
			vn {-0.00098,-0.43280,-0.90149}
			vn {-0.32213,-0.73815,-0.59277}
			vn {0.65239,0.26429,0.71031}
			vn {0.30811,-0.74104,-0.59659}
			vn {0.00000,-0.17881,0.98388}
			vn {-0.70739,-0.21715,0.67264}
			vn {-0.62623,0.10344,0.77275}
			vn {-0.00401,-0.06469,0.99790}
			vn {-0.85370,0.48849,0.18047}
			vn {-0.98546,-0.16904,-0.01693}
			vn {-0.38827,0.48093,-0.78610}
			vn {-0.73356,-0.18151,-0.65494}
			vn {-0.00025,-0.18732,-0.98230}
			vn {0.00000,0.23861,-0.97111}
			vn {0.45630,0.21486,0.86350}
			vn {0.70739,-0.21715,0.67264}
			vn {0.98570,-0.16780,-0.01567}
			vn {0.69590,0.70380,-0.14280}
			vn {0.73468,-0.18162,-0.65365}
			vn {0.63583,0.26639,-0.72441}
			vn {-0.10848,0.33114,-0.93733}
			vn {0.96413,0.22366,-0.14292}
			vn {-0.99517,0.03378,0.09213}
			vn {0.24797,-0.33307,0.90971}
			vn {-0.50989,0.13908,0.84892}
			vn {-0.98551,0.05287,0.16118}
			vn {-0.35640,0.04763,-0.93312}
			vn {0.55490,-0.11049,0.82455}
			vn {0.96795,0.21293,-0.13318}
			vn {-0.80609,0.16157,0.56931}
			vn {0.00000,0.23084,0.97299}
			vn {0.80836,0.16253,0.56581}
			vn {-0.63789,0.20539,-0.74223}
			vn {0.57093,-0.17528,0.80207}
			vn {-0.00354,-0.20010,0.97977}
			vn {-0.26152,0.07598,-0.96220}
			vn {-0.72531,-0.04960,-0.68663}
			vn {0.57190,-0.02065,0.82007}
			vn {0.07900,-0.78563,0.61363}
			vn {-0.98542,-0.00932,0.16989}
			vn {-0.98069,-0.06931,0.18289}
			vn {0.31699,-0.17992,-0.93121}
			vn {0.99497,-0.07958,-0.06078}
			vn {-0.49620,-0.11363,0.86074}
			vn {-0.97131,-0.01492,0.23733}
			vn {0.99863,-0.02189,-0.04755}
			vn {0.00787,0.07452,-0.99719}
			vn {0.01707,-0.61512,-0.78825}
			vn {-0.22944,0.48455,-0.84414}
			vn {0.64869,-0.13164,0.74958}
			vn {-0.48179,-0.03815,0.87546}
			vn {0.29988,-0.37479,-0.87727}
			vn {-0.48239,-0.05100,0.87447}
			vn {0.64144,0.19508,-0.74196}
			vn {-0.47266,-0.26480,0.84052}
			vn {0.70932,-0.01525,-0.70472}
			vn {-0.28538,-0.27776,-0.91728}
			vn {-0.16082,-0.20286,-0.96591}
			vn {-0.90353,-0.41811,0.09392}
			vn {-0.50884,-0.22637,0.83057}
			vn {0.64632,-0.01071,-0.76299}
			vn {0.99070,0.02312,0.13407}
			vn {0.99141,-0.06432,0.11388}
			vn {0.49161,-0.02113,0.87056}
			vn {0.46476,-0.08756,0.88110}
			vn {0.08468,0.42096,0.90312}
			vn {-0.87034,-0.49120,0.03507}
			vn {-0.78435,0.56789,0.24959}
			vn {0.80735,0.56340,0.17541}
			vn {0.95535,-0.29539,-0.00738}
			vn {0.95559,-0.05108,-0.29022}
			vn {-0.04786,0.17662,-0.98312}
			vn {-0.95997,-0.17347,-0.21991}
			vn {-0.01420,-0.30102,0.95351}
			vn {0.99231,0.11340,-0.04968}
			vn {0.55376,0.28303,-0.78310}
			vn {-0.49899,0.05039,0.86514}
			vn {-0.53695,0.28719,-0.79323}
			vn {-0.99449,0.07639,0.07178}
			vn {0.58272,0.08812,0.80788}
			vn {-0.43473,0.84533,-0.31053}
			vn {-0.00000,0.51973,-0.85433}
			vn {-0.93396,0.26152,-0.24358}
			vn {-0.53403,-0.17512,0.82713}
			vn {0.00008,-0.28389,0.95886}
			vn {-0.05139,-0.06014,0.99687}
			vn {-0.56877,-0.17826,0.80295}
			vn {-0.91380,0.36580,0.17651}
			vn {-0.87550,-0.37090,0.30973}
			vn {-0.75462,-0.54811,0.36072}
			vn {-0.85787,-0.28219,0.42946}
			vn {0.00000,-0.56038,-0.82823}
			vn {-0.00001,0.99693,0.07826}
			vn {-0.88078,-0.45460,-0.13257}
			vn {-0.00000,-0.45877,-0.88855}
			vn {-0.90596,-0.40457,-0.12475}
			vn {-0.85908,-0.09616,0.50273}
			vn {-0.60076,-0.19951,0.77414}
			vn {-0.24294,-0.34269,0.90749}
			vn {-0.51333,0.82473,0.23730}
			vn {-0.85148,-0.41332,0.32273}
			vn {-0.00000,-0.67602,0.73688}
			vn {-0.53193,-0.35485,0.76885}
			vn {-0.19778,-0.32575,0.92454}
			vn {-0.85136,-0.04306,0.52281}
			vn {-0.00001,-0.84699,0.53160}
			vn {-0.12402,0.04119,0.99142}
			vn {-0.82148,-0.01911,0.56991}
			vn {-0.00000,0.90820,-0.41854}
			vn {0.57122,-0.17836,0.80118}
			vn {0.24655,-0.16069,0.95571}
			vn {0.51234,0.04164,0.85777}
			vn {-0.29096,-0.63620,0.71456}
			vn {-0.50868,0.04133,0.85997}
			vn {0.71046,-0.24903,0.65820}
			vn {0.29315,-0.63676,0.71317}
			vn {0.43473,0.84533,-0.31053}
			vn {0.93385,0.26171,-0.24378}
			vn {0.53401,-0.17572,0.82701}
			vn {0.91372,0.36621,0.17605}
			vn {0.87550,-0.37090,0.30973}
			vn {0.75462,-0.54811,0.36074}
			vn {0.82657,-0.26080,0.49876}
			vn {0.88070,-0.45467,-0.13282}
			vn {0.90596,-0.40457,-0.12475}
			vn {0.85828,-0.09738,0.50386}
			vn {0.51329,0.82489,0.23684}
			vn {0.85148,-0.41332,0.32273}
			vn {0.53204,-0.35504,0.76869}
			vn {0.85095,-0.04388,0.52340}
			vn {0.82147,-0.01935,0.56992}
			vn {0.91029,-0.08971,0.40413}
			vn {0.91029,-0.08971,0.40413}
			vn {0.91029,-0.08971,0.40413}
			vn {0.91029,-0.08971,0.40413}
			vn {0.55637,0.58898,0.58614}
			vn {0.55637,0.58898,0.58614}
			vn {0.55637,0.58898,0.58614}
			vn {0.55637,0.58898,0.58614}
			vn {0.00000,0.77871,0.62738}
			vn {0.00000,0.77871,0.62738}
			vn {-0.31435,0.73924,0.59558}
			vn {-0.31435,0.73924,0.59558}
			vn {0.31435,0.73924,0.59558}
			vn {0.31435,0.73924,0.59558}
			vn {-0.55637,0.58898,0.58614}
			vn {-0.55637,0.58898,0.58614}
			vn {-0.55637,0.58898,0.58614}
			vn {-0.55637,0.58898,0.58614}
			vn {-0.91029,-0.08971,0.40413}
			vn {-0.91029,-0.08971,0.40413}
			vn {-0.91029,-0.08971,0.40413}
			vn {-0.91029,-0.08971,0.40413}
			vn {0.90896,-0.05239,0.41357}
			vn {0.90896,-0.05239,0.41357}
			vn {0.90896,-0.05239,0.41357}
			vn {0.90896,-0.05239,0.41357}
			vn {-0.28978,0.94513,0.15082}
			vn {0.00000,0.96274,-0.27043}
			vn {-0.37577,0.82958,-0.41302}
			vn {0.00000,0.98752,0.15752}
			vn {0.00000,0.79494,-0.60668}
			vn {0.28978,0.94513,0.15082}
			vn {0.37577,0.82958,-0.41302}
			vn {-0.00000,0.53802,-0.84293}
			vn {-0.31970,0.69622,-0.64270}
			vn {-0.30272,0.51278,-0.80338}
			vn {-0.00000,0.73479,-0.67830}
			vn {0.31969,0.69623,-0.64270}
			vn {0.30272,0.51278,-0.80338}
			vn {0.00000,0.97473,0.22340}
			vn {-0.28590,0.93404,0.21408}
			vn {0.28591,0.93404,0.21408}
			vn {-0.90896,-0.05239,0.41357}
			vn {-0.90896,-0.05239,0.41357}
			vn {-0.90896,-0.05239,0.41357}
			vn {-0.90896,-0.05239,0.41357}
			vn {-0.93599,0.28657,-0.20446}
			vn {0.12115,0.22938,-0.96577}
			vn {0.99718,0.06741,-0.03298}
			vn {-0.00866,0.25502,0.96690}
			vn {0.27995,0.52900,-0.80112}
			vn {-0.75130,0.49664,-0.43463}
			vn {-0.74793,0.64259,0.16636}
			vn {-0.36385,0.65954,0.65774}
			vn {-0.99564,-0.09230,0.01381}
			vn {-0.01736,-0.05888,-0.99811}
			vn {0.96941,-0.18947,0.15601}
			vn {-0.51792,-0.16900,0.83857}
			vn {0.96439,0.26255,0.03190}
			vn {0.15880,0.39587,-0.90447}
			vn {0.28542,0.35530,0.89011}
			vn {0.50157,-0.22315,0.83584}
			vn {0.52463,-0.44442,0.72613}
			vn {-0.99804,-0.06089,0.01469}
			vn {-0.56767,-0.41724,0.70969}
			vn {0.97495,-0.10899,0.19387}
			vn {0.37764,-0.10278,0.92023}
			vn {0.27483,-0.44085,-0.85447}
			vn {-0.83447,-0.39025,-0.38906}
			vn {-0.50213,-0.20891,0.83918}
			vn {-0.91217,-0.30291,0.27604}
			vn {-0.08468,0.42096,0.90312}
			vn {0.87034,-0.49120,0.03507}
			vn {0.78435,0.56789,0.24959}
			vn {-0.80735,0.56340,0.17541}
			vn {-0.95535,-0.29539,-0.00738}
			vn {-0.95559,-0.05108,-0.29022}
			vn {0.04786,0.17662,-0.98312}
			vn {0.95997,-0.17347,-0.21991}
			vn {-0.17005,-0.29241,0.94105}
			vn {-0.99231,0.11340,-0.04968}
			vn {-0.55376,0.28303,-0.78310}
			vn {0.49899,0.05039,0.86514}
			vn {0.53694,0.28719,-0.79323}
			vn {0.99449,0.07639,0.07178}
			vn {-0.58271,0.08812,0.80788}
			vn {-0.12393,-0.19144,-0.97365}
			vn {-0.29769,0.89900,-0.32121}
			vn {0.08192,-0.99333,-0.08112}
			vn {-0.19902,0.60949,0.76741}
			vn {0.01963,-0.50143,0.86497}
			vn {-0.24005,-0.10358,-0.96522}
			vn {-0.05471,0.96546,-0.25475}
			vn {0.23078,-0.95529,-0.18482}
			vn {0.40606,0.74188,0.53360}
			vn {0.66140,-0.65573,0.36410}
			vn {-0.25974,0.96426,-0.05242}
			vn {-0.47321,0.88091,-0.00800}
			vn {0.26214,-0.96456,-0.03030}
			vn {-0.01726,-0.99967,-0.01923}
			vn {-0.80778,-0.51545,-0.28602}
			vn {-0.32210,0.58520,-0.74417}
			vn {-0.49773,0.46650,-0.73120}
			vn {-0.14614,-0.68579,-0.71297}
			vn {0.00901,-0.75122,-0.65999}
			vn {-0.24249,-0.32600,-0.91374}
			vn {0.42704,-0.63449,0.64426}
			vn {0.02580,0.82966,0.55768}
			vn {-0.08152,0.66626,0.74125}
			vn {0.11191,-0.16774,0.97946}
			vn {0.66741,-0.11209,0.73621}
			vn {0.40464,-0.38721,0.82846}
			vn {0.18805,0.68791,0.70101}
			vn {-0.17562,0.78810,0.58997}
			vn {-0.76796,0.62821,-0.12483}
			vn {-0.62370,0.35285,-0.69749}
			vn {-0.37333,-0.81905,0.43564}
			vn {0.60591,0.38623,0.69548}
			vn {0.09824,0.94620,0.30832}
			vn {-0.11346,0.97964,-0.16561}
			vn {-0.24951,0.52136,-0.81604}
			vn {0.27797,-0.95872,0.05984}
			vn {0.08132,-0.93888,-0.33452}
			vn {0.02115,-0.96657,0.25554}
			vn {0.71863,-0.51646,0.46566}
			vn {0.21865,-0.97418,0.05629}
			vn {-0.16049,-0.62985,-0.75996}
			vn {0.07079,-0.99135,-0.11050}
			vn {-0.28610,0.84498,-0.45183}
			vn {-0.32717,-0.64099,-0.69433}
			vn {-0.39226,0.71977,0.57277}
			vn {-0.67732,-0.54944,0.48924}
			vn {0.16401,0.97844,-0.12556}
			vn {0.58017,0.81048,-0.08086}
			vn {0.04645,-0.75950,-0.64884}
			vn {0.04069,-0.69937,-0.71360}
			vn {0.83559,0.07833,-0.54373}
			vn {0.23827,0.45216,-0.85953}
			vn {0.58277,0.30502,-0.75322}
			vn {-0.47204,-0.60821,0.63817}
			vn {-0.10972,0.75544,0.64596}
			vn {0.07432,0.58665,0.80642}
			vn {0.07299,-0.21420,0.97406}
			vn {-0.36159,0.54842,0.75398}
			vn {-0.40941,-0.08125,0.90872}
			vn {-0.01863,0.71503,0.69885}
			vn {0.91058,0.41112,0.04278}
			vn {0.15336,-0.83934,0.52153}
			vn {-0.22891,0.40068,-0.88716}
			vn {-0.39134,-0.85531,0.33954}
			vn {0.14603,-0.79590,0.58755}
			vn {0.17130,0.87980,-0.44341}
			vn {-0.23618,-0.94918,-0.20804}
			vn {-0.51173,-0.40664,0.75682}
			vn {-0.05358,0.93400,-0.35324}
			vn {-0.15778,-0.15617,-0.97505}
			vn {-0.27880,0.78757,0.54955}
			vn {0.27944,0.66515,0.69245}
			vn {-0.00823,-0.48323,0.87546}
			vn {-0.11044,-0.99021,0.08535}
			vn {0.19227,-0.50678,-0.84036}
			vn {-0.01937,0.76424,0.64465}
			vn {0.40043,0.76152,-0.50965}
			vn {-0.23532,-0.46583,0.85301}
			vn {-0.17558,-0.98250,-0.06211}
			vn {0.01957,-0.34470,-0.93851}
			vn {0.90743,0.04306,-0.41799}
			vn {0.39463,0.91414,0.09284}
			vn {-0.93116,-0.30327,-0.20240}
			vn {-0.70210,0.71201,0.00955}
			vn {0.59478,0.67254,0.44038}
			vn {0.20702,-0.94990,0.23416}
			vn {0.19878,-0.85092,-0.48624}
			vn {-0.46958,-0.71075,0.52376}
			vn {-0.86374,-0.50237,0.03972}
			vn {-0.95529,0.29563,-0.00476}
			vn {-0.99573,-0.09020,-0.01964}
			vn {0.99287,-0.11918,0.00140}
			vn {0.97301,0.22462,-0.05287}
			vn {0.86088,-0.49724,-0.10787}
			vn {0.68511,0.67795,0.26647}
			vn {0.62738,-0.05034,-0.77709}
			vn {-0.63467,-0.03578,-0.77195}
			vn {-0.67388,0.64869,0.35368}
			vn {0.14418,-0.56901,0.80959}
			vn {-0.49637,0.73642,0.45967}
			vn {0.64230,0.13550,-0.75438}
			vn {-0.59949,0.14615,-0.78693}
			vn {0.54164,0.74246,0.39418}
			vn {-0.72372,-0.06819,0.68672}
			vn {0.40903,0.62411,0.66572}
			vn {0.87462,-0.10268,0.47381}
			vn {-0.50357,0.64945,0.56976}
			vn {-0.64396,-0.63290,0.42983}
			vn {0.43025,-0.70434,-0.56461}
			vn {0.58771,-0.60472,0.53750}
			vn {-0.51513,-0.62895,-0.58230}
			vn {0.86374,-0.50237,0.03972}
			vn {0.95529,0.29563,-0.00476}
			vn {0.99573,-0.09020,-0.01964}
			vn {-0.99287,-0.11918,0.00140}
			vn {-0.97301,0.22462,-0.05287}
			vn {-0.86088,-0.49724,-0.10787}
			vn {-0.68511,0.67795,0.26647}
			vn {-0.62738,-0.05034,-0.77709}
			vn {0.63467,-0.03578,-0.77195}
			vn {0.67388,0.64869,0.35368}
			vn {-0.14418,-0.56901,0.80959}
			vn {0.49637,0.73642,0.45967}
			vn {-0.64230,0.13550,-0.75438}
			vn {0.59949,0.14615,-0.78693}
			vn {-0.54164,0.74246,0.39418}
			vn {0.72372,-0.06819,0.68672}
			vn {-0.40903,0.62411,0.66572}
			vn {-0.87462,-0.10268,0.47381}
			vn {0.50357,0.64945,0.56976}
			vn {0.64396,-0.63290,0.42983}
			vn {-0.43025,-0.70434,-0.56461}
			vn {-0.58771,-0.60472,0.53750}
			vn {0.51513,-0.62895,-0.58230}
			vn {0.20676,-0.96793,-0.14266}
			vn {0.28414,-0.92268,-0.26063}
			vn {0.57028,-0.40788,0.71303}
			vn {0.26271,-0.50319,0.82327}
			vn {0.25714,0.77693,0.57468}
			vn {-0.01744,0.95106,-0.30850}
			vn {-0.20787,0.89714,-0.38978}
			vn {0.00530,0.73594,0.67703}
			vn {-0.17331,-0.40779,-0.89648}
			vn {-0.40007,0.79461,-0.45666}
			vn {-0.02836,-0.26544,-0.96371}
			vn {0.12576,-0.10229,-0.98677}
			vn {-0.28373,0.62037,0.73119}
			vn {0.00493,-0.53709,0.84351}
			vn {0.12340,-0.99217,-0.01946}
			vn {0.25030,0.72724,0.63912}
			vn {0.09480,-0.62596,0.77407}
			vn {-0.26879,0.69031,0.67173}
			vn {-0.06004,-0.60516,0.79384}
			vn {-0.00016,0.75899,0.65111}
			vn {-0.29048,-0.60436,0.74187}
			vn {-0.05097,0.71283,0.69949}
			vn {0.19321,-0.56934,0.79908}
			vn {0.95786,-0.26093,-0.12007}
			vn {0.97716,-0.15315,0.14732}
		}
		CVertCols
		{
			numVertCols 168
			col {0,0,0,1}
			col {0.89942,0.93717,0.95914,1}
			col {0.93055,0.96705,0.99060,1}
			col {0.81223,0.83843,0.83564,1}
			col {0.49704,0.51549,0.51352,1}
			col {1,1,1,1}
			col {0.51407,0.53104,0.52923,1}
			col {0.77706,0.80816,0.82420,1}
			col {0.83334,0.85826,0.85561,1}
			col {0.80697,0.83698,0.85415,1}
			col {0.91888,0.95506,0.97664,1}
			col {0.58213,0.58213,0.58213,1}
			col {0.98863,0.99379,1,1}
			col {0.97775,1,1,1}
			col {0.91459,0.95080,0.97235,1}
			col {0.97414,1,1,1}
			col {0.97948,0.98464,1,1}
			col {0.55040,0.55040,0.55040,1}
			col {0.63968,0.63968,0.73668,1}
			col {0.50534,0.50534,0.60958,1}
			col {0.94146,0.94350,1,1}
			col {0.61762,0.61762,0.71481,1}
			col {0.63393,0.63393,0.73572,1}
			col {0.66946,0.66953,0.76576,1}
			col {0.61287,0.61287,0.70030,1}
			col {0.88746,0.88746,0.89748,1}
			col {0.64932,0.64932,0.72163,1}
			col {0.67230,0.67230,0.76199,1}
			col {0.63208,0.63208,0.72470,1}
			col {0.72749,0.72781,0.82368,1}
			col {0.93550,0.93679,0.95046,1}
			col {0.72324,0.72324,0.82560,1}
			col {0.80884,0.80884,0.91647,1}
			col {0.91576,0.91704,0.93058,1}
			col {0.89095,0.89095,0.98618,1}
			col {0.72045,0.75357,0.75005,1}
			col {0.73389,0.76671,0.76322,1}
			col {0.97830,1,1,1}
			col {0.73199,0.73199,0.81925,1}
			col {0.67661,0.67661,0.75979,1}
			col {0.71467,0.74028,0.87801,1}
			col {0.81442,0.81481,0.82321,1}
			col {0.82497,0.85836,0.92588,1}
			col {0.83458,0.83863,0.83820,1}
			col {0.75467,0.75467,0.75467,1}
			col {0.85973,0.89458,1,1}
			col {0.63476,0.63586,0.71833,1}
			col {0.55160,0.55666,0.66193,1}
			col {0.84304,0.84338,0.84704,1}
			col {0.76506,0.76641,0.78233,1}
			col {0.89500,0.93206,0.98144,1}
			col {0.99962,1,1,1}
			col {0.62254,0.62254,0.69849,1}
			col {0.53637,0.53637,0.62314,1}
			col {0.94708,0.99152,1,1}
			col {0.51549,0.51549,0.53429,1}
			col {0.63331,0.63331,0.71905,1}
			col {0.31797,0.31797,0.31797,1}
			col {0.95921,0.99411,1,1}
			col {0.32859,0.33521,0.40531,1}
			col {0.55561,0.56147,0.62348,1}
			col {0.30000,0.30000,0.30000,1}
			col {0.49794,0.50016,0.51260,1}
			col {0.73000,0.73000,0.80179,1}
			col {0.67436,0.67436,0.74271,1}
			col {0.97314,1,1,1}
			col {0.96660,0.99335,1,1}
			col {0.77878,0.78208,0.83619,1}
			col {0.76953,0.77295,0.82727,1}
			col {0.72555,0.75574,0.76163,1}
			col {0.74202,0.77470,0.77896,1}
			col {0.76526,0.79601,0.80631,1}
			col {0.94206,0.99849,0.99879,1}
			col {0.93753,0.99413,0.99448,1}
			col {0.96822,0.99500,1,1}
			col {0.77735,0.78065,0.83477,1}
			col {0.76987,0.77329,0.82764,1}
			col {0.73369,0.76395,0.76992,1}
			col {0.74806,0.78070,0.78495,1}
			col {0.77366,0.80453,0.81495,1}
			col {0.57729,0.59415,0.60339,1}
			col {0.56715,0.58563,0.59466,1}
			col {0.61381,0.63449,0.64344,1}
			col {0.67414,0.69503,0.70527,1}
			col {0.56994,0.58679,0.59603,1}
			col {0.66790,0.68879,0.69902,1}
			col {0.60729,0.62797,0.63692,1}
			col {0.56058,0.57907,0.58810,1}
			col {0.56528,0.58266,0.58938,1}
			col {0.61112,0.63082,0.63760,1}
			col {0.66860,0.68844,0.69595,1}
			col {0.62941,0.64702,0.65400,1}
			col {0.95042,0.95042,1,1}
			col {0.99363,0.99363,1,1}
			col {0.97262,0.97262,1,1}
			col {0.55803,0.57541,0.58214,1}
			col {0.62647,0.64392,0.65138,1}
			col {0.66190,0.68174,0.68926,1}
			col {0.60425,0.62396,0.63073,1}
			col {0.81528,0.81727,0.83834,1}
			col {0.40732,0.40732,0.49083,1}
			col {0.83351,0.83548,0.85632,1}
			col {0.94609,0.98359,1,1}
			col {0.76032,0.79143,0.86673,1}
			col {0.76668,0.76833,0.78581,1}
			col {0.81097,0.83651,0.97078,1}
			col {0.60383,0.62452,0.74879,1}
			col {0.77649,0.77649,0.77649,1}
			col {0.79135,0.79135,0.88577,1}
			col {0.87244,0.92523,0.95235,1}
			col {0.54071,0.54204,0.61355,1}
			col {0.59631,0.59631,0.68162,1}
			col {0.51312,0.51312,0.53192,1}
			col {0.32981,0.32981,0.32981,1}
			col {0.96699,1,1,1}
			col {0.34988,0.35651,0.42661,1}
			col {0.54807,0.55393,0.61595,1}
			col {0.49310,0.49532,0.50776,1}
			col {0.72865,0.72865,0.80043,1}
			col {0.67712,0.67712,0.74548,1}
			col {0.55406,0.55406,0.63826,1}
			col {0.43604,0.43604,0.49436,1}
			col {0.45340,0.45340,0.45340,1}
			col {0.73716,0.77757,0.80967,1}
			col {0.99383,1,1,1}
			col {0.93627,0.95100,0.94944,1}
			col {0.75677,0.76666,0.83273,1}
			col {0.50650,0.50650,0.56003,1}
			col {0.43149,0.43149,0.47271,1}
			col {0.82296,0.82296,0.82296,1}
			col {0.95006,0.95333,1,1}
			col {0.96199,0.96581,1,1}
			col {0.33106,0.33106,0.39935,1}
			col {0.91498,0.94003,0.93736,1}
			col {0.56162,0.59425,0.62093,1}
			col {0.93471,0.93471,0.93471,1}
			col {0.47004,0.47004,0.52751,1}
			col {0.99791,1,1,1}
			col {0.98561,0.98786,1,1}
			col {0.79129,0.79129,0.81306,1}
			col {0.91161,0.91274,1,1}
			col {0.82702,0.82709,0.92232,1}
			col {0.60743,0.62292,0.78683,1}
			col {0.40801,0.41841,0.52851,1}
			col {0.70500,0.72083,0.86773,1}
			col {0.77215,0.77850,0.79716,1}
			col {0.32353,0.33178,0.41908,1}
			col {0.36231,0.36652,0.41109,1}
			col {0.77480,0.78100,0.80508,1}
			col {0.30000,0.30000,0.33879,1}
			col {0.56176,0.56176,0.62108,1}
			col {0.49901,0.49901,0.55625,1}
			col {0.95291,0.98043,1,1}
			col {0.72580,0.74431,0.94016,1}
			col {0.77733,0.78367,0.80233,1}
			col {0.77201,0.77821,0.80229,1}
			col {0.35584,0.36006,0.40462,1}
			col {0.55912,0.55912,0.61844,1}
			col {0.30000,0.30000,0.33416,1}
			col {0.30000,0.30000,0.30339,1}
			col {0.50320,0.50320,0.56043,1}
			col {0.95955,0.98707,1,1}
			col {0.95766,0.95766,0.97697,1}
			col {0.74781,0.74887,0.83927,1}
			col {0.77678,0.77678,0.79178,1}
			col {0.65961,0.65976,0.74365,1}
			col {0.63634,0.63634,0.72858,1}
			col {0.74419,0.74560,0.76048,1}
		}
		CUVs
		{
			setID 0
			numUVs 496
			uv {0,0}
			uv {0,1}
			uv {1,1}
			uv {1,0}
			uv {1,0.05781}
			uv {0,0.05781}
			uv {0,0.94219}
			uv {1,0.94219}
			uv {0,0.78271}
			uv {1,0.78271}
			uv {1,0.02043}
			uv {0,0.02043}
			uv {1,0.97664}
			uv {1,0.25712}
			uv {0,0.25712}
			uv {0.00000,0.97664}
			uv {0.84284,0.40922}
			uv {0.78841,0.40305}
			uv {0.73132,0.47513}
			uv {0.84198,0.49080}
			uv {0.73317,0.40738}
			uv {0.80355,0.33235}
			uv {0.76356,0.31864}
			uv {0.76276,0.36949}
			uv {0.80398,0.37001}
			uv {0.75363,0.26717}
			uv {0.85777,0.32187}
			uv {0.85776,0.26968}
			uv {0.77007,0.21691}
			uv {0.85776,0.21495}
			uv {0.94941,0.47514}
			uv {0.89474,0.40100}
			uv {0.94903,0.40698}
			uv {0.91199,0.33235}
			uv {0.90989,0.36932}
			uv {0.95051,0.37023}
			uv {0.94916,0.32042}
			uv {0.96227,0.26645}
			uv {0.94762,0.21515}
			uv {0.55082,0.47123}
			uv {0.58295,0.48607}
			uv {0.55115,0.49503}
			uv {0.48722,0.34433}
			uv {0.49919,0.31812}
			uv {0.52164,0.31527}
			uv {0.52365,0.34433}
			uv {0.60237,0.31313}
			uv {0.63364,0.31536}
			uv {0.64315,0.34433}
			uv {0.60161,0.34433}
			uv {0.51321,0.48997}
			uv {0.50701,0.47123}
			uv {0.48018,0.47801}
			uv {0.52372,0.28968}
			uv {0.50581,0.28968}
			uv {0.63190,0.28968}
			uv {0.59939,0.28968}
			uv {0.64515,0.47467}
			uv {0.61258,0.48575}
			uv {0.37823,0.22675}
			uv {0.37566,0.20137}
			uv {0.34381,0.21233}
			uv {0.40892,0.49091}
			uv {0.44403,0.49091}
			uv {0.44403,0.43127}
			uv {0.40819,0.42663}
			uv {0.28122,0.49091}
			uv {0.32683,0.49091}
			uv {0.32451,0.43177}
			uv {0.28122,0.43177}
			uv {0.44403,0.37581}
			uv {0.41123,0.38350}
			uv {0.41419,0.40523}
			uv {0.44403,0.40371}
			uv {0.32121,0.40760}
			uv {0.32205,0.38601}
			uv {0.28122,0.37514}
			uv {0.28122,0.40676}
			uv {0.41742,0.20741}
			uv {0.42667,0.23698}
			uv {0.44403,0.22027}
			uv {0.35098,0.40505}
			uv {0.37845,0.40480}
			uv {0.35419,0.49091}
			uv {0.38059,0.49091}
			uv {0.30992,0.21707}
			uv {0.28122,0.22473}
			uv {0.84198,0.65008}
			uv {0.76838,0.64404}
			uv {0.76687,0.77053}
			uv {0.84199,0.77965}
			uv {0.70190,0.63796}
			uv {0.70008,0.74636}
			uv {0.78588,0.01421}
			uv {0.75403,0.01421}
			uv {0.74489,0.10632}
			uv {0.78052,0.10719}
			uv {0.85776,0.10386}
			uv {0.85777,0.01421}
			uv {0.91669,0.77053}
			uv {0.91560,0.64404}
			uv {0.98075,0.63689}
			uv {0.98178,0.75018}
			uv {0.92967,0.01421}
			uv {0.93503,0.10719}
			uv {0.97102,0.10454}
			uv {0.95866,0.01421}
			uv {0.15751,0.28713}
			uv {0.22058,0.27267}
			uv {0.16818,0.23900}
			uv {0.11616,0.21518}
			uv {0.11302,0.27426}
			uv {0.06931,0.24655}
			uv {0.06619,0.21233}
			uv {0.01807,0.22971}
			uv {0.09295,0.08471}
			uv {0.08229,0.03658}
			uv {0.02869,0.07020}
			uv {0.13430,0.01276}
			uv {0.13744,0.07184}
			uv {0.18080,0.02702}
			uv {0.23557,0.02704}
			uv {0.84198,0.54329}
			uv {0.75498,0.54473}
			uv {0.72881,0.22986}
			uv {0.92900,0.54473}
			uv {0.98712,0.22953}
			uv {0.08129,0.29842}
			uv {0.01807,0.29267}
			uv {0.20532,0.36677}
			uv {0.21856,0.32848}
			uv {0.15681,0.36042}
			uv {0.06285,0.52627}
			uv {0.08322,0.36489}
			uv {0.05068,0.38418}
			uv {0.24041,0.35945}
			uv {0.19316,0.52214}
			uv {0.23062,0.52277}
			uv {0.01532,0.55255}
			uv {0.01152,0.52262}
			uv {0.01061,0.37350}
			uv {0.11717,0.35725}
			uv {0.15311,0.55971}
			uv {0.12243,0.55624}
			uv {0.11634,0.59728}
			uv {0.17034,0.60112}
			uv {0.04736,0.35621}
			uv {0.01862,0.36059}
			uv {0.12186,0.52277}
			uv {0.02457,0.59398}
			uv {0.06508,0.56675}
			uv {0.15533,0.52176}
			uv {0.18903,0.55909}
			uv {0.22494,0.55434}
			uv {0.06147,0.60212}
			uv {0.22612,0.59436}
			uv {0.16917,0.09601}
			uv {0.23557,0.09053}
			uv {0.04514,0.16435}
			uv {0.09366,0.15800}
			uv {0.03132,0.12550}
			uv {0.16769,0.19122}
			uv {0.20181,0.17872}
			uv {0.16724,0.16247}
			uv {0.01308,0.15619}
			uv {0.01291,0.19122}
			uv {0.04599,0.19122}
			uv {0.23557,0.19722}
			uv {0.23557,0.17108}
			uv {0.13329,0.15483}
			uv {0.20506,0.15379}
			uv {0.23557,0.15753}
			uv {0.13268,0.19122}
			uv {0.09340,0.19122}
			uv {0.58838,0.53707}
			uv {0.58963,0.66176}
			uv {0.62760,0.65900}
			uv {0.62785,0.52045}
			uv {0.65765,0.66215}
			uv {0.66053,0.53463}
			uv {0.49776,0.55346}
			uv {0.49688,0.65904}
			uv {0.44692,0.54176}
			uv {0.44966,0.64901}
			uv {0.54577,0.54448}
			uv {0.54657,0.64695}
			uv {0.49848,0.53861}
			uv {0.55122,0.52615}
			uv {0.44403,0.66091}
			uv {0.43929,0.52615}
			uv {0.55159,0.66077}
			uv {0.41263,0.86688}
			uv {0.47716,0.85219}
			uv {0.56570,0.86870}
			uv {0.60980,0.85588}
			uv {0.51568,0.85283}
			uv {0.63616,0.85655}
			uv {0.69973,0.86764}
			uv {0.42192,0.07264}
			uv {0.23014,0.35017}
			uv {0.49232,0.16056}
			uv {0.91306,0.30332}
			uv {0.80162,0.31144}
			uv {0.76071,0.48229}
			uv {0.91306,0.49271}
			uv {0.39063,0.52463}
			uv {0.75464,0.74371}
			uv {0.70326,0.60838}
			uv {0.50578,0.59845}
			uv {0.69146,0.82145}
			uv {0.83487,0.70766}
			uv {0.88199,0.68167}
			uv {0.86737,0.64967}
			uv {0.45960,0.92144}
			uv {0.65649,0.96711}
			uv {0.43006,0.76723}
			uv {0.21569,0.62748}
			uv {0.40088,0.62072}
			uv {0.12455,0.76307}
			uv {0.02375,0.62975}
			uv {0.65369,0.52256}
			uv {0.67279,0.34941}
			uv {0.51951,0.52821}
			uv {0.66595,0.55414}
			uv {0.91260,0.53651}
			uv {0.04501,0.26748}
			uv {0.68052,0.11760}
			uv {0.91306,0.10151}
			uv {0.75737,0.50541}
			uv {0.91306,0.72265}
			uv {0.91306,0.78202}
			uv {0.91306,0.70565}
			uv {0.19630,0.90563}
			uv {0.68602,0.48002}
			uv {0.91306,0.87327}
			uv {0.91025,0.97653}
			uv {0.91306,0.01421}
			uv {0.88450,0.07264}
			uv {0.94320,0.68167}
			uv {0.92710,0.62291}
			uv {0.95783,0.64967}
			uv {0.89810,0.62291}
			uv {0.92328,0.63653}
			uv {0.90192,0.63653}
			uv {0.99032,0.70766}
			uv {0.88963,0.53707}
			uv {0,0.98235}
			uv {0,-0.30224}
			uv {1,-0.01926}
			uv {1,1.26533}
			uv {0,0.79084}
			uv {1,0.79084}
			uv {1,-0.20916}
			uv {0,-0.20916}
			uv {0.00000,0.31537}
			uv {0.00000,0.87245}
			uv {1,0.87245}
			uv {1,0.31537}
			uv {1,0.71087}
			uv {0,0.71087}
			uv {0.00000,0.60972}
			uv {0.00000,1.25151}
			uv {1,1.25151}
			uv {1,0.60972}
			uv {0,1.14804}
			uv {1,1.14804}
			uv {1,-0.14804}
			uv {0,-0.14804}
			uv {0,1.09702}
			uv {1,0.93092}
			uv {1,-0.26311}
			uv {0,-0.09702}
			uv {0.55000,1}
			uv {0.99897,1}
			uv {0.99845,0}
			uv {1,0.73741}
			uv {0,0.73741}
			uv {0,-0.26259}
			uv {1,-0.26259}
			uv {0.00000,-0.09379}
			uv {0.00000,1.09379}
			uv {1,1.09379}
			uv {1,-0.09379}
			uv {0.17452,0.74962}
			uv {0.18270,0.88260}
			uv {0.28410,0.87658}
			uv {0.27110,0.75176}
			uv {0.04393,0.88867}
			uv {0.07477,0.88735}
			uv {0.08116,0.74788}
			uv {0.04393,0.74933}
			uv {0.13287,0.74718}
			uv {0.12544,0.88478}
			uv {0.19179,0.95681}
			uv {0.28893,0.92164}
			uv {0.02979,0.92970}
			uv {0.07599,0.93582}
			uv {0.12332,0.93502}
			uv {0.34017,0.75145}
			uv {0.10126,0.97742}
			uv {0.28896,0.96624}
			uv {0.33789,0.97531}
			uv {0.33719,0.92912}
			uv {0.02979,0.97884}
			uv {0.37588,0.74933}
			uv {0.35913,0.88494}
			uv {0.17724,0.65757}
			uv {0.13129,0.65833}
			uv {0.06608,0.67334}
			uv {0.03447,0.69456}
			uv {0.27312,0.68430}
			uv {0.33638,0.70352}
			uv {0.37072,0.69986}
			uv {0.52191,0.11712}
			uv {0.51329,0.10242}
			uv {0.60687,0.12209}
			uv {0.59339,0.12722}
			uv {0.56774,0.12232}
			uv {0.57546,0.31543}
			uv {0.55061,0.31566}
			uv {0.54507,0.11826}
			uv {0.50819,0.04674}
			uv {0.51228,0.03294}
			uv {0.53123,0.00893}
			uv {0.52871,0.03714}
			uv {0.50330,0.04780}
			uv {0.55977,0.00842}
			uv {0.55533,0.03801}
			uv {0.56331,0.07862}
			uv {0.57249,0.05595}
			uv {0.58002,0.05703}
			uv {0.56923,0.08224}
			uv {0.55030,0.06870}
			uv {0.56001,0.06334}
			uv {0.56563,0.05504}
			uv {0.57467,0.04595}
			uv {0.55175,0.09603}
			uv {0.54269,0.09344}
			uv {0.51097,0.08927}
			uv {0.51009,0.06635}
			uv {0.52331,0.06539}
			uv {0.52359,0.09115}
			uv {0.50128,0.09156}
			uv {0.50115,0.06737}
			uv {0.58836,0.04748}
			uv {0.56221,0.04044}
			uv {0.62653,0.08063}
			uv {0.63551,0.06162}
			uv {0.64475,0.07824}
			uv {0.63639,0.09508}
			uv {0.65428,0.03831}
			uv {0.65505,0.06670}
			uv {0.59800,0.06908}
			uv {0.61255,0.05000}
			uv {0.58725,0.05853}
			uv {0.59517,0.05716}
			uv {0.57792,0.08289}
			uv {0.59579,0.04667}
			uv {0.58384,0.10213}
			uv {0.61495,0.11507}
			uv {0.60228,0.10377}
			uv {0.57014,0.09949}
			uv {0.62998,0.02589}
			uv {0.31386,0.52618}
			uv {0.33118,0.53856}
			uv {0.35586,0.52104}
			uv {0.34516,0.56040}
			uv {0.37493,0.54806}
			uv {0.31568,0.60110}
			uv {0.34653,0.59902}
			uv {0.34256,0.59136}
			uv {0.31335,0.57928}
			uv {0.32473,0.58471}
			uv {0.28899,0.59109}
			uv {0.27107,0.55656}
			uv {0.27763,0.56944}
			uv {0.30138,0.55220}
			uv {0.28976,0.53781}
			uv {0.28372,0.53169}
			uv {0.26244,0.54885}
			uv {0.26668,0.57722}
			uv {0.25719,0.56388}
			uv {0.36089,0.60043}
			uv {0.35329,0.58678}
			uv {0.34870,0.57012}
			uv {0.30672,0.52380}
			uv {0.37447,0.66473}
			uv {0.39067,0.67440}
			uv {0.41225,0.65793}
			uv {0.34783,0.62380}
			uv {0.35526,0.65749}
			uv {0.37883,0.65325}
			uv {0.37419,0.62402}
			uv {0.34990,0.60668}
			uv {0.32112,0.61413}
			uv {0.35639,0.61309}
			uv {0.30715,0.63228}
			uv {0.31779,0.65037}
			uv {0.27997,0.60316}
			uv {0.30534,0.65372}
			uv {0.28164,0.63127}
			uv {0.31085,0.61601}
			uv {0.41105,0.62229}
			uv {0.33888,0.58443}
			uv {0.42595,0.04571}
			uv {0.42532,0.02570}
			uv {0.39383,0.02910}
			uv {0.39323,0.04791}
			uv {0.36527,0.02076}
			uv {0.32929,0.01178}
			uv {0.32437,0.04299}
			uv {0.35861,0.04832}
			uv {0.27634,0.18471}
			uv {0.29922,0.17871}
			uv {0.30091,0.04303}
			uv {0.30034,0.01055}
			uv {0.36167,0.16762}
			uv {0.39807,0.16929}
			uv {0.45176,0.04366}
			uv {0.44963,0.02116}
			uv {0.42991,0.18139}
			uv {0.45229,0.19631}
			uv {0.38484,0.97405}
			uv {0.44339,0.97045}
			uv {0.44339,0.91619}
			uv {0.38484,0.91326}
			uv {0.44339,0.98485}
			uv {0.44339,0.90445}
			uv {0.45944,0.97045}
			uv {0.45944,0.91619}
			uv {0.91065,0.80867}
			uv {0.91065,0.87193}
			uv {0.97562,0.86878}
			uv {0.97562,0.81179}
			uv {0.98842,0.86878}
			uv {0.98841,0.81177}
			uv {0.97562,0.88138}
			uv {0.97562,0.79931}
			uv {0.53626,0.90451}
			uv {0.53642,0.96881}
			uv {0.58361,0.97491}
			uv {0.58363,0.89897}
			uv {0.48869,0.89897}
			uv {0.48865,0.97491}
			uv {0.66983,0.91391}
			uv {0.66267,0.95702}
			uv {0.72474,0.99559}
			uv {0.73091,0.93308}
			uv {0.85629,0.99559}
			uv {0.90865,0.96070}
			uv {0.90757,0.93233}
			uv {0.85094,0.93598}
			uv {0.95914,0.95547}
			uv {0.95862,0.90839}
			uv {0.61948,0.95217}
			uv {0.61928,0.89840}
			uv {0.68987,0.88182}
			uv {0.76950,0.89107}
			uv {0.81703,0.88595}
			uv {0.80377,0.80534}
			uv {0.78518,0.80469}
			uv {0.89231,0.89597}
			uv {0.81756,0.93993}
			uv {0.82497,0.99559}
			uv {0.76754,0.93983}
			uv {0.76404,0.99559}
			uv {0.80469,0.99559}
			uv {0.98390,0.95566}
			uv {0.98061,0.90890}
			uv {0.64229,0.17384}
			uv {0.70530,0.17472}
			uv {0.69768,0.22941}
			uv {0.65306,0.22277}
			uv {0.65709,0.27000}
			uv {0.65236,0.23996}
			uv {0.69674,0.24134}
			uv {0.68337,0.26584}
			uv {0.66203,0.11230}
			uv {0.64372,0.12286}
			uv {0.68835,0.11879}
			uv {0.95415,0.99145}
			uv {0.98820,0.99145}
			uv {0.62991,0.99145}
			uv {0.66596,0.99145}
			uv {0.90873,0.99145}
			uv {0.37843,0.38615}
			uv {0.35028,0.38633}
			uv {0.55063,0.34433}
			uv {0.57611,0.34433}
			uv {0.37880,0.41995}
			uv {0.35149,0.41957}
			uv {0.54985,0.28968}
			uv {0.57450,0.28968}
			uv {0.23948,0.37498}
			uv {0.01083,0.38768}
			uv {0.18725,0.91970}
		}
		CSurface
		{
			material "lambert12"
			CQuads
			{
				numQuads 47
				q {155,155,203,-1,5} {5,5,202,-1,5} {7,7,201,-1,5} {156,156,204,-1,5}
				q {172,172,209,-1,5} {160,160,208,-1,66} {162,162,207,-1,65} {161,161,206,-1,5}
				q {169,169,210,-1,5} {162,162,207,-1,65} {158,158,212,-1,5} {170,170,211,-1,5}
				q {167,167,215,-1,67} {172,172,209,-1,5} {26,26,214,-1,5} {28,28,213,-1,5}
				q {25,25,205,-1,17} {22,22,217,-1,16} {165,165,216,-1,68} {154,154,199,-1,61}
				q {167,167,215,-1,67} {166,166,218,-1,5} {163,163,219,-1,5} {165,165,216,-1,68}
				q {0,0,222,-1,3} {3,3,221,-1,4} {176,176,220,-1,69} {179,179,223,-1,70}
				q {158,158,212,-1,5} {162,162,207,-1,65} {179,179,223,-1,70} {157,157,224,-1,5}
				q {163,163,219,-1,5} {153,153,225,-1,5} {154,154,199,-1,61} {165,165,216,-1,68}
				q {0,0,222,-1,3} {25,25,205,-1,17} {159,159,200,-1,5} {3,3,221,-1,4}
				q {174,174,228,-1,5} {157,157,224,-1,5} {179,179,223,-1,70} {176,176,220,-1,69}
				q {7,7,201,-1,5} {5,5,202,-1,5} {171,171,226,-1,5} {164,164,227,-1,5}
				q {157,157,224,-1,5} {174,174,228,-1,5} {155,155,203,-1,5} {156,156,204,-1,5}
				q {5,5,202,-1,5} {3,3,221,-1,4} {159,159,200,-1,5} {171,171,226,-1,5}
				q {169,169,210,-1,5} {178,178,229,-1,5} {177,177,230,-1,5} {161,161,206,-1,5}
				q {166,166,218,-1,5} {167,167,215,-1,67} {28,28,213,-1,5} {32,32,232,-1,5}
				q {179,179,223,-1,70} {162,162,207,-1,65} {160,160,208,-1,66} {0,0,222,-1,3}
				q {155,155,203,-1,5} {174,174,228,-1,5} {176,176,220,-1,69} {168,168,233,-1,71}
				q {173,173,234,-1,5} {31,31,235,-1,5} {26,26,214,-1,5} {172,172,209,-1,5}
				q {167,167,215,-1,67} {22,22,217,-1,16} {160,160,208,-1,66} {172,172,209,-1,5}
				q {173,173,234,-1,5} {172,172,209,-1,5} {161,161,206,-1,5} {177,177,230,-1,5}
				q {155,155,203,-1,5} {168,168,233,-1,71} {3,3,221,-1,4} {5,5,202,-1,5}
				q {184,184,243,-1,5} {187,187,242,-1,5} {181,181,240,-1,5} {158,158,212,-1,5}
				q {181,181,240,-1,5} {182,182,238,-1,5} {170,170,211,-1,5} {158,158,212,-1,5}
				q {187,187,242,-1,5} {184,184,243,-1,5} {185,185,241,-1,73} {183,183,239,-1,72}
				q {7,7,201,-1,5} {11,11,202,-1,5} {190,190,203,-1,5} {156,156,204,-1,5}
				q {193,193,206,-1,5} {194,194,207,-1,5} {192,192,208,-1,74} {199,199,209,-1,5}
				q {181,181,212,-1,5} {194,194,207,-1,5} {186,186,210,-1,5} {182,182,211,-1,5}
				q {34,34,214,-1,5} {199,199,209,-1,5} {196,196,215,-1,75} {36,36,213,-1,5}
				q {195,195,216,-1,76} {18,18,217,-1,12} {21,21,205,-1,11} {189,189,199,-1,61}
				q {163,163,219,-1,5} {166,166,218,-1,5} {196,196,215,-1,75} {195,195,216,-1,76}
				q {201,201,220,-1,77} {13,13,221,-1,6} {15,15,222,-1,8} {202,202,223,-1,78}
				q {202,202,223,-1,78} {194,194,207,-1,5} {181,181,212,-1,5} {157,157,245,-1,5}
				q {189,189,199,-1,61} {153,153,225,-1,5} {163,163,219,-1,5} {195,195,216,-1,76}
				q {191,191,200,-1,5} {21,21,205,-1,11} {15,15,222,-1,8} {13,13,221,-1,6}
				q {202,202,223,-1,78} {157,157,245,-1,5} {200,200,228,-1,5} {201,201,220,-1,77}
				q {198,198,226,-1,5} {11,11,202,-1,5} {7,7,201,-1,5} {164,164,227,-1,5}
				q {156,156,204,-1,5} {190,190,203,-1,5} {200,200,228,-1,5} {157,157,245,-1,5}
				q {191,191,200,-1,5} {13,13,221,-1,6} {11,11,202,-1,5} {198,198,226,-1,5}
				q {177,177,230,-1,5} {178,178,229,-1,5} {186,186,210,-1,5} {193,193,206,-1,5}
				q {36,36,213,-1,5} {196,196,215,-1,75} {166,166,218,-1,5} {32,32,232,-1,5}
				q {194,194,207,-1,5} {202,202,223,-1,78} {15,15,222,-1,8} {192,192,208,-1,74}
				q {201,201,220,-1,77} {200,200,228,-1,5} {190,190,203,-1,5} {197,197,233,-1,79}
				q {34,34,214,-1,5} {31,31,235,-1,5} {173,173,234,-1,5} {199,199,209,-1,5}
				q {192,192,208,-1,74} {18,18,217,-1,12} {196,196,215,-1,75} {199,199,209,-1,5}
				q {193,193,206,-1,5} {199,199,209,-1,5} {173,173,234,-1,5} {177,177,230,-1,5}
				q {13,13,221,-1,6} {197,197,233,-1,79} {190,190,203,-1,5} {11,11,202,-1,5}
			}
			CTris
			{
				numTris 36
				t {159,159,200,-1,5} {154,154,199,-1,61} {152,152,198,-1,5}
				t {159,159,200,-1,5} {25,25,205,-1,17} {154,154,199,-1,61}
				t {164,164,227,-1,5} {171,171,226,-1,5} {152,152,198,-1,5}
				t {160,160,208,-1,66} {25,25,205,-1,17} {0,0,222,-1,3}
				t {22,22,217,-1,16} {25,25,205,-1,17} {160,160,208,-1,66}
				t {167,167,215,-1,67} {165,165,216,-1,68} {22,22,217,-1,16}
				t {152,152,198,-1,5} {171,171,226,-1,5} {159,159,200,-1,5}
				t {170,170,211,-1,5} {175,175,231,-1,5} {169,169,210,-1,5}
				t {178,178,229,-1,5} {169,169,210,-1,5} {175,175,231,-1,5}
				t {169,169,210,-1,5} {161,161,206,-1,5} {162,162,207,-1,65}
				t {154,154,199,-1,61} {153,153,225,-1,5} {152,152,198,-1,5}
				t {176,176,220,-1,69} {3,3,221,-1,4} {168,168,233,-1,71}
				t {180,180,237,-1,5} {152,152,198,-1,5} {153,153,236,-1,5}
				t {152,152,198,-1,5} {180,180,237,-1,5} {164,164,227,-1,5}
				t {175,175,231,-1,5} {170,170,211,-1,5} {182,182,238,-1,5}
				t {157,157,224,-1,5} {181,181,240,-1,5} {183,183,239,-1,72}
				t {158,158,212,-1,5} {157,157,224,-1,5} {185,185,241,-1,73}
				t {175,175,231,-1,5} {178,178,229,-1,5} {186,186,244,-1,5}
				t {175,175,231,-1,5} {186,186,244,-1,5} {182,182,238,-1,5}
				t {157,157,224,-1,5} {183,183,239,-1,72} {185,185,241,-1,73}
				t {158,158,212,-1,5} {185,185,241,-1,73} {184,184,243,-1,5}
				t {183,183,239,-1,72} {181,181,240,-1,5} {187,187,242,-1,5}
				t {189,189,199,-1,61} {191,191,200,-1,5} {188,188,198,-1,5}
				t {21,21,205,-1,11} {191,191,200,-1,5} {189,189,199,-1,61}
				t {198,198,226,-1,5} {164,164,227,-1,5} {188,188,198,-1,5}
				t {21,21,205,-1,11} {192,192,208,-1,74} {15,15,222,-1,8}
				t {21,21,205,-1,11} {18,18,217,-1,12} {192,192,208,-1,74}
				t {195,195,216,-1,76} {196,196,215,-1,75} {18,18,217,-1,12}
				t {198,198,226,-1,5} {188,188,198,-1,5} {191,191,200,-1,5}
				t {175,175,231,-1,5} {182,182,211,-1,5} {186,186,210,-1,5}
				t {186,186,210,-1,5} {178,178,229,-1,5} {175,175,231,-1,5}
				t {193,193,206,-1,5} {186,186,210,-1,5} {194,194,207,-1,5}
				t {153,153,225,-1,5} {189,189,199,-1,61} {188,188,198,-1,5}
				t {13,13,221,-1,6} {201,201,220,-1,77} {197,197,233,-1,79}
				t {188,188,198,-1,5} {180,180,237,-1,5} {153,153,236,-1,5}
				t {180,180,237,-1,5} {188,188,198,-1,5} {164,164,227,-1,5}
			}
		}
		CSurface
		{
			material "evaTextureFinal_lambert11"
			CQuads
			{
				numQuads 234
				q {71,71,19,-1,5} {70,70,18,-1,5} {26,26,17,-1,5} {31,31,16,-1,5}
				q {28,28,21,-1,5} {26,26,24,-1,5} {30,30,23,-1,5} {29,29,22,-1,5}
				q {32,32,26,-1,5} {28,28,21,-1,5} {27,27,25,-1,18} {33,33,27,-1,19}
				q {27,27,25,-1,18} {73,73,28,-1,5} {72,72,29,-1,20} {33,33,27,-1,19}
				q {34,34,31,-1,5} {74,74,30,-1,5} {71,71,19,-1,5} {31,31,16,-1,5}
				q {38,38,35,-1,5} {34,34,34,-1,5} {36,36,33,-1,5} {37,37,36,-1,5}
				q {35,35,37,-1,21} {36,36,33,-1,5} {32,32,26,-1,5} {33,33,27,-1,19}
				q {72,72,29,-1,20} {75,75,38,-1,5} {35,35,37,-1,21} {33,33,27,-1,19}
				q {49,49,45,-1,5} {46,46,44,-1,5} {42,42,43,-1,23} {50,50,42,-1,22}
				q {42,42,47,-1,23} {43,43,46,-1,5} {51,51,49,-1,5} {50,50,48,-1,22}
				q {30,30,41,-1,5} {39,39,39,-1,5} {47,47,51,-1,5} {29,29,50,-1,5}
				q {440,440,487,-1,5} {39,39,39,-1,5} {70,70,40,-1,5} {441,441,488,-1,5}
				q {42,42,43,-1,23} {46,46,44,-1,5} {41,41,53,-1,5} {48,48,54,-1,24}
				q {40,40,56,-1,5} {43,43,46,-1,5} {42,42,47,-1,23} {48,48,55,-1,24}
				q {440,440,487,-1,5} {49,49,45,-1,5} {47,47,51,-1,5} {39,39,39,-1,5}
				q {27,27,52,-1,18} {47,47,51,-1,5} {49,49,45,-1,5} {50,50,42,-1,22}
				q {73,73,58,-1,5} {27,27,57,-1,18} {50,50,48,-1,22} {51,51,49,-1,5}
				q {73,73,58,-1,5} {51,51,49,-1,5} {441,441,488,-1,5} {70,70,40,-1,5}
				q {54,54,65,-1,5} {61,61,64,-1,27} {68,68,63,-1,26} {67,67,62,-1,25}
				q {69,69,67,-1,5} {68,68,66,-1,26} {61,61,69,-1,27} {53,53,68,-1,5}
				q {55,55,73,-1,29} {59,59,72,-1,5} {62,62,71,-1,5} {63,63,70,-1,28}
				q {64,64,75,-1,5} {56,56,74,-1,5} {55,55,77,-1,29} {63,63,76,-1,28}
				q {60,60,79,-1,5} {52,52,59,-1,5} {38,38,60,-1,5} {37,37,78,-1,5}
				q {58,58,82,-1,5} {57,57,81,-1,5} {439,439,486,-1,5} {438,438,485,-1,5}
				q {54,54,65,-1,5} {59,59,72,-1,5} {55,55,73,-1,29} {61,61,64,-1,27}
				q {55,55,77,-1,29} {56,56,74,-1,5} {53,53,68,-1,5} {61,61,69,-1,27}
				q {442,442,489,-1,5} {66,66,84,-1,5} {65,65,83,-1,5} {443,443,490,-1,5}
				q {443,443,490,-1,5} {65,65,83,-1,5} {69,69,67,-1,5} {53,53,68,-1,5}
				q {62,62,71,-1,5} {60,60,79,-1,5} {35,35,80,-1,21} {63,63,70,-1,28}
				q {63,63,76,-1,28} {35,35,86,-1,21} {75,75,85,-1,5} {64,64,75,-1,5}
				q {78,78,89,-1,5} {77,77,88,-1,5} {76,76,87,-1,5} {79,79,90,-1,5}
				q {80,80,92,-1,5} {81,81,91,-1,30} {77,77,88,-1,5} {78,78,89,-1,5}
				q {80,80,94,-1,5} {82,82,93,-1,5} {83,83,96,-1,5} {81,81,95,-1,30}
				q {82,82,93,-1,5} {85,85,98,-1,32} {84,84,97,-1,31} {83,83,96,-1,5}
				q {76,76,87,-1,5} {87,87,100,-1,5} {86,86,99,-1,5} {79,79,90,-1,5}
				q {88,88,101,-1,33} {89,89,102,-1,5} {86,86,99,-1,5} {87,87,100,-1,5}
				q {88,88,105,-1,33} {90,90,104,-1,5} {91,91,103,-1,5} {89,89,106,-1,5}
				q {84,84,97,-1,31} {85,85,98,-1,32} {91,91,103,-1,5} {90,90,104,-1,5}
				q {96,96,107,-1,5} {78,78,109,-1,5} {79,79,108,-1,5} {106,106,130,-1,5}
				q {78,78,109,-1,5} {96,96,107,-1,5} {97,97,111,-1,5} {80,80,110,-1,5}
				q {70,70,18,-1,5} {71,71,19,-1,5} {102,102,122,-1,5} {101,101,123,-1,35}
				q {102,102,122,-1,5} {76,76,87,-1,5} {77,77,88,-1,5} {101,101,123,-1,35}
				q {81,81,95,-1,30} {83,83,96,-1,5} {73,73,28,-1,5} {70,70,124,-1,5}
				q {73,73,28,-1,5} {83,83,96,-1,5} {84,84,97,-1,31} {72,72,29,-1,20}
				q {102,102,122,-1,5} {71,71,19,-1,5} {74,74,30,-1,5} {103,103,125,-1,36}
				q {87,87,100,-1,5} {76,76,87,-1,5} {102,102,122,-1,5} {103,103,125,-1,36}
				q {75,75,38,-1,5} {90,90,104,-1,5} {88,88,105,-1,33} {74,74,126,-1,5}
				q {84,84,97,-1,31} {90,90,104,-1,5} {75,75,38,-1,5} {72,72,29,-1,20}
				q {98,98,112,-1,34} {104,104,127,-1,5} {118,118,128,-1,19} {85,85,114,-1,32}
				q {106,106,130,-1,5} {105,105,129,-1,5} {122,122,131,-1,37} {96,96,107,-1,5}
				q {105,105,129,-1,5} {446,446,493,-1,5} {117,117,137,-1,41} {109,109,136,-1,5}
				q {120,120,150,-1,5} {92,92,154,-1,5} {93,93,149,-1,5} {114,114,138,-1,49}
				q {113,113,134,-1,39} {107,107,132,-1,38} {117,117,139,-1,41} {446,446,494,-1,5}
				q {108,108,133,-1,5} {104,104,127,-1,5} {97,97,111,-1,5} {111,111,141,-1,5}
				q {94,94,144,-1,44} {116,116,143,-1,43} {115,115,142,-1,42} {95,95,145,-1,45}
				q {113,113,134,-1,39} {123,123,146,-1,46} {104,104,127,-1,5} {108,108,133,-1,5}
				q {112,112,148,-1,48} {107,107,132,-1,38} {108,108,133,-1,5} {111,111,141,-1,5}
				q {122,122,131,-1,37} {124,124,151,-1,50} {112,112,148,-1,48} {111,111,141,-1,5}
				q {94,94,144,-1,44} {92,92,154,-1,5} {120,120,150,-1,5} {116,116,143,-1,43}
				q {117,117,137,-1,41} {114,114,153,-1,49} {121,121,152,-1,51} {109,109,136,-1,5}
				q {96,96,107,-1,5} {122,122,131,-1,37} {111,111,141,-1,5} {97,97,111,-1,5}
				q {122,122,131,-1,37} {105,105,129,-1,5} {109,109,136,-1,5} {124,124,151,-1,50}
				q {109,109,136,-1,5} {121,121,152,-1,51} {115,115,142,-1,42} {124,124,151,-1,50}
				q {116,116,143,-1,43} {112,112,148,-1,48} {124,124,151,-1,50} {115,115,142,-1,42}
				q {112,112,148,-1,48} {116,116,143,-1,43} {120,120,150,-1,5} {107,107,132,-1,38}
				q {121,121,152,-1,51} {114,114,153,-1,49} {93,93,155,-1,5} {95,95,145,-1,45}
				q {125,125,156,-1,5} {91,91,120,-1,5} {85,85,121,-1,32} {118,118,157,-1,19}
				q {106,106,160,-1,5} {99,99,115,-1,5} {135,135,159,-1,5} {126,126,158,-1,5}
				q {110,110,164,-1,40} {126,126,158,-1,5} {131,131,166,-1,5} {130,130,165,-1,5}
				q {100,100,119,-1,5} {125,125,156,-1,5} {127,127,163,-1,5} {133,133,169,-1,5}
				q {129,129,170,-1,53} {128,128,162,-1,52} {127,127,163,-1,5} {125,125,156,-1,5}
				q {127,127,163,-1,5} {132,132,161,-1,5} {134,134,172,-1,5} {133,133,169,-1,5}
				q {133,133,169,-1,5} {135,135,159,-1,5} {99,99,115,-1,5} {100,100,119,-1,5}
				q {136,136,173,-1,54} {131,131,166,-1,5} {126,126,158,-1,5} {135,135,159,-1,5}
				q {79,79,117,-1,5} {86,86,116,-1,5} {99,99,115,-1,5} {106,106,160,-1,5}
				q {134,134,172,-1,5} {136,136,173,-1,54} {135,135,159,-1,5} {133,133,169,-1,5}
				q {142,142,175,-1,55} {93,93,174,-1,5} {92,92,177,-1,5} {143,143,176,-1,56}
				q {92,92,177,-1,5} {94,94,179,-1,44} {144,144,178,-1,57} {143,143,176,-1,56}
				q {139,139,182,-1,5} {137,137,180,-1,5} {145,145,181,-1,58} {138,138,183,-1,59}
				q {145,145,181,-1,58} {137,137,180,-1,5} {140,140,184,-1,5} {141,141,185,-1,60}
				q {95,95,186,-1,45} {93,93,187,-1,5} {140,140,184,-1,5} {137,137,180,-1,5}
				q {94,94,189,-1,44} {139,139,182,-1,5} {138,138,183,-1,59} {144,144,188,-1,57}
				q {141,141,185,-1,60} {140,140,184,-1,5} {93,93,187,-1,5} {142,142,190,-1,55}
				q {94,94,189,-1,44} {95,95,186,-1,45} {137,137,180,-1,5} {139,139,182,-1,5}
				q {144,144,188,-1,57} {145,145,181,-1,58} {148,148,192,-1,5} {150,150,191,-1,61}
				q {147,147,194,-1,63} {146,146,193,-1,62} {142,142,175,-1,55} {143,143,176,-1,56}
				q {151,151,195,-1,5} {145,145,181,-1,58} {142,142,190,-1,55} {146,146,193,-1,62}
				q {144,144,178,-1,57} {150,150,197,-1,61} {149,149,196,-1,64} {143,143,176,-1,56}
				q {253,253,286,-1,5} {258,258,285,-1,100} {259,259,284,-1,99} {261,261,283,-1,5}
				q {255,255,290,-1,5} {256,256,289,-1,5} {260,260,288,-1,102} {257,257,287,-1,101}
				q {261,261,283,-1,5} {259,259,284,-1,99} {264,264,292,-1,103} {263,263,291,-1,5}
				q {262,262,294,-1,5} {447,447,495,-1,167} {259,259,284,-1,99} {258,258,285,-1,100}
				q {257,257,287,-1,101} {260,260,288,-1,102} {267,267,296,-1,105} {266,266,295,-1,104}
				q {259,259,284,-1,99} {447,447,495,-1,167} {265,265,297,-1,106} {264,264,292,-1,103}
				q {265,265,297,-1,106} {267,267,296,-1,105} {260,260,288,-1,102} {264,264,292,-1,103}
				q {262,262,294,-1,5} {266,266,302,-1,104} {249,249,301,-1,5} {250,250,300,-1,108}
				q {249,249,303,-1,5} {266,266,295,-1,104} {267,267,296,-1,105} {252,252,299,-1,5}
				q {251,251,293,-1,107} {447,447,495,-1,167} {262,262,294,-1,5} {250,250,300,-1,108}
				q {266,266,302,-1,104} {262,262,294,-1,5} {258,258,285,-1,100} {257,257,305,-1,101}
				q {263,263,291,-1,5} {264,264,292,-1,103} {260,260,288,-1,102} {256,256,289,-1,5}
				q {268,268,306,-1,5} {261,261,283,-1,5} {263,263,291,-1,5} {269,269,307,-1,109}
				q {255,255,290,-1,5} {273,273,309,-1,5} {272,272,308,-1,5} {256,256,289,-1,5}
				q {263,263,291,-1,5} {256,256,289,-1,5} {272,272,308,-1,5} {269,269,307,-1,109}
				q {270,270,310,-1,110} {271,271,311,-1,5} {254,254,298,-1,5} {253,253,286,-1,5}
				q {270,270,310,-1,110} {253,253,286,-1,5} {261,261,283,-1,5} {268,268,306,-1,5}
				q {273,273,312,-1,5} {255,255,304,-1,5} {254,254,298,-1,5} {271,271,311,-1,5}
				q {249,249,174,-1,5} {279,279,175,-1,112} {280,280,176,-1,111} {250,250,177,-1,108}
				q {250,250,177,-1,108} {280,280,176,-1,111} {281,281,178,-1,113} {251,251,179,-1,107}
				q {282,282,181,-1,114} {274,274,180,-1,5} {276,276,182,-1,5} {275,275,183,-1,115}
				q {277,277,184,-1,5} {274,274,180,-1,5} {282,282,181,-1,114} {278,278,185,-1,116}
				q {277,277,184,-1,5} {249,249,187,-1,5} {252,252,186,-1,5} {274,274,180,-1,5}
				q {275,275,183,-1,115} {276,276,182,-1,5} {251,251,189,-1,107} {281,281,188,-1,113}
				q {249,249,187,-1,5} {277,277,184,-1,5} {278,278,185,-1,116} {279,279,190,-1,112}
				q {252,252,186,-1,5} {251,251,189,-1,107} {276,276,182,-1,5} {274,274,180,-1,5}
				q {285,285,192,-1,5} {282,282,181,-1,114} {281,281,188,-1,113} {287,287,191,-1,61}
				q {279,279,175,-1,112} {283,283,193,-1,117} {284,284,194,-1,118} {280,280,176,-1,111}
				q {279,279,190,-1,112} {282,282,181,-1,114} {288,288,195,-1,5} {283,283,193,-1,117}
				q {281,281,178,-1,113} {280,280,176,-1,111} {286,286,196,-1,119} {287,287,197,-1,61}
				q {41,41,53,-1,5} {290,290,313,-1,5} {289,289,314,-1,120} {48,48,54,-1,24}
				q {48,48,55,-1,24} {289,289,315,-1,120} {291,291,316,-1,5} {40,40,56,-1,5}
				q {444,444,491,-1,5} {45,45,319,-1,5} {44,44,318,-1,5} {445,445,492,-1,5}
				q {308,308,322,-1,121} {305,305,321,-1,61} {300,300,324,-1,122} {303,303,323,-1,61}
				q {300,300,324,-1,122} {311,311,327,-1,124} {312,312,326,-1,123} {303,303,323,-1,61}
				q {314,314,330,-1,5} {316,316,329,-1,125} {315,315,328,-1,5} {313,313,331,-1,5}
				q {321,321,337,-1,5} {320,320,336,-1,5} {315,315,328,-1,5} {310,310,332,-1,5}
				q {304,304,339,-1,128} {323,323,338,-1,127} {322,322,341,-1,5} {299,299,340,-1,129}
				q {323,323,338,-1,127} {304,304,339,-1,128} {306,306,343,-1,131} {329,329,342,-1,130}
				q {299,299,340,-1,129} {322,322,341,-1,5} {321,321,337,-1,5} {310,310,332,-1,5}
				q {321,321,337,-1,5} {322,322,341,-1,5} {295,295,313,-1,5} {297,297,320,-1,5}
				q {295,295,313,-1,5} {322,322,341,-1,5} {323,323,338,-1,127} {294,294,314,-1,132}
				q {300,300,324,-1,122} {299,299,340,-1,129} {310,310,332,-1,5} {311,311,327,-1,124}
				q {300,300,324,-1,122} {305,305,321,-1,61} {304,304,339,-1,128} {299,299,340,-1,129}
				q {326,326,344,-1,5} {317,317,335,-1,61} {316,316,329,-1,125} {314,314,330,-1,5}
				q {310,310,332,-1,5} {319,319,333,-1,126} {309,309,345,-1,5} {311,311,327,-1,124}
				q {305,305,321,-1,61} {307,307,325,-1,5} {306,306,343,-1,131} {304,304,339,-1,128}
				q {302,302,346,-1,5} {306,306,349,-1,131} {307,307,348,-1,5} {301,301,347,-1,5}
				q {307,307,348,-1,5} {308,308,351,-1,121} {303,303,350,-1,61} {301,301,347,-1,5}
				q {319,319,352,-1,126} {302,302,346,-1,5} {301,301,347,-1,5} {309,309,353,-1,5}
				q {325,325,354,-1,5} {324,324,356,-1,5} {319,319,352,-1,126} {318,318,355,-1,61}
				q {324,324,356,-1,5} {325,325,354,-1,5} {314,314,330,-1,5} {313,313,331,-1,5}
				q {318,318,355,-1,61} {317,317,357,-1,61} {326,326,344,-1,5} {325,325,354,-1,5}
				q {330,330,360,-1,5} {329,329,359,-1,130} {306,306,349,-1,131} {302,302,346,-1,5}
				q {328,328,358,-1,5} {330,330,360,-1,5} {302,302,346,-1,5} {319,319,352,-1,126}
				q {298,298,317,-1,5} {327,327,361,-1,5} {320,320,336,-1,5} {297,297,320,-1,5}
				q {329,329,359,-1,130} {330,330,360,-1,5} {296,296,316,-1,5} {294,294,315,-1,132}
				q {296,296,316,-1,5} {330,330,360,-1,5} {328,328,358,-1,5} {298,298,317,-1,5}
				q {313,313,331,-1,5} {320,320,336,-1,5} {327,327,361,-1,5} {324,324,356,-1,5}
				q {312,312,362,-1,123} {309,309,353,-1,5} {301,301,347,-1,5} {303,303,350,-1,61}
				q {318,318,334,-1,61} {319,319,333,-1,126} {315,315,328,-1,5} {316,316,329,-1,125}
				q {345,345,367,-1,134} {344,344,366,-1,133} {336,336,364,-1,61} {339,339,365,-1,61}
				q {331,331,375,-1,5} {351,351,374,-1,5} {340,340,377,-1,136} {335,335,376,-1,135}
				q {338,338,378,-1,5} {340,340,377,-1,136} {351,351,374,-1,5} {332,332,379,-1,5}
				q {335,335,376,-1,135} {343,343,371,-1,5} {333,333,373,-1,5} {331,331,375,-1,5}
				q {343,343,371,-1,5} {335,335,376,-1,135} {336,336,364,-1,61} {344,344,366,-1,133}
				q {340,340,377,-1,136} {341,341,363,-1,61} {336,336,364,-1,61} {335,335,376,-1,135}
				q {348,348,370,-1,5} {349,349,383,-1,61} {353,353,382,-1,137} {347,347,369,-1,5}
				q {342,342,384,-1,5} {350,350,372,-1,5} {343,343,371,-1,5} {344,344,366,-1,133}
				q {338,338,378,-1,5} {337,337,385,-1,5} {341,341,363,-1,61} {340,340,377,-1,136}
				q {337,337,391,-1,5} {338,338,390,-1,5} {350,350,389,-1,5} {342,342,392,-1,5}
				q {353,353,393,-1,137} {349,349,395,-1,61} {350,350,389,-1,5} {352,352,394,-1,5}
				q {352,352,396,-1,5} {350,350,389,-1,5} {338,338,390,-1,5} {332,332,397,-1,5}
				q {334,334,400,-1,5} {333,333,398,-1,5} {346,346,368,-1,5} {352,352,401,-1,5}
				q {345,345,402,-1,134} {339,339,388,-1,61} {337,337,391,-1,5} {342,342,392,-1,5}
				q {350,350,372,-1,5} {349,349,403,-1,61} {348,348,370,-1,5} {346,346,368,-1,5}
				q {367,367,404,-1,5} {366,366,407,-1,5} {356,356,406,-1,5} {355,355,405,-1,5}
				q {364,364,411,-1,5} {354,354,410,-1,5} {357,357,409,-1,5} {359,359,408,-1,5}
				q {368,368,414,-1,140} {354,354,410,-1,5} {365,365,413,-1,139} {363,363,412,-1,138}
				q {354,354,410,-1,5} {368,368,414,-1,140} {358,358,415,-1,141} {357,357,409,-1,5}
				q {360,360,416,-1,5} {364,364,411,-1,5} {366,366,407,-1,5} {361,361,417,-1,5}
				q {368,368,418,-1,140} {367,367,404,-1,5} {355,355,405,-1,5} {358,358,419,-1,141}
				q {356,356,406,-1,5} {366,366,407,-1,5} {364,364,411,-1,5} {359,359,408,-1,5}
				q {362,362,420,-1,5} {361,361,417,-1,5} {366,366,407,-1,5} {367,367,404,-1,5}
				q {363,363,421,-1,138} {362,362,420,-1,5} {367,367,404,-1,5} {368,368,418,-1,140}
				q {360,360,416,-1,5} {365,365,413,-1,139} {354,354,410,-1,5} {364,364,411,-1,5}
				q {99,99,422,-1,5} {86,86,425,-1,5} {370,370,424,-1,5} {369,369,423,-1,5}
				q {369,369,423,-1,5} {370,370,424,-1,5} {89,89,429,-1,5} {100,100,428,-1,5}
				q {82,82,430,-1,5} {372,372,433,-1,5} {371,371,432,-1,5} {98,98,431,-1,34}
				q {372,372,433,-1,5} {80,80,435,-1,5} {97,97,434,-1,5} {371,371,432,-1,5}
				q {374,374,439,-1,142} {373,373,438,-1,5} {261,261,441,-1,5} {375,375,440,-1,143}
				q {263,263,442,-1,5} {373,373,438,-1,5} {374,374,439,-1,142} {376,376,443,-1,144}
				q {377,377,446,-1,61} {379,379,445,-1,61} {378,378,444,-1,145} {386,386,447,-1,5}
				q {381,381,450,-1,148} {380,380,449,-1,147} {382,382,448,-1,146} {383,383,451,-1,5}
				q {384,384,452,-1,149} {380,380,449,-1,147} {381,381,450,-1,148} {389,389,453,-1,150}
				q {378,378,444,-1,145} {379,379,445,-1,61} {385,385,454,-1,61} {390,390,455,-1,151}
				q {388,388,460,-1,5} {391,391,459,-1,5} {383,383,458,-1,5} {386,386,457,-1,5}
				q {394,394,463,-1,5} {393,393,462,-1,5} {383,383,451,-1,5} {382,382,448,-1,146}
				q {392,392,465,-1,152} {395,395,464,-1,5} {393,393,462,-1,5} {387,387,466,-1,5}
				q {386,386,447,-1,5} {395,395,464,-1,5} {392,392,465,-1,152} {377,377,446,-1,61}
				q {393,393,462,-1,5} {395,395,464,-1,5} {386,386,457,-1,5} {383,383,458,-1,5}
				q {384,384,452,-1,149} {389,389,453,-1,150} {390,390,468,-1,151} {385,385,467,-1,61}
				q {380,380,472,-1,147} {379,379,471,-1,61} {377,377,470,-1,61} {382,382,469,-1,146}
				q {397,397,473,-1,61} {399,399,476,-1,61} {396,396,475,-1,153} {398,398,474,-1,5}
				q {397,397,480,-1,61} {384,384,452,-1,149} {385,385,467,-1,61} {399,399,481,-1,61}
				q {379,379,445,-1,61} {396,396,483,-1,153} {399,399,482,-1,61} {385,385,454,-1,61}
				q {397,397,480,-1,61} {398,398,484,-1,5} {380,380,449,-1,147} {384,384,452,-1,149}
				q {379,379,471,-1,61} {380,380,472,-1,147} {398,398,474,-1,5} {396,396,475,-1,153}
				q {401,401,444,-1,154} {402,402,445,-1,61} {400,400,446,-1,61} {409,409,447,-1,5}
				q {405,405,448,-1,146} {403,403,449,-1,156} {404,404,450,-1,155} {406,406,451,-1,5}
				q {404,404,450,-1,155} {403,403,449,-1,156} {407,407,452,-1,158} {412,412,453,-1,157}
				q {408,408,454,-1,159} {402,402,445,-1,61} {401,401,444,-1,154} {413,413,455,-1,160}
				q {406,406,458,-1,5} {414,414,459,-1,5} {411,411,460,-1,5} {409,409,457,-1,5}
				q {406,406,451,-1,5} {416,416,462,-1,5} {417,417,463,-1,5} {405,405,448,-1,146}
				q {416,416,462,-1,5} {418,418,464,-1,5} {415,415,465,-1,161} {410,410,466,-1,5}
				q {415,415,465,-1,161} {418,418,464,-1,5} {409,409,447,-1,5} {400,400,446,-1,61}
				q {409,409,457,-1,5} {418,418,464,-1,5} {416,416,462,-1,5} {406,406,458,-1,5}
				q {413,413,468,-1,160} {412,412,453,-1,157} {407,407,452,-1,158} {408,408,467,-1,159}
				q {400,400,470,-1,61} {402,402,471,-1,61} {403,403,472,-1,156} {405,405,469,-1,146}
				q {419,419,475,-1,153} {422,422,476,-1,61} {420,420,473,-1,61} {421,421,474,-1,5}
				q {408,408,467,-1,159} {407,407,452,-1,158} {420,420,480,-1,61} {422,422,481,-1,61}
				q {422,422,482,-1,61} {419,419,483,-1,153} {402,402,445,-1,61} {408,408,454,-1,159}
				q {403,403,449,-1,156} {421,421,484,-1,5} {420,420,480,-1,61} {407,407,452,-1,158}
				q {421,421,474,-1,5} {403,403,472,-1,156} {402,402,471,-1,61} {419,419,475,-1,153}
				q {425,425,406,-1,5} {426,426,407,-1,5} {423,423,404,-1,5} {424,424,405,-1,5}
				q {428,428,409,-1,5} {429,429,410,-1,162} {430,430,411,-1,5} {427,427,408,-1,5}
				q {432,432,413,-1,164} {429,429,410,-1,162} {433,433,414,-1,165} {431,431,412,-1,163}
				q {434,434,415,-1,166} {433,433,414,-1,165} {429,429,410,-1,162} {428,428,409,-1,5}
				q {435,435,416,-1,5} {436,436,417,-1,5} {426,426,407,-1,5} {430,430,411,-1,5}
				q {424,424,405,-1,5} {423,423,404,-1,5} {433,433,418,-1,165} {434,434,419,-1,166}
				q {430,430,411,-1,5} {426,426,407,-1,5} {425,425,406,-1,5} {427,427,408,-1,5}
				q {426,426,407,-1,5} {436,436,417,-1,5} {437,437,420,-1,5} {423,423,404,-1,5}
				q {423,423,404,-1,5} {437,437,420,-1,5} {431,431,421,-1,163} {433,433,418,-1,165}
				q {429,429,410,-1,162} {432,432,413,-1,164} {435,435,416,-1,5} {430,430,411,-1,5}
				q {119,119,171,-1,47} {110,110,168,-1,40} {130,130,167,-1,5} {128,128,162,-1,52}
				q {60,60,79,-1,5} {62,62,71,-1,5} {438,438,485,-1,5} {52,52,59,-1,5}
				q {74,74,61,-1,5} {52,52,59,-1,5} {438,438,485,-1,5} {439,439,486,-1,5}
				q {75,75,85,-1,5} {74,74,61,-1,5} {439,439,486,-1,5} {64,64,75,-1,5}
				q {44,44,318,-1,5} {45,45,319,-1,5} {440,440,487,-1,5} {441,441,488,-1,5}
				q {67,67,62,-1,25} {66,66,84,-1,5} {442,442,489,-1,5} {54,54,65,-1,5}
				q {57,57,81,-1,5} {58,58,82,-1,5} {442,442,489,-1,5} {443,443,490,-1,5}
				q {444,444,491,-1,5} {292,292,320,-1,5} {290,290,313,-1,5} {41,41,53,-1,5}
				q {293,293,317,-1,5} {292,292,320,-1,5} {444,444,491,-1,5} {445,445,492,-1,5}
				q {291,291,316,-1,5} {293,293,317,-1,5} {445,445,492,-1,5} {40,40,56,-1,5}
				q {120,120,150,-1,5} {114,114,138,-1,49} {117,117,139,-1,41} {107,107,132,-1,38}
				q {265,265,297,-1,106} {447,447,495,-1,167} {251,251,293,-1,107} {252,252,299,-1,5}
			}
			CTris
			{
				numTris 97
				t {26,26,17,-1,5} {70,70,18,-1,5} {30,30,20,-1,5}
				t {29,29,22,-1,5} {27,27,25,-1,18} {28,28,21,-1,5}
				t {74,74,30,-1,5} {34,34,31,-1,5} {38,38,32,-1,5}
				t {35,35,37,-1,21} {37,37,36,-1,5} {36,36,33,-1,5}
				t {30,30,41,-1,5} {70,70,40,-1,5} {39,39,39,-1,5}
				t {29,29,50,-1,5} {47,47,51,-1,5} {27,27,52,-1,18}
				t {46,46,44,-1,5} {49,49,45,-1,5} {440,440,487,-1,5}
				t {51,51,49,-1,5} {43,43,46,-1,5} {441,441,488,-1,5}
				t {43,43,46,-1,5} {40,40,56,-1,5} {445,445,492,-1,5}
				t {74,74,61,-1,5} {38,38,60,-1,5} {52,52,59,-1,5}
				t {60,60,79,-1,5} {37,37,78,-1,5} {35,35,80,-1,21}
				t {58,58,82,-1,5} {59,59,72,-1,5} {442,442,489,-1,5}
				t {59,59,72,-1,5} {438,438,485,-1,5} {62,62,71,-1,5}
				t {64,64,75,-1,5} {439,439,486,-1,5} {56,56,74,-1,5}
				t {82,82,113,-1,5} {98,98,112,-1,34} {85,85,114,-1,32}
				t {100,100,119,-1,5} {89,89,118,-1,5} {91,91,120,-1,5}
				t {101,101,123,-1,35} {77,77,88,-1,5} {81,81,91,-1,30}
				t {101,101,123,-1,35} {81,81,91,-1,30} {70,70,18,-1,5}
				t {87,87,100,-1,5} {103,103,125,-1,36} {88,88,101,-1,33}
				t {88,88,101,-1,33} {103,103,125,-1,36} {74,74,30,-1,5}
				t {113,113,134,-1,39} {108,108,133,-1,5} {107,107,132,-1,38}
				t {106,106,130,-1,5} {110,110,135,-1,40} {105,105,129,-1,5}
				t {118,118,128,-1,19} {123,123,146,-1,46} {119,119,147,-1,47}
				t {123,123,146,-1,46} {118,118,128,-1,19} {104,104,127,-1,5}
				t {97,97,111,-1,5} {104,104,127,-1,5} {98,98,112,-1,34}
				t {121,121,152,-1,51} {95,95,145,-1,45} {115,115,142,-1,42}
				t {127,127,163,-1,5} {128,128,162,-1,52} {132,132,161,-1,5}
				t {110,110,164,-1,40} {106,106,160,-1,5} {126,126,158,-1,5}
				t {129,129,170,-1,53} {118,118,157,-1,19} {119,119,171,-1,47}
				t {129,129,170,-1,53} {119,119,171,-1,47} {128,128,162,-1,52}
				t {118,118,157,-1,19} {129,129,170,-1,53} {125,125,156,-1,5}
				t {125,125,156,-1,5} {100,100,119,-1,5} {91,91,120,-1,5}
				t {145,145,181,-1,58} {141,141,185,-1,60} {142,142,190,-1,55}
				t {144,144,188,-1,57} {138,138,183,-1,59} {145,145,181,-1,58}
				t {151,151,195,-1,5} {148,148,192,-1,5} {145,145,181,-1,58}
				t {143,143,176,-1,56} {149,149,196,-1,64} {147,147,194,-1,63}
				t {253,253,286,-1,5} {254,254,298,-1,5} {258,258,285,-1,100}
				t {267,267,296,-1,105} {265,265,297,-1,106} {252,252,299,-1,5}
				t {254,254,298,-1,5} {255,255,304,-1,5} {257,257,305,-1,101}
				t {258,258,285,-1,100} {254,254,298,-1,5} {257,257,305,-1,101}
				t {278,278,185,-1,116} {282,282,181,-1,114} {279,279,190,-1,112}
				t {275,275,183,-1,115} {281,281,188,-1,113} {282,282,181,-1,114}
				t {285,285,192,-1,5} {288,288,195,-1,5} {282,282,181,-1,114}
				t {286,286,196,-1,119} {280,280,176,-1,111} {284,284,194,-1,118}
				t {45,45,319,-1,5} {444,444,491,-1,5} {46,46,44,-1,5}
				t {305,305,321,-1,61} {308,308,322,-1,121} {307,307,325,-1,5}
				t {315,315,328,-1,5} {319,319,333,-1,126} {310,310,332,-1,5}
				t {316,316,329,-1,125} {317,317,335,-1,61} {318,318,334,-1,61}
				t {315,315,328,-1,5} {320,320,336,-1,5} {313,313,331,-1,5}
				t {321,321,337,-1,5} {297,297,320,-1,5} {320,320,336,-1,5}
				t {329,329,342,-1,130} {294,294,314,-1,132} {323,323,338,-1,127}
				t {309,309,345,-1,5} {312,312,326,-1,123} {311,311,327,-1,124}
				t {325,325,354,-1,5} {326,326,344,-1,5} {314,314,330,-1,5}
				t {324,324,356,-1,5} {328,328,358,-1,5} {319,319,352,-1,126}
				t {327,327,361,-1,5} {298,298,317,-1,5} {328,328,358,-1,5}
				t {324,324,356,-1,5} {327,327,361,-1,5} {328,328,358,-1,5}
				t {339,339,365,-1,61} {336,336,364,-1,61} {341,341,363,-1,61}
				t {348,348,370,-1,5} {347,347,369,-1,5} {346,346,368,-1,5}
				t {350,350,372,-1,5} {346,346,368,-1,5} {343,343,371,-1,5}
				t {333,333,373,-1,5} {343,343,371,-1,5} {346,346,368,-1,5}
				t {345,345,367,-1,134} {342,342,384,-1,5} {344,344,366,-1,133}
				t {339,339,388,-1,61} {341,341,387,-1,61} {337,337,386,-1,5}
				t {352,352,394,-1,5} {346,346,368,-1,5} {347,347,369,-1,5}
				t {334,334,400,-1,5} {352,352,396,-1,5} {332,332,399,-1,5}
				t {100,100,426,-1,5} {99,99,422,-1,5} {369,369,423,-1,5}
				t {89,89,427,-1,5} {370,370,424,-1,5} {86,86,425,-1,5}
				t {98,98,431,-1,34} {371,371,432,-1,5} {97,97,436,-1,5}
				t {80,80,437,-1,5} {372,372,433,-1,5} {82,82,430,-1,5}
				t {373,373,438,-1,5} {263,263,442,-1,5} {261,261,441,-1,5}
				t {376,376,443,-1,144} {374,374,439,-1,142} {375,375,440,-1,143}
				t {378,378,444,-1,145} {388,388,456,-1,5} {386,386,447,-1,5}
				t {391,391,461,-1,5} {381,381,450,-1,148} {383,383,451,-1,5}
				t {387,387,466,-1,5} {393,393,462,-1,5} {394,394,463,-1,5}
				t {382,382,469,-1,146} {377,377,470,-1,61} {387,387,477,-1,5}
				t {382,382,469,-1,146} {387,387,477,-1,5} {394,394,478,-1,5}
				t {392,392,479,-1,152} {387,387,477,-1,5} {377,377,470,-1,61}
				t {411,411,456,-1,5} {401,401,444,-1,154} {409,409,447,-1,5}
				t {404,404,450,-1,155} {414,414,461,-1,5} {406,406,451,-1,5}
				t {416,416,462,-1,5} {410,410,466,-1,5} {417,417,463,-1,5}
				t {400,400,470,-1,61} {405,405,469,-1,146} {410,410,477,-1,5}
				t {410,410,477,-1,5} {405,405,469,-1,146} {417,417,478,-1,5}
				t {410,410,477,-1,5} {415,415,479,-1,161} {400,400,470,-1,61}
				t {56,56,74,-1,5} {443,443,490,-1,5} {53,53,68,-1,5}
				t {442,442,489,-1,5} {59,59,72,-1,5} {54,54,65,-1,5}
				t {57,57,81,-1,5} {443,443,490,-1,5} {56,56,74,-1,5}
				t {56,56,74,-1,5} {439,439,486,-1,5} {57,57,81,-1,5}
				t {58,58,82,-1,5} {438,438,485,-1,5} {59,59,72,-1,5}
				t {110,110,140,-1,40} {119,119,147,-1,47} {446,446,494,-1,5}
				t {446,446,493,-1,5} {105,105,129,-1,5} {110,110,135,-1,40}
				t {119,119,147,-1,47} {123,123,146,-1,46} {446,446,494,-1,5}
				t {446,446,494,-1,5} {123,123,146,-1,46} {113,113,134,-1,39}
				t {444,444,491,-1,5} {41,41,53,-1,5} {46,46,44,-1,5}
				t {45,45,319,-1,5} {46,46,44,-1,5} {440,440,487,-1,5}
				t {44,44,318,-1,5} {43,43,46,-1,5} {445,445,492,-1,5}
				t {43,43,46,-1,5} {44,44,318,-1,5} {441,441,488,-1,5}
				t {353,353,393,-1,137} {352,352,394,-1,5} {347,347,369,-1,5}
				t {332,332,381,-1,5} {351,351,374,-1,5} {331,331,380,-1,5}
			}
		}
		CSurface
		{
			material "lambert13"
			CQuads
			{
				numQuads 22
				q {1,1,0,-1,1} {3,3,3,-1,4} {0,0,2,-1,3} {2,2,1,-1,2}
				q {5,5,4,-1,5} {3,3,7,-1,4} {6,6,6,-1,5} {4,4,5,-1,5}
				q {7,7,10,-1,5} {5,5,9,-1,5} {8,8,8,-1,5} {9,9,11,-1,5}
				q {10,10,14,-1,5} {11,11,13,-1,5} {7,7,12,-1,5} {9,9,15,-1,5}
				q {14,14,6,-1,5} {13,13,7,-1,6} {11,11,4,-1,5} {12,12,5,-1,5}
				q {17,17,0,-1,9} {15,15,3,-1,8} {13,13,2,-1,6} {16,16,1,-1,7}
				q {21,21,2,-1,11} {19,19,1,-1,10} {20,20,0,-1,13} {18,18,3,-1,12}
				q {24,24,1,-1,15} {23,23,0,-1,14} {25,25,3,-1,17} {22,22,2,-1,16}
				q {204,204,249,-1,83} {205,205,248,-1,82} {206,206,247,-1,81} {203,203,246,-1,80}
				q {208,208,250,-1,5} {209,209,253,-1,5} {207,207,252,-1,5} {210,210,251,-1,5}
				q {212,212,257,-1,5} {214,214,256,-1,5} {213,213,255,-1,5} {211,211,254,-1,5}
				q {215,215,259,-1,5} {216,216,258,-1,5} {212,212,3,-1,5} {211,211,0,-1,5}
				q {217,217,262,-1,5} {219,219,261,-1,5} {218,218,260,-1,5} {220,220,263,-1,5}
				q {224,224,267,-1,87} {223,223,266,-1,86} {222,222,265,-1,85} {221,221,264,-1,84}
				q {227,227,271,-1,91} {225,225,270,-1,90} {228,228,269,-1,89} {226,226,268,-1,88}
				q {230,230,272,-1,5} {232,232,273,-1,5} {229,229,3,-1,5} {231,231,0,-1,5}
				q {234,234,274,-1,5} {232,232,273,-1,5} {230,230,272,-1,5} {235,235,0,-1,5}
				q {237,237,2,-1,5} {238,238,1,-1,93} {236,236,0,-1,92} {239,239,3,-1,5}
				q {236,236,1,-1,92} {241,241,0,-1,94} {240,240,3,-1,5} {239,239,2,-1,5}
				q {232,232,275,-1,5} {229,229,278,-1,5} {243,243,277,-1,5} {242,242,276,-1,5}
				q {244,244,0,-1,5} {234,234,274,-1,5} {232,232,273,-1,5} {242,242,1,-1,5}
				q {246,246,279,-1,95} {248,248,282,-1,98} {245,245,281,-1,97} {247,247,280,-1,96}
			}
			CTris
			{
				numTris 2
				t {230,230,272,-1,5} {233,233,1,-1,5} {235,235,0,-1,5}
				t {233,233,1,-1,5} {230,230,272,-1,5} {231,231,0,-1,5}
			}
		}
		CIwModelExtSelSetFace
		{
			name "SortTowards1"
			otzOfs -1

			f 183
			f 184
			f 185
			f 186
			f 187
			f 188
			f 247
			f 248
			f 249
			f 250
			f 251
			f 252
			f 253
			f 254
			f 255
			f 256
			f 257
			f 381
			f 382
			f 258
			f 259
			f 260
			f 383
			f 384
			f 261
			f 262
			f 385
			f 386
			f 295
			f 296
			f 297
			f 298
			f 299
			f 300
			f 301
			f 302
			f 303
			f 304
		}
		CIwModelExtSelSetFace
		{
			name "SortAway1"
			otzOfs 1

			f 101
			f 102
			f 109
			f 110
			f 343
			f 151
			f 154
			f 346
			f 156
			f 158
			f 201
			f 202
			f 203
			f 361
			f 387
			f 267
			f 388
			f 393
			f 283
			f 394
			f 305
			f 310
			f 311
			f 399
			f 312
			f 313
			f 314
			f 401
			f 408
		}
	}
}
