{
    "name": "userTemplatesScene",
    "nodes": [
        {
            "id": "{cf20dc47-d2b1-4939-bce2-065c39fd1d36}",
            "properties": {
                "ConsumeTouch": 2,
                "Name": "Scene",
                "Size": [
                    960,
                    640
                ],
                "TemplateName": ""
            },
            "timeStamp": 1444313932152,
            "typeName": "RootNode",
            "user_properties": {
            }
        }
    ],
    "orientation": 0,
    "version": "1.0"
}
