// Source maya file: C:/Dev/dev/main/gamedemo1/Art/environment/fightArena/arena_grey.mb exported by: barclay
//: source C:/Dev/dev/main/gamedemo1/Art/environment/fightArena/arena_grey.mb
// Maya geometry export, written by IwEngineExporter.mll

// Materials
CIwMaterial
{
	name	"lavaRock"
	mapDiffuse	"thm_01.bmp"
	//: texture "C:/Dev/dev/main/gamedemo1/Art/environment/fightArena/textures/thm_01.bmp"
}
CIwMaterial
{
	name	"base2"
	mapDiffuse	"center.bmp"
	//: texture "C:/Dev/dev/main/gamedemo1/Art/environment/fightArena/textures/center.bmp"
}

