// Source file: worldexportscene_scene.max
CIwModel
{
	name "apple"
	CMesh
	{
		name "apple"
		scale 1.0
		CVerts
		{
			numVerts 153
			v {0.03407,8.35170,-0.04668}
			v {0.03407,9.87866,-2.22429}
			v {-0.79926,9.76867,-2.05853}
			v {-1.50573,9.60142,-1.58648}
			v {-1.97777,9.49959,-0.88002}
			v {-2.09133,9.55661,-0.09870}
			v {-1.87738,9.62240,0.68662}
			v {-1.45352,9.64622,1.44110}
			v {-0.79926,9.61400,1.96516}
			v {0.03407,9.65571,2.13092}
			v {0.86740,9.67572,1.96516}
			v {1.57387,9.62309,1.49311}
			v {2.04591,9.55852,0.78665}
			v {2.21167,9.64832,-0.04668}
			v {2.04591,9.79310,-0.88002}
			v {1.57387,9.88464,-1.58648}
			v {0.86740,9.89805,-2.05853}
			v {0.02586,9.26941,-4.04156}
			v {-1.47500,9.30180,-3.73744}
			v {-2.61252,9.16641,-2.71963}
			v {-3.65261,9.13188,-1.55984}
			v {-3.80411,9.16448,-0.23152}
			v {-3.28826,9.24527,1.09945}
			v {-2.62560,9.18941,2.61365}
			v {-1.48143,9.16052,3.62765}
			v {0.07367,9.21025,3.81565}
			v {1.58000,9.30182,3.64575}
			v {2.87924,9.22634,2.79849}
			v {3.72073,9.15013,1.49304}
			v {3.85907,9.18982,-0.04717}
			v {3.72073,9.30182,-1.58656}
			v {2.87104,9.26979,-2.86305}
			v {1.52082,9.22456,-3.57790}
			v {-0.00801,7.84269,-5.15616}
			v {-1.82022,7.84269,-4.76706}
			v {-3.03199,7.84269,-3.19918}
			v {-4.66539,7.84269,-1.92188}
			v {-5.12756,7.84269,-0.14191}
			v {-4.42788,7.84269,1.57150}
			v {-3.28826,7.84269,3.27706}
			v {-1.84367,7.84269,4.58001}
			v {0.16397,7.84269,4.68132}
			v {2.07733,7.84269,4.68232}
			v {3.75147,7.84269,3.67071}
			v {4.73346,7.84269,1.96477}
			v {4.63962,7.84269,-0.04828}
			v {4.73346,7.84269,-2.05891}
			v {3.70939,7.84269,-3.61637}
			v {1.87194,7.84269,-4.29304}
			v {0.00795,5.66509,-5.63170}
			v {-1.93637,5.66509,-5.20645}
			v {-3.18563,5.66509,-3.50547}
			v {-4.88703,5.66509,-2.12685}
			v {-5.33916,5.66509,-0.11458}
			v {-4.60935,5.66509,1.73726}
			v {-3.42964,5.66509,3.58334}
			v {-1.95351,5.66509,5.04667}
			v {0.16057,5.66509,5.11447}
			v {2.13727,5.66509,5.11924}
			v {3.87924,5.66509,3.97700}
			v {4.95804,5.66509,2.13064}
			v {4.85680,5.66509,-0.04828}
			v {4.95803,5.66509,-2.22456}
			v {3.85344,5.66509,-3.96504}
			v {1.94909,5.66509,-4.69322}
			v {0.00461,4.06108,-5.15616}
			v {-1.56901,4.06108,-4.76706}
			v {-2.59049,4.06108,-3.19918}
			v {-4.03836,4.06108,-1.92188}
			v {-4.47353,4.06108,-0.14191}
			v {-3.85165,4.06108,1.57150}
			v {-2.83487,4.06108,3.27706}
			v {-1.58606,4.06108,4.58001}
			v {0.15359,4.06108,4.68132}
			v {1.81900,4.06108,4.68232}
			v {3.28416,4.06108,3.67071}
			v {4.12596,4.06108,1.96477}
			v {4.00756,4.06108,-0.04828}
			v {4.12600,4.06108,-2.05891}
			v {3.23681,4.06108,-3.61637}
			v {1.62483,4.06108,-4.29304}
			v {0.03927,2.24990,-4.06376}
			v {-1.27901,2.24990,-3.75797}
			v {-2.28457,2.24990,-2.78804}
			v {-3.17359,2.24990,-1.58037}
			v {-3.31097,2.24990,-0.23152}
			v {-2.84913,2.24990,1.09945}
			v {-2.24929,2.24990,2.61365}
			v {-1.27787,2.24990,3.66078}
			v {0.06162,2.24990,3.87974}
			v {1.37076,2.24990,3.66499}
			v {2.50942,2.24990,2.79849}
			v {3.25751,2.24990,1.49309}
			v {3.39433,2.24990,-0.04698}
			v {3.25753,2.24990,-1.58650}
			v {2.50040,2.24990,-2.88526}
			v {1.33018,2.24990,-3.65185}
			v {0.03436,0.40789,-2.22429}
			v {-0.79386,0.40789,-2.05853}
			v {-1.49092,0.40789,-1.58648}
			v {-1.96512,0.40789,-0.88002}
			v {-2.11612,0.40789,-0.05009}
			v {-1.92304,0.40789,0.76687}
			v {-1.48386,0.40789,1.48970}
			v {-0.79381,0.40789,1.96516}
			v {0.03445,0.40789,2.13092}
			v {0.86264,0.40789,1.96516}
			v {1.56496,0.40789,1.49311}
			v {2.03394,0.40789,0.78665}
			v {2.19363,0.40789,-0.04668}
			v {2.03394,0.40789,-0.88002}
			v {1.56479,0.40789,-1.58648}
			v {0.86081,0.40789,-2.05853}
			v {0.03407,-0.02526,-0.04668}
			v {-3.99825,11.86318,-3.99063}
			v {-4.94966,11.98342,-3.89329}
			v {-5.25384,11.50916,-3.30744}
			v {-2.34970,11.51062,-3.31026}
			v {-4.90118,10.79121,-1.92194}
			v {-1.20261,11.01668,-2.35704}
			v {-4.31633,10.13874,-0.66279}
			v {-0.46292,10.40786,-1.18214}
			v {-2.94572,10.09435,-2.20766}
			v {-3.46686,9.87430,-0.15248}
			v {-0.07853,9.69886,0.18609}
			v {-0.79754,9.66266,0.25595}
			v {-1.67004,9.63303,0.31314}
			v {-2.58216,9.68905,0.20503}
			v {-3.99825,12.11404,-3.86064}
			v {-5.25384,11.76002,-3.17744}
			v {-2.34971,11.76148,-3.18027}
			v {-2.94572,10.34521,-2.07766}
			v {-4.90118,11.04207,-1.79195}
			v {-1.20261,11.26754,-2.22705}
			v {-4.31633,10.38960,-0.53280}
			v {-0.46292,10.65872,-1.05215}
			v {-3.46686,10.12516,-0.02248}
			v {-0.07853,9.94972,0.31608}
			v {-0.79754,9.91352,0.38594}
			v {-1.67004,9.88388,0.44313}
			v {-2.58216,9.93990,0.33502}
			v {-0.28370,8.05266,-0.34075}
			v {0.35135,8.05266,-0.34075}
			v {-1.55075,11.89895,-0.87391}
			v {-1.21522,12.17426,-0.89533}
			v {-0.28370,8.05266,0.25906}
			v {0.35135,8.05266,0.25906}
			v {-1.73681,12.19894,-0.79005}
			v {-1.44413,12.47426,-0.79005}
			v {-0.62346,10.19003,-0.34075}
			v {0.01159,10.19003,-0.34075}
			v {0.01159,10.24251,0.25906}
			v {-0.62346,10.24251,0.25906}
		}
		CVertNorms
		{
			numVertNorms 186
			vn {-0.01682,0.99949,0.02721}
			vn {-0.05391,0.99311,0.10401}
			vn {-0.09668,0.98117,0.16721}
			vn {-0.03191,0.98566,0.16571}
			vn {0.07097,0.99547,0.06321}
			vn {0.09327,0.99310,-0.07103}
			vn {0.09142,0.99202,-0.08679}
			vn {0.07071,0.99538,-0.06493}
			vn {0.03164,0.99699,-0.07072}
			vn {-0.04661,0.99406,-0.09837}
			vn {-0.03330,0.99172,-0.12400}
			vn {-0.03467,0.99105,-0.12891}
			vn {-0.07873,0.99630,-0.03454}
			vn {-0.07479,0.98869,0.12998}
			vn {-0.03811,0.98849,0.14638}
			vn {-0.01940,0.99588,0.08862}
			vn {-0.01582,0.99774,0.06524}
			vn {0.04502,0.78917,-0.61253}
			vn {-0.32824,0.78696,-0.52245}
			vn {-0.46538,0.76809,-0.43984}
			vn {-0.50145,0.83010,-0.24387}
			vn {-0.51526,0.85607,0.04058}
			vn {-0.48972,0.84782,0.20339}
			vn {-0.48433,0.79497,0.36531}
			vn {-0.23913,0.79861,0.55231}
			vn {-0.05206,0.79699,0.60174}
			vn {0.17302,0.83289,0.52570}
			vn {0.40812,0.84440,0.34704}
			vn {0.55536,0.81852,0.14699}
			vn {0.61145,0.78913,0.05841}
			vn {0.55906,0.81246,-0.16542}
			vn {0.38330,0.79133,-0.47632}
			vn {0.27039,0.75461,-0.59787}
			vn {0.08812,0.39883,-0.91278}
			vn {-0.49168,0.38386,-0.78160}
			vn {-0.66342,0.31048,-0.68079}
			vn {-0.79584,0.36276,-0.48481}
			vn {-0.91521,0.39756,0.06586}
			vn {-0.81302,0.40312,0.42012}
			vn {-0.71414,0.37616,0.59035}
			vn {-0.34907,0.40136,0.84679}
			vn {-0.03220,0.37747,0.92546}
			vn {0.26472,0.39302,0.88060}
			vn {0.66183,0.39855,0.63493}
			vn {0.89816,0.38019,0.22081}
			vn {0.94578,0.32437,0.01675}
			vn {0.90085,0.35274,-0.25305}
			vn {0.58338,0.38438,-0.71548}
			vn {0.36895,0.36000,-0.85690}
			vn {0.10723,-0.03993,-0.99343}
			vn {-0.54587,-0.07462,-0.83454}
			vn {-0.71883,-0.12178,-0.68444}
			vn {-0.84198,-0.15748,-0.51602}
			vn {-0.98110,-0.18107,0.06828}
			vn {-0.88110,-0.15986,0.44509}
			vn {-0.77262,-0.12200,0.62304}
			vn {-0.39689,-0.06430,0.91561}
			vn {-0.01910,-0.03164,0.99932}
			vn {0.29334,-0.05688,0.95431}
			vn {0.72408,-0.12168,0.67890}
			vn {0.95564,-0.17612,0.23607}
			vn {0.98124,-0.19279,0.00157}
			vn {0.95329,-0.16828,-0.25082}
			vn {0.63612,-0.10740,-0.76408}
			vn {0.39859,-0.05695,-0.91536}
			vn {0.10564,-0.39481,-0.91267}
			vn {-0.50482,-0.38552,-0.77235}
			vn {-0.72673,-0.33302,-0.60080}
			vn {-0.75533,-0.46012,-0.46666}
			vn {-0.86081,-0.50642,0.05046}
			vn {-0.80456,-0.46207,0.37306}
			vn {-0.72191,-0.40707,0.55958}
			vn {-0.37434,-0.39259,0.84009}
			vn {-0.00977,-0.35122,0.93624}
			vn {0.26693,-0.40967,0.87231}
			vn {0.66446,-0.44500,0.60039}
			vn {0.86989,-0.44775,0.20693}
			vn {0.91298,-0.40778,-0.01371}
			vn {0.85665,-0.46976,-0.21328}
			vn {0.59426,-0.42576,-0.68234}
			vn {0.38439,-0.35116,-0.85377}
			vn {0.06026,-0.58612,-0.80798}
			vn {-0.38872,-0.57874,-0.71691}
			vn {-0.68454,-0.46206,-0.56383}
			vn {-0.79511,-0.49761,-0.34668}
			vn {-0.84985,-0.52192,0.07311}
			vn {-0.80457,-0.50699,0.30924}
			vn {-0.70243,-0.52464,0.48098}
			vn {-0.38904,-0.56807,0.72522}
			vn {0.01175,-0.55846,0.82945}
			vn {0.29718,-0.58636,0.75357}
			vn {0.60335,-0.58578,0.54114}
			vn {0.80773,-0.53408,0.24968}
			vn {0.89006,-0.45526,-0.02310}
			vn {0.82088,-0.51799,-0.24049}
			vn {0.59447,-0.56854,-0.56865}
			vn {0.33696,-0.53838,-0.77240}
			vn {0.00830,-0.86245,-0.50608}
			vn {-0.20300,-0.86074,-0.46682}
			vn {-0.40456,-0.83506,-0.37284}
			vn {-0.52674,-0.82316,-0.21200}
			vn {-0.59101,-0.80614,0.02920}
			vn {-0.56616,-0.78717,0.24460}
			vn {-0.45075,-0.80564,0.38440}
			vn {-0.22927,-0.84813,0.47761}
			vn {0.00203,-0.86098,0.50863}
			vn {0.19813,-0.85959,0.47102}
			vn {0.38361,-0.84796,0.36579}
			vn {0.52013,-0.83028,0.20025}
			vn {0.58357,-0.81199,-0.01047}
			vn {0.53396,-0.82140,-0.20048}
			vn {0.39124,-0.84171,-0.37210}
			vn {0.20428,-0.85206,-0.48194}
			vn {-0.00073,-1.00000,0.00026}
			vn {-0.06982,-0.72849,-0.68149}
			vn {0.21996,-0.65522,-0.72271}
			vn {-0.01122,-0.87512,-0.48377}
			vn {-0.13475,-0.80704,-0.57492}
			vn {-0.31706,-0.85269,-0.41520}
			vn {0.30552,-0.81143,-0.49824}
			vn {0.31960,-0.70632,-0.63164}
			vn {-0.27938,-0.93440,-0.22102}
			vn {0.25147,-0.85000,-0.46289}
			vn {-0.17273,-0.97378,-0.14806}
			vn {0.00000,-0.88787,-0.46009}
			vn {0.09043,-0.92666,-0.36486}
			vn {-0.00000,-0.98366,-0.18002}
			vn {-0.07945,-0.98495,-0.15349}
			vn {-0.13170,0.66377,0.73625}
			vn {0.13024,0.81351,0.56677}
			vn {-0.00100,0.88004,0.47490}
			vn {-0.21996,0.65522,0.72271}
			vn {0.26744,0.88166,0.38879}
			vn {0.35307,0.87014,0.34380}
			vn {-0.31960,0.70632,0.63164}
			vn {0.27938,0.93440,0.22102}
			vn {-0.25147,0.85000,0.46289}
			vn {0.17274,0.97378,0.14806}
			vn {-0.09043,0.92666,0.36486}
			vn {-0.00000,0.88787,0.46009}
			vn {-0.00000,0.98366,0.18002}
			vn {0.07946,0.98495,0.15349}
			vn {-0.03268,0.45984,-0.88740}
			vn {-0.61463,0.36292,-0.70037}
			vn {-0.92461,0.17525,-0.33820}
			vn {-0.97540,-0.10142,0.19572}
			vn {-0.95333,-0.13891,0.26807}
			vn {-0.77534,-0.29056,0.56074}
			vn {-0.48903,-0.40131,0.77446}
			vn {-0.41424,-0.41875,0.80811}
			vn {-0.13232,-0.45604,0.88007}
			vn {-0.02950,-0.45989,0.88749}
			vn {0.09121,-0.45817,0.88417}
			vn {0.10877,-0.45736,0.88261}
			vn {0.97027,0.11135,-0.21489}
			vn {0.92974,0.16941,-0.32692}
			vn {0.78747,0.28357,-0.54724}
			vn {0.55944,0.38135,-0.73593}
			vn {0.42152,0.41722,-0.80514}
			vn {0,-0.17822,-0.98399}
			vn {0.00711,-0.10659,-0.99428}
			vn {0,0,-1}
			vn {0,-0.00000,1}
			vn {0,0.16348,0.98655}
			vn {-0.01331,0.25259,0.96748}
			vn {0,-1,0}
			vn {0.93798,0.34547,-0.02911}
			vn {0.94395,0.32927,-0.02332}
			vn {0.98770,0.15636,-0.00231}
			vn {0.98760,0.15699,0}
			vn {-0.18669,0.17692,-0.96636}
			vn {-0.18847,0.15422,-0.96989}
			vn {-0.18692,0.17402,-0.96684}
			vn {-0.18504,0.19671,-0.96284}
			vn {-0.85862,-0.51073,-0.04396}
			vn {-0.94722,-0.31947,0.02685}
			vn {-0.95360,-0.30024,0.02247}
			vn {-0.85524,-0.51545,-0.05363}
			vn {0.09244,-0.21856,-0.97144}
			vn {0.10680,-0.20584,-0.97274}
			vn {-0.25352,0.33360,0.90798}
			vn {-0.29625,0.31493,0.90170}
			vn {0.81350,0.57367,0.09545}
			vn {0.80834,0.57853,0.10905}
			vn {-0.98760,-0.15699,0}
			vn {-0.98770,-0.15636,0.00231}
		}
		CUVs
		{
			setID 0
			numUVs 183
			uv {0,-1}
			uv {0.06250,-1}
			uv {0.12500,-1}
			uv {0.18750,-1}
			uv {0.25000,-1}
			uv {0.31250,-1}
			uv {0.37500,-1}
			uv {0.43750,-1}
			uv {0.50000,-1}
			uv {0.56250,-1}
			uv {0.62500,-1}
			uv {0.68750,-1}
			uv {0.75000,-1}
			uv {0.81250,-1}
			uv {0.87500,-1}
			uv {0.93750,-1}
			uv {0,-0.87500}
			uv {0.06250,-0.87500}
			uv {0.12500,-0.87500}
			uv {0.18750,-0.87500}
			uv {0.25000,-0.87500}
			uv {0.31250,-0.87500}
			uv {0.37500,-0.87500}
			uv {0.43750,-0.87500}
			uv {0.50000,-0.87500}
			uv {0.56250,-0.87500}
			uv {0.62500,-0.87500}
			uv {0.68750,-0.87500}
			uv {0.75000,-0.87500}
			uv {0.81250,-0.87500}
			uv {0.87500,-0.87500}
			uv {0.93750,-0.87500}
			uv {1,-0.47285}
			uv {0,-0.80374}
			uv {0.06250,-0.80374}
			uv {0.12500,-0.80374}
			uv {0.18750,-0.80374}
			uv {0.25000,-0.80374}
			uv {0.31250,-0.80374}
			uv {0.37500,-0.80374}
			uv {0.43750,-0.80374}
			uv {0.50000,-0.80374}
			uv {0.56250,-0.80374}
			uv {0.62500,-0.80374}
			uv {0.68750,-0.80374}
			uv {0.75000,-0.80374}
			uv {0.81250,-0.80374}
			uv {0.87500,-0.80374}
			uv {0.93750,-0.80374}
			uv {1,-0.80374}
			uv {0,-0.55229}
			uv {0.06250,-0.60919}
			uv {0.12500,-0.62184}
			uv {0.18750,-0.58074}
			uv {0.25000,-0.55229}
			uv {0.31250,-0.57758}
			uv {0.37816,-0.62184}
			uv {0.43750,-0.58707}
			uv {0.50000,-0.55229}
			uv {0.56566,-0.59971}
			uv {0.62184,-0.59655}
			uv {0.68750,-0.58707}
			uv {0.75000,-0.55229}
			uv {0.82514,-0.60603}
			uv {0.89081,-0.57758}
			uv {0.95014,-0.58707}
			uv {1,-0.55229}
			uv {0,-0.46207}
			uv {0.06250,-0.46207}
			uv {0.12500,-0.46207}
			uv {0.18750,-0.46207}
			uv {0.25000,-0.46207}
			uv {0.31250,-0.46207}
			uv {0.37500,-0.46207}
			uv {0.43750,-0.46207}
			uv {0.50000,-0.46207}
			uv {0.56250,-0.46207}
			uv {0.62500,-0.46207}
			uv {0.68750,-0.46207}
			uv {0.75000,-0.46207}
			uv {0.81250,-0.46207}
			uv {0.87500,-0.46207}
			uv {0.93750,-0.46207}
			uv {1,-0.46207}
			uv {0,-0.37500}
			uv {0.06250,-0.37500}
			uv {0.12500,-0.37500}
			uv {0.18750,-0.37500}
			uv {0.25000,-0.37500}
			uv {0.31250,-0.37500}
			uv {0.37500,-0.37500}
			uv {0.43750,-0.37500}
			uv {0.50000,-0.37500}
			uv {0.56250,-0.37500}
			uv {0.62500,-0.37500}
			uv {0.68750,-0.37500}
			uv {0.75000,-0.37500}
			uv {0.81250,-0.37500}
			uv {0.87500,-0.37500}
			uv {0.93750,-0.37500}
			uv {1,-0.37500}
			uv {0,-0.25000}
			uv {0.06250,-0.25000}
			uv {0.12500,-0.25000}
			uv {0.18750,-0.25000}
			uv {0.25000,-0.25000}
			uv {0.31250,-0.25000}
			uv {0.37500,-0.25000}
			uv {0.43750,-0.25000}
			uv {0.50000,-0.25000}
			uv {0.56250,-0.25000}
			uv {0.62500,-0.25000}
			uv {0.68750,-0.25000}
			uv {0.75000,-0.25000}
			uv {0.81250,-0.25000}
			uv {0.87500,-0.25000}
			uv {0.93750,-0.25000}
			uv {1,-0.25000}
			uv {0,-0.12500}
			uv {0.06250,-0.12500}
			uv {0.12500,-0.12500}
			uv {0.18750,-0.12500}
			uv {0.25000,-0.12500}
			uv {0.31250,-0.12500}
			uv {0.37500,-0.12500}
			uv {0.43750,-0.12500}
			uv {0.50000,-0.12500}
			uv {0.56250,-0.12500}
			uv {0.62500,-0.12500}
			uv {0.68750,-0.12500}
			uv {0.75000,-0.12500}
			uv {0.81250,-0.12500}
			uv {0.87500,-0.12500}
			uv {0.93750,-0.12500}
			uv {1,-0.12500}
			uv {0,-0.00000}
			uv {0.06250,-0.00000}
			uv {0.12500,-0.00000}
			uv {0.18750,-0.00000}
			uv {0.25000,-0.00000}
			uv {0.31250,-0.00000}
			uv {0.37500,-0.00000}
			uv {0.43750,-0.00000}
			uv {0.50000,-0.00000}
			uv {0.56250,-0.00000}
			uv {0.62500,-0.00000}
			uv {0.68750,-0.00000}
			uv {0.75000,-0.00000}
			uv {0.81250,-0.00000}
			uv {0.87500,-0.00000}
			uv {0.93750,-0.00000}
			uv {1.00098,-0.00218}
			uv {0.50098,-0.00218}
			uv {0.00098,-0.00218}
			uv {1.00098,-0.09386}
			uv {0.00098,-0.09386}
			uv {1.00098,-0.19186}
			uv {0.00098,-0.19186}
			uv {1.00098,-0.23603}
			uv {0.50098,-0.40169}
			uv {0.00098,-0.23603}
			uv {1.00098,-0.52403}
			uv {0.66765,-0.52403}
			uv {0.33432,-0.52403}
			uv {0.00098,-0.52403}
			uv {0.50098,-0.46419}
			uv {0.25098,-0.00218}
			uv {0.75098,-0.00218}
			uv {0.25098,-0.52403}
			uv {0.50098,-0.52403}
			uv {0.75098,-0.52403}
			uv {0.33432,-0.00218}
			uv {0.66765,-0.00218}
			uv {1,0}
			uv {1,-0.59785}
			uv {1,-0.61923}
			uv {0.38077,0}
			uv {0,-0.61923}
			uv {0.61923,0}
			uv {1,-0.50606}
			uv {0.50606,-1}
			uv {0,-0.50606}
			uv {0.49394,-1}
		}
		CSurface
		{
			material "appletex"
			CQuads
			{
				numQuads 96
				q {1,1,16,-1,-1} {2,2,17,-1,-1} {18,18,34,-1,-1} {17,17,33,-1,-1}
				q {2,2,17,-1,-1} {3,3,18,-1,-1} {19,19,35,-1,-1} {18,18,34,-1,-1}
				q {3,3,18,-1,-1} {4,4,19,-1,-1} {20,20,36,-1,-1} {19,19,35,-1,-1}
				q {4,4,19,-1,-1} {5,5,20,-1,-1} {21,21,37,-1,-1} {20,20,36,-1,-1}
				q {5,5,20,-1,-1} {6,6,21,-1,-1} {22,22,38,-1,-1} {21,21,37,-1,-1}
				q {6,6,21,-1,-1} {7,7,22,-1,-1} {23,23,39,-1,-1} {22,22,38,-1,-1}
				q {7,7,22,-1,-1} {8,8,23,-1,-1} {24,24,40,-1,-1} {23,23,39,-1,-1}
				q {8,8,23,-1,-1} {9,9,24,-1,-1} {25,25,41,-1,-1} {24,24,40,-1,-1}
				q {9,9,24,-1,-1} {10,10,25,-1,-1} {26,26,42,-1,-1} {25,25,41,-1,-1}
				q {10,10,25,-1,-1} {11,11,26,-1,-1} {27,27,43,-1,-1} {26,26,42,-1,-1}
				q {11,11,26,-1,-1} {12,12,27,-1,-1} {28,28,44,-1,-1} {27,27,43,-1,-1}
				q {12,12,27,-1,-1} {13,13,28,-1,-1} {29,29,45,-1,-1} {28,28,44,-1,-1}
				q {13,13,28,-1,-1} {14,14,29,-1,-1} {30,30,46,-1,-1} {29,29,45,-1,-1}
				q {14,14,29,-1,-1} {15,15,30,-1,-1} {31,31,47,-1,-1} {30,30,46,-1,-1}
				q {15,15,30,-1,-1} {16,16,31,-1,-1} {32,32,48,-1,-1} {31,31,47,-1,-1}
				q {16,16,31,-1,-1} {1,1,32,-1,-1} {17,17,49,-1,-1} {32,32,48,-1,-1}
				q {17,17,33,-1,-1} {18,18,34,-1,-1} {34,34,51,-1,-1} {33,33,50,-1,-1}
				q {18,18,34,-1,-1} {19,19,35,-1,-1} {35,35,52,-1,-1} {34,34,51,-1,-1}
				q {19,19,35,-1,-1} {20,20,36,-1,-1} {36,36,53,-1,-1} {35,35,52,-1,-1}
				q {20,20,36,-1,-1} {21,21,37,-1,-1} {37,37,54,-1,-1} {36,36,53,-1,-1}
				q {21,21,37,-1,-1} {22,22,38,-1,-1} {38,38,55,-1,-1} {37,37,54,-1,-1}
				q {22,22,38,-1,-1} {23,23,39,-1,-1} {39,39,56,-1,-1} {38,38,55,-1,-1}
				q {23,23,39,-1,-1} {24,24,40,-1,-1} {40,40,57,-1,-1} {39,39,56,-1,-1}
				q {24,24,40,-1,-1} {25,25,41,-1,-1} {41,41,58,-1,-1} {40,40,57,-1,-1}
				q {25,25,41,-1,-1} {26,26,42,-1,-1} {42,42,59,-1,-1} {41,41,58,-1,-1}
				q {26,26,42,-1,-1} {27,27,43,-1,-1} {43,43,60,-1,-1} {42,42,59,-1,-1}
				q {27,27,43,-1,-1} {28,28,44,-1,-1} {44,44,61,-1,-1} {43,43,60,-1,-1}
				q {28,28,44,-1,-1} {29,29,45,-1,-1} {45,45,62,-1,-1} {44,44,61,-1,-1}
				q {29,29,45,-1,-1} {30,30,46,-1,-1} {46,46,63,-1,-1} {45,45,62,-1,-1}
				q {30,30,46,-1,-1} {31,31,47,-1,-1} {47,47,64,-1,-1} {46,46,63,-1,-1}
				q {31,31,47,-1,-1} {32,32,48,-1,-1} {48,48,65,-1,-1} {47,47,64,-1,-1}
				q {32,32,48,-1,-1} {17,17,49,-1,-1} {33,33,66,-1,-1} {48,48,65,-1,-1}
				q {33,33,50,-1,-1} {34,34,51,-1,-1} {50,50,68,-1,-1} {49,49,67,-1,-1}
				q {34,34,51,-1,-1} {35,35,52,-1,-1} {51,51,69,-1,-1} {50,50,68,-1,-1}
				q {35,35,52,-1,-1} {36,36,53,-1,-1} {52,52,70,-1,-1} {51,51,69,-1,-1}
				q {36,36,53,-1,-1} {37,37,54,-1,-1} {53,53,71,-1,-1} {52,52,70,-1,-1}
				q {37,37,54,-1,-1} {38,38,55,-1,-1} {54,54,72,-1,-1} {53,53,71,-1,-1}
				q {38,38,55,-1,-1} {39,39,56,-1,-1} {55,55,73,-1,-1} {54,54,72,-1,-1}
				q {39,39,56,-1,-1} {40,40,57,-1,-1} {56,56,74,-1,-1} {55,55,73,-1,-1}
				q {40,40,57,-1,-1} {41,41,58,-1,-1} {57,57,75,-1,-1} {56,56,74,-1,-1}
				q {41,41,58,-1,-1} {42,42,59,-1,-1} {58,58,76,-1,-1} {57,57,75,-1,-1}
				q {42,42,59,-1,-1} {43,43,60,-1,-1} {59,59,77,-1,-1} {58,58,76,-1,-1}
				q {43,43,60,-1,-1} {44,44,61,-1,-1} {60,60,78,-1,-1} {59,59,77,-1,-1}
				q {44,44,61,-1,-1} {45,45,62,-1,-1} {61,61,79,-1,-1} {60,60,78,-1,-1}
				q {45,45,62,-1,-1} {46,46,63,-1,-1} {62,62,80,-1,-1} {61,61,79,-1,-1}
				q {46,46,63,-1,-1} {47,47,64,-1,-1} {63,63,81,-1,-1} {62,62,80,-1,-1}
				q {47,47,64,-1,-1} {48,48,65,-1,-1} {64,64,82,-1,-1} {63,63,81,-1,-1}
				q {48,48,65,-1,-1} {33,33,66,-1,-1} {49,49,83,-1,-1} {64,64,82,-1,-1}
				q {49,49,67,-1,-1} {50,50,68,-1,-1} {66,66,85,-1,-1} {65,65,84,-1,-1}
				q {50,50,68,-1,-1} {51,51,69,-1,-1} {67,67,86,-1,-1} {66,66,85,-1,-1}
				q {51,51,69,-1,-1} {52,52,70,-1,-1} {68,68,87,-1,-1} {67,67,86,-1,-1}
				q {52,52,70,-1,-1} {53,53,71,-1,-1} {69,69,88,-1,-1} {68,68,87,-1,-1}
				q {53,53,71,-1,-1} {54,54,72,-1,-1} {70,70,89,-1,-1} {69,69,88,-1,-1}
				q {54,54,72,-1,-1} {55,55,73,-1,-1} {71,71,90,-1,-1} {70,70,89,-1,-1}
				q {55,55,73,-1,-1} {56,56,74,-1,-1} {72,72,91,-1,-1} {71,71,90,-1,-1}
				q {56,56,74,-1,-1} {57,57,75,-1,-1} {73,73,92,-1,-1} {72,72,91,-1,-1}
				q {57,57,75,-1,-1} {58,58,76,-1,-1} {74,74,93,-1,-1} {73,73,92,-1,-1}
				q {58,58,76,-1,-1} {59,59,77,-1,-1} {75,75,94,-1,-1} {74,74,93,-1,-1}
				q {59,59,77,-1,-1} {60,60,78,-1,-1} {76,76,95,-1,-1} {75,75,94,-1,-1}
				q {60,60,78,-1,-1} {61,61,79,-1,-1} {77,77,96,-1,-1} {76,76,95,-1,-1}
				q {61,61,79,-1,-1} {62,62,80,-1,-1} {78,78,97,-1,-1} {77,77,96,-1,-1}
				q {62,62,80,-1,-1} {63,63,81,-1,-1} {79,79,98,-1,-1} {78,78,97,-1,-1}
				q {63,63,81,-1,-1} {64,64,82,-1,-1} {80,80,99,-1,-1} {79,79,98,-1,-1}
				q {64,64,82,-1,-1} {49,49,83,-1,-1} {65,65,100,-1,-1} {80,80,99,-1,-1}
				q {65,65,84,-1,-1} {66,66,85,-1,-1} {82,82,102,-1,-1} {81,81,101,-1,-1}
				q {66,66,85,-1,-1} {67,67,86,-1,-1} {83,83,103,-1,-1} {82,82,102,-1,-1}
				q {67,67,86,-1,-1} {68,68,87,-1,-1} {84,84,104,-1,-1} {83,83,103,-1,-1}
				q {68,68,87,-1,-1} {69,69,88,-1,-1} {85,85,105,-1,-1} {84,84,104,-1,-1}
				q {69,69,88,-1,-1} {70,70,89,-1,-1} {86,86,106,-1,-1} {85,85,105,-1,-1}
				q {70,70,89,-1,-1} {71,71,90,-1,-1} {87,87,107,-1,-1} {86,86,106,-1,-1}
				q {71,71,90,-1,-1} {72,72,91,-1,-1} {88,88,108,-1,-1} {87,87,107,-1,-1}
				q {72,72,91,-1,-1} {73,73,92,-1,-1} {89,89,109,-1,-1} {88,88,108,-1,-1}
				q {73,73,92,-1,-1} {74,74,93,-1,-1} {90,90,110,-1,-1} {89,89,109,-1,-1}
				q {74,74,93,-1,-1} {75,75,94,-1,-1} {91,91,111,-1,-1} {90,90,110,-1,-1}
				q {75,75,94,-1,-1} {76,76,95,-1,-1} {92,92,112,-1,-1} {91,91,111,-1,-1}
				q {76,76,95,-1,-1} {77,77,96,-1,-1} {93,93,113,-1,-1} {92,92,112,-1,-1}
				q {77,77,96,-1,-1} {78,78,97,-1,-1} {94,94,114,-1,-1} {93,93,113,-1,-1}
				q {78,78,97,-1,-1} {79,79,98,-1,-1} {95,95,115,-1,-1} {94,94,114,-1,-1}
				q {79,79,98,-1,-1} {80,80,99,-1,-1} {96,96,116,-1,-1} {95,95,115,-1,-1}
				q {80,80,99,-1,-1} {65,65,100,-1,-1} {81,81,117,-1,-1} {96,96,116,-1,-1}
				q {81,81,101,-1,-1} {82,82,102,-1,-1} {98,98,119,-1,-1} {97,97,118,-1,-1}
				q {82,82,102,-1,-1} {83,83,103,-1,-1} {99,99,120,-1,-1} {98,98,119,-1,-1}
				q {83,83,103,-1,-1} {84,84,104,-1,-1} {100,100,121,-1,-1} {99,99,120,-1,-1}
				q {84,84,104,-1,-1} {85,85,105,-1,-1} {101,101,122,-1,-1} {100,100,121,-1,-1}
				q {85,85,105,-1,-1} {86,86,106,-1,-1} {102,102,123,-1,-1} {101,101,122,-1,-1}
				q {86,86,106,-1,-1} {87,87,107,-1,-1} {103,103,124,-1,-1} {102,102,123,-1,-1}
				q {87,87,107,-1,-1} {88,88,108,-1,-1} {104,104,125,-1,-1} {103,103,124,-1,-1}
				q {88,88,108,-1,-1} {89,89,109,-1,-1} {105,105,126,-1,-1} {104,104,125,-1,-1}
				q {89,89,109,-1,-1} {90,90,110,-1,-1} {106,106,127,-1,-1} {105,105,126,-1,-1}
				q {90,90,110,-1,-1} {91,91,111,-1,-1} {107,107,128,-1,-1} {106,106,127,-1,-1}
				q {91,91,111,-1,-1} {92,92,112,-1,-1} {108,108,129,-1,-1} {107,107,128,-1,-1}
				q {92,92,112,-1,-1} {93,93,113,-1,-1} {109,109,130,-1,-1} {108,108,129,-1,-1}
				q {93,93,113,-1,-1} {94,94,114,-1,-1} {110,110,131,-1,-1} {109,109,130,-1,-1}
				q {94,94,114,-1,-1} {95,95,115,-1,-1} {111,111,132,-1,-1} {110,110,131,-1,-1}
				q {95,95,115,-1,-1} {96,96,116,-1,-1} {112,112,133,-1,-1} {111,111,132,-1,-1}
				q {96,96,116,-1,-1} {81,81,117,-1,-1} {97,97,134,-1,-1} {112,112,133,-1,-1}
			}
			CTris
			{
				numTris 32
				t {2,2,17,-1,-1} {1,1,16,-1,-1} {0,0,0,-1,-1}
				t {3,3,18,-1,-1} {2,2,17,-1,-1} {0,0,1,-1,-1}
				t {4,4,19,-1,-1} {3,3,18,-1,-1} {0,0,2,-1,-1}
				t {5,5,20,-1,-1} {4,4,19,-1,-1} {0,0,3,-1,-1}
				t {6,6,21,-1,-1} {5,5,20,-1,-1} {0,0,4,-1,-1}
				t {7,7,22,-1,-1} {6,6,21,-1,-1} {0,0,5,-1,-1}
				t {8,8,23,-1,-1} {7,7,22,-1,-1} {0,0,6,-1,-1}
				t {9,9,24,-1,-1} {8,8,23,-1,-1} {0,0,7,-1,-1}
				t {10,10,25,-1,-1} {9,9,24,-1,-1} {0,0,8,-1,-1}
				t {11,11,26,-1,-1} {10,10,25,-1,-1} {0,0,9,-1,-1}
				t {12,12,27,-1,-1} {11,11,26,-1,-1} {0,0,10,-1,-1}
				t {13,13,28,-1,-1} {12,12,27,-1,-1} {0,0,11,-1,-1}
				t {14,14,29,-1,-1} {13,13,28,-1,-1} {0,0,12,-1,-1}
				t {15,15,30,-1,-1} {14,14,29,-1,-1} {0,0,13,-1,-1}
				t {16,16,31,-1,-1} {15,15,30,-1,-1} {0,0,14,-1,-1}
				t {1,1,32,-1,-1} {16,16,31,-1,-1} {0,0,15,-1,-1}
				t {97,97,118,-1,-1} {98,98,119,-1,-1} {113,113,135,-1,-1}
				t {98,98,119,-1,-1} {99,99,120,-1,-1} {113,113,136,-1,-1}
				t {99,99,120,-1,-1} {100,100,121,-1,-1} {113,113,137,-1,-1}
				t {100,100,121,-1,-1} {101,101,122,-1,-1} {113,113,138,-1,-1}
				t {101,101,122,-1,-1} {102,102,123,-1,-1} {113,113,139,-1,-1}
				t {102,102,123,-1,-1} {103,103,124,-1,-1} {113,113,140,-1,-1}
				t {103,103,124,-1,-1} {104,104,125,-1,-1} {113,113,141,-1,-1}
				t {104,104,125,-1,-1} {105,105,126,-1,-1} {113,113,142,-1,-1}
				t {105,105,126,-1,-1} {106,106,127,-1,-1} {113,113,143,-1,-1}
				t {106,106,127,-1,-1} {107,107,128,-1,-1} {113,113,144,-1,-1}
				t {107,107,128,-1,-1} {108,108,129,-1,-1} {113,113,145,-1,-1}
				t {108,108,129,-1,-1} {109,109,130,-1,-1} {113,113,146,-1,-1}
				t {109,109,130,-1,-1} {110,110,131,-1,-1} {113,113,147,-1,-1}
				t {110,110,131,-1,-1} {111,111,132,-1,-1} {113,113,148,-1,-1}
				t {111,111,132,-1,-1} {112,112,133,-1,-1} {113,113,149,-1,-1}
				t {112,112,133,-1,-1} {97,97,134,-1,-1} {113,113,150,-1,-1}
			}
		}
		CSurface
		{
			material "leaftex"
			CQuads
			{
				numQuads 29
				q {114,114,151,-1,-1} {115,117,152,-1,-1} {122,116,159,-1,-1} {117,115,154,-1,-1}
				q {115,117,152,-1,-1} {116,119,153,-1,-1} {118,118,155,-1,-1} {122,116,159,-1,-1}
				q {121,122,158,-1,-1} {122,116,159,-1,-1} {125,125,162,-1,-1} {124,124,161,-1,-1}
				q {122,116,159,-1,-1} {123,123,160,-1,-1} {127,127,164,-1,-1} {126,126,163,-1,-1}
				q {128,128,153,-1,-1} {130,131,155,-1,-1} {131,130,159,-1,-1} {115,129,152,-1,-1}
				q {115,129,152,-1,-1} {131,130,159,-1,-1} {132,133,154,-1,-1} {129,132,151,-1,-1}
				q {135,136,160,-1,-1} {137,139,164,-1,-1} {138,138,163,-1,-1} {131,130,159,-1,-1}
				q {131,130,159,-1,-1} {139,140,162,-1,-1} {140,141,161,-1,-1} {136,137,158,-1,-1}
				q {116,145,153,-1,-1} {129,145,164,-1,-1} {132,146,168,-1,-1} {118,146,166,-1,-1}
				q {118,146,166,-1,-1} {132,146,168,-1,-1} {134,147,169,-1,-1} {120,147,152,-1,-1}
				q {120,147,152,-1,-1} {134,147,169,-1,-1} {136,148,170,-1,-1} {123,148,167,-1,-1}
				q {123,148,167,-1,-1} {136,148,170,-1,-1} {140,149,161,-1,-1} {127,149,151,-1,-1}
				q {127,150,153,-1,-1} {140,150,164,-1,-1} {139,151,163,-1,-1} {126,151,171,-1,-1}
				q {126,151,171,-1,-1} {139,151,163,-1,-1} {138,152,162,-1,-1} {125,152,172,-1,-1}
				q {125,152,172,-1,-1} {138,152,162,-1,-1} {137,153,161,-1,-1} {124,153,151,-1,-1}
				q {124,154,153,-1,-1} {137,154,164,-1,-1} {135,155,168,-1,-1} {121,155,166,-1,-1}
				q {121,155,166,-1,-1} {135,155,168,-1,-1} {133,156,169,-1,-1} {119,156,152,-1,-1}
				q {119,156,152,-1,-1} {133,156,169,-1,-1} {130,157,170,-1,-1} {117,157,167,-1,-1}
				q {117,157,167,-1,-1} {130,157,170,-1,-1} {128,158,161,-1,-1} {114,158,151,-1,-1}
				q {149,159,175,-1,-1} {141,161,173,-1,-1} {142,161,135,-1,-1} {150,160,177,-1,-1}
				q {146,162,173,-1,-1} {145,162,135,-1,-1} {152,164,181,-1,-1} {151,163,179,-1,-1}
				q {141,165,135,-1,-1} {145,165,0,-1,-1} {146,165,174,-1,-1} {142,165,173,-1,-1}
				q {150,166,178,-1,-1} {142,169,135,-1,-1} {146,168,0,-1,-1} {151,167,180,-1,-1}
				q {144,170,135,-1,-1} {148,173,0,-1,-1} {147,172,174,-1,-1} {143,171,173,-1,-1}
				q {143,174,135,-1,-1} {147,177,0,-1,-1} {152,176,182,-1,-1} {149,175,176,-1,-1}
				q {143,178,174,-1,-1} {149,159,175,-1,-1} {150,160,177,-1,-1} {144,179,0,-1,-1}
				q {148,180,174,-1,-1} {151,163,179,-1,-1} {152,164,181,-1,-1} {147,181,0,-1,-1}
				q {144,182,173,-1,-1} {150,166,178,-1,-1} {151,167,180,-1,-1} {148,183,174,-1,-1}
				q {149,175,176,-1,-1} {152,176,182,-1,-1} {145,185,174,-1,-1} {141,184,173,-1,-1}
			}
			CTris
			{
				numTris 12
				t {122,116,159,-1,-1} {119,120,156,-1,-1} {117,115,154,-1,-1}
				t {118,118,155,-1,-1} {120,121,157,-1,-1} {122,116,159,-1,-1}
				t {122,116,159,-1,-1} {121,122,158,-1,-1} {119,120,156,-1,-1}
				t {120,121,157,-1,-1} {123,123,160,-1,-1} {122,116,159,-1,-1}
				t {126,126,163,-1,-1} {125,125,162,-1,-1} {122,116,159,-1,-1}
				t {133,134,157,-1,-1} {131,130,159,-1,-1} {130,131,155,-1,-1}
				t {134,135,156,-1,-1} {132,133,154,-1,-1} {131,130,159,-1,-1}
				t {135,136,160,-1,-1} {131,130,159,-1,-1} {133,134,157,-1,-1}
				t {136,137,158,-1,-1} {134,135,156,-1,-1} {131,130,159,-1,-1}
				t {138,138,163,-1,-1} {139,140,162,-1,-1} {131,130,159,-1,-1}
				t {128,142,164,-1,-1} {115,143,165,-1,-1} {114,142,153,-1,-1}
				t {129,144,161,-1,-1} {116,144,151,-1,-1} {115,143,165,-1,-1}
			}
		}
	}
}
