// Source file: worldexportscene_scene.max
CIwModel
{
	name "bowl"
	CMesh
	{
		name "bowl"
		scale 1.0
		CVerts
		{
			numVerts 216
			v {-0.72134,1.09918,0.10104}
			v {15.52716,8.08946,-6.62932}
			v {-7.23366,8.08947,-16.05716}
			v {-16.66150,8.08947,6.70366}
			v {-0.56717,8.08947,17.45755}
			v {7.87315,1.31044,-8.40315}
			v {15.52716,8.08947,6.70367}
			v {4.09747,1.38451,11.29859}
			v {-0.56717,1.36481,9.75395}
			v {-12.75645,1.38451,0.03718}
			v {-0.56717,1.31044,-11.89925}
			v {6.09932,8.08947,-16.05716}
			v {7.68497,1.25413,-3.38097}
			v {-16.74644,7.51053,-6.66450}
			v {-12.88524,8.08947,12.35524}
			v {-4.28561,1.36481,-8.93995}
			v {11.75090,8.08947,12.35524}
			v {-12.24512,7.80638,-11.64078}
			v {14.66728,8.11862,6.34750}
			v {-9.94489,1.49933,3.92155}
			v {-4.53015,0.58033,9.60467}
			v {11.63306,1.43377,0.03718}
			v {-17.98755,8.08946,0.03718}
			v {-9.18629,1.38451,-8.58194}
			v {8.40996,1.36481,3.75562}
			v {-0.56717,8.08946,-17.38321}
			v {-7.23366,8.08947,16.13151}
			v {11.75090,8.08946,-12.28089}
			v {11.09279,8.11862,11.69712}
			v {-12.30722,8.97149,-11.70287}
			v {-6.87749,8.11862,15.27164}
			v {11.09279,8.11861,-11.62278}
			v {7.87315,1.31044,8.47750}
			v {-15.80164,8.11862,6.34749}
			v {16.85321,8.08946,0.03718}
			v {5.74315,8.11862,15.27163}
			v {14.66730,8.11861,-6.27315}
			v {5.74315,8.11861,-15.19729}
			v {-12.22711,8.11862,11.69713}
			v {-6.87749,8.11861,-15.19729}
			v {-15.80164,8.11861,-6.27314}
			v {6.09932,8.08947,16.13151}
			v {15.92250,8.11861,0.03718}
			v {-17.05682,8.11861,0.03718}
			v {-0.56717,8.11862,16.52684}
			v {-13.63287,8.52488,-5.37482}
			v {2.76801,1.18687,-8.01467}
			v {9.43289,8.52489,10.03723}
			v {-0.56717,8.11861,-16.45249}
			v {-9.54430,1.36481,-3.68127}
			v {-11.71303,4.81240,11.18304}
			v {13.99559,4.81240,-5.99492}
			v {5.46494,4.81239,-14.52559}
			v {-10.13466,0.58033,4.00016}
			v {-0.56717,4.81240,15.79980}
			v {-12.95695,7.81605,-12.35262}
			v {12.49854,8.52488,-5.37482}
			v {-0.56717,8.52489,14.17940}
			v {4.84483,8.52488,-13.02854}
			v {-10.56723,8.52489,10.03724}
			v {-5.97916,8.52488,-13.02854}
			v {-6.59926,4.81239,-14.52559}
			v {-15.12993,4.81240,6.06927}
			v {13.99561,4.81240,6.06927}
			v {-10.52951,4.03930,-9.92517}
			v {-12.35245,1.80849,-4.84445}
			v {-3.81938,1.11961,7.88873}
			v {-14.65605,4.03930,0.03718}
			v {-5.95874,4.03930,13.05361}
			v {12.49854,8.52488,5.44917}
			v {-6.59926,4.81240,14.59995}
			v {10.57869,4.81240,11.18303}
			v {10.57869,4.81240,-11.10869}
			v {-0.56717,4.81239,-15.72545}
			v {-14.70938,8.52488,0.03718}
			v {-15.22308,9.13398,6.10786}
			v {15.29628,9.13398,0.03718}
			v {10.64999,9.13398,-11.17998}
			v {5.50351,9.13398,14.69309}
			v {-6.63785,9.13398,14.69310}
			v {-9.06563,1.11961,0.03718}
			v {15.19545,4.81240,0.03718}
			v {-7.43796,1.36481,6.90797}
			v {2.76801,1.18687,8.08902}
			v {9.14961,1.36481,0.03718}
			v {-0.56717,0.58033,10.39295}
			v {-0.56717,9.13398,-15.82629}
			v {-14.34366,4.92476,5.74359}
			v {-0.56717,4.92476,-14.87439}
			v {9.97691,4.92476,10.58124}
			v {-0.56717,4.92476,14.94874}
			v {13.20932,4.92476,-5.66923}
			v {9.97690,4.92476,-10.50690}
			v {13.20932,4.92476,5.74358}
			v {14.34441,4.92476,0.03718}
			v {5.13924,4.92476,13.81367}
			v {-6.27357,4.92476,-13.73931}
			v {5.13924,4.92476,-13.73931}
			v {-11.11124,4.92476,10.58125}
			v {-14.34366,4.92476,-5.66923}
			v {-0.56717,1.36481,-9.67960}
			v {6.30363,1.36481,-6.83362}
			v {6.30363,1.36481,6.90797}
			v {5.50351,9.13398,-14.61875}
			v {-0.56717,9.13398,15.90063}
			v {14.08876,9.13398,-6.03351}
			v {10.64999,9.13398,11.25433}
			v {-11.78432,9.13398,11.25433}
			v {-7.35187,0.34826,-6.74752}
			v {10.46065,1.31044,-4.53069}
			v {-7.88980,0.58033,7.35982}
			v {-16.32980,4.81240,0.03718}
			v {-16.66150,8.08946,-6.62931}
			v {10.46065,1.31044,4.60504}
			v {4.00070,1.31044,-10.99064}
			v {-5.13503,1.31044,-10.99064}
			v {-16.43062,9.13398,0.03718}
			v {14.08876,9.13398,6.10786}
			v {-4.80519,1.90118,10.26866}
			v {-11.64165,1.90117,0.03718}
			v {5.46494,4.81240,14.59994}
			v {9.43289,8.52488,-9.96288}
			v {-0.56717,8.52488,-14.10505}
			v {-10.56723,8.52488,-9.96288}
			v {13.57506,8.52488,0.03718}
			v {-5.97916,8.52489,13.10288}
			v {4.84483,8.52489,13.10288}
			v {-13.63287,8.52488,5.44917}
			v {-15.22308,9.13398,-6.03351}
			v {-7.43796,1.36481,-6.83362}
			v {-18.07950,7.51053,0.03718}
			v {-16.74644,7.51053,6.73885}
			v {-12.95026,7.51053,12.42026}
			v {6.13451,7.51053,16.21645}
			v {-7.26884,7.51053,-16.14211}
			v {-7.26884,7.51053,16.21645}
			v {15.61211,7.51053,6.73885}
			v {6.13451,7.51053,-16.14211}
			v {15.61211,7.51053,-6.66450}
			v {16.94516,7.51053,0.03718}
			v {11.81592,7.51053,-12.34591}
			v {-0.56717,7.51053,-17.47515}
			v {11.81592,7.51053,12.42026}
			v {-0.56717,7.51053,17.54950}
			v {-0.41299,1.09918,-0.02669}
			v {-10.16219,0.34826,0.03718}
			v {3.10468,0.34826,8.90181}
			v {-15.12993,4.81240,-5.99492}
			v {-6.63785,9.13398,-14.61875}
			v {-11.09656,3.86566,-10.49222}
			v {-12.11751,8.27420,-11.51316}
			v {-12.85582,7.13495,-12.25148}
			v {-12.66934,3.18505,-4.97570}
			v {4.44571,3.18505,-12.06499}
			v {-9.82976,3.18505,9.29978}
			v {-0.56717,3.18505,-13.06212}
			v {4.44572,3.18505,12.13934}
			v {-0.56717,3.18505,13.13647}
			v {11.53500,3.18505,5.05006}
			v {12.53214,3.18505,0.03718}
			v {8.69543,3.18505,9.29977}
			v {-5.58005,3.18505,-12.06499}
			v {8.69543,3.18505,-9.22542}
			v {-12.66934,3.18505,5.05006}
			v {6.21753,0.34826,6.82187}
			v {-0.56717,0.34826,-9.55783}
			v {6.21753,0.34826,-6.74752}
			v {11.53499,3.18505,-4.97571}
			v {9.02785,0.34826,0.03718}
			v {-9.43181,0.34826,-3.63467}
			v {-12.35245,1.80850,4.91880}
			v {-0.56717,1.80850,12.79347}
			v {-9.58723,1.80850,9.05724}
			v {-5.44879,1.80850,11.82246}
			v {-11.78432,9.13398,-11.17999}
			v {-15.69026,7.28226,6.30137}
			v {-16.93629,7.28226,0.03718}
			v {-12.14189,7.28226,11.61189}
			v {-6.83136,7.28226,-15.08593}
			v {11.00755,7.28226,11.61189}
			v {11.00755,7.28226,-11.53755}
			v {-0.56717,7.28226,16.40630}
			v {14.55594,7.28226,6.30137}
			v {14.55594,7.28226,-6.22702}
			v {5.69702,7.28226,-15.08593}
			v {15.80196,7.28226,0.03718}
			v {-6.83136,7.28226,15.16028}
			v {5.69702,7.28226,15.16027}
			v {-0.56717,7.28226,-16.33195}
			v {-15.69026,7.28226,-6.22702}
			v {-12.30722,8.97149,11.77722}
			v {-17.17010,8.97149,0.03718}
			v {-6.92084,8.97149,-15.30194}
			v {-15.90628,8.97149,6.39084}
			v {5.78651,8.97149,15.37629}
			v {-15.90628,8.97149,-6.31649}
			v {5.78651,8.97149,-15.30194}
			v {11.17288,8.97149,-11.70287}
			v {-0.56717,8.97149,16.64011}
			v {14.77194,8.97149,6.39085}
			v {-0.56717,8.97149,-16.56576}
			v {-6.92082,8.97149,15.37629}
			v {14.77194,8.97149,-6.31649}
			v {16.03575,8.97149,0.03718}
			v {11.17288,8.97149,11.77722}
			v {-11.91808,6.59486,-11.31373}
			v {-11.32497,1.05904,-4.41885}
			v {8.29747,0.34826,-3.63468}
			v {-0.63103,1.09918,-0.11701}
			v {-0.50331,1.09918,0.19136}
			v {8.29747,0.34826,3.70903}
			v {3.10468,0.34826,-8.82746}
			v {-4.23901,0.34826,-8.82746}
			v {-9.82976,3.18505,-9.22542}
			v {-15.47873,4.92476,0.03718}
			v {-6.27357,4.92476,13.81367}
		}
		CVertNorms
		{
			numVertNorms 216
			vn {-0.21675,0.81343,0.53977}
			vn {-0.29993,0.62108,0.72409}
			vn {-0.00000,0.62108,0.78375}
			vn {0.19487,-0.97748,0.08100}
			vn {-0.24213,-0.96397,0.11017}
			vn {0.21349,-0.97695,0.00012}
			vn {0.55352,0.79884,0.23553}
			vn {0.72406,0.62130,0.29953}
			vn {0.67127,0.74121,-0.00000}
			vn {-0.22841,0.81343,-0.53494}
			vn {-0.29993,0.62108,-0.72409}
			vn {-0.55419,0.62108,-0.55419}
			vn {0.25688,0.74121,-0.62018}
			vn {-0.00223,0.61960,-0.78491}
			vn {-0.00577,0.79884,-0.60152}
			vn {-0.51783,-0.67435,-0.52641}
			vn {-0.59546,-0.76554,-0.24368}
			vn {-0.72330,-0.62355,-0.29669}
			vn {0.37504,-0.19889,-0.90542}
			vn {-0.00000,-0.63842,-0.76969}
			vn {-0.00000,-0.19889,-0.98002}
			vn {-0.41392,0.80567,-0.42375}
			vn {-0.72409,0.62108,-0.29993}
			vn {0.98002,-0.19889,-0.00000}
			vn {0.77211,-0.63548,-0.00000}
			vn {0.71110,-0.63842,-0.29455}
			vn {-0.69298,-0.19889,0.69298}
			vn {-0.29937,-0.62290,0.72275}
			vn {-0.37504,-0.19889,0.90542}
			vn {0.00000,-0.19889,0.98002}
			vn {0.30097,-0.63072,0.71527}
			vn {0.37504,-0.19889,0.90542}
			vn {-0.55378,0.80044,-0.22939}
			vn {-0.78375,0.62108,-0.00000}
			vn {-0.59941,0.80044,0.00000}
			vn {0.45617,0.88989,0.00240}
			vn {-0.90753,-0.19811,-0.37033}
			vn {-0.77910,-0.62690,0.00000}
			vn {-0.98002,-0.19889,0.00000}
			vn {-0.55691,-0.79718,0.23315}
			vn {-0.18493,-0.96520,0.18493}
			vn {0.08052,-0.97748,-0.19507}
			vn {-0.00048,-0.97775,-0.20979}
			vn {0.90542,-0.19889,-0.37504}
			vn {0.54425,-0.63842,-0.54425}
			vn {0.69298,-0.19889,-0.69298}
			vn {-0.42384,0.80502,0.41509}
			vn {-0.55419,0.62108,0.55419}
			vn {-0.00695,0.80567,0.59232}
			vn {-0.00777,0.99993,-0.00919}
			vn {-0.10076,0.97363,-0.20466}
			vn {-0.21657,0.97157,0.09565}
			vn {0.38090,-0.09653,0.91957}
			vn {0.01949,0.99962,0.01949}
			vn {0.68618,-0.12549,0.71653}
			vn {-0.29063,-0.63794,-0.71314}
			vn {-0.64705,-0.40329,-0.64705}
			vn {0.56126,0.79306,-0.23673}
			vn {0.72431,0.61960,-0.30243}
			vn {0.55659,0.61960,-0.55344}
			vn {-0.42475,-0.79948,0.42475}
			vn {-0.02547,0.99962,-0.01055}
			vn {0.52382,0.85183,-0.00000}
			vn {-0.02757,0.99962,-0.00000}
			vn {0.69298,-0.19889,0.69298}
			vn {0.54425,-0.63842,0.54425}
			vn {0.71110,-0.63842,0.29455}
			vn {0.22574,0.80162,0.55358}
			vn {0.29606,0.62151,0.72531}
			vn {0.51664,0.68760,0.51018}
			vn {0.31471,-0.55060,0.77317}
			vn {0.45229,-0.76556,0.45755}
			vn {-0.72409,0.62108,0.29993}
			vn {-0.77178,-0.54969,-0.31968}
			vn {-0.91957,-0.09653,-0.38090}
			vn {-0.99533,-0.09653,-0.00000}
			vn {0.15155,0.98845,-0.00058}
			vn {0.31117,0.93971,-0.14184}
			vn {0.05983,0.98832,-0.14017}
			vn {0.42925,0.79729,-0.42434}
			vn {0.17447,0.89002,-0.42121}
			vn {0.00000,-0.62290,0.78230}
			vn {-0.01658,-0.95811,0.28593}
			vn {0.07531,-0.98012,0.18356}
			vn {0.19569,-0.97731,-0.08106}
			vn {0.14957,-0.97735,-0.14973}
			vn {0.02757,0.99962,-0.00000}
			vn {-0.48395,0.85183,0.20046}
			vn {0.02547,0.99962,-0.01055}
			vn {-0.72275,-0.62290,0.29937}
			vn {-0.08015,-0.97827,-0.19122}
			vn {-0.13377,-0.98099,-0.14059}
			vn {-0.26895,0.95696,-0.10909}
			vn {-0.29370,0.95589,0.00497}
			vn {0.00000,0.99962,0.02757}
			vn {-0.20538,0.85052,-0.48419}
			vn {0.01055,0.99962,0.02547}
			vn {0.01949,0.99962,-0.01949}
			vn {-0.20046,0.85183,0.48395}
			vn {0.01055,0.99962,-0.02547}
			vn {0.29455,-0.63842,-0.71110}
			vn {-0.02547,0.99962,0.01055}
			vn {0.37040,0.85183,-0.37040}
			vn {-0.01949,0.99962,0.01949}
			vn {0.00000,-0.09653,-0.99533}
			vn {-0.01055,0.99962,-0.02547}
			vn {-0.38090,-0.09653,-0.91956}
			vn {-0.01949,0.99962,-0.01949}
			vn {0.37040,0.85183,0.37040}
			vn {0.48395,0.85183,0.20046}
			vn {0.02547,0.99962,0.01055}
			vn {-0.48395,0.85183,-0.20046}
			vn {-0.52382,0.85183,-0.00000}
			vn {0.59070,-0.54969,-0.59070}
			vn {0.38090,-0.09653,-0.91957}
			vn {0.31968,-0.54969,-0.77178}
			vn {-0.53673,0.81222,0.22851}
			vn {-0.77178,-0.54969,0.31968}
			vn {-0.70381,-0.09653,0.70380}
			vn {-0.59070,-0.54969,0.59070}
			vn {0.14801,-0.97775,0.14868}
			vn {0.83537,-0.54969,0.00000}
			vn {0.91957,-0.09653,-0.38090}
			vn {0.77179,-0.54968,-0.31968}
			vn {0.90542,-0.19889,0.37504}
			vn {-0.00000,-0.54968,-0.83537}
			vn {-0.31968,-0.54969,-0.77178}
			vn {0.48395,0.85183,-0.20046}
			vn {-0.91956,-0.09653,0.38090}
			vn {-0.01055,0.99962,0.02547}
			vn {0.20046,0.85183,-0.48395}
			vn {0.00000,0.85183,-0.52382}
			vn {0.99533,-0.09653,-0.00000}
			vn {-0.37040,0.85183,0.37040}
			vn {0.41316,0.81530,0.40569}
			vn {0.92619,-0.09995,0.36357}
			vn {0.77605,-0.54830,0.31163}
			vn {-0.00000,0.99962,-0.02757}
			vn {0.20046,0.85183,0.48395}
			vn {-0.83537,-0.54968,0.00000}
			vn {0.70380,-0.09653,-0.70380}
			vn {-0.00000,0.85183,0.52382}
			vn {-0.24384,0.94506,0.21771}
			vn {-0.07642,0.97422,0.21226}
			vn {-0.59070,-0.54969,-0.59070}
			vn {-0.70380,-0.09653,-0.70380}
			vn {0.11304,0.95696,0.26731}
			vn {0.20512,0.95589,0.21025}
			vn {-0.55317,-0.62290,0.55317}
			vn {-0.90542,-0.19889,0.37504}
			vn {-0.14558,-0.98778,-0.05558}
			vn {-0.06850,-0.99732,0.02561}
			vn {-0.55759,-0.83011,0.00364}
			vn {-0.22987,-0.79948,0.55496}
			vn {-0.00228,-0.79718,0.60374}
			vn {-0.39069,0.83100,-0.39599}
			vn {-0.68797,0.21955,-0.69174}
			vn {-0.83706,0.42476,-0.34482}
			vn {-0.31968,-0.54969,0.77178}
			vn {-0.38090,-0.09653,0.91956}
			vn {0.00000,-0.09653,0.99533}
			vn {0.00000,-0.54969,0.83537}
			vn {-0.37033,-0.19811,-0.90753}
			vn {0.62105,0.47812,0.62105}
			vn {-0.42184,-0.88967,-0.17473}
			vn {0.79972,0.60037,-0.00000}
			vn {0.94273,0.33356,0.00000}
			vn {0.87097,0.33357,-0.36077}
			vn {0.30604,0.60037,-0.73885}
			vn {0.36077,0.33356,-0.87097}
			vn {-0.00000,0.33356,-0.94273}
			vn {-0.10008,-0.96520,0.24162}
			vn {-0.01580,0.99987,-0.00099}
			vn {0.00086,0.99999,-0.00329}
			vn {0.50806,-0.83465,0.21267}
			vn {0.56648,-0.82408,0.00000}
			vn {0.50806,-0.83465,-0.21267}
			vn {0.21580,0.95650,-0.19632}
			vn {0.22713,-0.82862,0.51166}
			vn {0.39208,-0.83456,0.38703}
			vn {0.66661,0.33356,-0.66661}
			vn {-0.00000,0.33356,0.94273}
			vn {0.35574,0.33302,0.87324}
			vn {-0.66661,0.33356,-0.66661}
			vn {-0.87097,0.33355,-0.36077}
			vn {-0.36077,0.33356,-0.87097}
			vn {-0.87097,0.33356,0.36077}
			vn {-0.66661,0.33356,0.66661}
			vn {-0.36077,0.33356,0.87097}
			vn {-0.94273,0.33357,-0.00000}
			vn {0.87324,0.33303,0.35574}
			vn {-0.02827,0.94671,0.32083}
			vn {-0.20687,0.94671,-0.24686}
			vn {-0.37826,-0.83406,-0.40157}
			vn {-0.20382,-0.83599,-0.50949}
			vn {0.21088,-0.83447,-0.50911}
			vn {0.00043,0.99996,0.00854}
			vn {0.28337,0.95004,0.13090}
			vn {-0.90586,0.42357,0.00000}
			vn {-0.83691,0.42357,0.34666}
			vn {-0.64054,0.42357,0.64054}
			vn {0.34666,0.42356,0.83691}
			vn {-0.00000,0.42356,0.90587}
			vn {-0.34746,0.42696,-0.83485}
			vn {0.00000,0.42356,-0.90587}
			vn {-0.34666,0.42357,0.83691}
			vn {0.83691,0.42356,0.34666}
			vn {0.64054,0.42357,0.64054}
			vn {0.34666,0.42356,-0.83691}
			vn {0.64054,0.42357,-0.64054}
			vn {0.83691,0.42356,-0.34666}
			vn {0.90586,0.42357,-0.00000}
			vn {0.70711,0.00010,0.70711}
			vn {-0.01923,0.94659,-0.32188}
			vn {-0.00000,-0.83447,-0.55106}
			vn {0.38966,-0.83447,-0.38966}
		}
		CUVs
		{
			setID 0
			numUVs 216
			uv {1.97655,-2.00971}
			uv {4.44738,-0.98626}
			uv {0.98626,0.44738}
			uv {-0.44738,-3.01374}
			uv {2.00000,-4.64902}
			uv {3.28347,-0.71653}
			uv {4.44738,-3.01374}
			uv {2.70933,-3.71246}
			uv {2.00000,-3.47758}
			uv {0.14644,-2.00000}
			uv {2.00000,-0.18489}
			uv {3.01374,0.44738}
			uv {3.25486,-1.48022}
			uv {-0.46029,-0.98091}
			uv {0.12686,-3.87314}
			uv {1.43456,-0.63490}
			uv {3.87314,-3.87314}
			uv {0.22420,-0.22420}
			uv {4.31662,-2.95958}
			uv {0.57398,-2.59068}
			uv {1.39737,-3.45488}
			uv {3.85522,-2.00000}
			uv {-0.64902,-2.00000}
			uv {0.68934,-0.68934}
			uv {3.36510,-2.56544}
			uv {2.00000,0.64902}
			uv {0.98626,-4.44738}
			uv {3.87314,-0.12686}
			uv {3.77307,-3.77306}
			uv {0.21475,-0.21476}
			uv {1.04042,-4.31662}
			uv {3.77307,-0.22694}
			uv {3.28347,-3.28347}
			uv {-0.31662,-2.95958}
			uv {4.64902,-2.00000}
			uv {2.95958,-4.31662}
			uv {4.31662,-1.04042}
			uv {2.95958,0.31662}
			uv {0.22694,-3.77307}
			uv {1.04042,0.31662}
			uv {-0.31662,-1.04042}
			uv {3.01374,-4.44738}
			uv {4.50749,-2.00000}
			uv {-0.50749,-2.00000}
			uv {2.00000,-4.50749}
			uv {0.01317,-1.17703}
			uv {2.50716,-0.77560}
			uv {3.52065,-3.52065}
			uv {2.00000,0.50749}
			uv {0.63490,-1.43456}
			uv {0.30511,-3.69489}
			uv {4.21448,-1.08273}
			uv {2.91727,0.21448}
			uv {0.54512,-2.60263}
			uv {2.00000,-4.39694}
			uv {0.11595,-0.11595}
			uv {3.98683,-1.17703}
			uv {2.00000,-4.15053}
			uv {2.82297,-0.01317}
			uv {0.47935,-3.52065}
			uv {1.17703,-0.01317}
			uv {1.08273,0.21448}
			uv {-0.21448,-2.91727}
			uv {4.21448,-2.91727}
			uv {0.48508,-0.48508}
			uv {0.20788,-1.25768}
			uv {1.50545,-3.19394}
			uv {-0.14242,-2.00000}
			uv {1.18013,-3.97934}
			uv {3.98683,-2.82297}
			uv {1.08273,-4.21448}
			uv {3.69489,-3.69489}
			uv {3.69489,-0.30511}
			uv {2.00000,0.39694}
			uv {-0.15053,-2.00000}
			uv {-0.22864,-2.92314}
			uv {4.41227,-2.00000}
			uv {3.70573,-0.29427}
			uv {2.92313,-4.22865}
			uv {1.07686,-4.22865}
			uv {0.70769,-2.00000}
			uv {4.39693,-2.00000}
			uv {0.95520,-3.04481}
			uv {2.50716,-3.22440}
			uv {3.47758,-2.00000}
			uv {2.00000,-3.57475}
			uv {2.00000,0.41227}
			uv {-0.09492,-2.86774}
			uv {2.00000,0.26752}
			uv {3.60338,-3.60338}
			uv {2.00000,-4.26752}
			uv {4.09492,-1.13226}
			uv {3.60338,-0.39662}
			uv {4.09492,-2.86774}
			uv {4.26752,-2.00000}
			uv {2.86774,-4.09492}
			uv {1.13226,0.09491}
			uv {2.86774,0.09491}
			uv {0.39662,-3.60338}
			uv {-0.09492,-1.13226}
			uv {2.00000,-0.52242}
			uv {3.04481,-0.95520}
			uv {3.04481,-3.04480}
			uv {2.92313,0.22865}
			uv {2.00000,-4.41227}
			uv {4.22865,-1.07686}
			uv {3.70573,-3.70573}
			uv {0.29427,-3.70573}
			uv {0.96829,-0.96829}
			uv {3.67694,-1.30539}
			uv {0.88649,-3.11351}
			uv {-0.39694,-2.00000}
			uv {-0.44738,-0.98626}
			uv {3.67694,-2.69461}
			uv {2.69461,-0.32306}
			uv {1.30539,-0.32306}
			uv {-0.41227,-2.00000}
			uv {4.22865,-2.92314}
			uv {1.35555,-3.55585}
			uv {0.31596,-2.00000}
			uv {2.91727,-4.21448}
			uv {3.52065,-0.47935}
			uv {2.00000,0.15053}
			uv {0.47935,-0.47935}
			uv {4.15053,-2.00000}
			uv {1.17703,-3.98683}
			uv {2.82297,-3.98683}
			uv {0.01317,-2.82297}
			uv {-0.22864,-1.07686}
			uv {0.95520,-0.95520}
			uv {-0.66300,-2.00000}
			uv {-0.46029,-3.01909}
			uv {0.11697,-3.88303}
			uv {3.01909,-4.46029}
			uv {0.98091,0.46029}
			uv {0.98091,-4.46029}
			uv {4.46029,-3.01909}
			uv {3.01909,0.46029}
			uv {4.46029,-0.98091}
			uv {4.66300,-2.00000}
			uv {3.88303,-0.11697}
			uv {2.00000,0.66300}
			uv {3.88303,-3.88303}
			uv {2.00000,-4.66300}
			uv {2.02344,-1.99029}
			uv {0.54094,-2.00000}
			uv {2.55836,-3.34800}
			uv {-0.21448,-1.08273}
			uv {1.07686,0.22865}
			uv {0.39885,-0.39885}
			uv {0.24360,-0.24360}
			uv {0.13133,-0.13133}
			uv {0.15969,-1.23772}
			uv {2.76228,-0.15969}
			uv {0.59149,-3.40851}
			uv {2.00000,-0.00806}
			uv {2.76228,-3.84031}
			uv {2.00000,-3.99194}
			uv {3.84031,-2.76228}
			uv {3.99194,-2.00000}
			uv {3.40851,-3.40851}
			uv {1.23772,-0.15969}
			uv {3.40851,-0.59149}
			uv {0.15969,-2.76228}
			uv {3.03171,-3.03171}
			uv {2.00000,-0.54094}
			uv {3.03171,-0.96829}
			uv {3.84031,-1.23772}
			uv {3.45906,-2.00000}
			uv {0.65200,-1.44164}
			uv {0.20788,-2.74232}
			uv {2.00000,-3.93978}
			uv {0.62837,-3.37163}
			uv {1.25768,-3.79212}
			uv {0.29427,-0.29427}
			uv {-0.29969,-2.95256}
			uv {-0.48916,-2.00000}
			uv {0.23989,-3.76010}
			uv {1.04744,0.29969}
			uv {3.76010,-3.76010}
			uv {3.76010,-0.23990}
			uv {2.00000,-4.48916}
			uv {4.29969,-2.95256}
			uv {4.29969,-1.04744}
			uv {2.95256,0.29969}
			uv {4.48916,-2.00000}
			uv {1.04744,-4.29969}
			uv {2.95256,-4.29969}
			uv {2.00000,0.48916}
			uv {-0.29969,-1.04744}
			uv {0.21475,-3.78525}
			uv {-0.52472,-2.00000}
			uv {1.03383,0.33253}
			uv {-0.33254,-2.96617}
			uv {2.96617,-4.33253}
			uv {-0.33254,-1.03383}
			uv {2.96617,0.33253}
			uv {3.78525,-0.21476}
			uv {2.00000,-4.52472}
			uv {4.33253,-2.96617}
			uv {2.00000,0.52472}
			uv {1.03383,-4.33254}
			uv {4.33253,-1.03383}
			uv {4.52472,-2.00000}
			uv {3.78525,-3.78524}
			uv {0.27393,-0.27393}
			uv {0.36412,-1.32240}
			uv {3.34800,-1.44164}
			uv {1.99029,-1.97655}
			uv {2.00971,-2.02345}
			uv {3.34800,-2.55836}
			uv {2.55836,-0.65200}
			uv {1.44164,-0.65200}
			uv {0.59149,-0.59149}
			uv {-0.26752,-2.00000}
			uv {1.13226,-4.09492}
		}
		CSurface
		{
			material "bowltex"
			CQuads
			{
				numQuads 190
				q {153,0,153,-1,-1} {155,48,155,-1,-1} {88,2,88,-1,-1} {97,1,97,-1,-1}
				q {152,6,152,-1,-1} {119,35,119,-1,-1} {67,8,67,-1,-1} {99,7,99,-1,-1}
				q {156,9,156,-1,-1} {160,21,160,-1,-1} {89,11,89,-1,-1} {95,10,95,-1,-1}
				q {90,13,90,-1,-1} {215,168,215,-1,-1} {68,12,68,-1,-1} {157,14,157,-1,-1}
				q {65,16,65,-1,-1} {23,193,23,-1,-1} {149,15,149,-1,-1} {147,17,147,-1,-1}
				q {73,19,73,-1,-1} {52,100,52,-1,-1} {137,18,137,-1,-1} {141,20,141,-1,-1}
				q {160,21,160,-1,-1} {158,32,158,-1,-1} {93,22,93,-1,-1} {89,11,89,-1,-1}
				q {139,23,139,-1,-1} {138,43,138,-1,-1} {51,25,51,-1,-1} {81,24,81,-1,-1}
				q {70,27,70,-1,-1} {50,148,50,-1,-1} {132,26,132,-1,-1} {135,28,135,-1,-1}
				q {120,30,120,-1,-1} {54,81,54,-1,-1} {143,29,143,-1,-1} {133,31,133,-1,-1}
				q {94,33,94,-1,-1} {93,22,93,-1,-1} {158,32,158,-1,-1} {159,34,159,-1,-1}
				q {111,37,111,-1,-1} {147,17,147,-1,-1} {13,36,13,-1,-1} {130,38,130,-1,-1}
				q {170,39,170,-1,-1} {172,60,172,-1,-1} {110,40,110,-1,-1} {53,4,53,-1,-1}
				q {72,44,72,-1,-1} {51,25,51,-1,-1} {138,43,138,-1,-1} {140,45,140,-1,-1}
				q {162,46,162,-1,-1} {153,0,153,-1,-1} {97,1,97,-1,-1} {92,47,92,-1,-1}
				q {209,49,209,-1,-1} {144,172,144,-1,-1} {12,51,12,-1,-1} {83,50,83,-1,-1}
				q {174,53,174,-1,-1} {148,96,148,-1,-1} {60,52,60,-1,-1} {123,54,123,-1,-1}
				q {149,15,149,-1,-1} {115,194,115,-1,-1} {61,55,61,-1,-1} {151,56,151,-1,-1}
				q {163,57,163,-1,-1} {154,79,154,-1,-1} {98,59,98,-1,-1} {87,58,87,-1,-1}
				q {203,62,203,-1,-1} {199,109,199,-1,-1} {117,61,117,-1,-1} {76,63,76,-1,-1}
				q {142,64,142,-1,-1} {136,124,136,-1,-1} {63,66,63,-1,-1} {71,65,71,-1,-1}
				q {161,67,161,-1,-1} {213,134,213,-1,-1} {64,69,64,-1,-1} {96,68,96,-1,-1}
				q {123,54,123,-1,-1} {60,52,60,-1,-1} {39,70,39,-1,-1} {150,71,150,-1,-1}
				q {159,34,159,-1,-1} {167,116,167,-1,-1} {91,72,91,-1,-1} {94,33,94,-1,-1}
				q {18,73,18,-1,-1} {42,139,42,-1,-1} {124,75,124,-1,-1} {69,74,69,-1,-1}
				q {68,12,68,-1,-1} {98,59,98,-1,-1} {154,79,154,-1,-1} {118,80,118,-1,-1}
				q {135,28,135,-1,-1} {143,29,143,-1,-1} {54,81,54,-1,-1} {70,27,70,-1,-1}
				q {193,87,193,-1,-1} {191,112,191,-1,-1} {116,86,116,-1,-1} {75,88,75,-1,-1}
				q {130,38,130,-1,-1} {131,149,131,-1,-1} {62,89,62,-1,-1} {111,37,111,-1,-1}
				q {83,50,83,-1,-1} {12,51,12,-1,-1} {84,93,84,-1,-1} {24,92,24,-1,-1}
				q {192,95,192,-1,-1} {200,131,200,-1,-1} {86,94,86,-1,-1} {148,96,148,-1,-1}
				q {141,20,141,-1,-1} {134,162,134,-1,-1} {61,55,61,-1,-1} {73,19,73,-1,-1}
				q {201,98,201,-1,-1} {190,133,190,-1,-1} {107,97,107,-1,-1} {79,99,79,-1,-1}
				q {140,45,140,-1,-1} {137,18,137,-1,-1} {52,100,52,-1,-1} {72,44,72,-1,-1}
				q {197,102,197,-1,-1} {202,127,202,-1,-1} {105,101,105,-1,-1} {77,103,77,-1,-1}
				q {78,105,78,-1,-1} {104,137,104,-1,-1} {57,104,57,-1,-1} {126,106,126,-1,-1}
				q {106,107,106,-1,-1} {117,61,117,-1,-1} {199,109,199,-1,-1} {204,108,204,-1,-1}
				q {151,56,151,-1,-1} {13,36,13,-1,-1} {147,17,147,-1,-1} {149,15,149,-1,-1}
				q {128,110,128,-1,-1} {116,86,116,-1,-1} {191,112,191,-1,-1} {195,111,195,-1,-1}
				q {125,114,125,-1,-1} {59,140,59,-1,-1} {38,113,38,-1,-1} {30,115,30,-1,-1}
				q {167,116,167,-1,-1} {162,46,162,-1,-1} {92,47,92,-1,-1} {91,72,91,-1,-1}
				q {121,118,121,-1,-1} {56,128,56,-1,-1} {36,117,36,-1,-1} {31,119,31,-1,-1}
				q {133,31,133,-1,-1} {142,64,142,-1,-1} {71,65,71,-1,-1} {120,30,120,-1,-1}
				q {87,58,87,-1,-1} {214,165,214,-1,-1} {67,8,67,-1,-1} {163,57,163,-1,-1}
				q {127,122,127,-1,-1} {74,132,74,-1,-1} {43,121,43,-1,-1} {33,123,33,-1,-1}
				q {81,24,81,-1,-1} {63,66,63,-1,-1} {136,124,136,-1,-1} {139,23,139,-1,-1}
				q {157,14,157,-1,-1} {156,9,156,-1,-1} {95,10,95,-1,-1} {90,13,90,-1,-1}
				q {126,106,126,-1,-1} {57,104,57,-1,-1} {44,125,44,-1,-1} {35,126,35,-1,-1}
				q {76,63,76,-1,-1} {117,61,117,-1,-1} {69,74,69,-1,-1} {124,75,124,-1,-1}
				q {77,103,77,-1,-1} {105,101,105,-1,-1} {56,128,56,-1,-1} {121,118,121,-1,-1}
				q {103,129,103,-1,-1} {86,94,86,-1,-1} {200,131,200,-1,-1} {196,130,196,-1,-1}
				q {75,88,75,-1,-1} {116,86,116,-1,-1} {74,132,74,-1,-1} {127,122,127,-1,-1}
				q {155,48,155,-1,-1} {161,67,161,-1,-1} {96,68,96,-1,-1} {88,2,88,-1,-1}
				q {99,7,99,-1,-1} {64,69,64,-1,-1} {213,134,213,-1,-1} {152,6,152,-1,-1}
				q {45,135,45,-1,-1} {123,54,123,-1,-1} {150,71,150,-1,-1} {40,136,40,-1,-1}
				q {194,138,194,-1,-1} {198,141,198,-1,-1} {104,137,104,-1,-1} {78,105,78,-1,-1}
				q {79,99,79,-1,-1} {107,97,107,-1,-1} {59,140,59,-1,-1} {125,114,125,-1,-1}
				q {74,132,74,-1,-1} {45,135,45,-1,-1} {40,136,40,-1,-1} {43,121,43,-1,-1}
				q {69,74,69,-1,-1} {47,145,47,-1,-1} {28,144,28,-1,-1} {18,73,18,-1,-1}
				q {47,145,47,-1,-1} {126,106,126,-1,-1} {35,126,35,-1,-1} {28,144,28,-1,-1}
				q {46,143,46,-1,-1} {80,76,80,-1,-1} {129,147,129,-1,-1} {15,146,15,-1,-1}
				q {213,134,213,-1,-1} {161,67,161,-1,-1} {15,146,15,-1,-1} {129,147,129,-1,-1}
				q {50,148,50,-1,-1} {62,89,62,-1,-1} {131,149,131,-1,-1} {132,26,132,-1,-1}
				q {53,4,53,-1,-1} {145,151,145,-1,-1} {9,152,9,-1,-1} {170,39,170,-1,-1}
				q {85,82,85,-1,-1} {20,171,20,-1,-1} {173,153,173,-1,-1} {171,154,171,-1,-1}
				q {29,155,29,-1,-1} {195,111,195,-1,-1} {112,157,112,-1,-1} {55,156,55,-1,-1}
				q {55,156,55,-1,-1} {2,203,2,-1,-1} {192,95,192,-1,-1} {29,155,29,-1,-1}
				q {56,128,56,-1,-1} {124,75,124,-1,-1} {42,139,42,-1,-1} {36,117,36,-1,-1}
				q {57,104,57,-1,-1} {125,114,125,-1,-1} {30,115,30,-1,-1} {44,125,44,-1,-1}
				q {37,158,37,-1,-1} {48,161,48,-1,-1} {122,160,122,-1,-1} {58,159,58,-1,-1}
				q {58,159,58,-1,-1} {121,118,121,-1,-1} {31,119,31,-1,-1} {37,158,37,-1,-1}
				q {59,140,59,-1,-1} {127,122,127,-1,-1} {33,123,33,-1,-1} {38,113,38,-1,-1}
				q {60,52,60,-1,-1} {122,160,122,-1,-1} {48,161,48,-1,-1} {39,70,39,-1,-1}
				q {134,162,134,-1,-1} {55,156,55,-1,-1} {151,56,151,-1,-1} {61,55,61,-1,-1}
				q {205,163,205,-1,-1} {178,182,178,-1,-1} {96,68,96,-1,-1} {64,69,64,-1,-1}
				q {206,164,206,-1,-1} {9,152,9,-1,-1} {145,151,145,-1,-1} {169,150,169,-1,-1}
				q {214,165,214,-1,-1} {87,58,87,-1,-1} {175,167,175,-1,-1} {176,166,176,-1,-1}
				q {176,166,176,-1,-1} {189,190,189,-1,-1} {99,7,99,-1,-1} {214,165,214,-1,-1}
				q {215,168,215,-1,-1} {90,13,90,-1,-1} {181,170,181,-1,-1} {186,169,186,-1,-1}
				q {186,169,186,-1,-1} {177,180,177,-1,-1} {98,59,98,-1,-1} {215,168,215,-1,-1}
				q {20,171,20,-1,-1} {110,40,110,-1,-1} {172,60,172,-1,-1} {173,153,173,-1,-1}
				q {45,135,45,-1,-1} {74,132,74,-1,-1} {116,86,116,-1,-1} {128,110,128,-1,-1}
				q {190,133,190,-1,-1} {193,87,193,-1,-1} {75,88,75,-1,-1} {107,97,107,-1,-1}
				q {202,127,202,-1,-1} {203,62,203,-1,-1} {76,63,76,-1,-1} {105,101,105,-1,-1}
				q {196,130,196,-1,-1} {197,102,197,-1,-1} {77,103,77,-1,-1} {103,129,103,-1,-1}
				q {204,108,204,-1,-1} {194,138,194,-1,-1} {78,105,78,-1,-1} {106,107,106,-1,-1}
				q {198,141,198,-1,-1} {201,98,201,-1,-1} {79,99,79,-1,-1} {104,137,104,-1,-1}
				q {144,172,144,-1,-1} {208,196,208,-1,-1} {46,143,46,-1,-1} {12,51,12,-1,-1}
				q {81,24,81,-1,-1} {51,25,51,-1,-1} {109,176,109,-1,-1} {21,175,21,-1,-1}
				q {171,154,171,-1,-1} {120,30,120,-1,-1} {7,178,7,-1,-1} {85,82,85,-1,-1}
				q {122,160,122,-1,-1} {60,52,60,-1,-1} {148,96,148,-1,-1} {86,94,86,-1,-1}
				q {86,94,86,-1,-1} {103,129,103,-1,-1} {58,159,58,-1,-1} {122,160,122,-1,-1}
				q {87,58,87,-1,-1} {98,59,98,-1,-1} {177,180,177,-1,-1} {175,167,175,-1,-1}
				q {88,2,88,-1,-1} {96,68,96,-1,-1} {178,182,178,-1,-1} {188,181,188,-1,-1}
				q {188,181,188,-1,-1} {184,188,184,-1,-1} {97,1,97,-1,-1} {88,2,88,-1,-1}
				q {89,11,89,-1,-1} {93,22,93,-1,-1} {182,184,182,-1,-1} {179,183,179,-1,-1}
				q {179,183,179,-1,-1} {187,185,187,-1,-1} {95,10,95,-1,-1} {89,11,89,-1,-1}
				q {90,13,90,-1,-1} {95,10,95,-1,-1} {187,185,187,-1,-1} {181,170,181,-1,-1}
				q {91,72,91,-1,-1} {92,47,92,-1,-1} {180,187,180,-1,-1} {183,186,183,-1,-1}
				q {183,186,183,-1,-1} {185,189,185,-1,-1} {94,33,94,-1,-1} {91,72,91,-1,-1}
				q {92,47,92,-1,-1} {97,1,97,-1,-1} {184,188,184,-1,-1} {180,187,180,-1,-1}
				q {93,22,93,-1,-1} {94,33,94,-1,-1} {185,189,185,-1,-1} {182,184,182,-1,-1}
				q {189,190,189,-1,-1} {17,212,17,-1,-1} {205,163,205,-1,-1} {99,7,99,-1,-1}
				q {121,118,121,-1,-1} {58,159,58,-1,-1} {103,129,103,-1,-1} {77,103,77,-1,-1}
				q {125,114,125,-1,-1} {57,104,57,-1,-1} {104,137,104,-1,-1} {79,99,79,-1,-1}
				q {124,75,124,-1,-1} {56,128,56,-1,-1} {105,101,105,-1,-1} {76,63,76,-1,-1}
				q {126,106,126,-1,-1} {47,145,47,-1,-1} {106,107,106,-1,-1} {78,105,78,-1,-1}
				q {47,145,47,-1,-1} {69,74,69,-1,-1} {117,61,117,-1,-1} {106,107,106,-1,-1}
				q {127,122,127,-1,-1} {59,140,59,-1,-1} {107,97,107,-1,-1} {75,88,75,-1,-1}
				q {23,193,23,-1,-1} {65,16,65,-1,-1} {206,164,206,-1,-1} {108,91,108,-1,-1}
				q {108,91,108,-1,-1} {212,90,212,-1,-1} {115,194,115,-1,-1} {23,193,23,-1,-1}
				q {111,37,111,-1,-1} {62,89,62,-1,-1} {170,39,170,-1,-1} {9,152,9,-1,-1}
				q {9,152,9,-1,-1} {206,164,206,-1,-1} {65,16,65,-1,-1} {111,37,111,-1,-1}
				q {112,157,112,-1,-1} {22,198,22,-1,-1} {130,38,130,-1,-1} {13,36,13,-1,-1}
				q {13,36,13,-1,-1} {151,56,151,-1,-1} {55,156,55,-1,-1} {112,157,112,-1,-1}
				q {113,174,113,-1,-1} {21,175,21,-1,-1} {168,5,168,-1,-1} {210,3,210,-1,-1}
				q {114,195,114,-1,-1} {10,214,10,-1,-1} {165,42,165,-1,-1} {211,41,211,-1,-1}
				q {118,80,118,-1,-1} {8,213,8,-1,-1} {157,14,157,-1,-1} {68,12,68,-1,-1}
				q {119,35,119,-1,-1} {19,77,19,-1,-1} {163,57,163,-1,-1} {67,8,67,-1,-1}
				q {208,196,208,-1,-1} {0,173,0,-1,-1} {80,76,80,-1,-1} {46,143,46,-1,-1}
				q {120,30,120,-1,-1} {71,65,71,-1,-1} {32,179,32,-1,-1} {7,178,7,-1,-1}
				q {128,110,128,-1,-1} {174,53,174,-1,-1} {123,54,123,-1,-1} {45,135,45,-1,-1}
				q {195,111,195,-1,-1} {29,155,29,-1,-1} {174,53,174,-1,-1} {128,110,128,-1,-1}
				q {129,147,129,-1,-1} {49,197,49,-1,-1} {152,6,152,-1,-1} {213,134,213,-1,-1}
				q {22,198,22,-1,-1} {3,199,3,-1,-1} {131,149,131,-1,-1} {130,38,130,-1,-1}
				q {3,199,3,-1,-1} {14,200,14,-1,-1} {132,26,132,-1,-1} {131,149,131,-1,-1}
				q {14,200,14,-1,-1} {26,205,26,-1,-1} {135,28,135,-1,-1} {132,26,132,-1,-1}
				q {41,201,41,-1,-1} {16,207,16,-1,-1} {142,64,142,-1,-1} {133,31,133,-1,-1}
				q {133,31,133,-1,-1} {143,29,143,-1,-1} {4,202,4,-1,-1} {41,201,41,-1,-1}
				q {134,162,134,-1,-1} {141,20,141,-1,-1} {25,204,25,-1,-1} {2,203,2,-1,-1}
				q {26,205,26,-1,-1} {4,202,4,-1,-1} {143,29,143,-1,-1} {135,28,135,-1,-1}
				q {6,206,6,-1,-1} {34,211,34,-1,-1} {139,23,139,-1,-1} {136,124,136,-1,-1}
				q {136,124,136,-1,-1} {142,64,142,-1,-1} {16,207,16,-1,-1} {6,206,6,-1,-1}
				q {11,208,11,-1,-1} {25,204,25,-1,-1} {141,20,141,-1,-1} {137,18,137,-1,-1}
				q {137,18,137,-1,-1} {140,45,140,-1,-1} {27,209,27,-1,-1} {11,208,11,-1,-1}
				q {1,210,1,-1,-1} {27,209,27,-1,-1} {140,45,140,-1,-1} {138,43,138,-1,-1}
				q {138,43,138,-1,-1} {139,23,139,-1,-1} {34,211,34,-1,-1} {1,210,1,-1,-1}
				q {83,50,83,-1,-1} {66,78,66,-1,-1} {0,173,0,-1,-1} {209,49,209,-1,-1}
				q {148,96,148,-1,-1} {174,53,174,-1,-1} {29,155,29,-1,-1} {192,95,192,-1,-1}
				q {17,212,17,-1,-1} {189,190,189,-1,-1} {40,136,40,-1,-1} {150,71,150,-1,-1}
				q {49,197,49,-1,-1} {80,76,80,-1,-1} {119,35,119,-1,-1} {152,6,152,-1,-1}
				q {46,143,46,-1,-1} {100,191,100,-1,-1} {155,48,155,-1,-1} {153,0,153,-1,-1}
				q {153,0,153,-1,-1} {162,46,162,-1,-1} {101,142,101,-1,-1} {46,143,46,-1,-1}
				q {82,177,82,-1,-1} {66,78,66,-1,-1} {118,80,118,-1,-1} {154,79,154,-1,-1}
				q {154,79,154,-1,-1} {163,57,163,-1,-1} {19,77,19,-1,-1} {82,177,82,-1,-1}
				q {100,191,100,-1,-1} {15,146,15,-1,-1} {161,67,161,-1,-1} {155,48,155,-1,-1}
				q {83,50,83,-1,-1} {102,192,102,-1,-1} {160,21,160,-1,-1} {156,9,156,-1,-1}
				q {156,9,156,-1,-1} {157,14,157,-1,-1} {8,213,8,-1,-1} {83,50,83,-1,-1}
				q {24,92,24,-1,-1} {84,93,84,-1,-1} {159,34,159,-1,-1} {158,32,158,-1,-1}
				q {158,32,158,-1,-1} {160,21,160,-1,-1} {102,192,102,-1,-1} {24,92,24,-1,-1}
				q {84,93,84,-1,-1} {12,51,12,-1,-1} {167,116,167,-1,-1} {159,34,159,-1,-1}
				q {162,46,162,-1,-1} {167,116,167,-1,-1} {12,51,12,-1,-1} {101,142,101,-1,-1}
				q {210,3,210,-1,-1} {164,120,164,-1,-1} {32,179,32,-1,-1} {113,174,113,-1,-1}
				q {212,90,212,-1,-1} {165,42,165,-1,-1} {10,214,10,-1,-1} {115,194,115,-1,-1}
				q {211,41,211,-1,-1} {166,85,166,-1,-1} {5,215,5,-1,-1} {114,195,114,-1,-1}
				q {166,85,166,-1,-1} {207,84,207,-1,-1} {109,176,109,-1,-1} {5,215,5,-1,-1}
				q {171,154,171,-1,-1} {173,153,173,-1,-1} {70,27,70,-1,-1} {54,81,54,-1,-1}
				q {115,194,115,-1,-1} {10,214,10,-1,-1} {73,19,73,-1,-1} {61,55,61,-1,-1}
				q {50,148,50,-1,-1} {70,27,70,-1,-1} {173,153,173,-1,-1} {172,60,172,-1,-1}
				q {113,174,113,-1,-1} {32,179,32,-1,-1} {71,65,71,-1,-1} {63,66,63,-1,-1}
				q {72,44,72,-1,-1} {52,100,52,-1,-1} {114,195,114,-1,-1} {5,215,5,-1,-1}
				q {175,167,175,-1,-1} {177,180,177,-1,-1} {38,113,38,-1,-1} {33,123,33,-1,-1}
				q {33,123,33,-1,-1} {43,121,43,-1,-1} {176,166,176,-1,-1} {175,167,175,-1,-1}
				q {43,121,43,-1,-1} {40,136,40,-1,-1} {189,190,189,-1,-1} {176,166,176,-1,-1}
				q {177,180,177,-1,-1} {186,169,186,-1,-1} {30,115,30,-1,-1} {38,113,38,-1,-1}
				q {178,182,178,-1,-1} {205,163,205,-1,-1} {17,212,17,-1,-1} {39,70,39,-1,-1}
				q {39,70,39,-1,-1} {48,161,48,-1,-1} {188,181,188,-1,-1} {178,182,178,-1,-1}
				q {179,183,179,-1,-1} {182,184,182,-1,-1} {18,73,18,-1,-1} {28,144,28,-1,-1}
				q {28,144,28,-1,-1} {35,126,35,-1,-1} {187,185,187,-1,-1} {179,183,179,-1,-1}
				q {180,187,180,-1,-1} {184,188,184,-1,-1} {37,158,37,-1,-1} {31,119,31,-1,-1}
				q {31,119,31,-1,-1} {36,117,36,-1,-1} {183,186,183,-1,-1} {180,187,180,-1,-1}
				q {181,170,181,-1,-1} {187,185,187,-1,-1} {35,126,35,-1,-1} {44,125,44,-1,-1}
				q {44,125,44,-1,-1} {30,115,30,-1,-1} {186,169,186,-1,-1} {181,170,181,-1,-1}
				q {182,184,182,-1,-1} {185,189,185,-1,-1} {42,139,42,-1,-1} {18,73,18,-1,-1}
				q {36,117,36,-1,-1} {42,139,42,-1,-1} {185,189,185,-1,-1} {183,186,183,-1,-1}
				q {184,188,184,-1,-1} {188,181,188,-1,-1} {48,161,48,-1,-1} {37,158,37,-1,-1}
				q {190,133,190,-1,-1} {201,98,201,-1,-1} {26,205,26,-1,-1} {14,200,14,-1,-1}
				q {14,200,14,-1,-1} {3,199,3,-1,-1} {193,87,193,-1,-1} {190,133,190,-1,-1}
				q {191,112,191,-1,-1} {193,87,193,-1,-1} {3,199,3,-1,-1} {22,198,22,-1,-1}
				q {22,198,22,-1,-1} {112,157,112,-1,-1} {195,111,195,-1,-1} {191,112,191,-1,-1}
				q {2,203,2,-1,-1} {25,204,25,-1,-1} {200,131,200,-1,-1} {192,95,192,-1,-1}
				q {194,138,194,-1,-1} {204,108,204,-1,-1} {16,207,16,-1,-1} {41,201,41,-1,-1}
				q {41,201,41,-1,-1} {4,202,4,-1,-1} {198,141,198,-1,-1} {194,138,194,-1,-1}
				q {196,130,196,-1,-1} {200,131,200,-1,-1} {25,204,25,-1,-1} {11,208,11,-1,-1}
				q {11,208,11,-1,-1} {27,209,27,-1,-1} {197,102,197,-1,-1} {196,130,196,-1,-1}
				q {27,209,27,-1,-1} {1,210,1,-1,-1} {202,127,202,-1,-1} {197,102,197,-1,-1}
				q {4,202,4,-1,-1} {26,205,26,-1,-1} {201,98,201,-1,-1} {198,141,198,-1,-1}
				q {199,109,199,-1,-1} {203,62,203,-1,-1} {34,211,34,-1,-1} {6,206,6,-1,-1}
				q {6,206,6,-1,-1} {16,207,16,-1,-1} {204,108,204,-1,-1} {199,109,199,-1,-1}
				q {1,210,1,-1,-1} {34,211,34,-1,-1} {203,62,203,-1,-1} {202,127,202,-1,-1}
			}
			CTris
			{
				numTris 46
				t {168,5,168,-1,-1} {53,4,53,-1,-1} {210,3,210,-1,-1}
				t {165,42,165,-1,-1} {53,4,53,-1,-1} {211,41,211,-1,-1}
				t {66,78,66,-1,-1} {19,77,19,-1,-1} {80,76,80,-1,-1}
				t {146,83,146,-1,-1} {53,4,53,-1,-1} {85,82,85,-1,-1}
				t {166,85,166,-1,-1} {53,4,53,-1,-1} {207,84,207,-1,-1}
				t {108,91,108,-1,-1} {53,4,53,-1,-1} {212,90,212,-1,-1}
				t {164,120,164,-1,-1} {53,4,53,-1,-1} {146,83,146,-1,-1}
				t {46,143,46,-1,-1} {101,142,101,-1,-1} {12,51,12,-1,-1}
				t {145,151,145,-1,-1} {53,4,53,-1,-1} {169,150,169,-1,-1}
				t {99,7,99,-1,-1} {205,163,205,-1,-1} {64,69,64,-1,-1}
				t {111,37,111,-1,-1} {65,16,65,-1,-1} {147,17,147,-1,-1}
				t {66,78,66,-1,-1} {80,76,80,-1,-1} {0,173,0,-1,-1}
				t {81,24,81,-1,-1} {21,175,21,-1,-1} {113,174,113,-1,-1}
				t {82,177,82,-1,-1} {19,77,19,-1,-1} {66,78,66,-1,-1}
				t {32,179,32,-1,-1} {146,83,146,-1,-1} {7,178,7,-1,-1}
				t {15,146,15,-1,-1} {100,191,100,-1,-1} {46,143,46,-1,-1}
				t {24,92,24,-1,-1} {102,192,102,-1,-1} {83,50,83,-1,-1}
				t {207,84,207,-1,-1} {53,4,53,-1,-1} {168,5,168,-1,-1}
				t {49,197,49,-1,-1} {129,147,129,-1,-1} {80,76,80,-1,-1}
				t {55,156,55,-1,-1} {134,162,134,-1,-1} {2,203,2,-1,-1}
				t {7,178,7,-1,-1} {146,83,146,-1,-1} {85,82,85,-1,-1}
				t {149,15,149,-1,-1} {23,193,23,-1,-1} {115,194,115,-1,-1}
				t {17,212,17,-1,-1} {150,71,150,-1,-1} {39,70,39,-1,-1}
				t {83,50,83,-1,-1} {8,213,8,-1,-1} {66,78,66,-1,-1}
				t {32,179,32,-1,-1} {164,120,164,-1,-1} {146,83,146,-1,-1}
				t {109,176,109,-1,-1} {168,5,168,-1,-1} {21,175,21,-1,-1}
				t {206,164,206,-1,-1} {169,150,169,-1,-1} {108,91,108,-1,-1}
				t {169,150,169,-1,-1} {53,4,53,-1,-1} {108,91,108,-1,-1}
				t {50,148,50,-1,-1} {170,39,170,-1,-1} {62,89,62,-1,-1}
				t {120,30,120,-1,-1} {171,154,171,-1,-1} {54,81,54,-1,-1}
				t {50,148,50,-1,-1} {172,60,172,-1,-1} {170,39,170,-1,-1}
				t {81,24,81,-1,-1} {113,174,113,-1,-1} {63,66,63,-1,-1}
				t {72,44,72,-1,-1} {109,176,109,-1,-1} {51,25,51,-1,-1}
				t {72,44,72,-1,-1} {5,215,5,-1,-1} {109,176,109,-1,-1}
				t {73,19,73,-1,-1} {10,214,10,-1,-1} {114,195,114,-1,-1}
				t {73,19,73,-1,-1} {114,195,114,-1,-1} {52,100,52,-1,-1}
				t {109,176,109,-1,-1} {207,84,207,-1,-1} {168,5,168,-1,-1}
				t {20,171,20,-1,-1} {53,4,53,-1,-1} {110,40,110,-1,-1}
				t {210,3,210,-1,-1} {53,4,53,-1,-1} {164,120,164,-1,-1}
				t {211,41,211,-1,-1} {53,4,53,-1,-1} {166,85,166,-1,-1}
				t {85,82,85,-1,-1} {53,4,53,-1,-1} {20,171,20,-1,-1}
				t {212,90,212,-1,-1} {53,4,53,-1,-1} {165,42,165,-1,-1}
				t {67,8,67,-1,-1} {214,165,214,-1,-1} {99,7,99,-1,-1}
				t {68,12,68,-1,-1} {215,168,215,-1,-1} {98,59,98,-1,-1}
				t {8,213,8,-1,-1} {118,80,118,-1,-1} {66,78,66,-1,-1}
				t {19,77,19,-1,-1} {119,35,119,-1,-1} {80,76,80,-1,-1}
			}
		}
	}
}
