// Source file: worldexportscene_scene.max
CIwModel
{
	name "crate"
	CMesh
	{
		name "crate"
		scale 1.0
		CVerts
		{
			numVerts 8
			v {-25,0,25}
			v {25,0,25}
			v {-25,0,-25}
			v {25,0,-25}
			v {-25,50,25}
			v {25,50,25}
			v {-25,50,-25}
			v {25,50,-25}
		}
		CVertNorms
		{
			numVertNorms 6
			vn {0,-1,0}
			vn {0,1,0}
			vn {0,0,1}
			vn {1,0,0}
			vn {0,0,-1}
			vn {-1,0,0}
		}
		CUVs
		{
			setID 0
			numUVs 8
			uv {0.99950,-0.00050}
			uv {0.00050,-0.00050}
			uv {0.00050,-0.00050}
			uv {0.99950,-0.99950}
			uv {0.00050,-0.99950}
			uv {0.00050,-0.99950}
			uv {0.99950,-0.00050}
			uv {0.99950,-0.99950}
		}
		CSurface
		{
			material "cratetex"
			CQuads
			{
				numQuads 6
				q {0,0,0,-1,-1} {1,0,2,-1,-1} {3,0,5,-1,-1} {2,0,3,-1,-1}
				q {4,1,1,-1,-1} {6,1,4,-1,-1} {7,1,7,-1,-1} {5,1,6,-1,-1}
				q {0,2,2,-1,-1} {4,2,5,-1,-1} {5,2,3,-1,-1} {1,2,0,-1,-1}
				q {1,3,1,-1,-1} {5,3,4,-1,-1} {7,3,7,-1,-1} {3,3,6,-1,-1}
				q {3,4,1,-1,-1} {7,4,4,-1,-1} {6,4,7,-1,-1} {2,4,6,-1,-1}
				q {2,5,2,-1,-1} {6,5,5,-1,-1} {4,5,3,-1,-1} {0,5,0,-1,-1}
			}
		}
	}
}
