// Source file: combatEva_rig.max
CIwModel
{
	name "combatEva"
	CMesh
	{
		name "combatEva"
		scale 4
		CVerts
		{
			numVerts 448
			v {-10.27517,272.13895,-4.23694}
			v {-13.88569,289.26178,-2.81630}
			v {-17.68684,278.18323,-10.78639}
			v {-8.93493,280.80969,0.82348}
			v {-4.54612,293.03934,-1.51376}
			v {-4.65017,284.31879,4.09145}
			v {-13.18243,287.15604,-4.34840}
			v {0.00743,285.06970,4.33268}
			v {-7.37694,292.64023,-1.23859}
			v {0.00000,295.64389,-0.60143}
			v {7.37694,292.64020,-1.23859}
			v {4.66999,284.31879,4.09145}
			v {4.54612,293.03937,-1.51376}
			v {8.95474,280.80969,0.82350}
			v {13.18243,288.11060,-5.99331}
			v {10.27517,272.13895,-4.23694}
			v {13.88569,290.26724,-4.54896}
			v {17.68685,279.18869,-12.51905}
			v {11.63071,265.65778,-8.77507}
			v {16.49982,278.12628,-15.96769}
			v {17.05260,266.71027,-19.97040}
			v {12.66484,274.55826,-8.56378}
			v {-12.03718,265.65778,-8.77507}
			v {-16.49982,278.12625,-15.96769}
			v {-17.05260,266.71024,-19.97040}
			v {-13.07131,274.55826,-8.56378}
			v {-5.02781,249.13184,-5.08004}
			v {-20.60635,241.80795,-23.00547}
			v {-8.11756,252.62317,-13.28389}
			v {-16.99076,249.90453,-15.32164}
			v {-14.70293,246.87827,-5.82942}
			v {-0.00000,248.65619,-2.94497}
			v {-0.00000,252.12192,-15.92939}
			v {-0.00000,242.53331,-21.90368}
			v {5.02781,249.13184,-5.08004}
			v {21.12982,241.71002,-22.96702}
			v {8.11755,252.62317,-13.28389}
			v {17.21243,249.86208,-15.49664}
			v {14.70293,246.87823,-5.82943}
			v {-21.15146,246.30363,-6.74824}
			v {-64.26312,227.53992,-14.51269}
			v {-65.49756,238.28220,-16.57245}
			v {-60.47939,232.63292,-21.80895}
			v {-60.92953,228.51581,-15.11993}
			v {-60.55740,231.53592,-9.52982}
			v {-61.08823,236.07465,-10.14458}
			v {-60.81944,239.48213,-18.18801}
			v {-25.33852,248.29883,-17.35939}
			v {-66.05237,231.67992,-20.11795}
			v {-57.16482,240.25966,-17.97808}
			v {-54.82983,233.67635,-21.06697}
			v {-57.71624,228.96638,-14.78651}
			v {21.02698,246.32697,-6.74072}
			v {66.11127,226.85127,-11.79437}
			v {65.79311,238.67882,-16.09818}
			v {61.05119,232.53911,-19.38787}
			v {61.15955,228.48511,-12.64635}
			v {60.51941,231.55441,-5.15882}
			v {61.08052,236.08762,-5.78720}
			v {61.20811,239.42213,-15.81893}
			v {25.63186,248.24469,-17.18760}
			v {66.49788,231.60925,-19.20102}
			v {57.61370,240.85252,-17.22663}
			v {56.41029,233.57780,-20.41825}
			v {56.97833,228.04477,-12.49691}
			v {83.89552,227.38266,-3.56120}
			v {84.38744,231.29727,-3.99136}
			v {84.27302,232.54921,-9.97376}
			v {83.56822,228.64642,-12.85800}
			v {83.49854,225.19414,-8.39583}
			v {-16.99389,237.10704,-4.37107}
			v {0.00000,235.78931,9.06893}
			v {0.00000,230.68448,-19.64953}
			v {-18.08179,233.10300,-15.97116}
			v {16.84065,237.13541,-4.43688}
			v {18.25759,233.07002,-15.97495}
			v {0.00000,200.29013,11.48933}
			v {-9.88138,202.10060,8.09600}
			v {-13.17506,185.32259,7.33550}
			v {-0.00000,181.81184,9.18350}
			v {-14.54542,191.03934,-1.70194}
			v {-12.17027,203.55363,-1.20296}
			v {-10.27242,192.37492,-7.87470}
			v {-10.63487,203.93385,-7.82535}
			v {-0.00000,203.34558,-11.08354}
			v {0.00000,192.63211,-12.35169}
			v {13.17506,185.32259,7.33550}
			v {9.88138,202.10060,8.09600}
			v {12.17027,203.55363,-1.20296}
			v {14.54542,191.03935,-1.70194}
			v {10.63487,203.93385,-7.82535}
			v {10.27242,192.37491,-7.87470}
			v {-11.39540,99.33232,-17.47464}
			v {-3.87280,96.28439,-10.59309}
			v {-17.41029,97.54100,-10.65900}
			v {-10.16213,92.79491,-3.16221}
			v {-15.22153,177.28754,6.66669}
			v {-18.73967,183.40588,-1.56962}
			v {-13.70577,184.71587,-8.79317}
			v {15.77240,177.28754,6.69321}
			v {18.73967,183.40590,-1.56962}
			v {-17.00677,228.19272,9.49204}
			v {-0.00000,227.89133,15.90007}
			v {17.00677,228.19272,9.49204}
			v {-19.30785,171.90569,-13.35604}
			v {-6.26839,152.95389,7.18930}
			v {-0.00000,162.59624,5.92750}
			v {-10.64471,113.64116,-12.78892}
			v {-21.23814,155.57483,-12.43530}
			v {-6.08701,111.79219,1.24927}
			v {-0.00000,155.70633,-2.74845}
			v {-24.41686,157.50793,-0.39625}
			v {-16.48466,112.49954,-4.03117}
			v {-9.66174,148.66185,-14.51710}
			v {-2.91020,105.22577,-7.96948}
			v {-12.12412,102.46693,1.41487}
			v {-15.92071,105.75525,-6.11900}
			v {-2.57457,111.63176,-5.42572}
			v {-0.00000,173.25839,-19.22498}
			v {-0.00000,156.48680,-10.75976}
			v {-11.24225,106.72991,-13.65590}
			v {-6.29193,102.62669,0.41809}
			v {-18.91762,155.71927,7.95425}
			v {-7.65842,156.39539,-18.31248}
			v {-12.37402,111.89098,1.45272}
			v {19.30785,171.90564,-13.35604}
			v {6.26839,153.61856,7.18930}
			v {19.95104,155.57480,-12.43530}
			v {9.66174,145.03345,-12.63986}
			v {7.97736,157.29947,-18.31032}
			v {3.79156,145.40901,-3.27978}
			v {7.95914,146.88028,6.20042}
			v {19.33846,146.48648,-12.79409}
			v {24.14178,157.50792,-0.39625}
			v {23.31767,146.34238,-1.33804}
			v {18.63761,155.71925,7.35125}
			v {18.53841,146.86617,7.12394}
			v {-10.28919,90.25093,-0.54386}
			v {-20.43118,68.65044,-12.74648}
			v {-21.32607,96.61355,-8.97136}
			v {-1.30848,95.16750,-8.94554}
			v {-1.09773,69.78722,-15.67162}
			v {-2.97245,66.29199,-18.24476}
			v {-9.93112,66.70964,-19.93559}
			v {-16.08716,65.49149,-14.92835}
			v {-9.60587,66.04441,-5.08511}
			v {0.89907,15.27978,-17.03292}
			v {-5.55934,18.35719,-38.27188}
			v {-11.31127,22.06508,-3.86471}
			v {-12.04413,18.91489,-38.86197}
			v {-19.60419,14.68287,-16.71632}
			v {-3.78380,21.83125,-3.72388}
			v {-7.89086,288.12936,-17.00293}
			v {0.00000,280.77814,-23.93930}
			v {-12.66948,282.51971,-16.21768}
			v {-6.14525,273.91605,5.94632}
			v {0.00495,273.09146,7.39044}
			v {0.00000,270.79526,5.97245}
			v {-2.29475,264.25641,6.35207}
			v {-10.34950,284.97836,-6.35773}
			v {-9.74558,266.83081,-5.02382}
			v {-5.84414,259.06412,1.46632}
			v {-8.56819,267.10791,0.03497}
			v {0.00000,264.13824,-26.22940}
			v {0.00000,290.36920,-5.29026}
			v {-13.83353,264.04678,-19.40481}
			v {0.00000,259.77271,-13.30826}
			v {-6.27813,259.79822,-10.47102}
			v {-8.52015,274.79044,2.93921}
			v {-3.42103,260.88138,4.87769}
			v {-1.58101,262.23962,7.07671}
			v {-6.94394,289.11859,-5.27854}
			v {-4.47769,258.28064,-5.57116}
			v {0.00000,256.30005,-2.72924}
			v {-6.05459,272.91818,4.38314}
			v {-0.00027,260.97458,6.03706}
			v {-8.70902,272.41776,1.61219}
			v {0.00000,256.59775,6.49892}
			v {-0.00027,260.17334,6.75342}
			v {-8.71766,270.51074,1.10226}
			v {0.00000,288.12936,-17.00291}
			v {2.29475,264.25641,6.35207}
			v {1.58101,262.23962,7.07672}
			v {0.81755,265.77386,9.13249}
			v {-0.56826,264.89368,8.87993}
			v {-0.78784,265.77386,9.13249}
			v {3.42103,260.88138,4.87769}
			v {0.59795,264.89368,8.87993}
			v {7.89086,288.12936,-17.00293}
			v {12.66948,282.51971,-16.21768}
			v {6.14525,273.91605,5.94632}
			v {10.34950,284.97836,-6.35773}
			v {9.69564,266.83081,-5.02382}
			v {5.54744,259.06412,1.46632}
			v {8.54028,267.10791,0.52808}
			v {13.83353,264.04678,-19.40481}
			v {6.27813,259.79822,-10.47102}
			v {8.52015,274.79044,2.93921}
			v {6.94394,289.11859,-5.27854}
			v {4.47769,258.28064,-5.57116}
			v {6.05459,272.91818,4.38314}
			v {8.70902,272.41776,1.61219}
			v {8.83497,270.51074,1.10226}
			v {20.23862,282.99780,-25.98142}
			v {12.61409,273.04062,-15.22137}
			v {12.11334,285.47028,-7.13040}
			v {14.95074,293.17618,-16.01489}
			v {11.62304,285.24411,-3.91547}
			v {6.96651,299.10172,-13.42012}
			v {15.72903,292.04181,-14.81978}
			v {3.95241,286.90894,1.51632}
			v {-0.00000,299.45410,-12.80459}
			v {-0.00000,287.76608,1.57742}
			v {-6.14515,295.89413,-11.75466}
			v {-4.98595,286.90894,0.13508}
			v {6.14515,295.89413,-11.75466}
			v {4.98595,286.90894,0.13508}
			v {-11.62304,285.24411,-3.91547}
			v {-6.96651,299.10172,-13.42012}
			v {-15.72903,292.04181,-14.81977}
			v {-3.95241,286.90894,1.51633}
			v {-20.23862,282.99774,-25.98142}
			v {-12.61409,273.04056,-15.22136}
			v {-12.11334,285.47021,-7.13040}
			v {-14.95074,293.17612,-16.01488}
			v {14.23342,265.33331,-20.29163}
			v {17.17809,282.70496,-24.56314}
			v {18.99670,266.39435,-25.92535}
			v {13.09315,277.80890,-15.56546}
			v {-9.51869,287.92245,-6.02165}
			v {0.00000,292.43793,-23.46203}
			v {-14.97487,281.31219,-27.86360}
			v {0.00000,291.45663,-5.95767}
			v {0.11531,281.31219,-33.61242}
			v {9.51869,287.92245,-6.02165}
			v {14.97486,281.31219,-27.86360}
			v {-0.00000,265.08057,-32.67128}
			v {-12.40363,282.14667,-20.08588}
			v {-15.61925,263.08481,-24.22993}
			v {0.00000,288.14090,-20.81690}
			v {12.40362,282.14670,-20.08587}
			v {15.61925,263.08484,-24.89838}
			v {0.00000,296.55765,-24.26983}
			v {-11.21209,292.64319,-22.19098}
			v {11.21210,292.64316,-22.19098}
			v {-14.23342,265.33331,-20.29164}
			v {-17.17809,282.70496,-24.56314}
			v {-18.99670,266.39435,-29.98628}
			v {-13.09315,277.80890,-15.56546}
			v {3.87279,96.28439,-10.59309}
			v {11.39540,99.33232,-19.21477}
			v {17.41029,97.54099,-10.65900}
			v {10.16213,92.79491,-3.16221}
			v {18.39936,140.88101,-15.86611}
			v {4.36191,141.60774,-9.82962}
			v {2.61828,143.04196,1.32338}
			v {9.05634,143.08035,9.03853}
			v {2.30834,111.58624,-2.53322}
			v {12.10560,113.34320,-12.85670}
			v {18.60288,112.10475,-3.25304}
			v {6.82591,112.14501,4.86211}
			v {26.11638,140.62724,1.61560}
			v {12.08768,106.62923,-15.39603}
			v {19.09647,142.48050,11.63157}
			v {13.91358,112.32300,5.10222}
			v {12.71500,101.46385,3.42665}
			v {3.44868,102.77795,-7.63927}
			v {7.48836,101.63731,3.78562}
			v {28.37779,160.97050,0.38864}
			v {19.98650,161.81577,13.13666}
			v {17.10568,150.18790,-20.31015}
			v {2.28960,148.28055,-13.35748}
			v {5.42788,154.02783,10.19213}
			v {1.13480,149.35222,2.08422}
			v {10.28919,90.25093,-0.54386}
			v {20.43118,68.65044,-12.74648}
			v {21.32607,96.61355,-8.97136}
			v {1.30848,95.16750,-8.94555}
			v {1.09773,69.78722,-15.67162}
			v {2.97245,66.29199,-18.24476}
			v {9.93112,67.02868,-22.18591}
			v {16.08716,65.49149,-14.92835}
			v {9.60587,66.04441,-5.08511}
			v {-0.89907,15.27978,-17.03292}
			v {5.55934,18.35718,-38.27188}
			v {11.31127,22.06508,-3.86472}
			v {12.04413,18.91488,-38.86197}
			v {19.60419,14.68287,-16.71632}
			v {3.78380,21.83125,-3.72389}
			v {-87.11939,228.23210,-17.53955}
			v {-86.76093,231.02470,-14.79983}
			v {-85.85440,226.32747,-14.01980}
			v {-85.39117,230.64679,-10.15012}
			v {-84.87325,227.53886,-9.98190}
			v {-111.04555,222.75844,-15.15875}
			v {-110.68709,225.55104,-12.41903}
			v {-109.78055,220.85381,-11.63900}
			v {-109.31732,225.17313,-7.76933}
			v {-108.79939,222.06520,-7.60110}
			v {-120.66972,224.18951,-8.69866}
			v {-127.01665,221.88907,-5.87151}
			v {-126.33703,221.00484,-5.94928}
			v {-121.80656,220.89520,-8.09514}
			v {-134.12004,216.28305,-4.94194}
			v {-121.16885,223.52879,-12.78185}
			v {-125.82005,221.69661,-11.33440}
			v {-121.33989,221.63980,-12.77808}
			v {-125.16899,221.00070,-11.21405}
			v {-129.37740,219.75363,-10.21846}
			v {-124.37109,221.24486,0.62128}
			v {-118.14922,224.58719,-3.14496}
			v {-125.07687,222.17926,0.88004}
			v {-131.71796,217.50092,1.91284}
			v {-114.00603,220.99936,-1.36715}
			v {-119.57650,219.07777,2.36173}
			v {-114.88452,223.04109,-1.60988}
			v {-120.49064,221.05365,1.90263}
			v {-123.17416,219.57645,1.78578}
			v {-120.59887,220.69839,0.66711}
			v {-119.79438,221.73450,-1.75636}
			v {-111.64455,223.28922,-4.50864}
			v {-112.76483,225.33141,-6.56965}
			v {-114.30837,225.28343,-10.43343}
			v {-115.44441,224.37717,-13.34562}
			v {-114.94913,219.64151,-1.94953}
			v {-119.69410,218.72456,1.09824}
			v {-122.32530,217.75131,2.20842}
			v {-111.33707,221.02834,-5.04808}
			v {-111.78484,220.24707,-6.75503}
			v {-114.71523,221.16580,-13.24072}
			v {-112.98209,220.28285,-9.76476}
			v {108.65359,225.55223,-6.23720}
			v {109.78058,221.78654,-8.10875}
			v {108.63272,225.17313,-3.24135}
			v {107.96118,222.69925,-3.07314}
			v {121.60722,226.79475,-4.17070}
			v {127.59011,224.26944,-1.34355}
			v {125.16898,220.14421,-6.68609}
			v {121.33990,221.63979,-8.25012}
			v {134.12003,216.28302,-0.41397}
			v {121.16885,224.36882,-8.25389}
			v {125.82003,222.53661,-6.80644}
			v {124.37110,220.38840,5.14925}
			v {119.20160,225.28838,1.38301}
			v {125.07690,222.83948,5.40800}
			v {131.71800,217.50098,6.44081}
			v {114.88454,223.04109,2.91808}
			v {119.38958,220.89075,6.88971}
			v {120.30370,222.86655,6.43061}
			v {122.98721,221.38940,6.31376}
			v {119.79439,221.73451,2.77160}
			v {111.04504,224.37714,-8.35582}
			v {114.94914,219.64154,2.57844}
			v {122.13834,219.56424,6.73639}
			v {106.73198,227.99762,-6.71912}
			v {110.63394,219.97523,-6.80988}
			v {108.65941,221.89343,2.55623}
			v {116.50453,228.87115,-6.02282}
			v {114.98283,222.65970,-10.65138}
			v {112.28796,226.77747,1.31243}
			v {79.08865,235.79692,2.12191}
			v {78.43842,229.14314,1.38703}
			v {75.38043,224.09842,-7.01459}
			v {72.24049,227.27269,-19.15909}
			v {105.27177,226.98361,-2.18592}
			v {76.95161,237.84633,-16.89703}
			v {104.86442,222.38885,-0.05276}
			v {105.40184,221.43729,-4.95636}
			v {106.96410,223.24339,-10.20238}
			v {22.65005,184.82828,0.29353}
			v {18.66799,191.55469,-0.37458}
			v {-22.03189,185.57033,-4.16831}
			v {-17.94364,193.93135,-4.86047}
			v {25.95580,140.38695,9.38788}
			v {24.23940,130.76839,8.99688}
			v {25.81406,131.69138,-0.84350}
			v {15.22225,132.77611,11.79976}
			v {-18.73660,0.00000,-4.94561}
			v {-16.51438,18.17842,-16.90692}
			v {-17.35262,8.05289,-18.39323}
			v {-3.76929,7.22215,-17.14450}
			v {-4.28745,16.35392,-17.13447}
			v {-1.23007,0.00000,-4.85259}
			v {-4.25208,15.26663,1.14822}
			v {-5.46797,9.31134,-32.04325}
			v {-12.96647,9.52369,-30.79042}
			v {-14.33197,14.21562,1.05865}
			v {-6.88277,-0.00000,11.12304}
			v {-11.35521,23.80838,-10.75803}
			v {-6.24942,21.69635,-29.59665}
			v {-11.71966,22.06099,-30.10456}
			v {-7.50773,23.66994,-10.64800}
			v {-13.64193,-0.00000,9.05174}
			v {-4.75507,12.51678,8.94646}
			v {-2.19043,-0.00000,8.05929}
			v {-12.99515,11.87516,8.18484}
			v {-17.23790,0.00000,-17.50694}
			v {-5.57164,0.00000,-28.83491}
			v {-3.45710,0.00000,-17.16930}
			v {-13.94543,-0.00000,-27.23630}
			v {18.73660,0.00000,-4.94561}
			v {16.51438,18.17842,-16.90692}
			v {17.35262,8.05289,-18.39323}
			v {3.76929,7.22215,-17.14450}
			v {4.28745,16.35392,-17.13447}
			v {1.23007,0.00000,-4.85259}
			v {4.25208,15.26663,1.14822}
			v {5.46797,9.31134,-32.04325}
			v {12.96647,9.52369,-30.79041}
			v {14.33197,14.21562,1.05865}
			v {6.88277,-0.00000,11.12304}
			v {11.35521,23.80838,-10.75803}
			v {6.24941,21.69635,-29.59665}
			v {11.71966,22.06098,-30.10456}
			v {7.50773,23.66994,-10.64800}
			v {13.64193,-0.00000,9.05174}
			v {4.75507,12.51678,8.94646}
			v {2.19043,-0.00000,8.05929}
			v {12.99515,11.87516,8.18484}
			v {17.23790,0.00000,-17.50694}
			v {5.57164,-0.00000,-28.83491}
			v {3.45710,0.00000,-17.16930}
			v {13.94543,-0.00000,-27.23630}
			v {-106.12688,221.01497,-10.95325}
			v {-111.25330,219.33858,-12.66703}
			v {-109.03682,220.93526,-3.37800}
			v {-105.56114,221.74080,-6.05492}
			v {-112.96933,225.59668,-4.24120}
			v {-117.56218,227.73705,-11.24511}
			v {-107.86803,227.50932,-12.34124}
			v {-106.27815,226.36655,-7.92520}
			v {-72.57188,229.84949,-24.42466}
			v {-77.87414,238.11086,-21.62997}
			v {-107.87827,222.97069,-16.03307}
			v {-115.87133,221.89748,-16.17924}
			v {-79.93476,234.89639,-2.92522}
			v {-78.89185,228.39900,-4.01789}
			v {-75.53410,224.06297,-12.59658}
			v {55.43743,238.14304,-5.02261}
			v {54.82787,231.11581,-3.58172}
			v {-57.00958,237.11931,-9.13855}
			v {-56.71922,232.02678,-8.41615}
			v {65.53403,236.10172,-4.20013}
			v {64.90044,230.29805,-3.60961}
			v {-64.42561,235.90990,-9.41152}
			v {-63.58783,231.03778,-8.85235}
			v {-0.72043,145.40903,-3.00309}
			v {18.00659,104.82288,-6.95602}
		}
		CVertNorms
		{
			numVertNorms 448
			vn {-0.80536,0.15259,0.57281}
			vn {-0.75241,-0.22659,0.61850}
			vn {-0.75240,-0.22659,0.61851}
			vn {-0.88050,0.13657,0.45395}
			vn {-0.59655,0.35172,0.72140}
			vn {-0.46484,0.46922,0.75083}
			vn {-0.59655,0.35172,0.72140}
			vn {0.00000,0.55159,0.83412}
			vn {-0.20240,0.44479,0.87247}
			vn {-0.00000,0.45396,0.89102}
			vn {0.20243,0.44480,0.87245}
			vn {0.47375,0.47151,0.74380}
			vn {0.64143,0.36087,0.67701}
			vn {0.88924,0.14496,0.43387}
			vn {0.64143,0.36087,0.67701}
			vn {0.81422,0.16479,0.55667}
			vn {0.81617,-0.16403,0.55403}
			vn {0.81617,-0.16403,0.55404}
			vn {0.73962,-0.64091,-0.20543}
			vn {0.74506,-0.18845,0.63982}
			vn {0.74510,-0.18845,0.63977}
			vn {0.95808,0.28611,-0.01528}
			vn {-0.73965,-0.64091,-0.20532}
			vn {-0.74463,-0.18845,0.64032}
			vn {-0.74464,-0.18845,0.64031}
			vn {-0.95785,0.28687,-0.01516}
			vn {-0.28863,0.34000,0.89504}
			vn {-0.03634,0.28154,-0.95886}
			vn {-0.46938,0.75680,-0.45491}
			vn {-0.14891,0.96277,-0.22562}
			vn {-0.11609,0.17319,0.97802}
			vn {-0.22282,0.51543,0.82746}
			vn {0.00060,0.51205,-0.85896}
			vn {0.00010,0.12245,-0.99247}
			vn {0.11433,0.16510,0.97963}
			vn {0.04296,0.27351,-0.96091}
			vn {0.46645,0.75421,-0.46216}
			vn {0.15047,0.96040,-0.23450}
			vn {0.11433,0.16510,0.97963}
			vn {-0.20761,0.64201,0.73805}
			vn {0.14705,-0.98680,-0.06787}
			vn {-0.30552,0.89672,-0.32025}
			vn {-0.04025,-0.26588,-0.96316}
			vn {0.16439,-0.97625,0.14111}
			vn {0.04292,-0.46082,0.88645}
			vn {-0.10354,0.60639,0.78840}
			vn {-0.20812,0.97592,-0.06538}
			vn {-0.16522,0.93687,-0.30817}
			vn {-0.17338,-0.22774,-0.95816}
			vn {-0.19502,0.90979,-0.36640}
			vn {0.05102,-0.19493,-0.97949}
			vn {0.13635,-0.98214,-0.12968}
			vn {0.16593,0.66373,0.72933}
			vn {-0.17052,-0.97923,-0.10965}
			vn {0.27317,0.87292,-0.40422}
			vn {0.09155,-0.29297,-0.95173}
			vn {-0.10940,-0.99230,0.05813}
			vn {-0.09298,-0.49057,0.86643}
			vn {0.04730,0.64469,0.76298}
			vn {0.23679,0.96089,-0.14359}
			vn {0.16261,0.93314,-0.32065}
			vn {0.12131,-0.26894,-0.95549}
			vn {0.31583,0.86929,-0.38024}
			vn {0.14296,-0.22430,-0.96398}
			vn {-0.03319,-0.98492,-0.16982}
			vn {-0.08526,-0.50354,0.85975}
			vn {0.15908,0.65044,0.74271}
			vn {0.38875,0.84540,-0.36629}
			vn {0.29812,-0.25597,-0.91957}
			vn {-0.05779,-0.99286,-0.10437}
			vn {-0.34297,0.44667,0.82635}
			vn {0.00124,0.68246,0.73092}
			vn {0.05900,-0.18656,-0.98067}
			vn {-0.32210,-0.73815,-0.59278}
			vn {0.65240,0.26435,0.71028}
			vn {0.30806,-0.74115,-0.59649}
			vn {0.00000,-0.17891,0.98387}
			vn {-0.70740,-0.21706,0.67266}
			vn {-0.62623,0.10338,0.77275}
			vn {-0.00401,-0.06485,0.99789}
			vn {-0.85361,0.48865,0.18045}
			vn {-0.98547,-0.16899,-0.01693}
			vn {-0.38824,0.48103,-0.78606}
			vn {-0.73356,-0.18158,-0.65492}
			vn {-0.00025,-0.18730,-0.98230}
			vn {0.00000,0.23916,-0.97098}
			vn {0.45631,0.21477,0.86351}
			vn {0.70740,-0.21706,0.67266}
			vn {0.98569,-0.16785,-0.01567}
			vn {0.69589,0.70381,-0.14280}
			vn {0.73469,-0.18158,-0.65365}
			vn {0.63584,0.26627,-0.72444}
			vn {-0.10848,0.33112,-0.93733}
			vn {0.96412,0.22373,-0.14291}
			vn {-0.99517,0.03376,0.09213}
			vn {0.24798,-0.33302,0.90973}
			vn {-0.50988,0.13924,0.84890}
			vn {-0.98550,0.05303,0.16118}
			vn {-0.35641,0.04768,-0.93311}
			vn {0.55489,-0.11063,0.82453}
			vn {0.96796,0.21286,-0.13318}
			vn {-0.80606,0.16175,0.56930}
			vn {0.00000,0.23079,0.97300}
			vn {0.80837,0.16250,0.56580}
			vn {-0.63792,0.20523,-0.74225}
			vn {0.57090,-0.17546,0.80205}
			vn {-0.00354,-0.20027,0.97973}
			vn {-0.26152,0.07591,-0.96221}
			vn {-0.72532,-0.04959,-0.68662}
			vn {0.57190,-0.02060,0.82007}
			vn {0.07900,-0.78566,0.61359}
			vn {-0.98542,-0.00916,0.16989}
			vn {-0.98069,-0.06924,0.18289}
			vn {0.31698,-0.18005,-0.93119}
			vn {0.99496,-0.07973,-0.06077}
			vn {-0.49620,-0.11368,0.86074}
			vn {-0.97131,-0.01488,0.23734}
			vn {0.99863,-0.02193,-0.04755}
			vn {0.00787,0.07401,-0.99723}
			vn {0.01708,-0.61495,-0.78838}
			vn {-0.22943,0.48446,-0.84419}
			vn {0.64869,-0.13161,0.74959}
			vn {-0.48180,-0.03815,0.87545}
			vn {0.29992,-0.37462,-0.87733}
			vn {-0.48239,-0.05093,0.87447}
			vn {0.64141,0.19530,-0.74192}
			vn {-0.47268,-0.26474,0.84053}
			vn {0.70933,-0.01526,-0.70471}
			vn {-0.28539,-0.27771,-0.91730}
			vn {-0.16083,-0.20294,-0.96589}
			vn {-0.90354,-0.41809,0.09393}
			vn {-0.50885,-0.22621,0.83060}
			vn {0.64631,-0.01068,-0.76300}
			vn {0.99070,0.02327,0.13407}
			vn {0.99140,-0.06447,0.11388}
			vn {0.49162,-0.02098,0.87056}
			vn {0.46477,-0.08774,0.88107}
			vn {0.08469,0.42095,0.90312}
			vn {-0.87037,-0.49114,0.03507}
			vn {-0.78440,0.56782,0.24958}
			vn {0.80733,0.56343,0.17540}
			vn {0.95533,-0.29545,-0.00739}
			vn {0.95560,-0.05112,-0.29020}
			vn {-0.04785,0.17662,-0.98311}
			vn {-0.95999,-0.17338,-0.21992}
			vn {-0.01421,-0.30098,0.95352}
			vn {0.99230,0.11342,-0.04969}
			vn {0.55378,0.28305,-0.78307}
			vn {-0.49899,0.05040,0.86514}
			vn {-0.53691,0.28719,-0.79325}
			vn {-0.99449,0.07639,0.07176}
			vn {0.58271,0.08812,0.80789}
			vn {-0.43473,0.84533,-0.31052}
			vn {-0.00000,0.51958,-0.85442}
			vn {-0.93391,0.26169,-0.24357}
			vn {-0.53398,-0.17548,0.82708}
			vn {0.00008,-0.28381,0.95888}
			vn {-0.05139,-0.06027,0.99686}
			vn {-0.56874,-0.17853,0.80291}
			vn {-0.91394,0.36545,0.17654}
			vn {-0.87554,-0.37079,0.30974}
			vn {-0.75479,-0.54782,0.36081}
			vn {-0.85785,-0.28228,0.42944}
			vn {0.00000,-0.56072,-0.82801}
			vn {-0.00001,0.99694,0.07823}
			vn {-0.88072,-0.45471,-0.13256}
			vn {-0.00000,-0.45853,-0.88868}
			vn {-0.90605,-0.40436,-0.12474}
			vn {-0.85908,-0.09613,0.50274}
			vn {-0.60081,-0.19913,0.77419}
			vn {-0.24296,-0.34256,0.90754}
			vn {-0.51333,0.82473,0.23730}
			vn {-0.85139,-0.41351,0.32271}
			vn {-0.00000,-0.67598,0.73692}
			vn {-0.53194,-0.35477,0.76888}
			vn {-0.19778,-0.32578,0.92453}
			vn {-0.85137,-0.04272,0.52282}
			vn {-0.00001,-0.84693,0.53170}
			vn {-0.12402,0.04120,0.99142}
			vn {-0.82148,-0.01907,0.56992}
			vn {0.00000,0.90812,-0.41872}
			vn {0.57120,-0.17853,0.80116}
			vn {0.24654,-0.16098,0.95567}
			vn {0.51233,0.04196,0.85776}
			vn {-0.29094,-0.63628,0.71450}
			vn {-0.50867,0.04120,0.85997}
			vn {0.71052,-0.24872,0.65826}
			vn {0.29307,-0.63700,0.71298}
			vn {0.43473,0.84533,-0.31052}
			vn {0.93386,0.26169,-0.24376}
			vn {0.53403,-0.17548,0.82705}
			vn {0.91372,0.36621,0.17605}
			vn {0.87554,-0.37079,0.30974}
			vn {0.75479,-0.54782,0.36082}
			vn {0.82655,-0.26092,0.49874}
			vn {0.88069,-0.45471,-0.13280}
			vn {0.90605,-0.40436,-0.12477}
			vn {0.85826,-0.09766,0.50384}
			vn {0.51340,0.82481,0.23689}
			vn {0.85139,-0.41351,0.32271}
			vn {0.53210,-0.35477,0.76877}
			vn {0.85094,-0.04425,0.52339}
			vn {0.82147,-0.01907,0.56993}
			vn {0.91027,-0.09003,0.40411}
			vn {0.91026,-0.09003,0.40412}
			vn {0.91026,-0.09003,0.40412}
			vn {0.91029,-0.09003,0.40407}
			vn {0.55637,0.58899,0.58613}
			vn {0.55636,0.58898,0.58615}
			vn {0.55636,0.58898,0.58614}
			vn {0.55636,0.58899,0.58614}
			vn {0.00000,0.77887,0.62718}
			vn {0.00000,0.77887,0.62719}
			vn {-0.31433,0.73928,0.59554}
			vn {-0.31433,0.73927,0.59554}
			vn {0.31433,0.73928,0.59554}
			vn {0.31433,0.73927,0.59554}
			vn {-0.55637,0.58899,0.58613}
			vn {-0.55636,0.58898,0.58615}
			vn {-0.55636,0.58898,0.58614}
			vn {-0.55636,0.58899,0.58614}
			vn {-0.91027,-0.09003,0.40411}
			vn {-0.91026,-0.09003,0.40412}
			vn {-0.91026,-0.09003,0.40412}
			vn {-0.91029,-0.09003,0.40407}
			vn {0.90895,-0.05264,0.41356}
			vn {0.90895,-0.05264,0.41356}
			vn {0.90895,-0.05264,0.41356}
			vn {0.90895,-0.05264,0.41356}
			vn {-0.28969,0.94517,0.15078}
			vn {0.00000,0.96275,-0.27039}
			vn {-0.37590,0.82944,-0.41319}
			vn {0.00000,0.98750,0.15760}
			vn {0.00000,0.79494,-0.60669}
			vn {0.28969,0.94517,0.15078}
			vn {0.37590,0.82944,-0.41319}
			vn {-0.00000,0.53786,-0.84303}
			vn {-0.31959,0.69649,-0.64247}
			vn {-0.30274,0.51270,-0.80342}
			vn {-0.00000,0.73473,-0.67836}
			vn {0.31959,0.69649,-0.64247}
			vn {0.30274,0.51270,-0.80342}
			vn {0.00000,0.97475,0.22329}
			vn {-0.28600,0.93398,0.21418}
			vn {0.28600,0.93398,0.21418}
			vn {-0.90895,-0.05264,0.41356}
			vn {-0.90895,-0.05264,0.41356}
			vn {-0.90895,-0.05264,0.41356}
			vn {-0.90895,-0.05264,0.41356}
			vn {-0.93601,0.28649,-0.20447}
			vn {0.12114,0.22946,-0.96575}
			vn {0.99719,0.06733,-0.03297}
			vn {-0.00865,0.25501,0.96690}
			vn {0.27995,0.52909,-0.80105}
			vn {-0.75127,0.49667,-0.43463}
			vn {-0.74780,0.64274,0.16634}
			vn {-0.36385,0.65956,0.65772}
			vn {-0.99563,-0.09232,0.01382}
			vn {-0.01736,-0.05894,-0.99811}
			vn {0.96943,-0.18940,0.15601}
			vn {-0.51791,-0.16899,0.83857}
			vn {0.96442,0.26245,0.03190}
			vn {0.15879,0.39596,-0.90443}
			vn {0.28544,0.35515,0.89017}
			vn {0.50156,-0.22316,0.83585}
			vn {0.52462,-0.44441,0.72614}
			vn {-0.99804,-0.06084,0.01469}
			vn {-0.56764,-0.41732,0.70966}
			vn {0.97494,-0.10910,0.19387}
			vn {0.37765,-0.10261,0.92024}
			vn {0.27485,-0.44098,-0.85440}
			vn {-0.83447,-0.39024,-0.38905}
			vn {-0.50212,-0.20904,0.83915}
			vn {-0.91217,-0.30289,0.27604}
			vn {-0.08469,0.42095,0.90312}
			vn {0.87037,-0.49114,0.03507}
			vn {0.78440,0.56782,0.24958}
			vn {-0.80733,0.56343,0.17540}
			vn {-0.95533,-0.29545,-0.00739}
			vn {-0.95560,-0.05112,-0.29020}
			vn {0.04785,0.17662,-0.98311}
			vn {0.95999,-0.17338,-0.21992}
			vn {-0.17004,-0.29240,0.94106}
			vn {-0.99231,0.11339,-0.04969}
			vn {-0.55379,0.28305,-0.78307}
			vn {0.49899,0.05040,0.86514}
			vn {0.53691,0.28719,-0.79325}
			vn {0.99450,0.07634,0.07176}
			vn {-0.58271,0.08812,0.80789}
			vn {-0.12397,-0.19149,-0.97363}
			vn {-0.29770,0.89902,-0.32114}
			vn {0.08201,-0.99333,-0.08111}
			vn {-0.19893,0.60958,0.76736}
			vn {0.01965,-0.50126,0.86507}
			vn {-0.24031,-0.10375,-0.96514}
			vn {-0.05474,0.96547,-0.25472}
			vn {0.23089,-0.95525,-0.18491}
			vn {0.40578,0.74216,0.53343}
			vn {0.66144,-0.65571,0.36406}
			vn {-0.25975,0.96425,-0.05240}
			vn {-0.47325,0.88089,-0.00800}
			vn {0.26203,-0.96458,-0.03030}
			vn {-0.01717,-0.99967,-0.01927}
			vn {-0.80788,-0.51532,-0.28597}
			vn {-0.32198,0.58521,-0.74422}
			vn {-0.49780,0.46652,-0.73113}
			vn {-0.14606,-0.68606,-0.71273}
			vn {0.00916,-0.75115,-0.66007}
			vn {-0.24261,-0.32615,-0.91365}
			vn {0.42707,-0.63441,0.64431}
			vn {0.02593,0.82979,0.55747}
			vn {-0.08144,0.66640,0.74114}
			vn {0.11177,-0.16785,0.97946}
			vn {0.66746,-0.11252,0.73609}
			vn {0.40455,-0.38719,0.82850}
			vn {0.18807,0.68782,0.70110}
			vn {-0.17609,0.78791,0.59008}
			vn {-0.76790,0.62828,-0.12483}
			vn {-0.62382,0.35282,-0.69740}
			vn {-0.37352,-0.81880,0.43596}
			vn {0.60607,0.38573,0.69562}
			vn {0.09824,0.94617,0.30841}
			vn {-0.11349,0.97964,-0.16561}
			vn {-0.24948,0.52147,-0.81598}
			vn {0.27765,-0.95882,0.05984}
			vn {0.08145,-0.93885,-0.33456}
			vn {0.02117,-0.96658,0.25551}
			vn {0.71865,-0.51648,0.46560}
			vn {0.21857,-0.97420,0.05627}
			vn {-0.16045,-0.62958,-0.76019}
			vn {0.07076,-0.99135,-0.11050}
			vn {-0.28611,0.84498,-0.45184}
			vn {-0.32713,-0.64090,-0.69443}
			vn {-0.39216,0.71985,0.57273}
			vn {-0.67745,-0.54928,0.48924}
			vn {0.16403,0.97843,-0.12556}
			vn {0.58013,0.81050,-0.08083}
			vn {0.04654,-0.75950,-0.64884}
			vn {0.04063,-0.69926,-0.71371}
			vn {0.83551,0.07821,-0.54388}
			vn {0.23823,0.45205,-0.85959}
			vn {0.58269,0.30517,-0.75322}
			vn {-0.47209,-0.60809,0.63824}
			vn {-0.10946,0.75553,0.64590}
			vn {0.07439,0.58670,0.80638}
			vn {0.07286,-0.21439,0.97403}
			vn {-0.36171,0.54876,0.75368}
			vn {-0.40932,-0.08125,0.90877}
			vn {-0.01850,0.71510,0.69877}
			vn {0.91050,0.41128,0.04279}
			vn {0.15373,-0.83924,0.52158}
			vn {-0.22889,0.40055,-0.88722}
			vn {-0.39153,-0.85517,0.33968}
			vn {0.14616,-0.79566,0.58784}
			vn {0.17124,0.87984,-0.44335}
			vn {-0.23615,-0.94918,-0.20807}
			vn {-0.51174,-0.40665,0.75681}
			vn {-0.05360,0.93396,-0.35333}
			vn {-0.15774,-0.15602,-0.97508}
			vn {-0.27874,0.78780,0.54925}
			vn {0.27941,0.66525,0.69236}
			vn {-0.00820,-0.48332,0.87541}
			vn {-0.11043,-0.99021,0.08533}
			vn {0.19225,-0.50696,-0.84026}
			vn {-0.01946,0.76414,0.64476}
			vn {0.40039,0.76148,-0.50974}
			vn {-0.23537,-0.46578,0.85303}
			vn {-0.17564,-0.98250,-0.06209}
			vn {0.01965,-0.34485,-0.93845}
			vn {0.90742,0.04311,-0.41800}
			vn {0.39472,0.91410,0.09286}
			vn {-0.93116,-0.30327,-0.20239}
			vn {-0.70195,0.71216,0.00955}
			vn {0.59477,0.67254,0.44039}
			vn {0.20705,-0.94989,0.23416}
			vn {0.19873,-0.85099,-0.48613}
			vn {-0.46963,-0.71070,0.52380}
			vn {-0.86374,-0.50237,0.03972}
			vn {-0.95529,0.29564,-0.00477}
			vn {-0.99573,-0.09019,-0.01965}
			vn {0.99287,-0.11919,0.00138}
			vn {0.97302,0.22459,-0.05283}
			vn {0.86088,-0.49723,-0.10787}
			vn {0.68511,0.67795,0.26648}
			vn {0.62740,-0.05035,-0.77707}
			vn {-0.63467,-0.03579,-0.77195}
			vn {-0.67389,0.64869,0.35367}
			vn {0.14418,-0.56901,0.80959}
			vn {-0.49638,0.73641,0.45969}
			vn {0.64228,0.13556,-0.75439}
			vn {-0.59947,0.14611,-0.78695}
			vn {0.54160,0.74250,0.39416}
			vn {-0.72372,-0.06819,0.68672}
			vn {0.40903,0.62411,0.66572}
			vn {0.87462,-0.10268,0.47381}
			vn {-0.50356,0.64945,0.56977}
			vn {-0.64397,-0.63290,0.42982}
			vn {0.43025,-0.70434,-0.56462}
			vn {0.58772,-0.60472,0.53749}
			vn {-0.51512,-0.62894,-0.58231}
			vn {0.86374,-0.50237,0.03972}
			vn {0.95529,0.29564,-0.00477}
			vn {0.99573,-0.09019,-0.01965}
			vn {-0.99287,-0.11919,0.00138}
			vn {-0.97300,0.22464,-0.05293}
			vn {-0.86088,-0.49723,-0.10787}
			vn {-0.68511,0.67795,0.26648}
			vn {-0.62740,-0.05035,-0.77707}
			vn {0.63467,-0.03579,-0.77195}
			vn {0.67389,0.64869,0.35367}
			vn {-0.14419,-0.56902,0.80959}
			vn {0.49638,0.73641,0.45969}
			vn {-0.64227,0.13552,-0.75440}
			vn {0.59948,0.14615,-0.78693}
			vn {-0.54162,0.74248,0.39417}
			vn {0.72371,-0.06819,0.68673}
			vn {-0.40903,0.62411,0.66572}
			vn {-0.87462,-0.10268,0.47381}
			vn {0.50356,0.64945,0.56977}
			vn {0.64397,-0.63290,0.42982}
			vn {-0.43025,-0.70434,-0.56462}
			vn {-0.58772,-0.60472,0.53749}
			vn {0.51512,-0.62894,-0.58231}
			vn {0.20660,-0.96796,-0.14270}
			vn {0.28417,-0.92269,-0.26057}
			vn {0.57030,-0.40780,0.71306}
			vn {0.26264,-0.50316,0.82331}
			vn {0.25702,0.77716,0.57442}
			vn {-0.01755,0.95105,-0.30855}
			vn {-0.20789,0.89716,-0.38972}
			vn {0.00534,0.73588,0.67709}
			vn {-0.17341,-0.40748,-0.89660}
			vn {-0.40015,0.79458,-0.45665}
			vn {-0.02842,-0.26550,-0.96369}
			vn {0.12570,-0.10224,-0.98679}
			vn {-0.28382,0.62028,0.73123}
			vn {0.00496,-0.53711,0.84350}
			vn {0.12340,-0.99217,-0.01945}
			vn {0.25042,0.72694,0.63941}
			vn {0.09479,-0.62598,0.77405}
			vn {-0.26882,0.69042,0.67161}
			vn {-0.06008,-0.60503,0.79393}
			vn {-0.00019,0.75908,0.65100}
			vn {-0.29056,-0.60402,0.74211}
			vn {-0.05092,0.71293,0.69939}
			vn {0.19322,-0.56918,0.79919}
			vn {0.95786,-0.26093,-0.12007}
			vn {0.97713,-0.15334,0.14731}
		}
		CVertCols
		{
			numVertCols 167
			col {0.89942,0.93717,0.95914,1}
			col {0.93055,0.96705,0.99060,1}
			col {0.81223,0.83843,0.83564,1}
			col {0.49704,0.51549,0.51352,1}
			col {1,1,1,1}
			col {0.51407,0.53104,0.52923,1}
			col {0.77706,0.80816,0.82420,1}
			col {0.83334,0.85826,0.85561,1}
			col {0.80697,0.83698,0.85415,1}
			col {0.91888,0.95506,0.97664,1}
			col {0.58213,0.58213,0.58213,1}
			col {0.98863,0.99379,1,1}
			col {0.97775,1,1,1}
			col {0.91459,0.95080,0.97235,1}
			col {0.97414,1,1,1}
			col {0.97948,0.98464,1,1}
			col {0.55040,0.55040,0.55040,1}
			col {0.63968,0.63968,0.73668,1}
			col {0.50534,0.50534,0.60958,1}
			col {0.94146,0.94350,1,1}
			col {0.61762,0.61762,0.71481,1}
			col {0.63393,0.63393,0.73572,1}
			col {0.66946,0.66953,0.76576,1}
			col {0.61287,0.61287,0.70030,1}
			col {0.88746,0.88746,0.89748,1}
			col {0.64932,0.64932,0.72163,1}
			col {0.67230,0.67230,0.76199,1}
			col {0.63208,0.63208,0.72470,1}
			col {0.72749,0.72781,0.82368,1}
			col {0.93550,0.93679,0.95046,1}
			col {0.72324,0.72324,0.82560,1}
			col {0.80884,0.80884,0.91647,1}
			col {0.91576,0.91704,0.93058,1}
			col {0.89095,0.89095,0.98618,1}
			col {0.72045,0.75357,0.75005,1}
			col {0.73389,0.76671,0.76322,1}
			col {0.97830,1,1,1}
			col {0.73199,0.73199,0.81925,1}
			col {0.67661,0.67661,0.75979,1}
			col {0.81442,0.81481,0.82321,1}
			col {0.76506,0.76641,0.78233,1}
			col {0.82497,0.85836,0.92588,1}
			col {0.83458,0.83863,0.83820,1}
			col {0.75467,0.75467,0.75467,1}
			col {0.85973,0.89458,1,1}
			col {0.63476,0.63586,0.71833,1}
			col {0.71467,0.74028,0.87801,1}
			col {0.55160,0.55666,0.66193,1}
			col {0.84304,0.84338,0.84704,1}
			col {0.89500,0.93206,0.98144,1}
			col {0.99962,1,1,1}
			col {0.62254,0.62254,0.69849,1}
			col {0.53637,0.53637,0.62314,1}
			col {0.94708,0.99152,1,1}
			col {0.51549,0.51549,0.53429,1}
			col {0.63331,0.63331,0.71905,1}
			col {0.31797,0.31797,0.31797,1}
			col {0.95921,0.99411,1,1}
			col {0.32859,0.33521,0.40531,1}
			col {0.55561,0.56147,0.62348,1}
			col {0.30000,0.30000,0.30000,1}
			col {0.49794,0.50016,0.51260,1}
			col {0.73000,0.73000,0.80179,1}
			col {0.67436,0.67436,0.74271,1}
			col {0.97314,1,1,1}
			col {0.96660,0.99335,1,1}
			col {0.77878,0.78208,0.83619,1}
			col {0.76953,0.77295,0.82727,1}
			col {0.72555,0.75574,0.76163,1}
			col {0.74202,0.77470,0.77896,1}
			col {0.76526,0.79601,0.80631,1}
			col {0.94206,0.99849,0.99879,1}
			col {0.93753,0.99413,0.99448,1}
			col {0.96822,0.99500,1,1}
			col {0.77735,0.78065,0.83477,1}
			col {0.76987,0.77329,0.82764,1}
			col {0.73369,0.76395,0.76992,1}
			col {0.74806,0.78070,0.78495,1}
			col {0.77366,0.80453,0.81495,1}
			col {0.57729,0.59415,0.60339,1}
			col {0.56715,0.58563,0.59466,1}
			col {0.61381,0.63449,0.64344,1}
			col {0.67414,0.69503,0.70527,1}
			col {0.56994,0.58679,0.59603,1}
			col {0.66790,0.68879,0.69902,1}
			col {0.60729,0.62797,0.63692,1}
			col {0.56058,0.57907,0.58810,1}
			col {0.56528,0.58266,0.58938,1}
			col {0.61112,0.63082,0.63760,1}
			col {0.66860,0.68844,0.69595,1}
			col {0.62941,0.64702,0.65400,1}
			col {0.95042,0.95042,1,1}
			col {0.99363,0.99363,1,1}
			col {0.97262,0.97262,1,1}
			col {0.55803,0.57541,0.58214,1}
			col {0.62647,0.64392,0.65138,1}
			col {0.66190,0.68174,0.68926,1}
			col {0.60425,0.62396,0.63073,1}
			col {0.81528,0.81727,0.83834,1}
			col {0.40732,0.40732,0.49083,1}
			col {0.83351,0.83548,0.85632,1}
			col {0.94609,0.98359,1,1}
			col {0.76032,0.79143,0.86673,1}
			col {0.74419,0.74560,0.76048,1}
			col {0.76668,0.76833,0.78581,1}
			col {0.81097,0.83651,0.97078,1}
			col {0.60383,0.62452,0.74879,1}
			col {0.79135,0.79135,0.88577,1}
			col {0.77649,0.77649,0.77649,1}
			col {0.87244,0.92523,0.95235,1}
			col {0.54071,0.54204,0.61355,1}
			col {0.59631,0.59631,0.68162,1}
			col {0.51312,0.51312,0.53192,1}
			col {0.32981,0.32981,0.32981,1}
			col {0.96699,1,1,1}
			col {0.34988,0.35651,0.42661,1}
			col {0.54807,0.55393,0.61595,1}
			col {0.49310,0.49532,0.50776,1}
			col {0.72865,0.72865,0.80043,1}
			col {0.67712,0.67712,0.74548,1}
			col {0.55406,0.55406,0.63826,1}
			col {0.43604,0.43604,0.49436,1}
			col {0.45340,0.45340,0.45340,1}
			col {0.73716,0.77757,0.80967,1}
			col {0.99383,1,1,1}
			col {0.93627,0.95100,0.94944,1}
			col {0.75677,0.76666,0.83273,1}
			col {0.50650,0.50650,0.56003,1}
			col {0.43149,0.43149,0.47271,1}
			col {0.82296,0.82296,0.82296,1}
			col {0.95006,0.95333,1,1}
			col {0.96199,0.96581,1,1}
			col {0.33106,0.33106,0.39935,1}
			col {0.91498,0.94003,0.93736,1}
			col {0.56162,0.59425,0.62093,1}
			col {0.93471,0.93471,0.93471,1}
			col {0.47004,0.47004,0.52751,1}
			col {0.99791,1,1,1}
			col {0.98561,0.98786,1,1}
			col {0.79129,0.79129,0.81306,1}
			col {0.91161,0.91274,1,1}
			col {0.82702,0.82709,0.92232,1}
			col {0.60743,0.62292,0.78683,1}
			col {0.40801,0.41841,0.52851,1}
			col {0.70500,0.72083,0.86773,1}
			col {0.77215,0.77850,0.79716,1}
			col {0.32353,0.33178,0.41908,1}
			col {0.36231,0.36652,0.41109,1}
			col {0.77480,0.78100,0.80508,1}
			col {0.30000,0.30000,0.33879,1}
			col {0.56176,0.56176,0.62108,1}
			col {0.49901,0.49901,0.55625,1}
			col {0.95291,0.98043,1,1}
			col {0.72580,0.74431,0.94016,1}
			col {0.77733,0.78367,0.80233,1}
			col {0.77201,0.77821,0.80229,1}
			col {0.35584,0.36006,0.40462,1}
			col {0.55912,0.55912,0.61844,1}
			col {0.30000,0.30000,0.33416,1}
			col {0.30000,0.30000,0.30339,1}
			col {0.50320,0.50320,0.56043,1}
			col {0.95955,0.98707,1,1}
			col {0.95766,0.95766,0.97697,1}
			col {0.74781,0.74887,0.83927,1}
			col {0.65961,0.65976,0.74365,1}
			col {0.77678,0.77678,0.79178,1}
			col {0.63634,0.63634,0.72858,1}
		}
		CUVs
		{
			setID 0
			numUVs 496
			uv {0,-1}
			uv {0,0}
			uv {1,0}
			uv {1,-1}
			uv {1,-0.94219}
			uv {0,-0.94219}
			uv {0,-0.05781}
			uv {1,-0.05781}
			uv {0,-0.21729}
			uv {1,-0.21729}
			uv {1,-0.97957}
			uv {0,-0.97957}
			uv {1,-0.02336}
			uv {1,-0.74288}
			uv {0,-0.74288}
			uv {0.00000,-0.02336}
			uv {0.84284,-0.59078}
			uv {0.78841,-0.59695}
			uv {0.73132,-0.52487}
			uv {0.84198,-0.50920}
			uv {0.73317,-0.59262}
			uv {0.80355,-0.66765}
			uv {0.76356,-0.68136}
			uv {0.76276,-0.63051}
			uv {0.80398,-0.62999}
			uv {0.75363,-0.73283}
			uv {0.85777,-0.67813}
			uv {0.85776,-0.73032}
			uv {0.77007,-0.78309}
			uv {0.85776,-0.78505}
			uv {0.94941,-0.52486}
			uv {0.89474,-0.59900}
			uv {0.94903,-0.59302}
			uv {0.91199,-0.66765}
			uv {0.90989,-0.63068}
			uv {0.95051,-0.62977}
			uv {0.94916,-0.67958}
			uv {0.96227,-0.73355}
			uv {0.94762,-0.78485}
			uv {0.55082,-0.52877}
			uv {0.58295,-0.51393}
			uv {0.55115,-0.50497}
			uv {0.48722,-0.65567}
			uv {0.49919,-0.68188}
			uv {0.52164,-0.68473}
			uv {0.52365,-0.65567}
			uv {0.60237,-0.68687}
			uv {0.63364,-0.68464}
			uv {0.64315,-0.65567}
			uv {0.60161,-0.65567}
			uv {0.51321,-0.51003}
			uv {0.50701,-0.52877}
			uv {0.48018,-0.52199}
			uv {0.52372,-0.71032}
			uv {0.50581,-0.71032}
			uv {0.63190,-0.71032}
			uv {0.59939,-0.71032}
			uv {0.64515,-0.52533}
			uv {0.61258,-0.51425}
			uv {0.37823,-0.77325}
			uv {0.37566,-0.79863}
			uv {0.34381,-0.78767}
			uv {0.40892,-0.50909}
			uv {0.44403,-0.50909}
			uv {0.44403,-0.56873}
			uv {0.40819,-0.57337}
			uv {0.28122,-0.50909}
			uv {0.32683,-0.50909}
			uv {0.32451,-0.56823}
			uv {0.28122,-0.56823}
			uv {0.44403,-0.62419}
			uv {0.41123,-0.61650}
			uv {0.41419,-0.59477}
			uv {0.44403,-0.59629}
			uv {0.32121,-0.59240}
			uv {0.32205,-0.61399}
			uv {0.28122,-0.62486}
			uv {0.28122,-0.59324}
			uv {0.41742,-0.79259}
			uv {0.42667,-0.76302}
			uv {0.44403,-0.77973}
			uv {0.35098,-0.59495}
			uv {0.37845,-0.59520}
			uv {0.35419,-0.50909}
			uv {0.38059,-0.50909}
			uv {0.30992,-0.78293}
			uv {0.28122,-0.77527}
			uv {0.84198,-0.34992}
			uv {0.76838,-0.35596}
			uv {0.76687,-0.22947}
			uv {0.84199,-0.22035}
			uv {0.70190,-0.36204}
			uv {0.70008,-0.25364}
			uv {0.78588,-0.98579}
			uv {0.75403,-0.98579}
			uv {0.74489,-0.89368}
			uv {0.78052,-0.89281}
			uv {0.85776,-0.89614}
			uv {0.85777,-0.98579}
			uv {0.91669,-0.22947}
			uv {0.91560,-0.35596}
			uv {0.98075,-0.36311}
			uv {0.98178,-0.24982}
			uv {0.92967,-0.98579}
			uv {0.93503,-0.89281}
			uv {0.97102,-0.89546}
			uv {0.95866,-0.98579}
			uv {0.15751,-0.71287}
			uv {0.22058,-0.72733}
			uv {0.16818,-0.76100}
			uv {0.11616,-0.78482}
			uv {0.11302,-0.72574}
			uv {0.06931,-0.75345}
			uv {0.06619,-0.78767}
			uv {0.01807,-0.77029}
			uv {0.09295,-0.91529}
			uv {0.08229,-0.96342}
			uv {0.02869,-0.92980}
			uv {0.13430,-0.98724}
			uv {0.13744,-0.92816}
			uv {0.18080,-0.97298}
			uv {0.23557,-0.97296}
			uv {0.84198,-0.45671}
			uv {0.75498,-0.45527}
			uv {0.72881,-0.77014}
			uv {0.92900,-0.45527}
			uv {0.98712,-0.77047}
			uv {0.08129,-0.70158}
			uv {0.01807,-0.70733}
			uv {0.20532,-0.63323}
			uv {0.21856,-0.67152}
			uv {0.15681,-0.63958}
			uv {0.06285,-0.47373}
			uv {0.08322,-0.63511}
			uv {0.05068,-0.61582}
			uv {0.24041,-0.64055}
			uv {0.19316,-0.47786}
			uv {0.23062,-0.47723}
			uv {0.01532,-0.44745}
			uv {0.01152,-0.47738}
			uv {0.01061,-0.62650}
			uv {0.11717,-0.64275}
			uv {0.15311,-0.44029}
			uv {0.12243,-0.44376}
			uv {0.11634,-0.40272}
			uv {0.17034,-0.39888}
			uv {0.04736,-0.64379}
			uv {0.01862,-0.63941}
			uv {0.12186,-0.47723}
			uv {0.02457,-0.40602}
			uv {0.06508,-0.43325}
			uv {0.15533,-0.47824}
			uv {0.18903,-0.44091}
			uv {0.22494,-0.44566}
			uv {0.06147,-0.39788}
			uv {0.22612,-0.40564}
			uv {0.16917,-0.90399}
			uv {0.23557,-0.90947}
			uv {0.04514,-0.83565}
			uv {0.09366,-0.84200}
			uv {0.03132,-0.87450}
			uv {0.16769,-0.80878}
			uv {0.20181,-0.82128}
			uv {0.16724,-0.83753}
			uv {0.01308,-0.84381}
			uv {0.01291,-0.80878}
			uv {0.04599,-0.80878}
			uv {0.23557,-0.80278}
			uv {0.23557,-0.82892}
			uv {0.13329,-0.84517}
			uv {0.20506,-0.84621}
			uv {0.23557,-0.84247}
			uv {0.13268,-0.80878}
			uv {0.09340,-0.80878}
			uv {0.58838,-0.46293}
			uv {0.58963,-0.33824}
			uv {0.62760,-0.34100}
			uv {0.62785,-0.47955}
			uv {0.65765,-0.33785}
			uv {0.66053,-0.46537}
			uv {0.49776,-0.44654}
			uv {0.49688,-0.34096}
			uv {0.44692,-0.45824}
			uv {0.44966,-0.35099}
			uv {0.54577,-0.45552}
			uv {0.54657,-0.35305}
			uv {0.49848,-0.46139}
			uv {0.55122,-0.47385}
			uv {0.44403,-0.33909}
			uv {0.43929,-0.47385}
			uv {0.55159,-0.33923}
			uv {0.41263,-0.13312}
			uv {0.47716,-0.14781}
			uv {0.56570,-0.13130}
			uv {0.60980,-0.14412}
			uv {0.51568,-0.14717}
			uv {0.63616,-0.14345}
			uv {0.69973,-0.13236}
			uv {0.42192,-0.92736}
			uv {0.23014,-0.64983}
			uv {0.49232,-0.83944}
			uv {0.91306,-0.69668}
			uv {0.80162,-0.68856}
			uv {0.76071,-0.51771}
			uv {0.91306,-0.50729}
			uv {0.39063,-0.47537}
			uv {0.75464,-0.25629}
			uv {0.70326,-0.39162}
			uv {0.50578,-0.40155}
			uv {0.69146,-0.17855}
			uv {0.83487,-0.29234}
			uv {0.88199,-0.31833}
			uv {0.86737,-0.35033}
			uv {0.45960,-0.07856}
			uv {0.65649,-0.03289}
			uv {0.43006,-0.23277}
			uv {0.21569,-0.37252}
			uv {0.40088,-0.37928}
			uv {0.12455,-0.23693}
			uv {0.02375,-0.37025}
			uv {0.65369,-0.47744}
			uv {0.67279,-0.65059}
			uv {0.51951,-0.47179}
			uv {0.66595,-0.44586}
			uv {0.91260,-0.46349}
			uv {0.04501,-0.73252}
			uv {0.68052,-0.88240}
			uv {0.91306,-0.89849}
			uv {0.75737,-0.49459}
			uv {0.91306,-0.27735}
			uv {0.91306,-0.21798}
			uv {0.91306,-0.29435}
			uv {0.19630,-0.09437}
			uv {0.68602,-0.51998}
			uv {0.91306,-0.12673}
			uv {0.91025,-0.02347}
			uv {0.91306,-0.98579}
			uv {0.88450,-0.92736}
			uv {0.94320,-0.31833}
			uv {0.92710,-0.37709}
			uv {0.95783,-0.35033}
			uv {0.89810,-0.37709}
			uv {0.92328,-0.36347}
			uv {0.90192,-0.36347}
			uv {0.99032,-0.29234}
			uv {0.88963,-0.46293}
			uv {0,-0.01765}
			uv {0,-1.30224}
			uv {1,-1.01926}
			uv {1,0.26533}
			uv {0,-0.20916}
			uv {1,-0.20916}
			uv {1,-1.20916}
			uv {0,-1.20916}
			uv {0.00000,-0.68463}
			uv {0.00000,-0.12755}
			uv {1,-0.12755}
			uv {1,-0.68463}
			uv {1,-0.28913}
			uv {0,-0.28913}
			uv {0.00000,-0.39028}
			uv {0.00000,0.25151}
			uv {1,0.25151}
			uv {1,-0.39028}
			uv {0,0.14804}
			uv {1,0.14804}
			uv {1,-1.14804}
			uv {0,-1.14804}
			uv {0,0.09702}
			uv {1,-0.06908}
			uv {1,-1.26311}
			uv {0,-1.09702}
			uv {0.55000,0}
			uv {0.99897,-0.00000}
			uv {0.99845,-1}
			uv {1,-0.26259}
			uv {0,-0.26259}
			uv {0,-1.26259}
			uv {1,-1.26259}
			uv {0.00000,-1.09379}
			uv {0.00000,0.09379}
			uv {1,0.09379}
			uv {1,-1.09379}
			uv {0.17452,-0.25038}
			uv {0.18270,-0.11740}
			uv {0.28410,-0.12342}
			uv {0.27110,-0.24824}
			uv {0.04393,-0.11133}
			uv {0.07477,-0.11265}
			uv {0.08116,-0.25212}
			uv {0.04393,-0.25067}
			uv {0.13287,-0.25282}
			uv {0.12544,-0.11522}
			uv {0.19179,-0.04319}
			uv {0.28893,-0.07836}
			uv {0.02979,-0.07030}
			uv {0.07599,-0.06418}
			uv {0.12332,-0.06498}
			uv {0.34017,-0.24855}
			uv {0.10126,-0.02258}
			uv {0.28896,-0.03376}
			uv {0.33789,-0.02469}
			uv {0.33719,-0.07088}
			uv {0.02979,-0.02116}
			uv {0.37588,-0.25067}
			uv {0.35913,-0.11506}
			uv {0.17724,-0.34243}
			uv {0.13129,-0.34167}
			uv {0.06608,-0.32666}
			uv {0.03447,-0.30544}
			uv {0.27312,-0.31570}
			uv {0.33638,-0.29648}
			uv {0.37072,-0.30014}
			uv {0.52191,-0.88288}
			uv {0.51329,-0.89758}
			uv {0.60687,-0.87791}
			uv {0.59339,-0.87278}
			uv {0.56774,-0.87768}
			uv {0.57546,-0.68457}
			uv {0.55061,-0.68434}
			uv {0.54507,-0.88174}
			uv {0.50819,-0.95326}
			uv {0.51228,-0.96706}
			uv {0.53123,-0.99107}
			uv {0.52871,-0.96286}
			uv {0.50330,-0.95220}
			uv {0.55977,-0.99158}
			uv {0.55533,-0.96199}
			uv {0.56331,-0.92138}
			uv {0.57249,-0.94405}
			uv {0.58002,-0.94297}
			uv {0.56923,-0.91776}
			uv {0.55030,-0.93130}
			uv {0.56001,-0.93666}
			uv {0.56563,-0.94496}
			uv {0.57467,-0.95405}
			uv {0.55175,-0.90397}
			uv {0.54269,-0.90656}
			uv {0.51097,-0.91073}
			uv {0.51009,-0.93365}
			uv {0.52331,-0.93461}
			uv {0.52359,-0.90885}
			uv {0.50128,-0.90844}
			uv {0.50115,-0.93263}
			uv {0.58836,-0.95252}
			uv {0.56221,-0.95956}
			uv {0.62653,-0.91937}
			uv {0.63551,-0.93838}
			uv {0.64475,-0.92176}
			uv {0.63639,-0.90492}
			uv {0.65428,-0.96169}
			uv {0.65505,-0.93330}
			uv {0.59800,-0.93092}
			uv {0.61255,-0.95000}
			uv {0.58725,-0.94147}
			uv {0.59517,-0.94284}
			uv {0.57792,-0.91711}
			uv {0.59579,-0.95333}
			uv {0.58384,-0.89787}
			uv {0.61495,-0.88493}
			uv {0.60228,-0.89623}
			uv {0.57014,-0.90051}
			uv {0.62998,-0.97411}
			uv {0.31386,-0.47382}
			uv {0.33118,-0.46144}
			uv {0.35586,-0.47896}
			uv {0.34516,-0.43960}
			uv {0.37493,-0.45194}
			uv {0.31568,-0.39890}
			uv {0.34653,-0.40098}
			uv {0.34256,-0.40864}
			uv {0.31335,-0.42072}
			uv {0.32473,-0.41529}
			uv {0.28899,-0.40891}
			uv {0.27107,-0.44344}
			uv {0.27763,-0.43056}
			uv {0.30138,-0.44780}
			uv {0.28976,-0.46219}
			uv {0.28372,-0.46831}
			uv {0.26244,-0.45115}
			uv {0.26668,-0.42278}
			uv {0.25719,-0.43612}
			uv {0.36089,-0.39957}
			uv {0.35329,-0.41322}
			uv {0.34870,-0.42988}
			uv {0.30672,-0.47620}
			uv {0.37447,-0.33527}
			uv {0.39067,-0.32560}
			uv {0.41225,-0.34207}
			uv {0.34783,-0.37620}
			uv {0.35526,-0.34251}
			uv {0.37883,-0.34675}
			uv {0.37419,-0.37598}
			uv {0.34990,-0.39332}
			uv {0.32112,-0.38587}
			uv {0.35639,-0.38691}
			uv {0.30715,-0.36772}
			uv {0.31779,-0.34963}
			uv {0.27997,-0.39684}
			uv {0.30534,-0.34628}
			uv {0.28164,-0.36873}
			uv {0.31085,-0.38399}
			uv {0.41105,-0.37771}
			uv {0.33888,-0.41557}
			uv {0.42595,-0.95429}
			uv {0.42532,-0.97430}
			uv {0.39383,-0.97090}
			uv {0.39323,-0.95209}
			uv {0.36527,-0.97924}
			uv {0.32929,-0.98822}
			uv {0.32437,-0.95701}
			uv {0.35861,-0.95168}
			uv {0.27634,-0.81529}
			uv {0.29922,-0.82129}
			uv {0.30091,-0.95697}
			uv {0.30034,-0.98945}
			uv {0.36167,-0.83238}
			uv {0.39807,-0.83071}
			uv {0.45176,-0.95634}
			uv {0.44963,-0.97884}
			uv {0.42991,-0.81861}
			uv {0.45229,-0.80369}
			uv {0.38484,-0.02595}
			uv {0.44339,-0.02955}
			uv {0.44339,-0.08381}
			uv {0.38484,-0.08674}
			uv {0.44339,-0.01515}
			uv {0.44339,-0.09555}
			uv {0.45944,-0.02955}
			uv {0.45944,-0.08381}
			uv {0.91065,-0.19133}
			uv {0.91065,-0.12807}
			uv {0.97562,-0.13122}
			uv {0.97562,-0.18821}
			uv {0.98842,-0.13122}
			uv {0.98841,-0.18823}
			uv {0.97562,-0.11862}
			uv {0.97562,-0.20069}
			uv {0.53626,-0.09549}
			uv {0.53642,-0.03119}
			uv {0.58361,-0.02509}
			uv {0.58363,-0.10103}
			uv {0.48869,-0.10103}
			uv {0.48865,-0.02509}
			uv {0.66983,-0.08609}
			uv {0.66267,-0.04298}
			uv {0.72474,-0.00441}
			uv {0.73091,-0.06692}
			uv {0.85629,-0.00441}
			uv {0.90865,-0.03930}
			uv {0.90757,-0.06767}
			uv {0.85094,-0.06402}
			uv {0.95914,-0.04453}
			uv {0.95862,-0.09161}
			uv {0.61948,-0.04783}
			uv {0.61928,-0.10160}
			uv {0.68987,-0.11818}
			uv {0.76950,-0.10893}
			uv {0.81703,-0.11405}
			uv {0.80377,-0.19466}
			uv {0.78518,-0.19531}
			uv {0.89231,-0.10403}
			uv {0.81756,-0.06007}
			uv {0.82497,-0.00441}
			uv {0.76754,-0.06017}
			uv {0.76404,-0.00441}
			uv {0.80469,-0.00441}
			uv {0.98390,-0.04434}
			uv {0.98061,-0.09110}
			uv {0.64229,-0.82616}
			uv {0.70530,-0.82528}
			uv {0.69768,-0.77059}
			uv {0.65306,-0.77723}
			uv {0.65709,-0.73000}
			uv {0.65236,-0.76004}
			uv {0.69674,-0.75866}
			uv {0.68337,-0.73416}
			uv {0.66203,-0.88770}
			uv {0.64372,-0.87714}
			uv {0.68835,-0.88121}
			uv {0.95415,-0.00855}
			uv {0.98820,-0.00855}
			uv {0.62991,-0.00855}
			uv {0.66596,-0.00855}
			uv {0.90873,-0.00855}
			uv {0.37843,-0.61385}
			uv {0.35028,-0.61367}
			uv {0.55063,-0.65567}
			uv {0.57611,-0.65567}
			uv {0.37880,-0.58005}
			uv {0.35149,-0.58043}
			uv {0.54985,-0.71032}
			uv {0.57450,-0.71032}
			uv {0.23948,-0.62502}
			uv {0.01083,-0.61232}
			uv {0.18725,-0.08030}
		}
		CSurface
		{
			material "lambert13"
			CQuads
			{
				numQuads 22
				q {1,1,0,-1,0} {3,3,3,-1,3} {0,0,2,-1,2} {2,2,1,-1,1}
				q {5,5,4,-1,4} {3,3,7,-1,3} {6,6,6,-1,4} {4,4,5,-1,4}
				q {8,8,8,-1,4} {9,9,11,-1,4} {7,7,10,-1,4} {5,5,9,-1,4}
				q {7,7,12,-1,4} {9,9,15,-1,4} {10,10,14,-1,4} {11,11,13,-1,4}
				q {11,11,4,-1,4} {12,12,5,-1,4} {14,14,6,-1,4} {13,13,7,-1,5}
				q {16,16,1,-1,6} {17,17,0,-1,8} {15,15,3,-1,7} {13,13,2,-1,5}
				q {19,19,1,-1,9} {20,20,0,-1,12} {18,18,3,-1,11} {21,21,2,-1,10}
				q {23,23,0,-1,13} {25,25,3,-1,16} {22,22,2,-1,15} {24,24,1,-1,14}
				q {203,203,246,-1,79} {204,204,249,-1,82} {205,205,248,-1,81} {206,206,247,-1,80}
				q {208,208,250,-1,4} {209,209,253,-1,4} {207,207,252,-1,4} {210,210,251,-1,4}
				q {211,211,254,-1,4} {212,212,257,-1,4} {214,214,256,-1,4} {213,213,255,-1,4}
				q {216,216,258,-1,4} {212,212,3,-1,4} {211,211,0,-1,4} {215,215,259,-1,4}
				q {218,218,260,-1,4} {220,220,263,-1,4} {217,217,262,-1,4} {219,219,261,-1,4}
				q {221,221,264,-1,83} {224,224,267,-1,86} {223,223,266,-1,85} {222,222,265,-1,84}
				q {226,226,268,-1,87} {227,227,271,-1,90} {225,225,270,-1,89} {228,228,269,-1,88}
				q {230,230,272,-1,4} {232,232,273,-1,4} {229,229,3,-1,4} {231,231,0,-1,4}
				q {230,230,272,-1,4} {235,235,0,-1,4} {234,234,274,-1,4} {232,232,273,-1,4}
				q {236,236,0,-1,91} {239,239,3,-1,4} {237,237,2,-1,4} {238,238,1,-1,92}
				q {236,236,1,-1,91} {241,241,0,-1,93} {240,240,3,-1,4} {239,239,2,-1,4}
				q {232,232,275,-1,4} {229,229,278,-1,4} {243,243,277,-1,4} {242,242,276,-1,4}
				q {232,232,273,-1,4} {242,242,1,-1,4} {244,244,0,-1,4} {234,234,274,-1,4}
				q {246,246,279,-1,94} {248,248,282,-1,97} {245,245,281,-1,96} {247,247,280,-1,95}
			}
			CTris
			{
				numTris 2
				t {230,230,272,-1,4} {233,233,1,-1,4} {235,235,0,-1,4}
				t {233,233,1,-1,4} {230,230,272,-1,4} {231,231,0,-1,4}
			}
		}
		CSurface
		{
			material "evaTextureFinal_lambert11"
			CQuads
			{
				numQuads 234
				q {70,70,18,-1,4} {26,26,17,-1,4} {31,31,16,-1,4} {71,71,19,-1,4}
				q {28,28,21,-1,4} {26,26,24,-1,4} {30,30,23,-1,4} {29,29,22,-1,4}
				q {27,27,25,-1,17} {33,33,27,-1,18} {32,32,26,-1,4} {28,28,21,-1,4}
				q {27,27,25,-1,17} {73,73,28,-1,4} {72,72,29,-1,19} {33,33,27,-1,18}
				q {31,31,16,-1,4} {34,34,31,-1,4} {74,74,30,-1,4} {71,71,19,-1,4}
				q {36,36,33,-1,4} {37,37,36,-1,4} {38,38,35,-1,4} {34,34,34,-1,4}
				q {35,35,37,-1,20} {36,36,33,-1,4} {32,32,26,-1,4} {33,33,27,-1,18}
				q {75,75,38,-1,4} {35,35,37,-1,20} {33,33,27,-1,18} {72,72,29,-1,19}
				q {50,50,42,-1,21} {49,49,45,-1,4} {46,46,44,-1,4} {42,42,43,-1,22}
				q {43,43,46,-1,4} {51,51,49,-1,4} {50,50,48,-1,21} {42,42,47,-1,22}
				q {29,29,50,-1,4} {30,30,41,-1,4} {39,39,39,-1,4} {47,47,51,-1,4}
				q {39,39,39,-1,4} {70,70,40,-1,4} {441,441,488,-1,4} {440,440,487,-1,4}
				q {41,41,53,-1,4} {48,48,54,-1,23} {42,42,43,-1,22} {46,46,44,-1,4}
				q {48,48,55,-1,23} {40,40,56,-1,4} {43,43,46,-1,4} {42,42,47,-1,22}
				q {49,49,45,-1,4} {47,47,51,-1,4} {39,39,39,-1,4} {440,440,487,-1,4}
				q {27,27,52,-1,17} {47,47,51,-1,4} {49,49,45,-1,4} {50,50,42,-1,21}
				q {51,51,49,-1,4} {73,73,58,-1,4} {27,27,57,-1,17} {50,50,48,-1,21}
				q {70,70,40,-1,4} {73,73,58,-1,4} {51,51,49,-1,4} {441,441,488,-1,4}
				q {67,67,62,-1,24} {54,54,65,-1,4} {61,61,64,-1,26} {68,68,63,-1,25}
				q {68,68,66,-1,25} {61,61,69,-1,26} {53,53,68,-1,4} {69,69,67,-1,4}
				q {63,63,70,-1,27} {55,55,73,-1,28} {59,59,72,-1,4} {62,62,71,-1,4}
				q {56,56,74,-1,4} {55,55,77,-1,28} {63,63,76,-1,27} {64,64,75,-1,4}
				q {37,37,78,-1,4} {60,60,79,-1,4} {52,52,59,-1,4} {38,38,60,-1,4}
				q {438,438,485,-1,4} {58,58,82,-1,4} {57,57,81,-1,4} {439,439,486,-1,4}
				q {54,54,65,-1,4} {59,59,72,-1,4} {55,55,73,-1,28} {61,61,64,-1,26}
				q {61,61,69,-1,26} {55,55,77,-1,28} {56,56,74,-1,4} {53,53,68,-1,4}
				q {65,65,83,-1,4} {443,443,490,-1,4} {442,442,489,-1,4} {66,66,84,-1,4}
				q {53,53,68,-1,4} {443,443,490,-1,4} {65,65,83,-1,4} {69,69,67,-1,4}
				q {35,35,80,-1,20} {63,63,70,-1,27} {62,62,71,-1,4} {60,60,79,-1,4}
				q {64,64,75,-1,4} {63,63,76,-1,27} {35,35,86,-1,20} {75,75,85,-1,4}
				q {76,76,87,-1,4} {79,79,90,-1,4} {78,78,89,-1,4} {77,77,88,-1,4}
				q {81,81,91,-1,29} {77,77,88,-1,4} {78,78,89,-1,4} {80,80,92,-1,4}
				q {82,82,93,-1,4} {83,83,96,-1,4} {81,81,95,-1,29} {80,80,94,-1,4}
				q {82,82,93,-1,4} {85,85,98,-1,31} {84,84,97,-1,30} {83,83,96,-1,4}
				q {76,76,87,-1,4} {87,87,100,-1,4} {86,86,99,-1,4} {79,79,90,-1,4}
				q {88,88,101,-1,32} {89,89,102,-1,4} {86,86,99,-1,4} {87,87,100,-1,4}
				q {91,91,103,-1,4} {89,89,106,-1,4} {88,88,105,-1,32} {90,90,104,-1,4}
				q {91,91,103,-1,4} {90,90,104,-1,4} {84,84,97,-1,30} {85,85,98,-1,31}
				q {79,79,108,-1,4} {106,106,130,-1,4} {96,96,107,-1,4} {78,78,109,-1,4}
				q {80,80,110,-1,4} {78,78,109,-1,4} {96,96,107,-1,4} {97,97,111,-1,4}
				q {102,102,122,-1,4} {101,101,123,-1,34} {70,70,18,-1,4} {71,71,19,-1,4}
				q {76,76,87,-1,4} {77,77,88,-1,4} {101,101,123,-1,34} {102,102,122,-1,4}
				q {73,73,28,-1,4} {70,70,124,-1,4} {81,81,95,-1,29} {83,83,96,-1,4}
				q {84,84,97,-1,30} {72,72,29,-1,19} {73,73,28,-1,4} {83,83,96,-1,4}
				q {102,102,122,-1,4} {71,71,19,-1,4} {74,74,30,-1,4} {103,103,125,-1,35}
				q {76,76,87,-1,4} {102,102,122,-1,4} {103,103,125,-1,35} {87,87,100,-1,4}
				q {75,75,38,-1,4} {90,90,104,-1,4} {88,88,105,-1,32} {74,74,126,-1,4}
				q {84,84,97,-1,30} {90,90,104,-1,4} {75,75,38,-1,4} {72,72,29,-1,19}
				q {104,104,127,-1,4} {118,118,128,-1,18} {85,85,114,-1,31} {98,98,112,-1,33}
				q {105,105,129,-1,4} {122,122,131,-1,36} {96,96,107,-1,4} {106,106,130,-1,4}
				q {446,446,493,-1,4} {117,117,137,-1,39} {109,109,136,-1,4} {105,105,129,-1,4}
				q {120,120,150,-1,4} {92,92,154,-1,4} {93,93,149,-1,4} {114,114,138,-1,40}
				q {113,113,134,-1,38} {107,107,132,-1,37} {117,117,139,-1,39} {446,446,494,-1,4}
				q {104,104,127,-1,4} {97,97,111,-1,4} {111,111,141,-1,4} {108,108,133,-1,4}
				q {115,115,142,-1,41} {95,95,145,-1,44} {94,94,144,-1,43} {116,116,143,-1,42}
				q {113,113,134,-1,38} {123,123,146,-1,45} {104,104,127,-1,4} {108,108,133,-1,4}
				q {108,108,133,-1,4} {111,111,141,-1,4} {112,112,148,-1,48} {107,107,132,-1,37}
				q {122,122,131,-1,36} {124,124,151,-1,49} {112,112,148,-1,48} {111,111,141,-1,4}
				q {94,94,144,-1,43} {92,92,154,-1,4} {120,120,150,-1,4} {116,116,143,-1,42}
				q {117,117,137,-1,39} {114,114,153,-1,40} {121,121,152,-1,50} {109,109,136,-1,4}
				q {122,122,131,-1,36} {111,111,141,-1,4} {97,97,111,-1,4} {96,96,107,-1,4}
				q {105,105,129,-1,4} {109,109,136,-1,4} {124,124,151,-1,49} {122,122,131,-1,36}
				q {115,115,142,-1,41} {124,124,151,-1,49} {109,109,136,-1,4} {121,121,152,-1,50}
				q {116,116,143,-1,42} {112,112,148,-1,48} {124,124,151,-1,49} {115,115,142,-1,41}
				q {112,112,148,-1,48} {116,116,143,-1,42} {120,120,150,-1,4} {107,107,132,-1,37}
				q {114,114,153,-1,40} {93,93,155,-1,4} {95,95,145,-1,44} {121,121,152,-1,50}
				q {125,125,156,-1,4} {91,91,120,-1,4} {85,85,121,-1,31} {118,118,157,-1,18}
				q {126,126,158,-1,4} {106,106,160,-1,4} {99,99,115,-1,4} {135,135,159,-1,4}
				q {110,110,164,-1,46} {126,126,158,-1,4} {131,131,166,-1,4} {130,130,165,-1,4}
				q {125,125,156,-1,4} {127,127,163,-1,4} {133,133,169,-1,4} {100,100,119,-1,4}
				q {128,128,162,-1,51} {127,127,163,-1,4} {125,125,156,-1,4} {129,129,170,-1,52}
				q {127,127,163,-1,4} {132,132,161,-1,4} {134,134,172,-1,4} {133,133,169,-1,4}
				q {135,135,159,-1,4} {99,99,115,-1,4} {100,100,119,-1,4} {133,133,169,-1,4}
				q {126,126,158,-1,4} {135,135,159,-1,4} {136,136,173,-1,53} {131,131,166,-1,4}
				q {79,79,117,-1,4} {86,86,116,-1,4} {99,99,115,-1,4} {106,106,160,-1,4}
				q {135,135,159,-1,4} {133,133,169,-1,4} {134,134,172,-1,4} {136,136,173,-1,53}
				q {93,93,174,-1,4} {92,92,177,-1,4} {143,143,176,-1,55} {142,142,175,-1,54}
				q {92,92,177,-1,4} {94,94,179,-1,43} {144,144,178,-1,56} {143,143,176,-1,55}
				q {145,145,181,-1,57} {138,138,183,-1,58} {139,139,182,-1,4} {137,137,180,-1,4}
				q {140,140,184,-1,4} {141,141,185,-1,59} {145,145,181,-1,57} {137,137,180,-1,4}
				q {95,95,186,-1,44} {93,93,187,-1,4} {140,140,184,-1,4} {137,137,180,-1,4}
				q {144,144,188,-1,56} {94,94,189,-1,43} {139,139,182,-1,4} {138,138,183,-1,58}
				q {142,142,190,-1,54} {141,141,185,-1,59} {140,140,184,-1,4} {93,93,187,-1,4}
				q {95,95,186,-1,44} {137,137,180,-1,4} {139,139,182,-1,4} {94,94,189,-1,43}
				q {145,145,181,-1,57} {148,148,192,-1,4} {150,150,191,-1,60} {144,144,188,-1,56}
				q {146,146,193,-1,61} {142,142,175,-1,54} {143,143,176,-1,55} {147,147,194,-1,62}
				q {151,151,195,-1,4} {145,145,181,-1,57} {142,142,190,-1,54} {146,146,193,-1,61}
				q {149,149,196,-1,63} {143,143,176,-1,55} {144,144,178,-1,56} {150,150,197,-1,60}
				q {261,261,283,-1,4} {253,253,286,-1,4} {258,258,285,-1,99} {259,259,284,-1,98}
				q {257,257,287,-1,100} {255,255,290,-1,4} {256,256,289,-1,4} {260,260,288,-1,101}
				q {263,263,291,-1,4} {261,261,283,-1,4} {259,259,284,-1,98} {264,264,292,-1,102}
				q {447,447,495,-1,103} {259,259,284,-1,98} {258,258,285,-1,99} {262,262,294,-1,4}
				q {266,266,295,-1,104} {257,257,287,-1,100} {260,260,288,-1,101} {267,267,296,-1,105}
				q {259,259,284,-1,98} {447,447,495,-1,103} {265,265,297,-1,106} {264,264,292,-1,102}
				q {264,264,292,-1,102} {265,265,297,-1,106} {267,267,296,-1,105} {260,260,288,-1,101}
				q {262,262,294,-1,4} {266,266,302,-1,104} {249,249,301,-1,4} {250,250,300,-1,107}
				q {266,266,295,-1,104} {267,267,296,-1,105} {252,252,299,-1,4} {249,249,303,-1,4}
				q {251,251,293,-1,108} {447,447,495,-1,103} {262,262,294,-1,4} {250,250,300,-1,107}
				q {266,266,302,-1,104} {262,262,294,-1,4} {258,258,285,-1,99} {257,257,305,-1,100}
				q {256,256,289,-1,4} {263,263,291,-1,4} {264,264,292,-1,102} {260,260,288,-1,101}
				q {268,268,306,-1,4} {261,261,283,-1,4} {263,263,291,-1,4} {269,269,307,-1,109}
				q {255,255,290,-1,4} {273,273,309,-1,4} {272,272,308,-1,4} {256,256,289,-1,4}
				q {269,269,307,-1,109} {263,263,291,-1,4} {256,256,289,-1,4} {272,272,308,-1,4}
				q {254,254,298,-1,4} {253,253,286,-1,4} {270,270,310,-1,110} {271,271,311,-1,4}
				q {253,253,286,-1,4} {261,261,283,-1,4} {268,268,306,-1,4} {270,270,310,-1,110}
				q {255,255,304,-1,4} {254,254,298,-1,4} {271,271,311,-1,4} {273,273,312,-1,4}
				q {249,249,174,-1,4} {279,279,175,-1,112} {280,280,176,-1,111} {250,250,177,-1,107}
				q {250,250,177,-1,107} {280,280,176,-1,111} {281,281,178,-1,113} {251,251,179,-1,108}
				q {282,282,181,-1,114} {274,274,180,-1,4} {276,276,182,-1,4} {275,275,183,-1,115}
				q {277,277,184,-1,4} {274,274,180,-1,4} {282,282,181,-1,114} {278,278,185,-1,116}
				q {252,252,186,-1,4} {274,274,180,-1,4} {277,277,184,-1,4} {249,249,187,-1,4}
				q {281,281,188,-1,113} {275,275,183,-1,115} {276,276,182,-1,4} {251,251,189,-1,108}
				q {279,279,190,-1,112} {249,249,187,-1,4} {277,277,184,-1,4} {278,278,185,-1,116}
				q {252,252,186,-1,4} {251,251,189,-1,108} {276,276,182,-1,4} {274,274,180,-1,4}
				q {282,282,181,-1,114} {281,281,188,-1,113} {287,287,191,-1,60} {285,285,192,-1,4}
				q {283,283,193,-1,117} {284,284,194,-1,118} {280,280,176,-1,111} {279,279,175,-1,112}
				q {288,288,195,-1,4} {283,283,193,-1,117} {279,279,190,-1,112} {282,282,181,-1,114}
				q {286,286,196,-1,119} {287,287,197,-1,60} {281,281,178,-1,113} {280,280,176,-1,111}
				q {290,290,313,-1,4} {289,289,314,-1,120} {48,48,54,-1,23} {41,41,53,-1,4}
				q {289,289,315,-1,120} {291,291,316,-1,4} {40,40,56,-1,4} {48,48,55,-1,23}
				q {445,445,492,-1,4} {444,444,491,-1,4} {45,45,319,-1,4} {44,44,318,-1,4}
				q {305,305,321,-1,60} {300,300,324,-1,122} {303,303,323,-1,60} {308,308,322,-1,121}
				q {300,300,324,-1,122} {311,311,327,-1,124} {312,312,326,-1,123} {303,303,323,-1,60}
				q {315,315,328,-1,4} {313,313,331,-1,4} {314,314,330,-1,4} {316,316,329,-1,125}
				q {315,315,328,-1,4} {310,310,332,-1,4} {321,321,337,-1,4} {320,320,336,-1,4}
				q {323,323,338,-1,127} {322,322,341,-1,4} {299,299,340,-1,129} {304,304,339,-1,128}
				q {304,304,339,-1,128} {306,306,343,-1,131} {329,329,342,-1,130} {323,323,338,-1,127}
				q {321,321,337,-1,4} {310,310,332,-1,4} {299,299,340,-1,129} {322,322,341,-1,4}
				q {321,321,337,-1,4} {322,322,341,-1,4} {295,295,313,-1,4} {297,297,320,-1,4}
				q {295,295,313,-1,4} {322,322,341,-1,4} {323,323,338,-1,127} {294,294,314,-1,132}
				q {299,299,340,-1,129} {310,310,332,-1,4} {311,311,327,-1,124} {300,300,324,-1,122}
				q {304,304,339,-1,128} {299,299,340,-1,129} {300,300,324,-1,122} {305,305,321,-1,60}
				q {326,326,344,-1,4} {317,317,335,-1,60} {316,316,329,-1,125} {314,314,330,-1,4}
				q {310,310,332,-1,4} {319,319,333,-1,126} {309,309,345,-1,4} {311,311,327,-1,124}
				q {306,306,343,-1,131} {304,304,339,-1,128} {305,305,321,-1,60} {307,307,325,-1,4}
				q {302,302,346,-1,4} {306,306,349,-1,131} {307,307,348,-1,4} {301,301,347,-1,4}
				q {307,307,348,-1,4} {308,308,351,-1,121} {303,303,350,-1,60} {301,301,347,-1,4}
				q {319,319,352,-1,126} {302,302,346,-1,4} {301,301,347,-1,4} {309,309,353,-1,4}
				q {325,325,354,-1,4} {324,324,356,-1,4} {319,319,352,-1,126} {318,318,355,-1,60}
				q {314,314,330,-1,4} {313,313,331,-1,4} {324,324,356,-1,4} {325,325,354,-1,4}
				q {325,325,354,-1,4} {318,318,355,-1,60} {317,317,357,-1,60} {326,326,344,-1,4}
				q {329,329,359,-1,130} {306,306,349,-1,131} {302,302,346,-1,4} {330,330,360,-1,4}
				q {302,302,346,-1,4} {319,319,352,-1,126} {328,328,358,-1,4} {330,330,360,-1,4}
				q {320,320,336,-1,4} {297,297,320,-1,4} {298,298,317,-1,4} {327,327,361,-1,4}
				q {296,296,316,-1,4} {294,294,315,-1,132} {329,329,359,-1,130} {330,330,360,-1,4}
				q {330,330,360,-1,4} {328,328,358,-1,4} {298,298,317,-1,4} {296,296,316,-1,4}
				q {324,324,356,-1,4} {313,313,331,-1,4} {320,320,336,-1,4} {327,327,361,-1,4}
				q {301,301,347,-1,4} {303,303,350,-1,60} {312,312,362,-1,123} {309,309,353,-1,4}
				q {316,316,329,-1,125} {318,318,334,-1,60} {319,319,333,-1,126} {315,315,328,-1,4}
				q {336,336,364,-1,60} {339,339,365,-1,60} {345,345,367,-1,134} {344,344,366,-1,133}
				q {351,351,374,-1,4} {340,340,377,-1,136} {335,335,376,-1,135} {331,331,375,-1,4}
				q {340,340,377,-1,136} {351,351,374,-1,4} {332,332,379,-1,4} {338,338,378,-1,4}
				q {333,333,373,-1,4} {331,331,375,-1,4} {335,335,376,-1,135} {343,343,371,-1,4}
				q {335,335,376,-1,135} {336,336,364,-1,60} {344,344,366,-1,133} {343,343,371,-1,4}
				q {340,340,377,-1,136} {341,341,363,-1,60} {336,336,364,-1,60} {335,335,376,-1,135}
				q {353,353,382,-1,137} {347,347,369,-1,4} {348,348,370,-1,4} {349,349,383,-1,60}
				q {343,343,371,-1,4} {344,344,366,-1,133} {342,342,384,-1,4} {350,350,372,-1,4}
				q {338,338,378,-1,4} {337,337,385,-1,4} {341,341,363,-1,60} {340,340,377,-1,136}
				q {350,350,389,-1,4} {342,342,392,-1,4} {337,337,391,-1,4} {338,338,390,-1,4}
				q {353,353,393,-1,137} {349,349,395,-1,60} {350,350,389,-1,4} {352,352,394,-1,4}
				q {338,338,390,-1,4} {332,332,397,-1,4} {352,352,396,-1,4} {350,350,389,-1,4}
				q {352,352,401,-1,4} {334,334,400,-1,4} {333,333,398,-1,4} {346,346,368,-1,4}
				q {337,337,391,-1,4} {342,342,392,-1,4} {345,345,402,-1,134} {339,339,388,-1,60}
				q {348,348,370,-1,4} {346,346,368,-1,4} {350,350,372,-1,4} {349,349,403,-1,60}
				q {367,367,404,-1,4} {366,366,407,-1,4} {356,356,406,-1,4} {355,355,405,-1,4}
				q {359,359,408,-1,4} {364,364,411,-1,4} {354,354,410,-1,4} {357,357,409,-1,4}
				q {363,363,412,-1,138} {368,368,414,-1,140} {354,354,410,-1,4} {365,365,413,-1,139}
				q {357,357,409,-1,4} {354,354,410,-1,4} {368,368,414,-1,140} {358,358,415,-1,141}
				q {360,360,416,-1,4} {364,364,411,-1,4} {366,366,407,-1,4} {361,361,417,-1,4}
				q {367,367,404,-1,4} {355,355,405,-1,4} {358,358,419,-1,141} {368,368,418,-1,140}
				q {356,356,406,-1,4} {366,366,407,-1,4} {364,364,411,-1,4} {359,359,408,-1,4}
				q {361,361,417,-1,4} {366,366,407,-1,4} {367,367,404,-1,4} {362,362,420,-1,4}
				q {368,368,418,-1,140} {363,363,421,-1,138} {362,362,420,-1,4} {367,367,404,-1,4}
				q {365,365,413,-1,139} {354,354,410,-1,4} {364,364,411,-1,4} {360,360,416,-1,4}
				q {99,99,422,-1,4} {86,86,425,-1,4} {370,370,424,-1,4} {369,369,423,-1,4}
				q {100,100,428,-1,4} {369,369,423,-1,4} {370,370,424,-1,4} {89,89,429,-1,4}
				q {82,82,430,-1,4} {372,372,433,-1,4} {371,371,432,-1,4} {98,98,431,-1,33}
				q {371,371,432,-1,4} {372,372,433,-1,4} {80,80,435,-1,4} {97,97,434,-1,4}
				q {373,373,438,-1,4} {261,261,441,-1,4} {375,375,440,-1,143} {374,374,439,-1,142}
				q {373,373,438,-1,4} {374,374,439,-1,142} {376,376,443,-1,144} {263,263,442,-1,4}
				q {378,378,444,-1,145} {386,386,447,-1,4} {377,377,446,-1,60} {379,379,445,-1,60}
				q {382,382,448,-1,146} {383,383,451,-1,4} {381,381,450,-1,148} {380,380,449,-1,147}
				q {381,381,450,-1,148} {389,389,453,-1,150} {384,384,452,-1,149} {380,380,449,-1,147}
				q {385,385,454,-1,60} {390,390,455,-1,151} {378,378,444,-1,145} {379,379,445,-1,60}
				q {386,386,457,-1,4} {388,388,460,-1,4} {391,391,459,-1,4} {383,383,458,-1,4}
				q {393,393,462,-1,4} {383,383,451,-1,4} {382,382,448,-1,146} {394,394,463,-1,4}
				q {393,393,462,-1,4} {387,387,466,-1,4} {392,392,465,-1,152} {395,395,464,-1,4}
				q {386,386,447,-1,4} {395,395,464,-1,4} {392,392,465,-1,152} {377,377,446,-1,60}
				q {383,383,458,-1,4} {393,393,462,-1,4} {395,395,464,-1,4} {386,386,457,-1,4}
				q {385,385,467,-1,60} {384,384,452,-1,149} {389,389,453,-1,150} {390,390,468,-1,151}
				q {382,382,469,-1,146} {380,380,472,-1,147} {379,379,471,-1,60} {377,377,470,-1,60}
				q {397,397,473,-1,60} {399,399,476,-1,60} {396,396,475,-1,153} {398,398,474,-1,4}
				q {385,385,467,-1,60} {399,399,481,-1,60} {397,397,480,-1,60} {384,384,452,-1,149}
				q {379,379,445,-1,60} {396,396,483,-1,153} {399,399,482,-1,60} {385,385,454,-1,60}
				q {384,384,452,-1,149} {397,397,480,-1,60} {398,398,484,-1,4} {380,380,449,-1,147}
				q {396,396,475,-1,153} {379,379,471,-1,60} {380,380,472,-1,147} {398,398,474,-1,4}
				q {401,401,444,-1,154} {402,402,445,-1,60} {400,400,446,-1,60} {409,409,447,-1,4}
				q {405,405,448,-1,146} {403,403,449,-1,156} {404,404,450,-1,155} {406,406,451,-1,4}
				q {404,404,450,-1,155} {403,403,449,-1,156} {407,407,452,-1,158} {412,412,453,-1,157}
				q {408,408,454,-1,159} {402,402,445,-1,60} {401,401,444,-1,154} {413,413,455,-1,160}
				q {409,409,457,-1,4} {406,406,458,-1,4} {414,414,459,-1,4} {411,411,460,-1,4}
				q {416,416,462,-1,4} {417,417,463,-1,4} {405,405,448,-1,146} {406,406,451,-1,4}
				q {416,416,462,-1,4} {418,418,464,-1,4} {415,415,465,-1,161} {410,410,466,-1,4}
				q {409,409,447,-1,4} {400,400,446,-1,60} {415,415,465,-1,161} {418,418,464,-1,4}
				q {406,406,458,-1,4} {409,409,457,-1,4} {418,418,464,-1,4} {416,416,462,-1,4}
				q {408,408,467,-1,159} {413,413,468,-1,160} {412,412,453,-1,157} {407,407,452,-1,158}
				q {405,405,469,-1,146} {400,400,470,-1,60} {402,402,471,-1,60} {403,403,472,-1,156}
				q {420,420,473,-1,60} {421,421,474,-1,4} {419,419,475,-1,153} {422,422,476,-1,60}
				q {408,408,467,-1,159} {407,407,452,-1,158} {420,420,480,-1,60} {422,422,481,-1,60}
				q {402,402,445,-1,60} {408,408,454,-1,159} {422,422,482,-1,60} {419,419,483,-1,153}
				q {407,407,452,-1,158} {403,403,449,-1,156} {421,421,484,-1,4} {420,420,480,-1,60}
				q {419,419,475,-1,153} {421,421,474,-1,4} {403,403,472,-1,156} {402,402,471,-1,60}
				q {423,423,404,-1,4} {424,424,405,-1,4} {425,425,406,-1,4} {426,426,407,-1,4}
				q {427,427,408,-1,4} {428,428,409,-1,4} {429,429,410,-1,162} {430,430,411,-1,4}
				q {431,431,412,-1,163} {432,432,413,-1,165} {429,429,410,-1,162} {433,433,414,-1,164}
				q {428,428,409,-1,4} {434,434,415,-1,166} {433,433,414,-1,164} {429,429,410,-1,162}
				q {435,435,416,-1,4} {436,436,417,-1,4} {426,426,407,-1,4} {430,430,411,-1,4}
				q {423,423,404,-1,4} {433,433,418,-1,164} {434,434,419,-1,166} {424,424,405,-1,4}
				q {425,425,406,-1,4} {427,427,408,-1,4} {430,430,411,-1,4} {426,426,407,-1,4}
				q {436,436,417,-1,4} {437,437,420,-1,4} {423,423,404,-1,4} {426,426,407,-1,4}
				q {433,433,418,-1,164} {423,423,404,-1,4} {437,437,420,-1,4} {431,431,421,-1,163}
				q {432,432,413,-1,165} {435,435,416,-1,4} {430,430,411,-1,4} {429,429,410,-1,162}
				q {110,110,168,-1,46} {130,130,167,-1,4} {128,128,162,-1,51} {119,119,171,-1,47}
				q {62,62,71,-1,4} {438,438,485,-1,4} {52,52,59,-1,4} {60,60,79,-1,4}
				q {52,52,59,-1,4} {438,438,485,-1,4} {439,439,486,-1,4} {74,74,61,-1,4}
				q {74,74,61,-1,4} {439,439,486,-1,4} {64,64,75,-1,4} {75,75,85,-1,4}
				q {441,441,488,-1,4} {44,44,318,-1,4} {45,45,319,-1,4} {440,440,487,-1,4}
				q {66,66,84,-1,4} {442,442,489,-1,4} {54,54,65,-1,4} {67,67,62,-1,24}
				q {443,443,490,-1,4} {57,57,81,-1,4} {58,58,82,-1,4} {442,442,489,-1,4}
				q {292,292,320,-1,4} {290,290,313,-1,4} {41,41,53,-1,4} {444,444,491,-1,4}
				q {293,293,317,-1,4} {292,292,320,-1,4} {444,444,491,-1,4} {445,445,492,-1,4}
				q {40,40,56,-1,4} {291,291,316,-1,4} {293,293,317,-1,4} {445,445,492,-1,4}
				q {107,107,132,-1,37} {120,120,150,-1,4} {114,114,138,-1,40} {117,117,139,-1,39}
				q {251,251,293,-1,108} {252,252,299,-1,4} {265,265,297,-1,106} {447,447,495,-1,103}
			}
			CTris
			{
				numTris 97
				t {26,26,17,-1,4} {70,70,18,-1,4} {30,30,20,-1,4}
				t {29,29,22,-1,4} {27,27,25,-1,17} {28,28,21,-1,4}
				t {74,74,30,-1,4} {34,34,31,-1,4} {38,38,32,-1,4}
				t {35,35,37,-1,20} {37,37,36,-1,4} {36,36,33,-1,4}
				t {30,30,41,-1,4} {70,70,40,-1,4} {39,39,39,-1,4}
				t {29,29,50,-1,4} {47,47,51,-1,4} {27,27,52,-1,17}
				t {46,46,44,-1,4} {49,49,45,-1,4} {440,440,487,-1,4}
				t {51,51,49,-1,4} {43,43,46,-1,4} {441,441,488,-1,4}
				t {43,43,46,-1,4} {40,40,56,-1,4} {445,445,492,-1,4}
				t {74,74,61,-1,4} {38,38,60,-1,4} {52,52,59,-1,4}
				t {60,60,79,-1,4} {37,37,78,-1,4} {35,35,80,-1,20}
				t {58,58,82,-1,4} {59,59,72,-1,4} {442,442,489,-1,4}
				t {59,59,72,-1,4} {438,438,485,-1,4} {62,62,71,-1,4}
				t {64,64,75,-1,4} {439,439,486,-1,4} {56,56,74,-1,4}
				t {82,82,113,-1,4} {98,98,112,-1,33} {85,85,114,-1,31}
				t {100,100,119,-1,4} {89,89,118,-1,4} {91,91,120,-1,4}
				t {101,101,123,-1,34} {77,77,88,-1,4} {81,81,91,-1,29}
				t {101,101,123,-1,34} {81,81,91,-1,29} {70,70,18,-1,4}
				t {87,87,100,-1,4} {103,103,125,-1,35} {88,88,101,-1,32}
				t {88,88,101,-1,32} {103,103,125,-1,35} {74,74,30,-1,4}
				t {113,113,134,-1,38} {108,108,133,-1,4} {107,107,132,-1,37}
				t {106,106,130,-1,4} {110,110,135,-1,46} {105,105,129,-1,4}
				t {118,118,128,-1,18} {123,123,146,-1,45} {119,119,147,-1,47}
				t {123,123,146,-1,45} {118,118,128,-1,18} {104,104,127,-1,4}
				t {97,97,111,-1,4} {104,104,127,-1,4} {98,98,112,-1,33}
				t {121,121,152,-1,50} {95,95,145,-1,44} {115,115,142,-1,41}
				t {127,127,163,-1,4} {128,128,162,-1,51} {132,132,161,-1,4}
				t {110,110,164,-1,46} {106,106,160,-1,4} {126,126,158,-1,4}
				t {129,129,170,-1,52} {118,118,157,-1,18} {119,119,171,-1,47}
				t {129,129,170,-1,52} {119,119,171,-1,47} {128,128,162,-1,51}
				t {118,118,157,-1,18} {129,129,170,-1,52} {125,125,156,-1,4}
				t {125,125,156,-1,4} {100,100,119,-1,4} {91,91,120,-1,4}
				t {145,145,181,-1,57} {141,141,185,-1,59} {142,142,190,-1,54}
				t {144,144,188,-1,56} {138,138,183,-1,58} {145,145,181,-1,57}
				t {151,151,195,-1,4} {148,148,192,-1,4} {145,145,181,-1,57}
				t {143,143,176,-1,55} {149,149,196,-1,63} {147,147,194,-1,62}
				t {253,253,286,-1,4} {254,254,298,-1,4} {258,258,285,-1,99}
				t {267,267,296,-1,105} {265,265,297,-1,106} {252,252,299,-1,4}
				t {254,254,298,-1,4} {255,255,304,-1,4} {257,257,305,-1,100}
				t {258,258,285,-1,99} {254,254,298,-1,4} {257,257,305,-1,100}
				t {278,278,185,-1,116} {282,282,181,-1,114} {279,279,190,-1,112}
				t {275,275,183,-1,115} {281,281,188,-1,113} {282,282,181,-1,114}
				t {285,285,192,-1,4} {288,288,195,-1,4} {282,282,181,-1,114}
				t {286,286,196,-1,119} {280,280,176,-1,111} {284,284,194,-1,118}
				t {45,45,319,-1,4} {444,444,491,-1,4} {46,46,44,-1,4}
				t {305,305,321,-1,60} {308,308,322,-1,121} {307,307,325,-1,4}
				t {315,315,328,-1,4} {319,319,333,-1,126} {310,310,332,-1,4}
				t {316,316,329,-1,125} {317,317,335,-1,60} {318,318,334,-1,60}
				t {315,315,328,-1,4} {320,320,336,-1,4} {313,313,331,-1,4}
				t {321,321,337,-1,4} {297,297,320,-1,4} {320,320,336,-1,4}
				t {329,329,342,-1,130} {294,294,314,-1,132} {323,323,338,-1,127}
				t {309,309,345,-1,4} {312,312,326,-1,123} {311,311,327,-1,124}
				t {325,325,354,-1,4} {326,326,344,-1,4} {314,314,330,-1,4}
				t {324,324,356,-1,4} {328,328,358,-1,4} {319,319,352,-1,126}
				t {327,327,361,-1,4} {298,298,317,-1,4} {328,328,358,-1,4}
				t {324,324,356,-1,4} {327,327,361,-1,4} {328,328,358,-1,4}
				t {339,339,365,-1,60} {336,336,364,-1,60} {341,341,363,-1,60}
				t {348,348,370,-1,4} {347,347,369,-1,4} {346,346,368,-1,4}
				t {350,350,372,-1,4} {346,346,368,-1,4} {343,343,371,-1,4}
				t {333,333,373,-1,4} {343,343,371,-1,4} {346,346,368,-1,4}
				t {345,345,367,-1,134} {342,342,384,-1,4} {344,344,366,-1,133}
				t {339,339,388,-1,60} {341,341,387,-1,60} {337,337,386,-1,4}
				t {352,352,394,-1,4} {346,346,368,-1,4} {347,347,369,-1,4}
				t {334,334,400,-1,4} {352,352,396,-1,4} {332,332,399,-1,4}
				t {100,100,426,-1,4} {99,99,422,-1,4} {369,369,423,-1,4}
				t {89,89,427,-1,4} {370,370,424,-1,4} {86,86,425,-1,4}
				t {98,98,431,-1,33} {371,371,432,-1,4} {97,97,436,-1,4}
				t {80,80,437,-1,4} {372,372,433,-1,4} {82,82,430,-1,4}
				t {373,373,438,-1,4} {263,263,442,-1,4} {261,261,441,-1,4}
				t {376,376,443,-1,144} {374,374,439,-1,142} {375,375,440,-1,143}
				t {378,378,444,-1,145} {388,388,456,-1,4} {386,386,447,-1,4}
				t {391,391,461,-1,4} {381,381,450,-1,148} {383,383,451,-1,4}
				t {387,387,466,-1,4} {393,393,462,-1,4} {394,394,463,-1,4}
				t {382,382,469,-1,146} {377,377,470,-1,60} {387,387,477,-1,4}
				t {382,382,469,-1,146} {387,387,477,-1,4} {394,394,478,-1,4}
				t {392,392,479,-1,152} {387,387,477,-1,4} {377,377,470,-1,60}
				t {411,411,456,-1,4} {401,401,444,-1,154} {409,409,447,-1,4}
				t {404,404,450,-1,155} {414,414,461,-1,4} {406,406,451,-1,4}
				t {416,416,462,-1,4} {410,410,466,-1,4} {417,417,463,-1,4}
				t {400,400,470,-1,60} {405,405,469,-1,146} {410,410,477,-1,4}
				t {410,410,477,-1,4} {405,405,469,-1,146} {417,417,478,-1,4}
				t {410,410,477,-1,4} {415,415,479,-1,161} {400,400,470,-1,60}
				t {56,56,74,-1,4} {443,443,490,-1,4} {53,53,68,-1,4}
				t {442,442,489,-1,4} {59,59,72,-1,4} {54,54,65,-1,4}
				t {57,57,81,-1,4} {443,443,490,-1,4} {56,56,74,-1,4}
				t {56,56,74,-1,4} {439,439,486,-1,4} {57,57,81,-1,4}
				t {58,58,82,-1,4} {438,438,485,-1,4} {59,59,72,-1,4}
				t {110,110,140,-1,46} {119,119,147,-1,47} {446,446,494,-1,4}
				t {446,446,493,-1,4} {105,105,129,-1,4} {110,110,135,-1,46}
				t {119,119,147,-1,47} {123,123,146,-1,45} {446,446,494,-1,4}
				t {446,446,494,-1,4} {123,123,146,-1,45} {113,113,134,-1,38}
				t {444,444,491,-1,4} {41,41,53,-1,4} {46,46,44,-1,4}
				t {45,45,319,-1,4} {46,46,44,-1,4} {440,440,487,-1,4}
				t {44,44,318,-1,4} {43,43,46,-1,4} {445,445,492,-1,4}
				t {43,43,46,-1,4} {44,44,318,-1,4} {441,441,488,-1,4}
				t {353,353,393,-1,137} {352,352,394,-1,4} {347,347,369,-1,4}
				t {332,332,381,-1,4} {351,351,374,-1,4} {331,331,380,-1,4}
			}
		}
		CSurface
		{
			material "lambert12"
			CQuads
			{
				numQuads 47
				q {7,7,201,-1,4} {156,156,204,-1,4} {155,155,203,-1,4} {5,5,202,-1,4}
				q {161,161,206,-1,4} {172,172,209,-1,4} {160,160,208,-1,65} {162,162,207,-1,64}
				q {162,162,207,-1,64} {158,158,212,-1,4} {170,170,211,-1,4} {169,169,210,-1,4}
				q {28,28,213,-1,4} {167,167,215,-1,66} {172,172,209,-1,4} {26,26,214,-1,4}
				q {165,165,216,-1,67} {154,154,199,-1,60} {25,25,205,-1,16} {22,22,217,-1,15}
				q {166,166,218,-1,4} {163,163,219,-1,4} {165,165,216,-1,67} {167,167,215,-1,66}
				q {176,176,220,-1,68} {179,179,223,-1,69} {0,0,222,-1,2} {3,3,221,-1,3}
				q {162,162,207,-1,64} {179,179,223,-1,69} {157,157,224,-1,4} {158,158,212,-1,4}
				q {154,154,199,-1,60} {165,165,216,-1,67} {163,163,219,-1,4} {153,153,225,-1,4}
				q {159,159,200,-1,4} {3,3,221,-1,3} {0,0,222,-1,2} {25,25,205,-1,16}
				q {174,174,228,-1,4} {157,157,224,-1,4} {179,179,223,-1,69} {176,176,220,-1,68}
				q {164,164,227,-1,4} {7,7,201,-1,4} {5,5,202,-1,4} {171,171,226,-1,4}
				q {157,157,224,-1,4} {174,174,228,-1,4} {155,155,203,-1,4} {156,156,204,-1,4}
				q {3,3,221,-1,3} {159,159,200,-1,4} {171,171,226,-1,4} {5,5,202,-1,4}
				q {178,178,229,-1,4} {177,177,230,-1,4} {161,161,206,-1,4} {169,169,210,-1,4}
				q {28,28,213,-1,4} {32,32,232,-1,4} {166,166,218,-1,4} {167,167,215,-1,66}
				q {0,0,222,-1,2} {179,179,223,-1,69} {162,162,207,-1,64} {160,160,208,-1,65}
				q {176,176,220,-1,68} {168,168,233,-1,70} {155,155,203,-1,4} {174,174,228,-1,4}
				q {173,173,234,-1,4} {31,31,235,-1,4} {26,26,214,-1,4} {172,172,209,-1,4}
				q {172,172,209,-1,4} {167,167,215,-1,66} {22,22,217,-1,15} {160,160,208,-1,65}
				q {161,161,206,-1,4} {177,177,230,-1,4} {173,173,234,-1,4} {172,172,209,-1,4}
				q {5,5,202,-1,4} {155,155,203,-1,4} {168,168,233,-1,70} {3,3,221,-1,3}
				q {187,187,242,-1,4} {181,181,240,-1,4} {158,158,212,-1,4} {184,184,243,-1,4}
				q {158,158,212,-1,4} {181,181,240,-1,4} {182,182,238,-1,4} {170,170,211,-1,4}
				q {183,183,239,-1,71} {187,187,242,-1,4} {184,184,243,-1,4} {185,185,241,-1,72}
				q {7,7,201,-1,4} {11,11,202,-1,4} {190,190,203,-1,4} {156,156,204,-1,4}
				q {193,193,206,-1,4} {194,194,207,-1,4} {192,192,208,-1,73} {199,199,209,-1,4}
				q {194,194,207,-1,4} {186,186,210,-1,4} {182,182,211,-1,4} {181,181,212,-1,4}
				q {36,36,213,-1,4} {34,34,214,-1,4} {199,199,209,-1,4} {196,196,215,-1,74}
				q {195,195,216,-1,75} {18,18,217,-1,11} {21,21,205,-1,10} {189,189,199,-1,60}
				q {166,166,218,-1,4} {196,196,215,-1,74} {195,195,216,-1,75} {163,163,219,-1,4}
				q {201,201,220,-1,76} {13,13,221,-1,5} {15,15,222,-1,7} {202,202,223,-1,77}
				q {194,194,207,-1,4} {181,181,212,-1,4} {157,157,245,-1,4} {202,202,223,-1,77}
				q {189,189,199,-1,60} {153,153,225,-1,4} {163,163,219,-1,4} {195,195,216,-1,75}
				q {191,191,200,-1,4} {21,21,205,-1,10} {15,15,222,-1,7} {13,13,221,-1,5}
				q {200,200,228,-1,4} {201,201,220,-1,76} {202,202,223,-1,77} {157,157,245,-1,4}
				q {164,164,227,-1,4} {198,198,226,-1,4} {11,11,202,-1,4} {7,7,201,-1,4}
				q {157,157,245,-1,4} {156,156,204,-1,4} {190,190,203,-1,4} {200,200,228,-1,4}
				q {13,13,221,-1,5} {11,11,202,-1,4} {198,198,226,-1,4} {191,191,200,-1,4}
				q {178,178,229,-1,4} {186,186,210,-1,4} {193,193,206,-1,4} {177,177,230,-1,4}
				q {36,36,213,-1,4} {196,196,215,-1,74} {166,166,218,-1,4} {32,32,232,-1,4}
				q {15,15,222,-1,7} {192,192,208,-1,73} {194,194,207,-1,4} {202,202,223,-1,77}
				q {201,201,220,-1,76} {200,200,228,-1,4} {190,190,203,-1,4} {197,197,233,-1,78}
				q {173,173,234,-1,4} {199,199,209,-1,4} {34,34,214,-1,4} {31,31,235,-1,4}
				q {199,199,209,-1,4} {192,192,208,-1,73} {18,18,217,-1,11} {196,196,215,-1,74}
				q {193,193,206,-1,4} {199,199,209,-1,4} {173,173,234,-1,4} {177,177,230,-1,4}
				q {11,11,202,-1,4} {13,13,221,-1,5} {197,197,233,-1,78} {190,190,203,-1,4}
			}
			CTris
			{
				numTris 36
				t {159,159,200,-1,4} {154,154,199,-1,60} {152,152,198,-1,4}
				t {159,159,200,-1,4} {25,25,205,-1,16} {154,154,199,-1,60}
				t {164,164,227,-1,4} {171,171,226,-1,4} {152,152,198,-1,4}
				t {160,160,208,-1,65} {25,25,205,-1,16} {0,0,222,-1,2}
				t {22,22,217,-1,15} {25,25,205,-1,16} {160,160,208,-1,65}
				t {167,167,215,-1,66} {165,165,216,-1,67} {22,22,217,-1,15}
				t {152,152,198,-1,4} {171,171,226,-1,4} {159,159,200,-1,4}
				t {170,170,211,-1,4} {175,175,231,-1,4} {169,169,210,-1,4}
				t {178,178,229,-1,4} {169,169,210,-1,4} {175,175,231,-1,4}
				t {169,169,210,-1,4} {161,161,206,-1,4} {162,162,207,-1,64}
				t {154,154,199,-1,60} {153,153,225,-1,4} {152,152,198,-1,4}
				t {176,176,220,-1,68} {3,3,221,-1,3} {168,168,233,-1,70}
				t {180,180,237,-1,4} {152,152,198,-1,4} {153,153,236,-1,4}
				t {152,152,198,-1,4} {180,180,237,-1,4} {164,164,227,-1,4}
				t {175,175,231,-1,4} {170,170,211,-1,4} {182,182,238,-1,4}
				t {157,157,224,-1,4} {181,181,240,-1,4} {183,183,239,-1,71}
				t {158,158,212,-1,4} {157,157,224,-1,4} {185,185,241,-1,72}
				t {175,175,231,-1,4} {178,178,229,-1,4} {186,186,244,-1,4}
				t {175,175,231,-1,4} {186,186,244,-1,4} {182,182,238,-1,4}
				t {157,157,224,-1,4} {183,183,239,-1,71} {185,185,241,-1,72}
				t {158,158,212,-1,4} {185,185,241,-1,72} {184,184,243,-1,4}
				t {183,183,239,-1,71} {181,181,240,-1,4} {187,187,242,-1,4}
				t {189,189,199,-1,60} {191,191,200,-1,4} {188,188,198,-1,4}
				t {21,21,205,-1,10} {191,191,200,-1,4} {189,189,199,-1,60}
				t {198,198,226,-1,4} {164,164,227,-1,4} {188,188,198,-1,4}
				t {21,21,205,-1,10} {192,192,208,-1,73} {15,15,222,-1,7}
				t {21,21,205,-1,10} {18,18,217,-1,11} {192,192,208,-1,73}
				t {195,195,216,-1,75} {196,196,215,-1,74} {18,18,217,-1,11}
				t {198,198,226,-1,4} {188,188,198,-1,4} {191,191,200,-1,4}
				t {175,175,231,-1,4} {182,182,211,-1,4} {186,186,210,-1,4}
				t {186,186,210,-1,4} {178,178,229,-1,4} {175,175,231,-1,4}
				t {193,193,206,-1,4} {186,186,210,-1,4} {194,194,207,-1,4}
				t {153,153,225,-1,4} {189,189,199,-1,60} {188,188,198,-1,4}
				t {13,13,221,-1,5} {201,201,220,-1,76} {197,197,233,-1,78}
				t {188,188,198,-1,4} {180,180,237,-1,4} {153,153,236,-1,4}
				t {180,180,237,-1,4} {188,188,198,-1,4} {164,164,227,-1,4}
			}
		}
		CIwModelExtSelSetFace
		{
			name "sortAway1"
			otzOfs 1

			f 42
			f 43
			f 50
			f 51
			f 284
			f 92
			f 95
			f 287
			f 97
			f 99
			f 142
			f 143
			f 246
			f 251
			f 253
			f 254
			f 255
		}
		CIwModelExtSelSetFace
		{
			name "sortTowards1"
			otzOfs -1

			f 124
			f 125
			f 126
			f 127
			f 128
			f 129
			f 321
			f 185
			f 188
			f 189
			f 190
			f 191
			f 192
			f 193
			f 194
			f 195
			f 196
			f 197
			f 198
			f 322
			f 323
			f 199
			f 200
			f 201
			f 324
			f 325
			f 202
			f 203
			f 327
			f 236
			f 237
			f 238
			f 239
			f 240
			f 241
			f 242
			f 243
			f 244
			f 245
		}
	}
}
