// Source file: C:/dev/sdk/main/sdk_examples/ArtAssets/OpenGLES/maya7/bike.mb
CIwModel
{
	name "bikeHolde2"
	CMesh
	{
		name "bikeHolde2"
		scale 10
		CVerts
		{
			numVerts 126
			v {-194.62833,318.91379,-729.11047}
			v {-250.75827,317.75348,-727.11987}
			v {-253.05032,285.15225,-670.65381}
			v {-253.04019,233.83197,-582.00647}
			v {-253.03560,210.52664,-562.42365}
			v {-253.03076,185.94122,-545.49615}
			v {-253.02260,144.60751,-538.60834}
			v {-253.01042,82.85739,-556.08173}
			v {-253.00308,45.62367,-583.05249}
			v {-252.99400,-0.34551,-652.78314}
			v {-252.99248,-8.10802,-719.60413}
			v {-252.99248,-8.12042,-725.14453}
			v {-252.99254,-7.82483,-917.71472}
			v {-252.82898,-7.74992,-989.66125}
			v {-246.88750,-7.75899,-1001.45721}
			v {-220.89410,-7.81096,-1007.27954}
			v {-184.94382,-7.83611,-1007.83594}
			v {-0.00000,-7.83612,-1007.83618}
			v {-194.62732,313.74060,-735.83191}
			v {-253.04419,312.10617,-733.02100}
			v {-256.28336,278.36124,-674.57422}
			v {-256.27338,227.83258,-587.05560}
			v {-256.26904,205.76755,-568.65546}
			v {-256.26453,182.98044,-552.75677}
			v {-256.25705,145.04489,-546.43695}
			v {-256.24545,86.27995,-563.13586}
			v {-256.23856,51.28478,-588.47687}
			v {-256.22983,7.02397,-655.45898}
			v {-256.22839,-0.28024,-720.04541}
			v {-256.22839,-0.28021,-725.13849}
			v {-256.22845,0.01538,-917.70459}
			v {-255.99622,0.09079,-990.31854}
			v {-248.89917,0.08015,-1003.99512}
			v {-221.21049,0.02541,-1010.50928}
			v {-184.96489,0.00001,-1011.08160}
			v {0.00000,0.00000,-1011.08191}
			v {-194.62567,305.32980,-736.92676}
			v {-250.73938,304.17285,-734.94202}
			v {-253.02475,271.57971,-678.48993}
			v {-253.01495,221.84174,-592.09863}
			v {-253.01083,201.01550,-574.87982}
			v {-253.00668,180.02454,-560.00861}
			v {-252.99988,145.48303,-554.25610}
			v {-252.98888,89.69966,-570.18140}
			v {-252.98241,56.94031,-593.89465}
			v {-252.97401,14.38582,-658.13159}
			v {-252.97266,7.53936,-720.48615}
			v {-252.97266,7.55179,-725.13245}
			v {-252.97272,7.84738,-917.69446}
			v {-252.80786,7.92230,-989.65381}
			v {-246.85962,7.91321,-1001.46063}
			v {-220.87263,7.86125,-1007.28040}
			v {-184.93835,7.83613,-1007.83594}
			v {0.00000,7.83612,-1007.83618}
			v {-194.62433,298.60834,-731.75354}
			v {-245.19397,298.60074,-731.75769}
			v {-245.18335,268.78021,-680.10712}
			v {-245.17361,219.36877,-594.18146}
			v {-245.16960,199.05418,-577.45050}
			v {-245.16559,178.80501,-563.00360}
			v {-245.15906,145.66525,-557.48541}
			v {-245.14830,91.11329,-573.09131}
			v {-245.14203,59.27734,-596.13226}
			v {-245.13376,17.42757,-659.23535}
			v {-245.13245,10.77015,-720.66821}
			v {-245.13245,10.78771,-725.13000}
			v {-245.13252,11.08330,-917.69031}
			v {-245.13161,11.15702,-988.05634}
			v {-241.96359,11.15170,-995.33850}
			v {-220.07837,11.10644,-999.48431}
			v {-184.87978,11.08194,-1000}
			v {-0.00000,11.08194,-1000}
			v {-194.62411,297.51352,-723.34277}
			v {-239.65637,298.65390,-725.33331}
			v {-237.35254,271.60263,-678.47845}
			v {-237.34271,221.86235,-592.08386}
			v {-237.33862,201.03249,-574.86157}
			v {-237.33447,180.03625,-559.98737}
			v {-237.32765,145.48483,-554.23328}
			v {-237.31665,89.69276,-570.16083}
			v {-237.31020,56.92687,-593.87885}
			v {-237.30179,14.36739,-658.12378}
			v {-237.30045,7.51959,-720.48492}
			v {-237.30045,7.53199,-725.13245}
			v {-237.30051,7.82757,-917.69446}
			v {-237.46408,7.90010,-986.46204}
			v {-237.07910,7.89855,-989.21484}
			v {-219.29303,7.85997,-991.68799}
			v {-184.82347,7.83611,-992.16406}
			v {0.00000,7.83612,-992.16382}
			v {-194.62680,311.09750,-715.52649}
			v {-239.67523,312.23453,-717.51123}
			v {-237.37811,285.17517,-670.64240}
			v {-237.36800,233.85257,-581.99170}
			v {-237.36340,210.54361,-562.40546}
			v {-237.35854,185.95294,-545.47491}
			v {-237.35039,144.60931,-538.58545}
			v {-237.33820,82.85049,-556.06116}
			v {-237.33086,45.61023,-583.03668}
			v {-237.32179,-0.36395,-652.77527}
			v {-237.32025,-8.12779,-719.60291}
			v {-237.32025,-8.14023,-725.14453}
			v {-237.32031,-7.84463,-917.71478}
			v {-237.48521,-7.77212,-986.46948}
			v {-237.10696,-7.77365,-989.21136}
			v {-219.31450,-7.81224,-991.68707}
			v {-184.82893,-7.83613,-992.16406}
			v {-0.00000,-7.83612,-992.16382}
			v {-194.62813,317.81897,-720.69971}
			v {-245.22066,317.80664,-720.69556}
			v {-245.21951,287.97467,-669.02521}
			v {-245.20934,236.32553,-579.90894}
			v {-245.20462,212.50494,-559.83472}
			v {-245.19962,187.17247,-542.47992}
			v {-245.19119,144.42708,-535.35620}
			v {-245.17877,81.43685,-553.15131}
			v {-245.17123,43.27320,-580.79907}
			v {-245.16203,-3.40569,-651.67151}
			v {-245.16046,-11.35858,-719.42084}
			v {-245.16046,-11.37615,-725.14703}
			v {-245.16052,-11.08055,-917.71887}
			v {-245.16145,-11.00684,-988.06696}
			v {-242.00301,-11.01214,-995.33356}
			v {-220.10873,-11.05743,-999.48309}
			v {-184.88751,-11.08194,-1000}
			v {0.00000,-11.08194,-1000}
		}
		CVertNorms
		{
			numVertNorms 126
			vn {-0.02984,0.95063,-0.30888}
			vn {-0.04842,0.49827,-0.86567}
			vn {-0.70959,0.35066,-0.61116}
			vn {-0.44827,0.89390,0.00182}
			vn {-0.99978,0.00906,-0.01884}
			vn {-0.72527,0.60229,0.33351}
			vn {-1.00000,-0.00107,-0.00111}
			vn {-0.71163,0.53801,0.45181}
			vn {-1.00000,-0.00139,-0.00110}
			vn {-0.70608,0.42895,0.56342}
			vn {-1.00000,-0.00134,-0.00098}
			vn {-0.71208,0.26264,0.65112}
			vn {-1.00000,0.00001,-0.00142}
			vn {-0.71120,-0.03888,0.70192}
			vn {-1.00000,0.00054,-0.00129}
			vn {-0.70908,-0.30758,0.63451}
			vn {-1.00000,0.00078,-0.00112}
			vn {-0.70908,-0.50962,0.48733}
			vn {-1.00000,0.00115,-0.00027}
			vn {-0.71314,-0.65864,0.24004}
			vn {-1.00000,0.00134,0.00050}
			vn {-0.70666,-0.70632,0.04176}
			vn {-1.00000,0.00127,0.00025}
			vn {-0.70791,-0.70631,0.00024}
			vn {-1.00000,0.00128,-0.00137}
			vn {-0.70929,-0.70491,-0.00171}
			vn {-0.97162,0.00140,-0.23655}
			vn {-0.68843,-0.70617,-0.16551}
			vn {-0.61475,0.00091,-0.78872}
			vn {-0.42387,-0.72684,-0.54041}
			vn {-0.12084,0.00010,-0.99267}
			vn {-0.08522,-0.70158,-0.70747}
			vn {-0.00782,-0.00001,-0.99997}
			vn {-0.00572,-0.70688,-0.70731}
			vn {-0.00000,0.00000,-1}
			vn {-0.00000,-0.70710,-0.70711}
			vn {-0.02950,-0.21068,-0.97711}
			vn {-0.44641,-0.45103,-0.77285}
			vn {-0.72300,-0.59207,-0.35598}
			vn {-0.70960,-0.53843,-0.45449}
			vn {-0.70349,-0.43223,-0.56416}
			vn {-0.71033,-0.26789,-0.65089}
			vn {-0.70924,0.03956,-0.70386}
			vn {-0.70705,0.30888,-0.63614}
			vn {-0.70715,0.51026,-0.48946}
			vn {-0.71164,0.66052,-0.23931}
			vn {-0.70479,0.70841,-0.03792}
			vn {-0.70611,0.70811,0.00150}
			vn {-0.70750,0.70671,0.00010}
			vn {-0.68650,0.70820,-0.16481}
			vn {-0.42133,0.72812,-0.54066}
			vn {-0.08333,0.70168,-0.70760}
			vn {-0.00522,0.70688,-0.70731}
			vn {-0.00000,0.70710,-0.70711}
			vn {-0.01089,-0.86863,-0.49535}
			vn {-0.00298,-0.86501,-0.50175}
			vn {0.00325,-0.86408,-0.50335}
			vn {0.00163,-0.76387,-0.64537}
			vn {0.00157,-0.60833,-0.79368}
			vn {0.00155,-0.38142,-0.92440}
			vn {0.00146,0.05657,-0.99840}
			vn {0.00138,0.43711,-0.89941}
			vn {0.00132,0.72157,-0.69234}
			vn {0.00130,0.94035,-0.34019}
			vn {0.00126,0.99861,-0.05272}
			vn {0.00126,1.00000,0.00241}
			vn {0.00128,1.00000,0.00105}
			vn {0.00732,0.99992,-0.00996}
			vn {0.00352,0.99995,-0.00885}
			vn {-0.00289,0.99999,0.00143}
			vn {0.00026,1.00000,0.00000}
			vn {-0.00000,1,0.00000}
			vn {-0.03608,-0.88142,0.47095}
			vn {0.51968,-0.84650,0.11562}
			vn {0.84046,-0.46162,-0.28379}
			vn {0.83567,-0.41947,-0.35454}
			vn {0.83143,-0.33790,-0.44108}
			vn {0.83703,-0.20856,-0.50585}
			vn {0.83640,0.03117,-0.54723}
			vn {0.83438,0.24107,-0.49568}
			vn {0.83449,0.39769,-0.38142}
			vn {0.83764,0.51366,-0.18577}
			vn {0.83180,0.55431,-0.02925}
			vn {0.83213,0.55458,0.00134}
			vn {0.83270,0.55373,-0.00014}
			vn {0.83117,0.54995,0.08191}
			vn {0.54028,0.62166,0.56713}
			vn {0.06784,0.55124,0.83159}
			vn {0.00599,0.55544,0.83153}
			vn {-0.00000,0.55557,0.83147}
			vn {-0.03618,0.03571,0.99871}
			vn {0.51794,0.32606,0.79084}
			vn {0.83871,0.47890,0.25925}
			vn {0.83367,0.42313,0.35491}
			vn {0.82991,0.33803,0.44383}
			vn {0.83496,0.20593,0.51033}
			vn {0.83475,-0.03018,0.54980}
			vn {0.83294,-0.24115,0.49806}
			vn {0.83309,-0.39964,0.38242}
			vn {0.83598,-0.51555,0.18800}
			vn {0.83044,-0.55612,0.03314}
			vn {0.83073,-0.55667,0.00031}
			vn {0.83129,-0.55584,-0.00157}
			vn {0.82966,-0.55232,0.08133}
			vn {0.53815,-0.62328,0.56738}
			vn {0.06633,-0.55127,0.83169}
			vn {0.00560,-0.55544,0.83154}
			vn {-0.00000,-0.55557,0.83147}
			vn {-0.01122,0.86493,0.50177}
			vn {-0.00494,0.86783,0.49684}
			vn {-0.00016,0.86796,0.49663}
			vn {-0.00163,0.76604,0.64279}
			vn {-0.00157,0.60571,0.79569}
			vn {-0.00155,0.37395,0.92745}
			vn {-0.00147,-0.05510,0.99848}
			vn {-0.00138,-0.43603,0.89993}
			vn {-0.00132,-0.72265,0.69122}
			vn {-0.00130,-0.93952,0.34250}
			vn {-0.00126,-0.99823,0.05948}
			vn {-0.00126,-1.00000,0.00056}
			vn {-0.00124,-1.00000,-0.00154}
			vn {0.00456,-0.99993,-0.01097}
			vn {-0.00001,-0.99996,-0.00857}
			vn {-0.00561,-0.99998,0.00167}
			vn {-0.00043,-1.00000,0.00000}
			vn {-0.00000,-1,-0.00000}
		}
		CUVs
		{
			setID 0
			numUVs 126
			uv {1.44453,1.00589}
			uv {1.53761,1.00589}
			uv {1.67226,1.00589}
			uv {1.81311,1.00589}
			uv {1.86434,1.00589}
			uv {1.91577,1.00589}
			uv {1.99233,1.00589}
			uv {2.11732,1.00589}
			uv {2.21813,1.00589}
			uv {2.40260,1.00589}
			uv {2.53725,1.00589}
			uv {2.74466,1.00589}
			uv {2.84266,1.00589}
			uv {2.96148,1.00589}
			uv {2.99231,1.00589}
			uv {3.03102,1.00589}
			uv {3.04685,1.00589}
			uv {3.06033,1.00589}
			uv {1.44453,1.01259}
			uv {1.53761,1.01259}
			uv {1.67226,1.01259}
			uv {1.81311,1.01259}
			uv {1.86434,1.01259}
			uv {1.91577,1.01259}
			uv {1.99233,1.01259}
			uv {2.11732,1.01259}
			uv {2.21813,1.01259}
			uv {2.40260,1.01259}
			uv {2.53725,1.01259}
			uv {2.74466,1.01259}
			uv {2.84266,1.01259}
			uv {2.96148,1.01259}
			uv {2.99231,1.01259}
			uv {3.03102,1.01259}
			uv {3.04685,1.01259}
			uv {3.06033,1.01259}
			uv {1.44453,1.01929}
			uv {1.53761,1.01929}
			uv {1.67226,1.01929}
			uv {1.81311,1.01929}
			uv {1.86434,1.01929}
			uv {1.91577,1.01929}
			uv {1.99233,1.01929}
			uv {2.11732,1.01929}
			uv {2.21813,1.01929}
			uv {2.40260,1.01929}
			uv {2.53725,1.01929}
			uv {2.74466,1.01929}
			uv {2.84266,1.01929}
			uv {2.96148,1.01929}
			uv {2.99231,1.01929}
			uv {3.03102,1.01929}
			uv {3.04685,1.01929}
			uv {3.06033,1.01929}
			uv {1.44453,1.02600}
			uv {1.53761,1.02600}
			uv {1.67226,1.02600}
			uv {1.81311,1.02600}
			uv {1.86434,1.02600}
			uv {1.91577,1.02600}
			uv {1.99233,1.02600}
			uv {2.11732,1.02600}
			uv {2.21813,1.02600}
			uv {2.40260,1.02600}
			uv {2.53725,1.02600}
			uv {2.74466,1.02600}
			uv {2.84266,1.02600}
			uv {2.96148,1.02600}
			uv {2.99231,1.02600}
			uv {3.03102,1.02600}
			uv {3.04685,1.02600}
			uv {3.06033,1.02600}
			uv {1.44453,1.03270}
			uv {1.53761,1.03270}
			uv {1.67226,1.03270}
			uv {1.81311,1.03270}
			uv {1.86434,1.03270}
			uv {1.91577,1.03270}
			uv {1.99233,1.03270}
			uv {2.11732,1.03270}
			uv {2.21813,1.03270}
			uv {2.40260,1.03270}
			uv {2.53725,1.03270}
			uv {2.74466,1.03270}
			uv {2.84266,1.03270}
			uv {2.96148,1.03270}
			uv {2.99231,1.03270}
			uv {3.03102,1.03270}
			uv {3.04685,1.03270}
			uv {3.06033,1.03270}
			uv {1.44453,1.04164}
			uv {1.53761,1.04164}
			uv {1.67226,1.04164}
			uv {1.81311,1.04164}
			uv {1.86434,1.04164}
			uv {1.91577,1.04164}
			uv {1.99233,1.04164}
			uv {2.11732,1.04164}
			uv {2.21813,1.04164}
			uv {2.40260,1.04164}
			uv {2.53725,1.04164}
			uv {2.74466,1.04164}
			uv {2.84266,1.04164}
			uv {2.96148,1.04164}
			uv {2.99231,1.04164}
			uv {3.03102,1.04164}
			uv {3.04685,1.04164}
			uv {3.06033,1.04164}
			uv {1.44453,1.05058}
			uv {1.53761,1.05058}
			uv {1.67226,1.05058}
			uv {1.81311,1.05058}
			uv {1.86434,1.05058}
			uv {1.91577,1.05058}
			uv {1.99233,1.05058}
			uv {2.11732,1.05058}
			uv {2.21813,1.05058}
			uv {2.40260,1.05058}
			uv {2.53725,1.05058}
			uv {2.74466,1.05058}
			uv {2.84266,1.05058}
			uv {2.96148,1.05058}
			uv {2.99231,1.05058}
			uv {3.03102,1.05058}
			uv {3.04685,1.05058}
			uv {3.06033,1.05058}
		}
		CSurface
		{
			material "phong1"
			CQuads
			{
				numQuads 119
				q {0,0,0,-1,-1} {1,3,1,-1,-1} {19,2,19,-1,-1} {18,1,18,-1,-1}
				q {19,2,19,-1,-1} {1,3,1,-1,-1} {2,5,2,-1,-1} {20,4,20,-1,-1}
				q {21,6,21,-1,-1} {20,4,20,-1,-1} {2,5,2,-1,-1} {3,7,3,-1,-1}
				q {4,9,4,-1,-1} {22,8,22,-1,-1} {21,6,21,-1,-1} {3,7,3,-1,-1}
				q {23,10,23,-1,-1} {22,8,22,-1,-1} {4,9,4,-1,-1} {5,11,5,-1,-1}
				q {6,13,6,-1,-1} {24,12,24,-1,-1} {23,10,23,-1,-1} {5,11,5,-1,-1}
				q {7,15,7,-1,-1} {25,14,25,-1,-1} {24,12,24,-1,-1} {6,13,6,-1,-1}
				q {8,17,8,-1,-1} {26,16,26,-1,-1} {25,14,25,-1,-1} {7,15,7,-1,-1}
				q {27,18,27,-1,-1} {26,16,26,-1,-1} {8,17,8,-1,-1} {9,19,9,-1,-1}
				q {10,21,10,-1,-1} {28,20,28,-1,-1} {27,18,27,-1,-1} {9,19,9,-1,-1}
				q {11,23,11,-1,-1} {29,22,29,-1,-1} {28,20,28,-1,-1} {10,21,10,-1,-1}
				q {12,25,12,-1,-1} {30,24,30,-1,-1} {29,22,29,-1,-1} {11,23,11,-1,-1}
				q {30,24,30,-1,-1} {12,25,12,-1,-1} {13,27,13,-1,-1} {31,26,31,-1,-1}
				q {13,27,13,-1,-1} {14,29,14,-1,-1} {32,28,32,-1,-1} {31,26,31,-1,-1}
				q {32,28,32,-1,-1} {14,29,14,-1,-1} {15,31,15,-1,-1} {33,30,33,-1,-1}
				q {15,31,15,-1,-1} {16,33,16,-1,-1} {34,32,34,-1,-1} {33,30,33,-1,-1}
				q {16,33,16,-1,-1} {17,35,17,-1,-1} {35,34,35,-1,-1} {34,32,34,-1,-1}
				q {19,2,19,-1,-1} {37,37,37,-1,-1} {36,36,36,-1,-1} {18,1,18,-1,-1}
				q {38,38,38,-1,-1} {37,37,37,-1,-1} {19,2,19,-1,-1} {20,4,20,-1,-1}
				q {21,6,21,-1,-1} {39,39,39,-1,-1} {38,38,38,-1,-1} {20,4,20,-1,-1}
				q {22,8,22,-1,-1} {40,40,40,-1,-1} {39,39,39,-1,-1} {21,6,21,-1,-1}
				q {41,41,41,-1,-1} {40,40,40,-1,-1} {22,8,22,-1,-1} {23,10,23,-1,-1}
				q {24,12,24,-1,-1} {42,42,42,-1,-1} {41,41,41,-1,-1} {23,10,23,-1,-1}
				q {25,14,25,-1,-1} {43,43,43,-1,-1} {42,42,42,-1,-1} {24,12,24,-1,-1}
				q {26,16,26,-1,-1} {44,44,44,-1,-1} {43,43,43,-1,-1} {25,14,25,-1,-1}
				q {45,45,45,-1,-1} {44,44,44,-1,-1} {26,16,26,-1,-1} {27,18,27,-1,-1}
				q {28,20,28,-1,-1} {46,46,46,-1,-1} {45,45,45,-1,-1} {27,18,27,-1,-1}
				q {29,22,29,-1,-1} {47,47,47,-1,-1} {46,46,46,-1,-1} {28,20,28,-1,-1}
				q {30,24,30,-1,-1} {48,48,48,-1,-1} {47,47,47,-1,-1} {29,22,29,-1,-1}
				q {49,49,49,-1,-1} {48,48,48,-1,-1} {30,24,30,-1,-1} {31,26,31,-1,-1}
				q {32,28,32,-1,-1} {50,50,50,-1,-1} {49,49,49,-1,-1} {31,26,31,-1,-1}
				q {51,51,51,-1,-1} {50,50,50,-1,-1} {32,28,32,-1,-1} {33,30,33,-1,-1}
				q {34,32,34,-1,-1} {52,52,52,-1,-1} {51,51,51,-1,-1} {33,30,33,-1,-1}
				q {35,34,35,-1,-1} {53,53,53,-1,-1} {52,52,52,-1,-1} {34,32,34,-1,-1}
				q {37,37,37,-1,-1} {55,55,55,-1,-1} {54,54,54,-1,-1} {36,36,36,-1,-1}
				q {56,56,56,-1,-1} {55,55,55,-1,-1} {37,37,37,-1,-1} {38,38,38,-1,-1}
				q {39,39,39,-1,-1} {57,57,57,-1,-1} {56,56,56,-1,-1} {38,38,38,-1,-1}
				q {40,40,40,-1,-1} {58,58,58,-1,-1} {57,57,57,-1,-1} {39,39,39,-1,-1}
				q {59,59,59,-1,-1} {58,58,58,-1,-1} {40,40,40,-1,-1} {41,41,41,-1,-1}
				q {42,42,42,-1,-1} {60,60,60,-1,-1} {59,59,59,-1,-1} {41,41,41,-1,-1}
				q {43,43,43,-1,-1} {61,61,61,-1,-1} {60,60,60,-1,-1} {42,42,42,-1,-1}
				q {44,44,44,-1,-1} {62,62,62,-1,-1} {61,61,61,-1,-1} {43,43,43,-1,-1}
				q {45,45,45,-1,-1} {63,63,63,-1,-1} {62,62,62,-1,-1} {44,44,44,-1,-1}
				q {46,46,46,-1,-1} {64,64,64,-1,-1} {63,63,63,-1,-1} {45,45,45,-1,-1}
				q {47,47,47,-1,-1} {65,65,65,-1,-1} {64,64,64,-1,-1} {46,46,46,-1,-1}
				q {48,48,48,-1,-1} {66,66,66,-1,-1} {65,65,65,-1,-1} {47,47,47,-1,-1}
				q {49,49,49,-1,-1} {67,67,67,-1,-1} {66,66,66,-1,-1} {48,48,48,-1,-1}
				q {50,50,50,-1,-1} {68,68,68,-1,-1} {67,67,67,-1,-1} {49,49,49,-1,-1}
				q {69,69,69,-1,-1} {68,68,68,-1,-1} {50,50,50,-1,-1} {51,51,51,-1,-1}
				q {52,52,52,-1,-1} {70,70,70,-1,-1} {69,69,69,-1,-1} {51,51,51,-1,-1}
				q {53,53,53,-1,-1} {71,71,71,-1,-1} {70,70,70,-1,-1} {52,52,52,-1,-1}
				q {73,73,73,-1,-1} {72,72,72,-1,-1} {54,54,54,-1,-1} {55,55,55,-1,-1}
				q {56,56,56,-1,-1} {74,74,74,-1,-1} {73,73,73,-1,-1} {55,55,55,-1,-1}
				q {74,74,74,-1,-1} {56,56,56,-1,-1} {57,57,57,-1,-1} {75,75,75,-1,-1}
				q {57,57,57,-1,-1} {58,58,58,-1,-1} {76,76,76,-1,-1} {75,75,75,-1,-1}
				q {76,76,76,-1,-1} {58,58,58,-1,-1} {59,59,59,-1,-1} {77,77,77,-1,-1}
				q {59,59,59,-1,-1} {60,60,60,-1,-1} {78,78,78,-1,-1} {77,77,77,-1,-1}
				q {60,60,60,-1,-1} {61,61,61,-1,-1} {79,79,79,-1,-1} {78,78,78,-1,-1}
				q {61,61,61,-1,-1} {62,62,62,-1,-1} {80,80,80,-1,-1} {79,79,79,-1,-1}
				q {62,62,62,-1,-1} {63,63,63,-1,-1} {81,81,81,-1,-1} {80,80,80,-1,-1}
				q {63,63,63,-1,-1} {64,64,64,-1,-1} {82,82,82,-1,-1} {81,81,81,-1,-1}
				q {64,64,64,-1,-1} {65,65,65,-1,-1} {83,83,83,-1,-1} {82,82,82,-1,-1}
				q {65,65,65,-1,-1} {66,66,66,-1,-1} {84,84,84,-1,-1} {83,83,83,-1,-1}
				q {85,85,85,-1,-1} {84,84,84,-1,-1} {66,66,66,-1,-1} {67,67,67,-1,-1}
				q {86,86,86,-1,-1} {85,85,85,-1,-1} {67,67,67,-1,-1} {68,68,68,-1,-1}
				q {69,69,69,-1,-1} {87,87,87,-1,-1} {86,86,86,-1,-1} {68,68,68,-1,-1}
				q {70,70,70,-1,-1} {88,88,88,-1,-1} {87,87,87,-1,-1} {69,69,69,-1,-1}
				q {71,71,71,-1,-1} {89,89,89,-1,-1} {88,88,88,-1,-1} {70,70,70,-1,-1}
				q {73,73,73,-1,-1} {91,91,91,-1,-1} {90,90,90,-1,-1} {72,72,72,-1,-1}
				q {73,73,73,-1,-1} {74,74,74,-1,-1} {92,92,92,-1,-1} {91,91,91,-1,-1}
				q {92,92,92,-1,-1} {74,74,74,-1,-1} {75,75,75,-1,-1} {93,93,93,-1,-1}
				q {75,75,75,-1,-1} {76,76,76,-1,-1} {94,94,94,-1,-1} {93,93,93,-1,-1}
				q {94,94,94,-1,-1} {76,76,76,-1,-1} {77,77,77,-1,-1} {95,95,95,-1,-1}
				q {77,77,77,-1,-1} {78,78,78,-1,-1} {96,96,96,-1,-1} {95,95,95,-1,-1}
				q {78,78,78,-1,-1} {79,79,79,-1,-1} {97,97,97,-1,-1} {96,96,96,-1,-1}
				q {79,79,79,-1,-1} {80,80,80,-1,-1} {98,98,98,-1,-1} {97,97,97,-1,-1}
				q {98,98,98,-1,-1} {80,80,80,-1,-1} {81,81,81,-1,-1} {99,99,99,-1,-1}
				q {81,81,81,-1,-1} {82,82,82,-1,-1} {100,100,100,-1,-1} {99,99,99,-1,-1}
				q {82,82,82,-1,-1} {83,83,83,-1,-1} {101,101,101,-1,-1} {100,100,100,-1,-1}
				q {83,83,83,-1,-1} {84,84,84,-1,-1} {102,102,102,-1,-1} {101,101,101,-1,-1}
				q {85,85,85,-1,-1} {103,103,103,-1,-1} {102,102,102,-1,-1} {84,84,84,-1,-1}
				q {86,86,86,-1,-1} {104,104,104,-1,-1} {103,103,103,-1,-1} {85,85,85,-1,-1}
				q {87,87,87,-1,-1} {105,105,105,-1,-1} {104,104,104,-1,-1} {86,86,86,-1,-1}
				q {87,87,87,-1,-1} {88,88,88,-1,-1} {106,106,106,-1,-1} {105,105,105,-1,-1}
				q {88,88,88,-1,-1} {89,89,89,-1,-1} {107,107,107,-1,-1} {106,106,106,-1,-1}
				q {108,108,108,-1,-1} {90,90,90,-1,-1} {91,91,91,-1,-1} {109,109,109,-1,-1}
				q {91,91,91,-1,-1} {92,92,92,-1,-1} {110,110,110,-1,-1} {109,109,109,-1,-1}
				q {110,110,110,-1,-1} {92,92,92,-1,-1} {93,93,93,-1,-1} {111,111,111,-1,-1}
				q {93,93,93,-1,-1} {94,94,94,-1,-1} {112,112,112,-1,-1} {111,111,111,-1,-1}
				q {94,94,94,-1,-1} {95,95,95,-1,-1} {113,113,113,-1,-1} {112,112,112,-1,-1}
				q {95,95,95,-1,-1} {96,96,96,-1,-1} {114,114,114,-1,-1} {113,113,113,-1,-1}
				q {96,96,96,-1,-1} {97,97,97,-1,-1} {115,115,115,-1,-1} {114,114,114,-1,-1}
				q {97,97,97,-1,-1} {98,98,98,-1,-1} {116,116,116,-1,-1} {115,115,115,-1,-1}
				q {98,98,98,-1,-1} {99,99,99,-1,-1} {117,117,117,-1,-1} {116,116,116,-1,-1}
				q {117,117,117,-1,-1} {99,99,99,-1,-1} {100,100,100,-1,-1} {118,118,118,-1,-1}
				q {100,100,100,-1,-1} {101,101,101,-1,-1} {119,119,119,-1,-1} {118,118,118,-1,-1}
				q {101,101,101,-1,-1} {102,102,102,-1,-1} {120,120,120,-1,-1} {119,119,119,-1,-1}
				q {120,120,120,-1,-1} {102,102,102,-1,-1} {103,103,103,-1,-1} {121,121,121,-1,-1}
				q {121,121,121,-1,-1} {103,103,103,-1,-1} {104,104,104,-1,-1} {122,122,122,-1,-1}
				q {104,104,104,-1,-1} {105,105,105,-1,-1} {123,123,123,-1,-1} {122,122,122,-1,-1}
				q {105,105,105,-1,-1} {106,106,106,-1,-1} {124,124,124,-1,-1} {123,123,123,-1,-1}
				q {106,106,106,-1,-1} {107,107,107,-1,-1} {125,125,125,-1,-1} {124,124,124,-1,-1}
				q {108,108,108,-1,-1} {109,109,109,-1,-1} {1,3,1,-1,-1} {0,0,0,-1,-1}
				q {1,3,1,-1,-1} {109,109,109,-1,-1} {110,110,110,-1,-1} {2,5,2,-1,-1}
				q {3,7,3,-1,-1} {2,5,2,-1,-1} {110,110,110,-1,-1} {111,111,111,-1,-1}
				q {4,9,4,-1,-1} {3,7,3,-1,-1} {111,111,111,-1,-1} {112,112,112,-1,-1}
				q {5,11,5,-1,-1} {4,9,4,-1,-1} {112,112,112,-1,-1} {113,113,113,-1,-1}
				q {114,114,114,-1,-1} {6,13,6,-1,-1} {5,11,5,-1,-1} {113,113,113,-1,-1}
				q {115,115,115,-1,-1} {7,15,7,-1,-1} {6,13,6,-1,-1} {114,114,114,-1,-1}
				q {116,116,116,-1,-1} {8,17,8,-1,-1} {7,15,7,-1,-1} {115,115,115,-1,-1}
				q {117,117,117,-1,-1} {9,19,9,-1,-1} {8,17,8,-1,-1} {116,116,116,-1,-1}
				q {118,118,118,-1,-1} {10,21,10,-1,-1} {9,19,9,-1,-1} {117,117,117,-1,-1}
				q {119,119,119,-1,-1} {11,23,11,-1,-1} {10,21,10,-1,-1} {118,118,118,-1,-1}
				q {120,120,120,-1,-1} {12,25,12,-1,-1} {11,23,11,-1,-1} {119,119,119,-1,-1}
				q {120,120,120,-1,-1} {121,121,121,-1,-1} {13,27,13,-1,-1} {12,25,12,-1,-1}
				q {121,121,121,-1,-1} {122,122,122,-1,-1} {14,29,14,-1,-1} {13,27,13,-1,-1}
				q {14,29,14,-1,-1} {122,122,122,-1,-1} {123,123,123,-1,-1} {15,31,15,-1,-1}
				q {123,123,123,-1,-1} {124,124,124,-1,-1} {16,33,16,-1,-1} {15,31,15,-1,-1}
				q {124,124,124,-1,-1} {125,125,125,-1,-1} {17,35,17,-1,-1} {16,33,16,-1,-1}
			}
		}
	}
}
