// Source file: C:/dev/sdk/main/sdk_examples/ArtAssets/OpenGLES/maya7/bike.mb
CIwModel
{
	name "bodyL"
	CMesh
	{
		name "bodyL"
		scale 10
		CVerts
		{
			numVerts 216
			v {-382.74216,403.17627,-323.05865}
			v {-380.50183,360.43015,-323.05865}
			v {-380.50183,360.43015,-608.67828}
			v {-382.74216,403.17627,-608.67828}
			v {-353.56400,327.16458,-323.05865}
			v {-353.56400,327.16458,-608.67828}
			v {-312.21777,316.08594,-323.05865}
			v {-312.21777,316.08594,-608.67828}
			v {-272.25601,331.42578,-323.05865}
			v {-272.25601,331.42578,-608.67828}
			v {-248.94284,367.32489,-323.05865}
			v {-248.94284,367.32489,-608.67828}
			v {-286.15262,394.06897,-173.06064}
			v {-219.37976,376.17734,-266.00650}
			v {-234.56699,345.00287,-257.13098}
			v {-256.70569,329.15302,-233.89458}
			v {-277.33960,334.68185,-205.17258}
			v {-288.58743,359.47757,-181.93617}
			v {-361.57535,367.69543,-672.03540}
			v {-363.15976,397.92923,-672.03540}
			v {-342.52252,344.16705,-672.03540}
			v {-313.27878,336.33121,-672.03540}
			v {-285.01431,347.18085,-672.03540}
			v {-268.52521,372.57196,-672.03540}
			v {-197.72968,558.45496,-323.05865}
			v {-199.96997,601.20111,-323.05865}
			v {-199.96997,601.20111,-608.67828}
			v {-197.72968,558.45496,-608.67828}
			v {-226.90782,634.46680,-323.05865}
			v {-226.90782,634.46680,-608.67828}
			v {-268.25412,645.54553,-323.05865}
			v {-268.25412,645.54553,-608.67828}
			v {-308.21576,630.20557,-323.05865}
			v {-308.21576,630.20557,-608.67828}
			v {-331.52896,594.30640,-323.05865}
			v {-331.52896,594.30640,-608.67828}
			v {-176.55351,536.00702,-266.00650}
			v {-243.32639,553.89880,-173.06064}
			v {-228.13925,585.07324,-181.93617}
			v {-206.00049,600.92310,-205.17258}
			v {-185.36653,595.39429,-233.89444}
			v {-174.11880,570.59857,-257.13098}
			v {-218.89647,593.93591,-672.03540}
			v {-217.31198,563.70203,-672.03540}
			v {-237.94940,617.46417,-672.03540}
			v {-267.19312,625.30017,-672.03540}
			v {-295.45758,614.45032,-672.03540}
			v {-311.94669,589.05933,-672.03540}
			v {-304.84521,526.64246,-679.75769}
			v {-304.84521,612.33496,-679.75769}
			v {-219.15295,612.33496,-679.75769}
			v {-219.15295,526.64246,-679.75769}
			v {-352.65869,346.42029,-679.75769}
			v {-352.65869,432.11273,-679.75769}
			v {-266.96613,432.11273,-679.75769}
			v {-266.96613,346.42029,-679.75769}
			v {-78.81361,353.48697,-162.79147}
			v {-63.11483,536.11053,-183.06644}
			v {-243.23227,544.34619,-274.53491}
			v {-258.93115,361.72269,-254.25995}
			v {-64.96461,543.52606,-124.49981}
			v {-270.62717,551.76172,-228.03891}
			v {-80.66341,360.90253,-104.22484}
			v {-286.32593,369.13821,-207.76395}
			v {-156.69943,244.72321,56.39112}
			v {0.00000,226.39499,56.39112}
			v {0.00000,327.74905,-91.73329}
			v {-174.95120,346.07724,-91.73329}
			v {-155.67624,153.44547,439.76099}
			v {0.00000,135.11726,424.89334}
			v {0.00000,121.38382,359.69070}
			v {-112.91116,139.71199,359.69070}
			v {0.00000,652.31580,-326.68524}
			v {0.00000,667.68384,-657.67029}
			v {-103.02670,667.68378,-624.11346}
			v {-151.95230,652.31580,-326.68524}
			v {-137.98575,649.89264,-264.87311}
			v {0.00000,649.89264,-264.87311}
			v {-159.65683,533.93140,-131.86295}
			v {0.00000,533.93140,-131.86295}
			v {-134.41472,760.26031,-317.17059}
			v {-107.98913,733.38104,-198.50175}
			v {0.00000,925.19055,442.09052}
			v {0.00000,871.12830,670.19891}
			v {-106.67180,847.24414,676.32642}
			v {-139.16226,905.90204,442.09052}
			v {0.00000,920.86621,220.67781}
			v {-143.61334,901.57770,220.67781}
			v {0.00000,882.17285,20.76139}
			v {-127.73309,862.88422,20.76143}
			v {0.00000,746.65271,-198.50175}
			v {0.00000,783.28949,-317.17059}
			v {0.00000,766.09241,-611.58417}
			v {-89.73466,752.82080,-578.02734}
			v {0.00000,678.52472,928.99286}
			v {0.00000,616.75494,917.16077}
			v {-58.09481,616.75507,898.09814}
			v {-58.09481,678.79059,909.93018}
			v {0.00000,717.19635,908.06305}
			v {-56.78473,708.09766,894.38904}
			v {0.00000,787.58881,818.27734}
			v {-80.10081,768.30023,818.27734}
			v {-166.15303,644.95801,-70.81238}
			v {-202.18941,699.32184,108.42444}
			v {-101.46171,700.65765,809.56232}
			v {-145.14452,718.94995,698.07263}
			v {-215.68001,733.69690,497.07892}
			v {-236.96100,715.59686,279.57074}
			v {-194.13765,427.93219,104.00934}
			v {-101.06425,629.24139,802.46027}
			v {-137.76659,630.94080,720.47986}
			v {-209.13069,587.67242,574.22437}
			v {-247.69626,462.99347,449.89166}
			v {-212.63208,565.85815,121.81894}
			v {-220.50366,293.78967,404.77411}
			v {0.00000,293.78967,389.90637}
			v {0.00000,462.99347,435.02396}
			v {0.00000,587.67242,559.35669}
			v {0.00000,630.94080,720.47986}
			v {0.00000,629.24139,802.46027}
			v {382.74216,403.17627,-323.05865}
			v {380.50183,360.43015,-323.05865}
			v {380.50183,360.43015,-608.67828}
			v {382.74216,403.17627,-608.67828}
			v {353.56400,327.16458,-323.05865}
			v {353.56400,327.16458,-608.67828}
			v {312.21777,316.08594,-323.05865}
			v {312.21777,316.08594,-608.67828}
			v {272.25601,331.42578,-323.05865}
			v {272.25601,331.42578,-608.67828}
			v {248.94284,367.32489,-323.05865}
			v {248.94284,367.32489,-608.67828}
			v {286.15262,394.06897,-173.06064}
			v {219.37976,376.17734,-266.00650}
			v {234.56699,345.00287,-257.13098}
			v {256.70569,329.15302,-233.89458}
			v {277.33960,334.68185,-205.17258}
			v {288.58743,359.47757,-181.93617}
			v {361.57535,367.69543,-672.03540}
			v {363.15976,397.92923,-672.03540}
			v {342.52252,344.16705,-672.03540}
			v {313.27878,336.33121,-672.03540}
			v {285.01431,347.18085,-672.03540}
			v {268.52521,372.57196,-672.03540}
			v {197.72968,558.45496,-323.05865}
			v {199.96997,601.20111,-323.05865}
			v {199.96997,601.20111,-608.67828}
			v {197.72968,558.45496,-608.67828}
			v {226.90782,634.46680,-323.05865}
			v {226.90782,634.46680,-608.67828}
			v {268.25412,645.54553,-323.05865}
			v {268.25412,645.54553,-608.67828}
			v {308.21576,630.20557,-323.05865}
			v {308.21576,630.20557,-608.67828}
			v {331.52896,594.30640,-323.05865}
			v {331.52896,594.30640,-608.67828}
			v {176.55351,536.00702,-266.00650}
			v {243.32639,553.89880,-173.06064}
			v {228.13925,585.07324,-181.93617}
			v {206.00049,600.92310,-205.17258}
			v {185.36653,595.39429,-233.89444}
			v {174.11880,570.59857,-257.13098}
			v {218.89647,593.93591,-672.03540}
			v {217.31198,563.70203,-672.03540}
			v {237.94940,617.46417,-672.03540}
			v {267.19312,625.30017,-672.03540}
			v {295.45758,614.45032,-672.03540}
			v {311.94669,589.05933,-672.03540}
			v {304.84521,526.64246,-679.75769}
			v {304.84521,612.33496,-679.75769}
			v {219.15295,612.33496,-679.75769}
			v {219.15295,526.64246,-679.75769}
			v {352.65869,346.42029,-679.75769}
			v {352.65869,432.11273,-679.75769}
			v {266.96613,432.11273,-679.75769}
			v {266.96613,346.42029,-679.75769}
			v {78.81361,353.48697,-162.79147}
			v {63.11483,536.11053,-183.06644}
			v {243.23227,544.34619,-274.53491}
			v {258.93115,361.72269,-254.25995}
			v {64.96461,543.52606,-124.49981}
			v {270.62717,551.76172,-228.03891}
			v {80.66341,360.90253,-104.22484}
			v {286.32593,369.13821,-207.76395}
			v {156.69943,244.72321,56.39112}
			v {174.95120,346.07724,-91.73329}
			v {155.67624,153.44547,439.76099}
			v {112.91116,139.71199,359.69070}
			v {103.02670,667.68378,-624.11346}
			v {151.95230,652.31580,-326.68524}
			v {137.98575,649.89264,-264.87311}
			v {159.65683,533.93140,-131.86295}
			v {134.41472,760.26031,-317.17059}
			v {107.98913,733.38104,-198.50175}
			v {106.67180,847.24414,676.32642}
			v {139.16226,905.90204,442.09052}
			v {143.61334,901.57770,220.67781}
			v {127.73309,862.88422,20.76143}
			v {89.73466,752.82080,-578.02734}
			v {58.09481,616.75507,898.09814}
			v {58.09481,678.79059,909.93018}
			v {56.78473,708.09766,894.38904}
			v {80.10081,768.30023,818.27734}
			v {166.15303,644.95801,-70.81238}
			v {202.18941,699.32184,108.42444}
			v {101.46171,700.65765,809.56232}
			v {145.14452,718.94995,698.07263}
			v {215.68001,733.69690,497.07892}
			v {236.96100,715.59686,279.57074}
			v {194.13765,427.93219,104.00934}
			v {101.06425,629.24139,802.46027}
			v {137.76659,630.94080,720.47986}
			v {209.13069,587.67242,574.22437}
			v {247.69626,462.99347,449.89166}
			v {212.63208,565.85815,121.81894}
			v {220.50366,293.78967,404.77411}
		}
		CVertNorms
		{
			numVertNorms 193
			vn {-0.95386,0.09616,0.28442}
			vn {-0.98290,0.10314,-0.15253}
			vn {-0.92236,-0.35406,-0.15457}
			vn {-0.89057,-0.36775,0.26766}
			vn {-0.53809,-0.82859,-0.15457}
			vn {-0.49827,-0.84969,0.17251}
			vn {0.05171,-0.98663,-0.15457}
			vn {0.09296,-0.99528,0.02782}
			vn {0.62176,-0.76781,-0.15457}
			vn {0.63692,-0.76215,-0.11602}
			vn {0.90279,-0.40213,-0.15253}
			vn {0.89653,-0.39713,-0.19629}
			vn {-0.05194,-0.11109,0.99245}
			vn {-0.39075,-0.44893,0.80360}
			vn {-0.04225,-0.82550,0.56281}
			vn {0.41301,-0.86640,0.28066}
			vn {0.77506,-0.62888,0.06159}
			vn {0.93421,-0.33397,0.12538}
			vn {-0.58783,0.06157,-0.80664}
			vn {-0.71310,-0.27373,-0.64541}
			vn {-0.41602,-0.64061,-0.64541}
			vn {0.03998,-0.76279,-0.64541}
			vn {0.48070,-0.59361,-0.64541}
			vn {0.53986,-0.24059,-0.80664}
			vn {0.97498,-0.10434,-0.19629}
			vn {0.98290,-0.10314,-0.15253}
			vn {0.92236,0.35406,-0.15457}
			vn {0.93266,0.34159,-0.11602}
			vn {0.53809,0.82859,-0.15457}
			vn {0.57815,0.81546,0.02782}
			vn {-0.05171,0.98663,-0.15457}
			vn {-0.00667,0.98499,0.17251}
			vn {-0.62176,0.76781,-0.15457}
			vn {-0.58738,0.76377,0.26766}
			vn {-0.90279,0.40213,-0.15253}
			vn {-0.87415,0.39365,0.28442}
			vn {0.97603,-0.17787,0.12538}
			vn {0.98566,0.15709,0.06159}
			vn {0.79088,0.54382,0.28066}
			vn {0.37616,0.73603,0.56281}
			vn {-0.11394,0.58416,0.80360}
			vn {0.01056,0.12218,0.99245}
			vn {0.58783,-0.06157,-0.80664}
			vn {0.71310,0.27374,-0.64541}
			vn {0.41602,0.64061,-0.64541}
			vn {-0.03998,0.76279,-0.64541}
			vn {-0.48070,0.59361,-0.64541}
			vn {-0.53986,0.24059,-0.80664}
			vn {0.00000,0,-1}
			vn {0.24476,-0.79894,-0.54935}
			vn {0.38201,0.60022,-0.70271}
			vn {-0.24299,0.79887,0.55023}
			vn {-0.38027,-0.60028,0.70360}
			vn {-0.65531,-0.67661,-0.33581}
			vn {-0.46767,-0.49231,-0.73411}
			vn {0.00000,-0.55396,-0.83255}
			vn {-0.00000,-0.89594,-0.44417}
			vn {-0.54218,-0.63312,0.55245}
			vn {-0.45013,-0.88489,-0.11980}
			vn {-0.00000,-0.99621,-0.08701}
			vn {0.00000,-0.55303,0.83316}
			vn {0.00000,-0.99902,-0.04426}
			vn {-0.76786,-0.64061,-0.00303}
			vn {-0.77236,-0.13775,-0.62007}
			vn {0.00000,-0.49429,-0.86930}
			vn {-0.76959,-0.58837,-0.24809}
			vn {-0.00000,-0.92937,-0.36916}
			vn {-0.78924,-0.23623,-0.56683}
			vn {0.00000,-0.50308,-0.86424}
			vn {-0.77339,0.62562,-0.10231}
			vn {-0.69918,0.70913,0.09105}
			vn {0.00000,0.99330,0.11555}
			vn {-0.58918,0.79369,0.15139}
			vn {-0.59253,0.70667,0.38668}
			vn {0.00000,0.92582,0.37797}
			vn {0,0.99424,-0.10716}
			vn {-0.59957,0.79362,-0.10336}
			vn {-0.00000,0.93137,-0.36407}
			vn {-0.61245,0.71640,-0.33419}
			vn {-0.00000,0.99072,-0.13590}
			vn {-0.00000,0.99398,0.10960}
			vn {0.00000,0.84759,-0.53065}
			vn {-0.60065,0.67130,-0.43426}
			vn {0.00000,0.15536,0.98786}
			vn {-0.66653,0.12805,0.73440}
			vn {-0.58720,-0.55343,0.59069}
			vn {0.00000,-0.80778,0.58948}
			vn {0,0.63634,0.77141}
			vn {-0.49532,0.52495,0.69216}
			vn {0.00000,0.82072,0.57133}
			vn {-0.60112,0.59494,0.53358}
			vn {-0.97124,0.12521,-0.20251}
			vn {-0.96479,0.17153,-0.19941}
			vn {-0.90997,0.11676,0.39790}
			vn {-0.91446,0.20089,0.35130}
			vn {-0.94187,0.26490,0.20666}
			vn {-0.97327,0.22619,-0.03986}
			vn {-0.97887,-0.14833,-0.14078}
			vn {-0.64628,-0.72927,0.22470}
			vn {-0.65165,-0.66994,0.35571}
			vn {-0.65508,-0.53773,0.53077}
			vn {-0.83658,-0.29978,0.45855}
			vn {-0.98438,-0.02759,-0.17390}
			vn {-0.70307,-0.20212,0.68179}
			vn {-0.00000,-0.00388,0.99999}
			vn {-0.00000,-0.49908,0.86656}
			vn {0.00000,-0.86448,0.50267}
			vn {-0.00000,-0.99213,0.12523}
			vn {-0.00000,-0.99749,-0.07086}
			vn {0.95386,0.09616,0.28442}
			vn {0.89057,-0.36775,0.26766}
			vn {0.92236,-0.35406,-0.15457}
			vn {0.98290,0.10314,-0.15253}
			vn {0.49827,-0.84969,0.17251}
			vn {0.53809,-0.82859,-0.15457}
			vn {-0.09296,-0.99528,0.02782}
			vn {-0.05171,-0.98663,-0.15457}
			vn {-0.63692,-0.76215,-0.11602}
			vn {-0.62176,-0.76781,-0.15457}
			vn {-0.89653,-0.39713,-0.19629}
			vn {-0.90279,-0.40213,-0.15253}
			vn {0.05194,-0.11109,0.99245}
			vn {-0.93421,-0.33397,0.12538}
			vn {-0.77506,-0.62888,0.06159}
			vn {-0.41301,-0.86640,0.28066}
			vn {0.04225,-0.82550,0.56281}
			vn {0.39075,-0.44893,0.80360}
			vn {0.71310,-0.27373,-0.64541}
			vn {0.58783,0.06157,-0.80664}
			vn {0.41602,-0.64061,-0.64541}
			vn {-0.03998,-0.76279,-0.64541}
			vn {-0.48070,-0.59361,-0.64541}
			vn {-0.53986,-0.24059,-0.80664}
			vn {-0.97498,-0.10434,-0.19629}
			vn {-0.93266,0.34159,-0.11602}
			vn {-0.92236,0.35406,-0.15457}
			vn {-0.98290,-0.10314,-0.15253}
			vn {-0.57815,0.81546,0.02782}
			vn {-0.53809,0.82859,-0.15457}
			vn {0.00667,0.98499,0.17251}
			vn {0.05171,0.98663,-0.15457}
			vn {0.58738,0.76377,0.26766}
			vn {0.62176,0.76781,-0.15457}
			vn {0.87415,0.39365,0.28442}
			vn {0.90279,0.40213,-0.15253}
			vn {-0.97603,-0.17787,0.12538}
			vn {-0.01056,0.12218,0.99245}
			vn {0.11394,0.58416,0.80360}
			vn {-0.37616,0.73603,0.56281}
			vn {-0.79088,0.54382,0.28066}
			vn {-0.98566,0.15709,0.06159}
			vn {-0.71310,0.27374,-0.64541}
			vn {-0.58783,-0.06157,-0.80664}
			vn {-0.41602,0.64061,-0.64541}
			vn {0.03998,0.76279,-0.64541}
			vn {0.48070,0.59361,-0.64541}
			vn {0.53986,0.24059,-0.80664}
			vn {-0.24476,-0.79894,-0.54935}
			vn {-0.38201,0.60022,-0.70271}
			vn {0.24299,0.79887,0.55023}
			vn {0.38027,-0.60028,0.70360}
			vn {0.65531,-0.67661,-0.33581}
			vn {0.46767,-0.49231,-0.73411}
			vn {0.54218,-0.63312,0.55245}
			vn {0.45013,-0.88489,-0.11980}
			vn {0.77236,-0.13775,-0.62007}
			vn {0.76786,-0.64061,-0.00303}
			vn {0.76959,-0.58837,-0.24809}
			vn {0.78924,-0.23623,-0.56683}
			vn {0.69918,0.70913,0.09105}
			vn {0.77339,0.62562,-0.10231}
			vn {0.59253,0.70667,0.38668}
			vn {0.58918,0.79369,0.15139}
			vn {0.59957,0.79362,-0.10336}
			vn {0.61245,0.71640,-0.33419}
			vn {0.60065,0.67130,-0.43426}
			vn {0.58720,-0.55343,0.59069}
			vn {0.66653,0.12805,0.73440}
			vn {0.49532,0.52495,0.69216}
			vn {0.60112,0.59494,0.53358}
			vn {0.97124,0.12521,-0.20251}
			vn {0.96479,0.17153,-0.19941}
			vn {0.90997,0.11676,0.39790}
			vn {0.91446,0.20089,0.35130}
			vn {0.94187,0.26490,0.20666}
			vn {0.97327,0.22619,-0.03986}
			vn {0.97887,-0.14833,-0.14078}
			vn {0.64628,-0.72927,0.22470}
			vn {0.65165,-0.66994,0.35571}
			vn {0.65508,-0.53773,0.53077}
			vn {0.83658,-0.29978,0.45855}
			vn {0.98438,-0.02759,-0.17390}
			vn {0.70307,-0.20212,0.68179}
		}
		CVertCols
		{
			numVertCols 291
			col {1,1,1,1}
			col {0.90603,0.90603,0.90603,1}
			col {0.90990,0.90990,0.90990,1}
			col {0.90561,0.90561,0.90561,1}
			col {0.59042,0.59042,0.59042,1}
			col {0.62989,0.62989,0.62989,1}
			col {0.90886,0.90886,0.90886,1}
			col {0.62670,0.62670,0.62670,1}
			col {0.27949,0.27949,0.27949,1}
			col {0.26826,0.26826,0.26826,1}
			col {0.62514,0.62514,0.62514,1}
			col {0.29420,0.29420,0.29420,1}
			col {0.13837,0.13837,0.13837,1}
			col {0.06465,0.06465,0.06465,1}
			col {0.26645,0.26645,0.26645,1}
			col {0.12510,0.12510,0.12510,1}
			col {0.07065,0.07065,0.07065,1}
			col {0.03511,0.03511,0.03511,1}
			col {0.06058,0.06058,0.06058,1}
			col {0.00549,0.00549,0.00549,1}
			col {0.11181,0.11181,0.11181,1}
			col {0.15184,0.15184,0.15184,1}
			col {0.16866,0.16866,0.16866,1}
			col {0.16750,0.16750,0.16750,1}
			col {0.99111,0.99111,0.99111,1}
			col {0.90854,0.90854,0.90854,1}
			col {0.90273,0.90273,0.90273,1}
			col {0.99554,0.99554,0.99554,1}
			col {0.92468,0.92468,0.92468,1}
			col {0.63911,0.63911,0.63911,1}
			col {0.66752,0.66752,0.66752,1}
			col {0.90959,0.90959,0.90959,1}
			col {0.66158,0.66158,0.66158,1}
			col {0.32393,0.32393,0.32393,1}
			col {0.33859,0.33859,0.33859,1}
			col {0.64728,0.64728,0.64728,1}
			col {0.32625,0.32625,0.32625,1}
			col {0.12949,0.12949,0.12949,1}
			col {0.16573,0.16573,0.16573,1}
			col {0.36568,0.36568,0.36568,1}
			col {0.10507,0.10507,0.10507,1}
			col {0.10096,0.10096,0.10096,1}
			col {0.15619,0.15619,0.15619,1}
			col {0.18305,0.18305,0.18305,1}
			col {0.73585,0.73585,0.73585,1}
			col {0.81161,0.81161,0.81161,1}
			col {0.79824,0.79824,0.79824,1}
			col {0.78940,0.78940,0.78940,1}
			col {0.76404,0.76404,0.76404,1}
			col {0.73574,0.73574,0.73574,1}
			col {0.03899,0.03899,0.03899,1}
			col {0.20007,0.20007,0.20007,1}
			col {0.46969,0.46969,0.46969,1}
			col {0.20411,0.20411,0.20411,1}
			col {0.19555,0.19555,0.19555,1}
			col {0.59369,0.59369,0.59369,1}
			col {0.80047,0.80047,0.80047,1}
			col {0.47559,0.47559,0.47559,1}
			col {0.60393,0.60393,0.60393,1}
			col {0.91412,0.91412,0.91412,1}
			col {0.96080,0.96080,0.96080,1}
			col {0.78682,0.78682,0.78682,1}
			col {0.91939,0.91939,0.91939,1}
			col {0.96734,0.96734,0.96734,1}
			col {0.02697,0.02697,0.02697,1}
			col {0.11019,0.11019,0.11019,1}
			col {0.08695,0.08695,0.08695,1}
			col {0.09260,0.09260,0.09260,1}
			col {0.09167,0.09167,0.09167,1}
			col {0.06103,0.06103,0.06103,1}
			col {0.30380,0.30380,0.30380,1}
			col {0.57732,0.57732,0.57732,1}
			col {0.63270,0.63270,0.63270,1}
			col {0.41969,0.41969,0.41969,1}
			col {0.53395,0.53395,0.53395,1}
			col {0.86333,0.86333,0.86333,1}
			col {0.87947,0.87947,0.87947,1}
			col {0.61608,0.61608,0.61608,1}
			col {0.85534,0.85534,0.85534,1}
			col {0.98160,0.98160,0.98160,1}
			col {0.99162,0.99162,0.99162,1}
			col {0.90119,0.90119,0.90119,1}
			col {0.99063,0.99063,0.99063,1}
			col {0.87869,0.87869,0.87869,1}
			col {0.81478,0.81478,0.81478,1}
			col {0.85403,0.85403,0.85403,1}
			col {0.88657,0.88657,0.88657,1}
			col {0.89787,0.89787,0.89787,1}
			col {0.02011,0.02011,0.02011,1}
			col {0.23680,0.23680,0.23680,1}
			col {0.04449,0.04449,0.04449,1}
			col {0.04819,0.04819,0.04819,1}
			col {0.30503,0.30503,0.30503,1}
			col {0.39935,0.39935,0.39935,1}
			col {0.15167,0.15167,0.15167,1}
			col {0.09096,0.09096,0.09096,1}
			col {0.99353,0.99353,0.99353,1}
			col {0.81718,0.81718,0.81718,1}
			col {0.90216,0.90216,0.90216,1}
			col {0.80446,0.80446,0.80446,1}
			col {0.72362,0.72362,0.72362,1}
			col {0.09895,0.09895,0.09895,1}
			col {0.02175,0.02175,0.02175,1}
			col {0.03047,0.03047,0.03047,1}
			col {0.12081,0.12081,0.12081,1}
			col {0.06904,0.06904,0.06904,1}
			col {0.12280,0.12280,0.12280,1}
			col {0.10952,0.10952,0.10952,1}
			col {0.04857,0.04857,0.04857,1}
			col {0.12660,0.12660,0.12660,1}
			col {0.24755,0.24755,0.24755,1}
			col {0.23801,0.23801,0.23801,1}
			col {0.10144,0.10144,0.10144,1}
			col {0.26153,0.26153,0.26153,1}
			col {0.56179,0.56179,0.56179,1}
			col {0.48611,0.48611,0.48611,1}
			col {0.23562,0.23562,0.23562,1}
			col {0.56193,0.56193,0.56193,1}
			col {0.85032,0.85032,0.85032,1}
			col {0.78828,0.78828,0.78828,1}
			col {0.50672,0.50672,0.50672,1}
			col {0.85270,0.85270,0.85270,1}
			col {0.93792,0.93792,0.93792,1}
			col {0.88860,0.88860,0.88860,1}
			col {0.77786,0.77786,0.77786,1}
			col {0.95500,0.95500,0.95500,1}
			col {0.94929,0.94929,0.94929,1}
			col {0.87590,0.87590,0.87590,1}
			col {0.91241,0.91241,0.91241,1}
			col {0.94310,0.94310,0.94310,1}
			col {0.85436,0.85436,0.85436,1}
			col {0.70000,0.70000,0.70000,1}
			col {0.87025,0.87025,0.87025,1}
			col {0.85073,0.85073,0.85073,1}
			col {0.55656,0.55656,0.55656,1}
			col {0.42145,0.42145,0.42145,1}
			col {0.68409,0.68409,0.68409,1}
			col {0.56231,0.56231,0.56231,1}
			col {0.21146,0.21146,0.21146,1}
			col {0.12160,0.12160,0.12160,1}
			col {0.40914,0.40914,0.40914,1}
			col {0.22493,0.22493,0.22493,1}
			col {0.01380,0.01380,0.01380,1}
			col {0.11712,0.11712,0.11712,1}
			col {0.04213,0.04213,0.04213,1}
			col {0.08024,0.08024,0.08024,1}
			col {0.05043,0.05043,0.05043,1}
			col {0.00804,0.00804,0.00804,1}
			col {0.94337,0.94337,0.94337,1}
			col {0.94907,0.94907,0.94907,1}
			col {0.91351,0.91351,0.91351,1}
			col {0.89302,0.89302,0.89302,1}
			col {0.19942,0.19942,0.19942,1}
			col {0.12441,0.12441,0.12441,1}
			col {0.39914,0.39914,0.39914,1}
			col {0.29383,0.29383,0.29383,1}
			col {0.89473,0.89473,0.89473,1}
			col {0.76761,0.76761,0.76761,1}
			col {0.72793,0.72793,0.72793,1}
			col {0.76259,0.76259,0.76259,1}
			col {0.07220,0.07220,0.07220,1}
			col {0.74504,0.74504,0.74504,1}
			col {0.74214,0.74214,0.74214,1}
			col {0.12587,0.12587,0.12587,1}
			col {0.21165,0.21165,0.21165,1}
			col {0.31023,0.31023,0.31023,1}
			col {0.34949,0.34949,0.34949,1}
			col {0.19111,0.19111,0.19111,1}
			col {0.14452,0.14452,0.14452,1}
			col {0.26520,0.26520,0.26520,1}
			col {0.09397,0.09397,0.09397,1}
			col {0.03347,0.03347,0.03347,1}
			col {0.06556,0.06556,0.06556,1}
			col {0.05098,0.05098,0.05098,1}
			col {0.15045,0.15045,0.15045,1}
			col {0.21750,0.21750,0.21750,1}
			col {0.02739,0.02739,0.02739,1}
			col {0.21229,0.21229,0.21229,1}
			col {0.16920,0.16920,0.16920,1}
			col {0.01220,0.01220,0.01220,1}
			col {0.06846,0.06846,0.06846,1}
			col {0.10877,0.10877,0.10877,1}
			col {0.07934,0.07934,0.07934,1}
			col {0.02671,0.02671,0.02671,1}
			col {0.17247,0.17247,0.17247,1}
			col {0.11567,0.11567,0.11567,1}
			col {0.05474,0.05474,0.05474,1}
			col {0.26280,0.26280,0.26280,1}
			col {0.18653,0.18653,0.18653,1}
			col {0.12768,0.12768,0.12768,1}
			col {0.69389,0.69389,0.69389,1}
			col {0.99405,0.99405,0.99405,1}
			col {0.97884,0.97884,0.97884,1}
			col {0.72825,0.72825,0.72825,1}
			col {0.99821,0.99821,0.99821,1}
			col {0.99583,0.99583,0.99583,1}
			col {0.29815,0.29815,0.29815,1}
			col {0.28881,0.28881,0.28881,1}
			col {0.99375,0.99375,0.99375,1}
			col {0.98819,0.98819,0.98819,1}
			col {0.97939,0.97939,0.97939,1}
			col {0.98718,0.98718,0.98718,1}
			col {0.98516,0.98516,0.98516,1}
			col {0.98111,0.98111,0.98111,1}
			col {0.99196,0.99196,0.99196,1}
			col {0.95650,0.95650,0.95650,1}
			col {0.90905,0.90905,0.90905,1}
			col {0.99524,0.99524,0.99524,1}
			col {0.94206,0.94206,0.94206,1}
			col {0.94631,0.94631,0.94631,1}
			col {0.99000,0.99000,0.99000,1}
			col {0.99509,0.99509,0.99509,1}
			col {0.93204,0.93204,0.93204,1}
			col {0.97812,0.97812,0.97812,1}
			col {0.98001,0.98001,0.98001,1}
			col {0.99018,0.99018,0.99018,1}
			col {0.96539,0.96539,0.96539,1}
			col {0.97205,0.97205,0.97205,1}
			col {0.87667,0.87667,0.87667,1}
			col {0.99625,0.99625,0.99625,1}
			col {0,0,0,1}
			col {0.29523,0.29523,0.29523,1}
			col {0.29443,0.29443,0.29443,1}
			col {0.96964,0.96964,0.96964,1}
			col {0.99722,0.99722,0.99722,1}
			col {0.67520,0.67520,0.67520,1}
			col {0.85139,0.85139,0.85139,1}
			col {0.69016,0.69016,0.69016,1}
			col {0.72906,0.72906,0.72906,1}
			col {0.93223,0.93223,0.93223,1}
			col {0.95208,0.95208,0.95208,1}
			col {0.92241,0.92241,0.92241,1}
			col {0.98958,0.98958,0.98958,1}
			col {0.89497,0.89497,0.89497,1}
			col {0.97749,0.97749,0.97749,1}
			col {0.90765,0.90765,0.90765,1}
			col {0.75180,0.75180,0.75180,1}
			col {0.88506,0.88506,0.88506,1}
			col {0.74887,0.74887,0.74887,1}
			col {0.00766,0.00766,0.00766,1}
			col {0.97071,0.97071,0.97071,1}
			col {0.00493,0.00493,0.00493,1}
			col {0.94800,0.94800,0.94800,1}
			col {0.92128,0.92128,0.92128,1}
			col {0.97467,0.97467,0.97467,1}
			col {0.93130,0.93130,0.93130,1}
			col {0.66384,0.66384,0.66384,1}
			col {0.92723,0.92723,0.92723,1}
			col {0.91691,0.91691,0.91691,1}
			col {0.84590,0.84590,0.84590,1}
			col {0.97542,0.97542,0.97542,1}
			col {0.98348,0.98348,0.98348,1}
			col {0.99643,0.99643,0.99643,1}
			col {0.93662,0.93662,0.93662,1}
			col {0.97577,0.97577,0.97577,1}
			col {0.94693,0.94693,0.94693,1}
			col {0.85167,0.85167,0.85167,1}
			col {0.92539,0.92539,0.92539,1}
			col {0.79933,0.79933,0.79933,1}
			col {0.70553,0.70553,0.70553,1}
			col {0.85561,0.85561,0.85561,1}
			col {0.78197,0.78197,0.78197,1}
			col {0.53804,0.53804,0.53804,1}
			col {0.47501,0.47501,0.47501,1}
			col {0.75673,0.75673,0.75673,1}
			col {0.98021,0.98021,0.98021,1}
			col {0.93031,0.93031,0.93031,1}
			col {0.69606,0.69606,0.69606,1}
			col {0.42192,0.42192,0.42192,1}
			col {0.12208,0.12208,0.12208,1}
			col {0.12111,0.12111,0.12111,1}
			col {0.37704,0.37704,0.37704,1}
			col {0.42402,0.42402,0.42402,1}
			col {0.09519,0.09519,0.09519,1}
			col {0.10654,0.10654,0.10654,1}
			col {0.41215,0.41215,0.41215,1}
			col {0.09584,0.09584,0.09584,1}
			col {0.08369,0.08369,0.08369,1}
			col {0.41853,0.41853,0.41853,1}
			col {0.23313,0.23313,0.23313,1}
			col {0.14735,0.14735,0.14735,1}
			col {0.05501,0.05501,0.05501,1}
			col {0.05318,0.05318,0.05318,1}
			col {0.29586,0.29586,0.29586,1}
			col {0.20717,0.20717,0.20717,1}
			col {0.14750,0.14750,0.14750,1}
			col {0.24471,0.24471,0.24471,1}
			col {0.44125,0.44125,0.44125,1}
			col {0.21271,0.21271,0.21271,1}
			col {0.30356,0.30356,0.30356,1}
			col {0.39366,0.39366,0.39366,1}
		}
		CUVs
		{
			setID 0
			numUVs 173
			uv {0.10031,0.80772}
			uv {0.07877,0.80772}
			uv {0.07877,0.95167}
			uv {0.10031,0.95167}
			uv {0.06200,0.80772}
			uv {0.06200,0.95167}
			uv {0.04116,0.80772}
			uv {0.04116,0.95167}
			uv {0.02102,0.80772}
			uv {0.02102,0.95167}
			uv {0.00927,0.80772}
			uv {0.00927,0.95167}
			uv {0.05868,0.18411}
			uv {0.01074,0.19334}
			uv {0.01532,0.20942}
			uv {0.02730,0.21760}
			uv {0.04212,0.21474}
			uv {0.05410,0.20195}
			uv {0.07877,0.98360}
			uv {0.10031,0.98360}
			uv {0.06200,0.98360}
			uv {0.04116,0.98360}
			uv {0.02102,0.98360}
			uv {0.00927,0.98360}
			uv {0.53654,0.16233}
			uv {0.53665,0.06936}
			uv {0.50932,0.07820}
			uv {0.49240,0.10142}
			uv {0.49237,0.13015}
			uv {0.50923,0.15342}
			uv {0.29401,0.80772}
			uv {0.27247,0.80772}
			uv {0.27247,0.95167}
			uv {0.29401,0.95167}
			uv {0.25571,0.80772}
			uv {0.25571,0.95167}
			uv {0.23487,0.80772}
			uv {0.23487,0.95167}
			uv {0.21473,0.80772}
			uv {0.21473,0.95167}
			uv {0.19664,0.80772}
			uv {0.19664,0.95167}
			uv {0.01074,0.11090}
			uv {0.05868,0.10167}
			uv {0.05410,0.08559}
			uv {0.04212,0.07741}
			uv {0.02730,0.08026}
			uv {0.01532,0.09305}
			uv {0.27247,0.98360}
			uv {0.29401,0.98360}
			uv {0.25571,0.98360}
			uv {0.23487,0.98360}
			uv {0.21473,0.98360}
			uv {0.19664,0.98360}
			uv {0.72442,0.06958}
			uv {0.72431,0.16255}
			uv {0.75164,0.15370}
			uv {0.76855,0.13048}
			uv {0.76859,0.10175}
			uv {0.75173,0.07849}
			uv {0.39034,0.95167}
			uv {0.39034,0.80772}
			uv {0.39034,0.98360}
			uv {0.02102,0.76184}
			uv {0.00927,0.76184}
			uv {0.04116,0.76184}
			uv {0.06200,0.76184}
			uv {0.07877,0.76184}
			uv {0.10031,0.76184}
			uv {0.21473,0.76184}
			uv {0.19664,0.76184}
			uv {0.23487,0.76184}
			uv {0.25571,0.76184}
			uv {0.27247,0.76184}
			uv {0.29401,0.76184}
			uv {0.39034,0.76184}
			uv {1,1}
			uv {2,1}
			uv {2,0}
			uv {1,0}
			uv {0.81542,0.71544}
			uv {0.87887,0.72562}
			uv {0.88638,0.66286}
			uv {0.82293,0.65268}
			uv {0.64393,0.20584}
			uv {0.64918,0.18102}
			uv {0.55202,0.20337}
			uv {0.55875,0.22575}
			uv {0.95822,0.67411}
			uv {0.89410,0.66981}
			uv {0.88598,0.74151}
			uv {0.95010,0.74581}
			uv {0.33071,0.07158}
			uv {0.34113,0.09426}
			uv {0.42719,0.09491}
			uv {0.42879,0.07197}
			uv {0.13774,0.49756}
			uv {0.07923,0.49627}
			uv {0.07791,0.55158}
			uv {0.14342,0.55303}
			uv {0.14053,0.35440}
			uv {0.08227,0.35866}
			uv {0.08173,0.38301}
			uv {0.12390,0.38395}
			uv {0.21975,0.74986}
			uv {0.36395,0.75043}
			uv {0.34950,0.70548}
			uv {0.22001,0.68366}
			uv {0.19305,0.68964}
			uv {0.19282,0.74976}
			uv {0.13514,0.67997}
			uv {0.13487,0.74953}
			uv {0.05331,0.67309}
			uv {0.04505,0.74908}
			uv {0.40493,0.78167}
			uv {0.46070,0.77695}
			uv {0.44670,0.71552}
			uv {0.40368,0.74979}
			uv {0.60378,0.38716}
			uv {0.56019,0.26839}
			uv {0.50532,0.26481}
			uv {0.53520,0.38476}
			uv {0.60436,0.50515}
			uv {0.53324,0.49990}
			uv {0.57395,0.60589}
			uv {0.51381,0.60234}
			uv {0.50236,0.71547}
			uv {0.53012,0.77712}
			uv {0.49967,0.92995}
			uv {0.45644,0.90933}
			uv {0.46343,0.97110}
			uv {0.41771,0.93610}
			uv {0.41255,0.11455}
			uv {0.38126,0.12052}
			uv {0.38673,0.14998}
			uv {0.42085,0.14212}
			uv {0.46106,0.14173}
			uv {0.44265,0.12859}
			uv {0.43781,0.15223}
			uv {0.50187,0.18533}
			uv {0.46489,0.19113}
			uv {0.40114,0.64971}
			uv {0.42917,0.55727}
			uv {0.42986,0.19567}
			uv {0.43930,0.25317}
			uv {0.44690,0.35682}
			uv {0.43757,0.46900}
			uv {0.34388,0.68119}
			uv {0.28921,0.55954}
			uv {0.19472,0.58410}
			uv {0.24699,0.66050}
			uv {0.39303,0.19933}
			uv {0.39391,0.24161}
			uv {0.37159,0.31704}
			uv {0.30729,0.38116}
			uv {0.36034,0.55036}
			uv {0.22003,0.40443}
			uv {0.14765,0.38639}
			uv {0.14056,0.42768}
			uv {0.82292,0.74574}
			uv {0.82292,0.83014}
			uv {0.88919,0.83014}
			uv {0.87691,0.76864}
			uv {0.75226,0.73940}
			uv {0.75226,0.83014}
			uv {0.70020,0.75181}
			uv {0.70020,0.83014}
			uv {0.63274,0.77245}
			uv {0.63274,0.83014}
			uv {0.59842,0.78782}
			uv {0.59842,0.83014}
			uv {0.55040,0.83014}
			uv {0.55838,0.80581}
		}
		CSurface
		{
			material "phong1"
			CQuads
			{
				numQuads 176
				q {0,0,0,-1,0} {1,3,1,-1,1} {2,2,2,-1,2} {3,1,3,-1,0}
				q {1,3,1,-1,3} {4,5,4,-1,4} {5,4,5,-1,5} {2,2,2,-1,6}
				q {4,5,4,-1,7} {6,7,6,-1,8} {7,6,7,-1,9} {5,4,5,-1,10}
				q {6,7,6,-1,11} {8,9,8,-1,12} {9,8,9,-1,13} {7,6,7,-1,14}
				q {10,11,10,-1,16} {11,10,11,-1,17} {9,8,9,-1,18} {8,9,8,-1,15}
				q {16,14,16,-1,22} {17,13,17,-1,23} {12,12,12,-1,12} {15,15,15,-1,21}
				q {18,19,18,-1,26} {19,18,19,-1,27} {3,1,3,-1,24} {2,2,2,-1,25}
				q {5,4,5,-1,29} {20,20,20,-1,30} {18,19,18,-1,31} {2,2,2,-1,28}
				q {7,6,7,-1,33} {21,21,21,-1,34} {20,20,20,-1,35} {5,4,5,-1,32}
				q {9,8,9,-1,37} {22,22,22,-1,38} {21,21,21,-1,39} {7,6,7,-1,36}
				q {11,10,11,-1,41} {23,23,23,-1,42} {22,22,22,-1,43} {9,8,9,-1,40}
				q {19,18,25,-1,45} {18,19,26,-1,46} {20,20,27,-1,47} {21,21,28,-1,48}
				q {25,27,31,-1,51} {26,26,32,-1,52} {27,25,33,-1,53} {24,24,30,-1,50}
				q {28,29,34,-1,55} {29,28,35,-1,56} {26,26,32,-1,57} {25,27,31,-1,54}
				q {30,31,36,-1,59} {31,30,37,-1,60} {29,28,35,-1,61} {28,29,34,-1,58}
				q {32,33,38,-1,0} {33,32,39,-1,0} {31,30,37,-1,63} {30,31,36,-1,62}
				q {34,35,40,-1,0} {35,34,41,-1,0} {33,32,39,-1,0} {32,33,38,-1,0}
				q {37,41,43,-1,65} {38,40,44,-1,66} {39,39,45,-1,67} {40,38,46,-1,68}
				q {42,43,48,-1,72} {43,42,49,-1,73} {27,25,33,-1,70} {26,26,32,-1,71}
				q {29,28,35,-1,75} {44,44,50,-1,76} {42,43,48,-1,77} {26,26,32,-1,74}
				q {31,30,37,-1,79} {45,45,51,-1,80} {44,44,50,-1,81} {29,28,35,-1,78}
				q {33,32,39,-1,0} {46,46,52,-1,0} {45,45,51,-1,82} {31,30,37,-1,24}
				q {35,34,41,-1,0} {47,47,53,-1,0} {46,46,52,-1,0} {33,32,39,-1,0}
				q {43,42,55,-1,84} {42,43,56,-1,85} {44,44,57,-1,86} {45,45,58,-1,87}
				q {27,25,33,-1,89} {11,10,60,-1,90} {10,11,61,-1,91} {24,24,30,-1,88}
				q {34,35,40,-1,0} {0,0,0,-1,0} {3,1,3,-1,0} {35,34,41,-1,0}
				q {43,42,49,-1,93} {23,23,62,-1,94} {11,10,60,-1,95} {27,25,33,-1,92}
				q {35,34,41,-1,0} {3,1,3,-1,96} {19,18,19,-1,0} {47,47,53,-1,0}
				q {47,47,54,-1,98} {19,18,25,-1,99} {23,23,24,-1,100} {43,42,55,-1,97}
				q {36,36,42,-1,102} {13,17,13,-1,103} {12,12,12,-1,104} {37,41,43,-1,101}
				q {14,16,63,-1,107} {13,17,64,-1,108} {10,11,10,-1,105} {8,9,8,-1,106}
				q {15,15,65,-1,111} {14,16,63,-1,112} {8,9,8,-1,109} {6,7,6,-1,110}
				q {16,14,66,-1,115} {15,15,65,-1,116} {6,7,6,-1,113} {4,5,4,-1,114}
				q {17,13,67,-1,119} {16,14,66,-1,120} {4,5,4,-1,117} {1,3,1,-1,118}
				q {17,13,67,-1,124} {1,3,1,-1,121} {0,0,0,-1,122} {12,12,68,-1,123}
				q {34,35,40,-1,125} {32,33,38,-1,126} {38,40,69,-1,127} {37,41,70,-1,128}
				q {30,31,36,-1,130} {39,39,71,-1,131} {38,40,69,-1,132} {32,33,38,-1,129}
				q {28,29,34,-1,134} {40,38,72,-1,135} {39,39,71,-1,136} {30,31,36,-1,133}
				q {25,27,31,-1,138} {41,37,73,-1,139} {40,38,72,-1,140} {28,29,34,-1,137}
				q {24,24,30,-1,69} {36,36,74,-1,142} {41,37,73,-1,143} {25,27,31,-1,141}
				q {10,11,61,-1,145} {13,17,75,-1,146} {36,36,74,-1,147} {24,24,30,-1,144}
				q {34,35,40,-1,149} {37,41,70,-1,150} {12,12,68,-1,151} {0,0,0,-1,148}
				q {57,50,81,-1,153} {58,50,82,-1,154} {59,49,83,-1,155} {56,49,80,-1,152}
				q {61,51,86,-1,157} {58,50,87,-1,158} {57,50,84,-1,107} {60,51,85,-1,156}
				q {60,51,88,-1,159} {62,52,89,-1,160} {63,52,90,-1,161} {61,51,91,-1,162}
				q {56,49,93,-1,164} {59,49,94,-1,165} {63,52,95,-1,166} {62,52,92,-1,163}
				q {67,54,99,-1,169} {64,53,96,-1,167} {65,56,97,-1,168} {66,55,98,-1,43}
				q {70,59,102,-1,171} {71,58,103,-1,172} {68,57,100,-1,170} {69,60,101,-1,144}
				q {71,58,103,-1,160} {70,59,102,-1,173} {65,56,97,-1,174} {64,53,96,-1,175}
				q {73,64,105,-1,177} {74,63,106,-1,178} {75,62,107,-1,179} {72,61,104,-1,176}
				q {76,65,108,-1,180} {77,66,109,-1,181} {72,61,104,-1,182} {75,62,107,-1,183}
				q {79,68,111,-1,184} {77,66,109,-1,185} {76,65,108,-1,186} {78,67,110,-1,95}
				q {79,68,111,-1,189} {78,67,110,-1,95} {67,54,112,-1,187} {66,55,113,-1,188}
				q {81,69,116,-1,192} {76,65,117,-1,193} {75,62,114,-1,190} {80,70,115,-1,191}
				q {83,74,119,-1,0} {84,73,120,-1,195} {85,72,121,-1,196} {82,71,118,-1,194}
				q {86,75,122,-1,0} {82,71,118,-1,0} {85,72,121,-1,197} {87,76,123,-1,198}
				q {87,76,123,-1,0} {89,78,125,-1,0} {88,77,124,-1,0} {86,75,122,-1,0}
				q {89,78,125,-1,0} {81,69,116,-1,200} {90,79,126,-1,199} {88,77,124,-1,0}
				q {90,79,126,-1,202} {81,69,116,-1,203} {80,70,115,-1,204} {91,80,127,-1,201}
				q {91,80,127,-1,0} {80,70,115,-1,194} {93,82,129,-1,0} {92,81,128,-1,0}
				q {92,81,128,-1,0} {93,82,129,-1,96} {74,63,131,-1,206} {73,64,130,-1,205}
				q {94,83,132,-1,207} {95,86,133,-1,208} {96,85,134,-1,209} {97,84,135,-1,24}
				q {94,83,137,-1,0} {97,84,135,-1,210} {99,88,138,-1,0} {98,87,136,-1,0}
				q {100,89,139,-1,0} {98,87,136,-1,0} {99,88,138,-1,0} {101,90,140,-1,0}
				q {100,89,139,-1,0} {101,90,140,-1,0} {84,73,120,-1,211} {83,74,119,-1,0}
				q {103,92,142,-1,214} {102,91,141,-1,212} {81,69,116,-1,213} {89,78,125,-1,0}
				q {104,93,143,-1,216} {101,90,140,-1,0} {99,88,138,-1,0} {97,84,135,-1,215}
				q {101,90,140,-1,0} {104,93,143,-1,217} {105,94,144,-1,218} {84,73,120,-1,219}
				q {84,73,120,-1,198} {105,94,144,-1,87} {106,95,145,-1,220} {85,72,121,-1,221}
				q {87,76,123,-1,224} {85,72,121,-1,222} {106,95,145,-1,220} {107,96,146,-1,223}
				q {64,53,149,-1,227} {67,54,150,-1,228} {78,67,147,-1,225} {108,97,148,-1,226}
				q {74,63,131,-1,229} {93,82,129,-1,0} {80,70,115,-1,0} {75,62,114,-1,227}
				q {96,85,134,-1,230} {109,98,151,-1,231} {104,93,143,-1,232} {97,84,135,-1,215}
				q {104,93,143,-1,234} {109,98,151,-1,235} {110,99,152,-1,236} {105,94,144,-1,233}
				q {105,94,144,-1,237} {110,99,152,-1,238} {111,100,153,-1,239} {106,95,145,-1,220}
				q {106,95,145,-1,220} {111,100,153,-1,241} {112,101,154,-1,242} {107,96,146,-1,240}
				q {102,91,141,-1,247} {113,102,155,-1,248} {108,97,148,-1,249} {78,67,147,-1,246}
				q {107,96,146,-1,250} {103,92,142,-1,251} {89,78,125,-1,252} {87,76,123,-1,0}
				q {113,102,155,-1,253} {103,92,142,-1,254} {107,96,146,-1,240} {112,101,154,-1,255}
				q {112,101,154,-1,208} {114,103,156,-1,258} {108,97,148,-1,256} {113,102,155,-1,257}
				q {108,97,148,-1,260} {114,103,156,-1,261} {68,57,157,-1,262} {71,58,158,-1,263}
				q {76,65,117,-1,264} {81,69,116,-1,265} {102,91,141,-1,266} {78,67,147,-1,267}
				q {69,60,161,-1,270} {68,57,162,-1,271} {114,103,159,-1,268} {115,104,160,-1,269}
				q {116,105,164,-1,273} {115,104,160,-1,274} {114,103,159,-1,275} {112,101,163,-1,272}
				q {111,100,165,-1,146} {117,106,166,-1,276} {116,105,164,-1,277} {112,101,163,-1,278}
				q {110,99,167,-1,279} {118,107,168,-1,280} {117,106,166,-1,281} {111,100,165,-1,282}
				q {109,98,169,-1,283} {119,108,170,-1,284} {118,107,168,-1,285} {110,99,167,-1,286}
				q {109,98,169,-1,289} {96,85,172,-1,290} {95,86,171,-1,287} {119,108,170,-1,288}
				q {120,109,0,-1,0} {123,112,3,-1,0} {122,111,2,-1,2} {121,110,1,-1,1}
				q {121,110,1,-1,3} {122,111,2,-1,6} {125,114,5,-1,5} {124,113,4,-1,4}
				q {124,113,4,-1,7} {125,114,5,-1,10} {127,116,7,-1,9} {126,115,6,-1,8}
				q {126,115,6,-1,11} {127,116,7,-1,14} {129,118,9,-1,13} {128,117,8,-1,12}
				q {129,118,9,-1,18} {131,120,11,-1,17} {130,119,10,-1,16} {128,117,8,-1,15}
				q {132,121,12,-1,12} {137,126,17,-1,23} {136,125,16,-1,22} {135,124,15,-1,21}
				q {123,112,3,-1,24} {139,128,19,-1,27} {138,127,18,-1,26} {122,111,2,-1,25}
				q {138,127,18,-1,31} {140,129,20,-1,30} {125,114,5,-1,29} {122,111,2,-1,28}
				q {140,129,20,-1,35} {141,130,21,-1,34} {127,116,7,-1,33} {125,114,5,-1,32}
				q {141,130,21,-1,39} {142,131,22,-1,38} {129,118,9,-1,37} {127,116,7,-1,36}
				q {142,131,22,-1,43} {143,132,23,-1,42} {131,120,11,-1,41} {129,118,9,-1,40}
				q {140,129,27,-1,47} {138,127,26,-1,46} {139,128,25,-1,45} {141,130,28,-1,48}
				q {147,136,33,-1,53} {146,135,32,-1,52} {145,134,31,-1,51} {144,133,30,-1,50}
				q {146,135,32,-1,57} {149,138,35,-1,56} {148,137,34,-1,55} {145,134,31,-1,54}
				q {149,138,35,-1,61} {151,140,37,-1,60} {150,139,36,-1,59} {148,137,34,-1,58}
				q {151,140,37,-1,63} {153,142,39,-1,0} {152,141,38,-1,0} {150,139,36,-1,62}
				q {153,142,39,-1,0} {155,144,41,-1,0} {154,143,40,-1,0} {152,141,38,-1,0}
				q {159,148,45,-1,67} {158,147,44,-1,66} {157,146,43,-1,65} {160,149,46,-1,68}
				q {147,136,33,-1,70} {163,152,49,-1,73} {162,151,48,-1,72} {146,135,32,-1,71}
				q {162,151,48,-1,77} {164,153,50,-1,76} {149,138,35,-1,75} {146,135,32,-1,74}
				q {164,153,50,-1,81} {165,154,51,-1,80} {151,140,37,-1,79} {149,138,35,-1,78}
				q {165,154,51,-1,82} {166,155,52,-1,0} {153,142,39,-1,0} {151,140,37,-1,24}
				q {166,155,52,-1,0} {167,156,53,-1,0} {155,144,41,-1,0} {153,142,39,-1,0}
				q {164,153,57,-1,86} {162,151,56,-1,85} {163,152,55,-1,84} {165,154,58,-1,87}
				q {130,119,61,-1,91} {131,120,60,-1,90} {147,136,33,-1,89} {144,133,30,-1,88}
				q {123,112,3,-1,0} {120,109,0,-1,0} {154,143,40,-1,0} {155,144,41,-1,0}
				q {131,120,60,-1,95} {143,132,62,-1,94} {163,152,49,-1,93} {147,136,33,-1,92}
				q {139,128,19,-1,0} {123,112,3,-1,96} {155,144,41,-1,0} {167,156,53,-1,0}
				q {143,132,24,-1,100} {139,128,25,-1,99} {167,156,54,-1,98} {163,152,55,-1,97}
				q {132,121,12,-1,104} {133,122,13,-1,103} {156,145,42,-1,102} {157,146,43,-1,101}
				q {130,119,10,-1,105} {133,122,64,-1,108} {134,123,63,-1,107} {128,117,8,-1,106}
				q {128,117,8,-1,109} {134,123,63,-1,112} {135,124,65,-1,111} {126,115,6,-1,110}
				q {126,115,6,-1,113} {135,124,65,-1,116} {136,125,66,-1,115} {124,113,4,-1,114}
				q {124,113,4,-1,117} {136,125,66,-1,120} {137,126,67,-1,119} {121,110,1,-1,118}
				q {120,109,0,-1,122} {121,110,1,-1,121} {137,126,67,-1,124} {132,121,68,-1,123}
				q {158,147,69,-1,127} {152,141,38,-1,126} {154,143,40,-1,125} {157,146,70,-1,128}
				q {158,147,69,-1,132} {159,148,71,-1,131} {150,139,36,-1,130} {152,141,38,-1,129}
				q {159,148,71,-1,136} {160,149,72,-1,135} {148,137,34,-1,134} {150,139,36,-1,133}
				q {160,149,72,-1,140} {161,150,73,-1,139} {145,134,31,-1,138} {148,137,34,-1,137}
				q {161,150,73,-1,143} {156,145,74,-1,142} {144,133,30,-1,69} {145,134,31,-1,141}
				q {156,145,74,-1,147} {133,122,75,-1,146} {130,119,61,-1,145} {144,133,30,-1,144}
				q {132,121,68,-1,151} {157,146,70,-1,150} {154,143,40,-1,149} {120,109,0,-1,148}
				q {179,157,83,-1,155} {178,158,82,-1,154} {177,158,81,-1,153} {176,157,80,-1,152}
				q {177,158,84,-1,107} {178,158,87,-1,158} {181,159,86,-1,157} {180,159,85,-1,156}
				q {180,159,88,-1,159} {181,159,91,-1,162} {183,160,90,-1,161} {182,160,89,-1,160}
				q {183,160,95,-1,166} {179,157,94,-1,165} {176,157,93,-1,164} {182,160,92,-1,163}
				q {65,56,97,-1,168} {184,161,96,-1,167} {185,162,99,-1,169} {66,55,98,-1,43}
				q {186,163,100,-1,170} {187,164,103,-1,172} {70,59,102,-1,171} {69,60,101,-1,144}
				q {65,56,97,-1,174} {70,59,102,-1,173} {187,164,103,-1,160} {184,161,96,-1,175}
				q {189,166,107,-1,179} {188,165,106,-1,178} {73,64,105,-1,177} {72,61,104,-1,176}
				q {72,61,104,-1,182} {77,66,109,-1,181} {190,167,108,-1,180} {189,166,107,-1,183}
				q {190,167,108,-1,186} {77,66,109,-1,185} {79,68,111,-1,184} {191,168,110,-1,95}
				q {185,162,112,-1,187} {191,168,110,-1,95} {79,68,111,-1,189} {66,55,113,-1,188}
				q {189,166,114,-1,190} {190,167,117,-1,193} {193,170,116,-1,192} {192,169,115,-1,191}
				q {195,172,121,-1,196} {194,171,120,-1,195} {83,74,119,-1,0} {82,71,118,-1,194}
				q {86,75,122,-1,0} {196,173,123,-1,198} {195,172,121,-1,197} {82,71,118,-1,0}
				q {88,77,124,-1,0} {197,174,125,-1,0} {196,173,123,-1,0} {86,75,122,-1,0}
				q {90,79,126,-1,199} {193,170,116,-1,200} {197,174,125,-1,0} {88,77,124,-1,0}
				q {192,169,115,-1,204} {193,170,116,-1,203} {90,79,126,-1,202} {91,80,127,-1,201}
				q {198,175,129,-1,0} {192,169,115,-1,194} {91,80,127,-1,0} {92,81,128,-1,0}
				q {188,165,131,-1,206} {198,175,129,-1,96} {92,81,128,-1,0} {73,64,130,-1,205}
				q {94,83,132,-1,207} {200,177,135,-1,24} {199,176,134,-1,209} {95,86,133,-1,208}
				q {201,178,138,-1,0} {200,177,135,-1,210} {94,83,137,-1,0} {98,87,136,-1,0}
				q {100,89,139,-1,0} {202,179,140,-1,0} {201,178,138,-1,0} {98,87,136,-1,0}
				q {194,171,120,-1,211} {202,179,140,-1,0} {100,89,139,-1,0} {83,74,119,-1,0}
				q {193,170,116,-1,213} {203,180,141,-1,212} {204,181,142,-1,214} {197,174,125,-1,0}
				q {201,178,138,-1,0} {202,179,140,-1,0} {205,182,143,-1,216} {200,177,135,-1,215}
				q {206,183,144,-1,218} {205,182,143,-1,217} {202,179,140,-1,0} {194,171,120,-1,219}
				q {207,184,145,-1,220} {206,183,144,-1,87} {194,171,120,-1,198} {195,172,121,-1,221}
				q {207,184,145,-1,220} {195,172,121,-1,222} {196,173,123,-1,224} {208,185,146,-1,223}
				q {191,168,147,-1,225} {185,162,150,-1,228} {184,161,149,-1,227} {209,186,148,-1,226}
				q {192,169,115,-1,0} {198,175,129,-1,0} {188,165,131,-1,229} {189,166,114,-1,227}
				q {205,182,143,-1,232} {210,187,151,-1,231} {199,176,134,-1,230} {200,177,135,-1,215}
				q {211,188,152,-1,236} {210,187,151,-1,235} {205,182,143,-1,234} {206,183,144,-1,233}
				q {212,189,153,-1,239} {211,188,152,-1,238} {206,183,144,-1,237} {207,184,145,-1,220}
				q {213,190,154,-1,242} {212,189,153,-1,241} {207,184,145,-1,220} {208,185,146,-1,240}
				q {209,186,148,-1,249} {214,191,155,-1,248} {203,180,141,-1,247} {191,168,147,-1,246}
				q {197,174,125,-1,252} {204,181,142,-1,251} {208,185,146,-1,250} {196,173,123,-1,0}
				q {208,185,146,-1,240} {204,181,142,-1,254} {214,191,155,-1,253} {213,190,154,-1,255}
				q {209,186,148,-1,256} {215,192,156,-1,258} {213,190,154,-1,208} {214,191,155,-1,257}
				q {186,163,157,-1,262} {215,192,156,-1,261} {209,186,148,-1,260} {187,164,158,-1,263}
				q {203,180,141,-1,266} {193,170,116,-1,265} {190,167,117,-1,264} {191,168,147,-1,267}
				q {215,192,159,-1,268} {186,163,162,-1,271} {69,60,161,-1,270} {115,104,160,-1,269}
				q {215,192,159,-1,275} {115,104,160,-1,274} {116,105,164,-1,273} {213,190,163,-1,272}
				q {116,105,164,-1,277} {117,106,166,-1,276} {212,189,165,-1,146} {213,190,163,-1,278}
				q {117,106,166,-1,281} {118,107,168,-1,280} {211,188,167,-1,279} {212,189,165,-1,282}
				q {118,107,168,-1,285} {119,108,170,-1,284} {210,187,169,-1,283} {211,188,167,-1,286}
				q {95,86,171,-1,287} {199,176,172,-1,290} {210,187,169,-1,289} {119,108,170,-1,288}
			}
			CTris
			{
				numTris 20
				t {14,16,14,-1,20} {12,12,12,-1,12} {13,17,13,-1,19}
				t {15,15,15,-1,21} {12,12,12,-1,12} {14,16,14,-1,20}
				t {19,18,25,-1,45} {22,22,29,-1,49} {23,23,24,-1,44}
				t {19,18,25,-1,45} {21,21,28,-1,48} {22,22,29,-1,49}
				t {37,41,43,-1,65} {41,37,47,-1,69} {36,36,42,-1,64}
				t {37,41,43,-1,65} {40,38,46,-1,68} {41,37,47,-1,69}
				t {43,42,55,-1,84} {46,46,59,-1,86} {47,47,54,-1,83}
				t {43,42,55,-1,84} {45,45,58,-1,87} {46,46,59,-1,86}
				t {103,92,142,-1,244} {113,102,155,-1,245} {102,91,141,-1,243}
				t {108,97,148,-1,260} {71,58,158,-1,263} {64,53,149,-1,259}
				t {132,121,12,-1,12} {134,123,14,-1,20} {133,122,13,-1,19}
				t {132,121,12,-1,12} {135,124,15,-1,21} {134,123,14,-1,20}
				t {142,131,29,-1,49} {139,128,25,-1,45} {143,132,24,-1,44}
				t {141,130,28,-1,48} {139,128,25,-1,45} {142,131,29,-1,49}
				t {161,150,47,-1,69} {157,146,43,-1,65} {156,145,42,-1,64}
				t {160,149,46,-1,68} {157,146,43,-1,65} {161,150,47,-1,69}
				t {166,155,59,-1,86} {163,152,55,-1,84} {167,156,54,-1,83}
				t {165,154,58,-1,87} {163,152,55,-1,84} {166,155,59,-1,86}
				t {214,191,155,-1,245} {204,181,142,-1,244} {203,180,141,-1,243}
				t {187,164,158,-1,263} {209,186,148,-1,260} {184,161,149,-1,259}
			}
		}
		CSurface
		{
			material "phong11"
			CQuads
			{
				numQuads 4
				q {51,48,77,-1,0} {50,48,78,-1,0} {49,48,79,-1,0} {48,48,76,-1,0}
				q {55,48,77,-1,0} {54,48,78,-1,0} {53,48,79,-1,0} {52,48,76,-1,0}
				q {169,48,79,-1,0} {170,48,78,-1,0} {171,48,77,-1,0} {168,48,76,-1,0}
				q {173,48,79,-1,0} {174,48,78,-1,0} {175,48,77,-1,0} {172,48,76,-1,0}
			}
		}
		CIwModelExtSelSetFace
		{
			name "sortForward"
			otzOfs -1

			f 0
			f 1
			f 2
			f 3
			f 4
			f 176
			f 177
			f 5
			f 13
			f 14
			f 15
			f 16
			f 24
			f 25
			f 29
			f 30
			f 31
			f 32
			f 33
			f 34
			f 35
			f 36
			f 37
			f 38
			f 40
			f 41
			f 42
			f 43
			f 44
			f 45
			f 53
			f 59
			f 60
			f 70
			f 71
			f 76
			f 81
			f 88
			f 89
			f 90
			f 91
			f 92
			f 186
			f 187
			f 93
			f 94
			f 95
			f 96
			f 102
			f 103
			f 104
			f 109
			f 110
			f 113
			f 115
			f 117
			f 118
			f 119
			f 120
			f 121
			f 122
			f 123
			f 124
			f 125
			f 129
			f 131
			f 132
			f 133
			f 141
			f 147
			f 148
			f 158
			f 159
			f 164
			f 169
		}
		CIwModelExtSelSetFace
		{
			name "sortBackward"
			otzOfs 1

			f 68
			f 69
			f 156
			f 157
		}
	}
}
