// Source file: C:/dev/sdk/main/sdk_examples/ArtAssets/OpenGLES/maya7/bike.mb
CIwModel
{
	name "extrudedSurface2"
	CMesh
	{
		name "extrudedSurface2"
		scale 1.0
		CVerts
		{
			numVerts 126
			v {-19.46283,31.89138,-72.91105}
			v {-25.07583,31.77535,-72.71199}
			v {-25.30503,28.51522,-67.06538}
			v {-25.30402,23.38320,-58.20065}
			v {-25.30356,21.05266,-56.24236}
			v {-25.30308,18.59412,-54.54961}
			v {-25.30226,14.46075,-53.86084}
			v {-25.30104,8.28574,-55.60817}
			v {-25.30031,4.56237,-58.30525}
			v {-25.29940,-0.03455,-65.27831}
			v {-25.29925,-0.81080,-71.96041}
			v {-25.29925,-0.81204,-72.51445}
			v {-25.29925,-0.78248,-91.77147}
			v {-25.28290,-0.77499,-98.96613}
			v {-24.68875,-0.77590,-100.14572}
			v {-22.08941,-0.78110,-100.72795}
			v {-18.49438,-0.78361,-100.78359}
			v {-0.00000,-0.78361,-100.78362}
			v {-19.46273,31.37406,-73.58319}
			v {-25.30442,31.21062,-73.30210}
			v {-25.62834,27.83612,-67.45742}
			v {-25.62734,22.78326,-58.70556}
			v {-25.62690,20.57676,-56.86555}
			v {-25.62645,18.29804,-55.27568}
			v {-25.62571,14.50449,-54.64370}
			v {-25.62455,8.62800,-56.31359}
			v {-25.62386,5.12848,-58.84769}
			v {-25.62298,0.70240,-65.54590}
			v {-25.62284,-0.02802,-72.00454}
			v {-25.62284,-0.02802,-72.51385}
			v {-25.62284,0.00154,-91.77046}
			v {-25.59962,0.00908,-99.03185}
			v {-24.88992,0.00801,-100.39951}
			v {-22.12105,0.00254,-101.05093}
			v {-18.49649,0.00000,-101.10816}
			v {0.00000,0.00000,-101.10819}
			v {-19.46257,30.53298,-73.69267}
			v {-25.07394,30.41728,-73.49420}
			v {-25.30247,27.15797,-67.84899}
			v {-25.30149,22.18417,-59.20987}
			v {-25.30108,20.10155,-57.48798}
			v {-25.30067,18.00245,-56.00086}
			v {-25.29999,14.54830,-55.42561}
			v {-25.29889,8.96997,-57.01814}
			v {-25.29824,5.69403,-59.38947}
			v {-25.29740,1.43858,-65.81316}
			v {-25.29727,0.75394,-72.04861}
			v {-25.29727,0.75518,-72.51324}
			v {-25.29727,0.78474,-91.76945}
			v {-25.28079,0.79223,-98.96538}
			v {-24.68596,0.79132,-100.14606}
			v {-22.08726,0.78613,-100.72804}
			v {-18.49384,0.78361,-100.78359}
			v {0.00000,0.78361,-100.78362}
			v {-19.46243,29.86083,-73.17535}
			v {-24.51940,29.86007,-73.17577}
			v {-24.51834,26.87802,-68.01071}
			v {-24.51736,21.93688,-59.41814}
			v {-24.51696,19.90542,-57.74505}
			v {-24.51656,17.88050,-56.30036}
			v {-24.51591,14.56653,-55.74854}
			v {-24.51483,9.11133,-57.30913}
			v {-24.51420,5.92773,-59.61322}
			v {-24.51338,1.74276,-65.92354}
			v {-24.51324,1.07702,-72.06682}
			v {-24.51324,1.07877,-72.51300}
			v {-24.51325,1.10833,-91.76903}
			v {-24.51316,1.11570,-98.80563}
			v {-24.19636,1.11517,-99.53385}
			v {-22.00784,1.11064,-99.94843}
			v {-18.48798,1.10819,-100}
			v {-0.00000,1.10819,-100}
			v {-19.46241,29.75135,-72.33427}
			v {-23.96564,29.86539,-72.53333}
			v {-23.73525,27.16026,-67.84785}
			v {-23.73427,22.18624,-59.20839}
			v {-23.73386,20.10325,-57.48616}
			v {-23.73345,18.00363,-55.99874}
			v {-23.73277,14.54848,-55.42332}
			v {-23.73166,8.96928,-57.01608}
			v {-23.73102,5.69269,-59.38788}
			v {-23.73018,1.43674,-65.81238}
			v {-23.73005,0.75196,-72.04849}
			v {-23.73005,0.75320,-72.51324}
			v {-23.73005,0.78276,-91.76945}
			v {-23.74641,0.79001,-98.64620}
			v {-23.70791,0.78986,-98.92149}
			v {-21.92930,0.78600,-99.16880}
			v {-18.48235,0.78361,-99.21641}
			v {0.00000,0.78361,-99.21638}
			v {-19.46268,31.10975,-71.55265}
			v {-23.96752,31.22345,-71.75112}
			v {-23.73781,28.51752,-67.06424}
			v {-23.73680,23.38526,-58.19917}
			v {-23.73634,21.05436,-56.24054}
			v {-23.73585,18.59529,-54.54749}
			v {-23.73504,14.46093,-53.85855}
			v {-23.73382,8.28505,-55.60611}
			v {-23.73309,4.56102,-58.30367}
			v {-23.73218,-0.03639,-65.27753}
			v {-23.73203,-0.81278,-71.96029}
			v {-23.73203,-0.81402,-72.51445}
			v {-23.73203,-0.78446,-91.77148}
			v {-23.74852,-0.77721,-98.64695}
			v {-23.71070,-0.77737,-98.92113}
			v {-21.93145,-0.78122,-99.16871}
			v {-18.48289,-0.78361,-99.21641}
			v {-0.00000,-0.78361,-99.21638}
			v {-19.46281,31.78190,-72.06997}
			v {-24.52207,31.78066,-72.06956}
			v {-24.52195,28.79747,-66.90252}
			v {-24.52093,23.63255,-57.99089}
			v {-24.52046,21.25049,-55.98347}
			v {-24.51996,18.71725,-54.24799}
			v {-24.51912,14.44271,-53.53562}
			v {-24.51788,8.14369,-55.31513}
			v {-24.51712,4.32732,-58.07991}
			v {-24.51620,-0.34057,-65.16715}
			v {-24.51605,-1.13586,-71.94209}
			v {-24.51605,-1.13761,-72.51470}
			v {-24.51605,-1.10806,-91.77189}
			v {-24.51615,-1.10068,-98.80669}
			v {-24.20030,-1.10121,-99.53336}
			v {-22.01087,-1.10574,-99.94831}
			v {-18.48875,-1.10819,-100}
			v {0.00000,-1.10819,-100}
		}
		CVertNorms
		{
			numVertNorms 126
			vn {0.02984,0.95063,-0.30888}
			vn {0.44827,0.89390,0.00182}
			vn {0.70959,0.35066,-0.61116}
			vn {0.04842,0.49827,-0.86567}
			vn {0.72527,0.60229,0.33351}
			vn {0.99978,0.00906,-0.01884}
			vn {0.71163,0.53801,0.45181}
			vn {1.00000,-0.00107,-0.00111}
			vn {0.70608,0.42895,0.56342}
			vn {1.00000,-0.00139,-0.00110}
			vn {0.71208,0.26264,0.65112}
			vn {1.00000,-0.00134,-0.00098}
			vn {0.71119,-0.03888,0.70192}
			vn {1.00000,0.00001,-0.00142}
			vn {0.70908,-0.30758,0.63451}
			vn {1.00000,0.00054,-0.00129}
			vn {0.70908,-0.50962,0.48733}
			vn {1.00000,0.00078,-0.00112}
			vn {0.71314,-0.65864,0.24004}
			vn {1.00000,0.00115,-0.00027}
			vn {0.70666,-0.70631,0.04176}
			vn {1.00000,0.00134,0.00050}
			vn {0.70791,-0.70630,0.00024}
			vn {1.00000,0.00127,0.00025}
			vn {0.70929,-0.70491,-0.00171}
			vn {1.00000,0.00128,-0.00137}
			vn {0.68843,-0.70617,-0.16551}
			vn {0.97162,0.00141,-0.23655}
			vn {0.42387,-0.72684,-0.54041}
			vn {0.61475,0.00091,-0.78872}
			vn {0.08522,-0.70158,-0.70747}
			vn {0.12084,0.00010,-0.99267}
			vn {0.00572,-0.70688,-0.70731}
			vn {0.00782,-0.00001,-0.99997}
			vn {0.00000,-0.70710,-0.70711}
			vn {0.00000,0.00000,-1}
			vn {0.44641,-0.45103,-0.77285}
			vn {0.02950,-0.21068,-0.97711}
			vn {0.72300,-0.59207,-0.35598}
			vn {0.70960,-0.53843,-0.45449}
			vn {0.70349,-0.43223,-0.56416}
			vn {0.71033,-0.26789,-0.65089}
			vn {0.70924,0.03956,-0.70386}
			vn {0.70705,0.30888,-0.63614}
			vn {0.70715,0.51026,-0.48946}
			vn {0.71165,0.66052,-0.23931}
			vn {0.70479,0.70841,-0.03792}
			vn {0.70611,0.70811,0.00150}
			vn {0.70750,0.70671,0.00010}
			vn {0.68650,0.70820,-0.16481}
			vn {0.42133,0.72812,-0.54066}
			vn {0.08333,0.70168,-0.70760}
			vn {0.00522,0.70688,-0.70731}
			vn {0.00000,0.70710,-0.70711}
			vn {0.00298,-0.86501,-0.50175}
			vn {0.01089,-0.86863,-0.49535}
			vn {-0.00325,-0.86408,-0.50335}
			vn {-0.00163,-0.76387,-0.64537}
			vn {-0.00157,-0.60833,-0.79368}
			vn {-0.00155,-0.38141,-0.92440}
			vn {-0.00146,0.05657,-0.99840}
			vn {-0.00138,0.43711,-0.89941}
			vn {-0.00132,0.72157,-0.69234}
			vn {-0.00130,0.94035,-0.34019}
			vn {-0.00126,0.99861,-0.05272}
			vn {-0.00126,1.00000,0.00241}
			vn {-0.00128,1.00000,0.00105}
			vn {-0.00732,0.99992,-0.00996}
			vn {-0.00352,0.99995,-0.00885}
			vn {0.00289,0.99999,0.00143}
			vn {-0.00026,1,0.00000}
			vn {0.00000,1,0.00000}
			vn {-0.51968,-0.84650,0.11562}
			vn {0.03608,-0.88142,0.47095}
			vn {-0.84046,-0.46162,-0.28379}
			vn {-0.83567,-0.41947,-0.35454}
			vn {-0.83143,-0.33790,-0.44108}
			vn {-0.83703,-0.20856,-0.50585}
			vn {-0.83640,0.03117,-0.54723}
			vn {-0.83438,0.24107,-0.49568}
			vn {-0.83449,0.39769,-0.38142}
			vn {-0.83764,0.51366,-0.18577}
			vn {-0.83179,0.55431,-0.02925}
			vn {-0.83213,0.55458,0.00134}
			vn {-0.83270,0.55373,-0.00014}
			vn {-0.83117,0.54995,0.08191}
			vn {-0.54028,0.62166,0.56713}
			vn {-0.06784,0.55124,0.83159}
			vn {-0.00599,0.55544,0.83153}
			vn {0.00000,0.55557,0.83147}
			vn {-0.51794,0.32606,0.79084}
			vn {0.03618,0.03571,0.99871}
			vn {-0.83871,0.47891,0.25925}
			vn {-0.83367,0.42313,0.35491}
			vn {-0.82991,0.33803,0.44383}
			vn {-0.83496,0.20593,0.51033}
			vn {-0.83475,-0.03018,0.54980}
			vn {-0.83294,-0.24115,0.49806}
			vn {-0.83309,-0.39964,0.38242}
			vn {-0.83598,-0.51555,0.18800}
			vn {-0.83044,-0.55612,0.03314}
			vn {-0.83073,-0.55667,0.00031}
			vn {-0.83129,-0.55584,-0.00157}
			vn {-0.82966,-0.55232,0.08133}
			vn {-0.53815,-0.62328,0.56738}
			vn {-0.06633,-0.55127,0.83169}
			vn {-0.00560,-0.55544,0.83154}
			vn {0.00000,-0.55557,0.83147}
			vn {0.00494,0.86783,0.49684}
			vn {0.01122,0.86493,0.50177}
			vn {0.00016,0.86796,0.49663}
			vn {0.00163,0.76604,0.64279}
			vn {0.00157,0.60571,0.79569}
			vn {0.00155,0.37395,0.92745}
			vn {0.00146,-0.05510,0.99848}
			vn {0.00138,-0.43603,0.89993}
			vn {0.00132,-0.72265,0.69122}
			vn {0.00130,-0.93952,0.34250}
			vn {0.00126,-0.99823,0.05948}
			vn {0.00126,-1.00000,0.00056}
			vn {0.00124,-1.00000,-0.00154}
			vn {-0.00456,-0.99993,-0.01098}
			vn {0.00001,-0.99996,-0.00857}
			vn {0.00561,-0.99998,0.00167}
			vn {0.00043,-1.00000,0.00000}
			vn {0.00000,-1,-0.00000}
		}
		CUVs
		{
			setID 0
			numUVs 126
			uv {-1,2}
			uv {-1,1.94239}
			uv {-1,1.85906}
			uv {-1,1.77189}
			uv {-1,1.74018}
			uv {-1,1.70836}
			uv {-1,1.66097}
			uv {-1,1.58362}
			uv {-1,1.52123}
			uv {-1,1.40706}
			uv {-1,1.32373}
			uv {-1,1.19536}
			uv {-1,1.13471}
			uv {-1,1.06118}
			uv {-1,1.04210}
			uv {-1,1.01814}
			uv {-1,1.00834}
			uv {-1,1}
			uv {0,2}
			uv {0,1.94239}
			uv {0,1.85906}
			uv {0,1.77189}
			uv {0,1.74018}
			uv {0,1.70836}
			uv {0,1.66097}
			uv {0,1.58362}
			uv {0,1.52123}
			uv {0,1.40706}
			uv {0,1.32373}
			uv {0,1.19536}
			uv {0,1.13471}
			uv {0,1.06118}
			uv {0,1.04210}
			uv {0,1.01814}
			uv {0,1.00834}
			uv {0,1}
			uv {1,2}
			uv {1,1.94239}
			uv {1,1.85906}
			uv {1,1.77189}
			uv {1,1.74018}
			uv {1,1.70836}
			uv {1,1.66097}
			uv {1,1.58362}
			uv {1,1.52123}
			uv {1,1.40706}
			uv {1,1.32373}
			uv {1,1.19536}
			uv {1,1.13471}
			uv {1,1.06118}
			uv {1,1.04210}
			uv {1,1.01814}
			uv {1,1.00834}
			uv {1,1}
			uv {2,2}
			uv {2,1.94239}
			uv {2,1.85906}
			uv {2,1.77189}
			uv {2,1.74018}
			uv {2,1.70836}
			uv {2,1.66097}
			uv {2,1.58362}
			uv {2,1.52123}
			uv {2,1.40706}
			uv {2,1.32373}
			uv {2,1.19536}
			uv {2,1.13471}
			uv {2,1.06118}
			uv {2,1.04210}
			uv {2,1.01814}
			uv {2,1.00834}
			uv {2,1}
			uv {3,2}
			uv {3,1.94239}
			uv {3,1.85906}
			uv {3,1.77189}
			uv {3,1.74018}
			uv {3,1.70836}
			uv {3,1.66097}
			uv {3,1.58362}
			uv {3,1.52123}
			uv {3,1.40706}
			uv {3,1.32373}
			uv {3,1.19536}
			uv {3,1.13471}
			uv {3,1.06118}
			uv {3,1.04210}
			uv {3,1.01814}
			uv {3,1.00834}
			uv {3,1}
			uv {4.33333,2}
			uv {4.33333,1.94239}
			uv {4.33333,1.85906}
			uv {4.33333,1.77189}
			uv {4.33333,1.74018}
			uv {4.33333,1.70836}
			uv {4.33333,1.66097}
			uv {4.33333,1.58362}
			uv {4.33333,1.52123}
			uv {4.33333,1.40706}
			uv {4.33333,1.32373}
			uv {4.33333,1.19536}
			uv {4.33333,1.13471}
			uv {4.33333,1.06118}
			uv {4.33333,1.04210}
			uv {4.33333,1.01814}
			uv {4.33333,1.00834}
			uv {4.33333,1}
			uv {5.66667,2}
			uv {5.66667,1.94239}
			uv {5.66667,1.85906}
			uv {5.66667,1.77189}
			uv {5.66667,1.74018}
			uv {5.66667,1.70836}
			uv {5.66667,1.66097}
			uv {5.66667,1.58362}
			uv {5.66667,1.52123}
			uv {5.66667,1.40706}
			uv {5.66667,1.32373}
			uv {5.66667,1.19536}
			uv {5.66667,1.13471}
			uv {5.66667,1.06118}
			uv {5.66667,1.04210}
			uv {5.66667,1.01814}
			uv {5.66667,1.00834}
			uv {5.66667,1}
		}
		CSurface
		{
			material "lambert1"
			CQuads
			{
				numQuads 119
				q {19,2,19,-1,-1} {1,1,1,-1,-1} {0,0,0,-1,-1} {18,3,18,-1,-1}
				q {2,4,2,-1,-1} {1,1,1,-1,-1} {19,2,19,-1,-1} {20,5,20,-1,-1}
				q {2,4,2,-1,-1} {20,5,20,-1,-1} {21,7,21,-1,-1} {3,6,3,-1,-1}
				q {21,7,21,-1,-1} {22,9,22,-1,-1} {4,8,4,-1,-1} {3,6,3,-1,-1}
				q {4,8,4,-1,-1} {22,9,22,-1,-1} {23,11,23,-1,-1} {5,10,5,-1,-1}
				q {23,11,23,-1,-1} {24,13,24,-1,-1} {6,12,6,-1,-1} {5,10,5,-1,-1}
				q {24,13,24,-1,-1} {25,15,25,-1,-1} {7,14,7,-1,-1} {6,12,6,-1,-1}
				q {25,15,25,-1,-1} {26,17,26,-1,-1} {8,16,8,-1,-1} {7,14,7,-1,-1}
				q {8,16,8,-1,-1} {26,17,26,-1,-1} {27,19,27,-1,-1} {9,18,9,-1,-1}
				q {27,19,27,-1,-1} {28,21,28,-1,-1} {10,20,10,-1,-1} {9,18,9,-1,-1}
				q {28,21,28,-1,-1} {29,23,29,-1,-1} {11,22,11,-1,-1} {10,20,10,-1,-1}
				q {29,23,29,-1,-1} {30,25,30,-1,-1} {12,24,12,-1,-1} {11,22,11,-1,-1}
				q {13,26,13,-1,-1} {12,24,12,-1,-1} {30,25,30,-1,-1} {31,27,31,-1,-1}
				q {32,29,32,-1,-1} {14,28,14,-1,-1} {13,26,13,-1,-1} {31,27,31,-1,-1}
				q {15,30,15,-1,-1} {14,28,14,-1,-1} {32,29,32,-1,-1} {33,31,33,-1,-1}
				q {34,33,34,-1,-1} {16,32,16,-1,-1} {15,30,15,-1,-1} {33,31,33,-1,-1}
				q {16,32,16,-1,-1} {34,33,34,-1,-1} {35,35,35,-1,-1} {17,34,17,-1,-1}
				q {36,37,36,-1,-1} {37,36,37,-1,-1} {19,2,19,-1,-1} {18,3,18,-1,-1}
				q {19,2,19,-1,-1} {37,36,37,-1,-1} {38,38,38,-1,-1} {20,5,20,-1,-1}
				q {38,38,38,-1,-1} {39,39,39,-1,-1} {21,7,21,-1,-1} {20,5,20,-1,-1}
				q {39,39,39,-1,-1} {40,40,40,-1,-1} {22,9,22,-1,-1} {21,7,21,-1,-1}
				q {22,9,22,-1,-1} {40,40,40,-1,-1} {41,41,41,-1,-1} {23,11,23,-1,-1}
				q {41,41,41,-1,-1} {42,42,42,-1,-1} {24,13,24,-1,-1} {23,11,23,-1,-1}
				q {42,42,42,-1,-1} {43,43,43,-1,-1} {25,15,25,-1,-1} {24,13,24,-1,-1}
				q {43,43,43,-1,-1} {44,44,44,-1,-1} {26,17,26,-1,-1} {25,15,25,-1,-1}
				q {26,17,26,-1,-1} {44,44,44,-1,-1} {45,45,45,-1,-1} {27,19,27,-1,-1}
				q {45,45,45,-1,-1} {46,46,46,-1,-1} {28,21,28,-1,-1} {27,19,27,-1,-1}
				q {46,46,46,-1,-1} {47,47,47,-1,-1} {29,23,29,-1,-1} {28,21,28,-1,-1}
				q {47,47,47,-1,-1} {48,48,48,-1,-1} {30,25,30,-1,-1} {29,23,29,-1,-1}
				q {30,25,30,-1,-1} {48,48,48,-1,-1} {49,49,49,-1,-1} {31,27,31,-1,-1}
				q {49,49,49,-1,-1} {50,50,50,-1,-1} {32,29,32,-1,-1} {31,27,31,-1,-1}
				q {32,29,32,-1,-1} {50,50,50,-1,-1} {51,51,51,-1,-1} {33,31,33,-1,-1}
				q {51,51,51,-1,-1} {52,52,52,-1,-1} {34,33,34,-1,-1} {33,31,33,-1,-1}
				q {52,52,52,-1,-1} {53,53,53,-1,-1} {35,35,35,-1,-1} {34,33,34,-1,-1}
				q {54,55,54,-1,-1} {55,54,55,-1,-1} {37,36,37,-1,-1} {36,37,36,-1,-1}
				q {37,36,37,-1,-1} {55,54,55,-1,-1} {56,56,56,-1,-1} {38,38,38,-1,-1}
				q {56,56,56,-1,-1} {57,57,57,-1,-1} {39,39,39,-1,-1} {38,38,38,-1,-1}
				q {57,57,57,-1,-1} {58,58,58,-1,-1} {40,40,40,-1,-1} {39,39,39,-1,-1}
				q {40,40,40,-1,-1} {58,58,58,-1,-1} {59,59,59,-1,-1} {41,41,41,-1,-1}
				q {59,59,59,-1,-1} {60,60,60,-1,-1} {42,42,42,-1,-1} {41,41,41,-1,-1}
				q {60,60,60,-1,-1} {61,61,61,-1,-1} {43,43,43,-1,-1} {42,42,42,-1,-1}
				q {61,61,61,-1,-1} {62,62,62,-1,-1} {44,44,44,-1,-1} {43,43,43,-1,-1}
				q {62,62,62,-1,-1} {63,63,63,-1,-1} {45,45,45,-1,-1} {44,44,44,-1,-1}
				q {63,63,63,-1,-1} {64,64,64,-1,-1} {46,46,46,-1,-1} {45,45,45,-1,-1}
				q {64,64,64,-1,-1} {65,65,65,-1,-1} {47,47,47,-1,-1} {46,46,46,-1,-1}
				q {65,65,65,-1,-1} {66,66,66,-1,-1} {48,48,48,-1,-1} {47,47,47,-1,-1}
				q {66,66,66,-1,-1} {67,67,67,-1,-1} {49,49,49,-1,-1} {48,48,48,-1,-1}
				q {67,67,67,-1,-1} {68,68,68,-1,-1} {50,50,50,-1,-1} {49,49,49,-1,-1}
				q {50,50,50,-1,-1} {68,68,68,-1,-1} {69,69,69,-1,-1} {51,51,51,-1,-1}
				q {69,69,69,-1,-1} {70,70,70,-1,-1} {52,52,52,-1,-1} {51,51,51,-1,-1}
				q {70,70,70,-1,-1} {71,71,71,-1,-1} {53,53,53,-1,-1} {52,52,52,-1,-1}
				q {54,55,54,-1,-1} {72,73,72,-1,-1} {73,72,73,-1,-1} {55,54,55,-1,-1}
				q {73,72,73,-1,-1} {74,74,74,-1,-1} {56,56,56,-1,-1} {55,54,55,-1,-1}
				q {57,57,57,-1,-1} {56,56,56,-1,-1} {74,74,74,-1,-1} {75,75,75,-1,-1}
				q {76,76,76,-1,-1} {58,58,58,-1,-1} {57,57,57,-1,-1} {75,75,75,-1,-1}
				q {59,59,59,-1,-1} {58,58,58,-1,-1} {76,76,76,-1,-1} {77,77,77,-1,-1}
				q {60,60,60,-1,-1} {59,59,59,-1,-1} {77,77,77,-1,-1} {78,78,78,-1,-1}
				q {61,61,61,-1,-1} {60,60,60,-1,-1} {78,78,78,-1,-1} {79,79,79,-1,-1}
				q {62,62,62,-1,-1} {61,61,61,-1,-1} {79,79,79,-1,-1} {80,80,80,-1,-1}
				q {63,63,63,-1,-1} {62,62,62,-1,-1} {80,80,80,-1,-1} {81,81,81,-1,-1}
				q {82,82,82,-1,-1} {64,64,64,-1,-1} {63,63,63,-1,-1} {81,81,81,-1,-1}
				q {64,64,64,-1,-1} {82,82,82,-1,-1} {83,83,83,-1,-1} {65,65,65,-1,-1}
				q {65,65,65,-1,-1} {83,83,83,-1,-1} {84,84,84,-1,-1} {66,66,66,-1,-1}
				q {66,66,66,-1,-1} {84,84,84,-1,-1} {85,85,85,-1,-1} {67,67,67,-1,-1}
				q {67,67,67,-1,-1} {85,85,85,-1,-1} {86,86,86,-1,-1} {68,68,68,-1,-1}
				q {86,86,86,-1,-1} {87,87,87,-1,-1} {69,69,69,-1,-1} {68,68,68,-1,-1}
				q {87,87,87,-1,-1} {88,88,88,-1,-1} {70,70,70,-1,-1} {69,69,69,-1,-1}
				q {88,88,88,-1,-1} {89,89,89,-1,-1} {71,71,71,-1,-1} {70,70,70,-1,-1}
				q {90,91,90,-1,-1} {91,90,91,-1,-1} {73,72,73,-1,-1} {72,73,72,-1,-1}
				q {73,72,73,-1,-1} {91,90,91,-1,-1} {92,92,92,-1,-1} {74,74,74,-1,-1}
				q {75,75,75,-1,-1} {74,74,74,-1,-1} {92,92,92,-1,-1} {93,93,93,-1,-1}
				q {94,94,94,-1,-1} {76,76,76,-1,-1} {75,75,75,-1,-1} {93,93,93,-1,-1}
				q {77,77,77,-1,-1} {76,76,76,-1,-1} {94,94,94,-1,-1} {95,95,95,-1,-1}
				q {78,78,78,-1,-1} {77,77,77,-1,-1} {95,95,95,-1,-1} {96,96,96,-1,-1}
				q {97,97,97,-1,-1} {79,79,79,-1,-1} {78,78,78,-1,-1} {96,96,96,-1,-1}
				q {80,80,80,-1,-1} {79,79,79,-1,-1} {97,97,97,-1,-1} {98,98,98,-1,-1}
				q {81,81,81,-1,-1} {80,80,80,-1,-1} {98,98,98,-1,-1} {99,99,99,-1,-1}
				q {100,100,100,-1,-1} {82,82,82,-1,-1} {81,81,81,-1,-1} {99,99,99,-1,-1}
				q {101,101,101,-1,-1} {83,83,83,-1,-1} {82,82,82,-1,-1} {100,100,100,-1,-1}
				q {83,83,83,-1,-1} {101,101,101,-1,-1} {102,102,102,-1,-1} {84,84,84,-1,-1}
				q {102,102,102,-1,-1} {103,103,103,-1,-1} {85,85,85,-1,-1} {84,84,84,-1,-1}
				q {103,103,103,-1,-1} {104,104,104,-1,-1} {86,86,86,-1,-1} {85,85,85,-1,-1}
				q {104,104,104,-1,-1} {105,105,105,-1,-1} {87,87,87,-1,-1} {86,86,86,-1,-1}
				q {88,88,88,-1,-1} {87,87,87,-1,-1} {105,105,105,-1,-1} {106,106,106,-1,-1}
				q {88,88,88,-1,-1} {106,106,106,-1,-1} {107,107,107,-1,-1} {89,89,89,-1,-1}
				q {91,90,91,-1,-1} {90,91,90,-1,-1} {108,109,108,-1,-1} {109,108,109,-1,-1}
				q {110,110,110,-1,-1} {92,92,92,-1,-1} {91,90,91,-1,-1} {109,108,109,-1,-1}
				q {93,93,93,-1,-1} {92,92,92,-1,-1} {110,110,110,-1,-1} {111,111,111,-1,-1}
				q {112,112,112,-1,-1} {94,94,94,-1,-1} {93,93,93,-1,-1} {111,111,111,-1,-1}
				q {113,113,113,-1,-1} {95,95,95,-1,-1} {94,94,94,-1,-1} {112,112,112,-1,-1}
				q {96,96,96,-1,-1} {95,95,95,-1,-1} {113,113,113,-1,-1} {114,114,114,-1,-1}
				q {97,97,97,-1,-1} {96,96,96,-1,-1} {114,114,114,-1,-1} {115,115,115,-1,-1}
				q {98,98,98,-1,-1} {97,97,97,-1,-1} {115,115,115,-1,-1} {116,116,116,-1,-1}
				q {99,99,99,-1,-1} {98,98,98,-1,-1} {116,116,116,-1,-1} {117,117,117,-1,-1}
				q {100,100,100,-1,-1} {99,99,99,-1,-1} {117,117,117,-1,-1} {118,118,118,-1,-1}
				q {101,101,101,-1,-1} {100,100,100,-1,-1} {118,118,118,-1,-1} {119,119,119,-1,-1}
				q {101,101,101,-1,-1} {119,119,119,-1,-1} {120,120,120,-1,-1} {102,102,102,-1,-1}
				q {103,103,103,-1,-1} {102,102,102,-1,-1} {120,120,120,-1,-1} {121,121,121,-1,-1}
				q {104,104,104,-1,-1} {103,103,103,-1,-1} {121,121,121,-1,-1} {122,122,122,-1,-1}
				q {123,123,123,-1,-1} {105,105,105,-1,-1} {104,104,104,-1,-1} {122,122,122,-1,-1}
				q {124,124,124,-1,-1} {106,106,106,-1,-1} {105,105,105,-1,-1} {123,123,123,-1,-1}
				q {106,106,106,-1,-1} {124,124,124,-1,-1} {125,125,125,-1,-1} {107,107,107,-1,-1}
				q {1,1,1,-1,-1} {109,108,109,-1,-1} {108,109,108,-1,-1} {0,0,0,-1,-1}
				q {110,110,110,-1,-1} {109,108,109,-1,-1} {1,1,1,-1,-1} {2,4,2,-1,-1}
				q {110,110,110,-1,-1} {2,4,2,-1,-1} {3,6,3,-1,-1} {111,111,111,-1,-1}
				q {111,111,111,-1,-1} {3,6,3,-1,-1} {4,8,4,-1,-1} {112,112,112,-1,-1}
				q {112,112,112,-1,-1} {4,8,4,-1,-1} {5,10,5,-1,-1} {113,113,113,-1,-1}
				q {5,10,5,-1,-1} {6,12,6,-1,-1} {114,114,114,-1,-1} {113,113,113,-1,-1}
				q {6,12,6,-1,-1} {7,14,7,-1,-1} {115,115,115,-1,-1} {114,114,114,-1,-1}
				q {7,14,7,-1,-1} {8,16,8,-1,-1} {116,116,116,-1,-1} {115,115,115,-1,-1}
				q {8,16,8,-1,-1} {9,18,9,-1,-1} {117,117,117,-1,-1} {116,116,116,-1,-1}
				q {9,18,9,-1,-1} {10,20,10,-1,-1} {118,118,118,-1,-1} {117,117,117,-1,-1}
				q {10,20,10,-1,-1} {11,22,11,-1,-1} {119,119,119,-1,-1} {118,118,118,-1,-1}
				q {11,22,11,-1,-1} {12,24,12,-1,-1} {120,120,120,-1,-1} {119,119,119,-1,-1}
				q {13,26,13,-1,-1} {121,121,121,-1,-1} {120,120,120,-1,-1} {12,24,12,-1,-1}
				q {14,28,14,-1,-1} {122,122,122,-1,-1} {121,121,121,-1,-1} {13,26,13,-1,-1}
				q {123,123,123,-1,-1} {122,122,122,-1,-1} {14,28,14,-1,-1} {15,30,15,-1,-1}
				q {16,32,16,-1,-1} {124,124,124,-1,-1} {123,123,123,-1,-1} {15,30,15,-1,-1}
				q {124,124,124,-1,-1} {16,32,16,-1,-1} {17,34,17,-1,-1} {125,125,125,-1,-1}
			}
		}
	}
}
