// Source file: C:/dev/sdk/main/sdk_examples/ArtAssets/OpenGLES/maya7/env.mb
CIwModel
{
	name "floorInset1"
	CMesh
	{
		name "floorInset1"
		scale 10
		CVerts
		{
			numVerts 81
			v {-6696.10742,-332.99115,6696.10742}
			v {6696.10742,-332.99115,6696.10742}
			v {-6696.10742,-332.99115,-6696.10742}
			v {6696.10742,-332.99115,-6696.10742}
			v {-6696.10742,-332.99115,0.00000}
			v {0.00000,-332.99115,6696.10742}
			v {6696.10742,-332.99115,0.00000}
			v {0.00000,-332.99115,-6696.10742}
			v {-3348.05371,-332.99115,-3348.05371}
			v {-3348.05371,-332.99115,-6696.10742}
			v {-6696.10742,-332.99115,-3348.05371}
			v {-3348.05371,-332.99115,0.00000}
			v {0.00000,-332.99115,-3348.05371}
			v {-3348.05371,-332.99115,3348.05371}
			v {-6696.10742,-332.99115,3348.05371}
			v {-3348.05371,-332.99115,6696.10742}
			v {0.00000,-332.99115,3348.05371}
			v {3348.05371,-332.99115,3348.05371}
			v {3348.05371,-332.99115,6696.10742}
			v {6696.10742,-332.99115,3348.05371}
			v {3348.05371,-332.99115,0.00000}
			v {3348.05371,-332.99115,-3348.05371}
			v {6696.10742,-332.99115,-3348.05371}
			v {3348.05371,-332.99115,-6696.10742}
			v {-1674.02686,-332.99115,-5022.08203}
			v {0.00000,-332.99115,-5022.08203}
			v {-1674.02686,-332.99115,-6696.10742}
			v {-3348.05371,-332.99115,-5022.08203}
			v {-1674.02686,-332.99115,-3348.05371}
			v {-5022.08203,-332.99115,1674.02686}
			v {-5022.08203,-332.99115,0.00000}
			v {-6696.10742,-332.99115,1674.02686}
			v {-5022.08203,-332.99115,3348.05371}
			v {-3348.05371,-332.99115,1674.02686}
			v {1674.02686,-332.99115,5022.08203}
			v {0.00000,-332.99115,5022.08203}
			v {1674.02686,-332.99115,6696.10742}
			v {3348.05371,-332.99115,5022.08203}
			v {1674.02686,-332.99115,3348.05371}
			v {5022.08203,-332.99115,-1674.02686}
			v {5022.08203,-332.99115,0.00000}
			v {6696.10742,-332.99115,-1674.02686}
			v {5022.08203,-332.99115,-3348.05371}
			v {3348.05371,-332.99115,-1674.02686}
			v {-5022.08203,-332.99115,-5022.08203}
			v {-5022.08203,-332.99115,-6696.10742}
			v {-6696.10742,-332.99115,-5022.08203}
			v {-5022.08203,-332.99115,-3348.05371}
			v {-5022.08203,-332.99115,-1674.02686}
			v {-6696.10742,-332.99115,-1674.02686}
			v {-3348.05371,-332.99115,-1674.02686}
			v {-1674.02686,-332.99115,-1674.02686}
			v {-1674.02686,-332.99115,0.00001}
			v {-0.00001,-332.99115,-1674.02686}
			v {-5022.08203,-332.99115,5022.08203}
			v {-6696.10742,-332.99115,5022.08203}
			v {-5022.08203,-332.99115,6696.10742}
			v {-3348.05371,-332.99115,5022.08203}
			v {-1674.02686,-332.99115,5022.08203}
			v {-1674.02686,-332.99115,6696.10742}
			v {-1674.02686,-332.99115,3348.05371}
			v {-1674.02686,-332.99115,1674.02686}
			v {0.00000,-332.99115,1674.02686}
			v {5022.08203,-332.99115,5022.08203}
			v {5022.08203,-332.99115,6696.10742}
			v {6696.10742,-332.99115,5022.08203}
			v {5022.08203,-332.99115,3348.05371}
			v {5022.08203,-332.99115,1674.02686}
			v {6696.10742,-332.99115,1674.02686}
			v {3348.05371,-332.99115,1674.02686}
			v {1674.02686,-332.99115,1674.02686}
			v {1674.02686,-332.99115,0.00000}
			v {5022.08203,-332.99115,-5022.08203}
			v {6696.10742,-332.99115,-5022.08203}
			v {5022.08203,-332.99115,-6696.10742}
			v {3348.05371,-332.99115,-5022.08203}
			v {1674.02686,-332.99115,-5022.08203}
			v {1674.02686,-332.99115,-6696.10742}
			v {1674.02686,-332.99115,-3348.05371}
			v {1674.02686,-332.99115,-1674.02686}
			v {0.00000,-332.99115,0.00002}
		}
		CVertNorms
		{
			numVertNorms 1
			vn {0,1,0.00000}
		}
		CUVs
		{
			setID 0
			numUVs 81
			uv {-0.62425,2.49604}
			uv {0.50000,2.49604}
			uv {0.50000,3.49405}
			uv {-0.62425,3.49405}
			uv {-1.74851,-0.49802}
			uv {-1.74851,0.50000}
			uv {-2.87276,0.50000}
			uv {-2.87276,-0.49802}
			uv {1.62425,-1.49604}
			uv {0.50000,-1.49604}
			uv {0.50000,-2.49405}
			uv {1.62425,-2.49405}
			uv {2.74851,1.49802}
			uv {2.74851,0.50000}
			uv {3.87276,0.50000}
			uv {3.87276,1.49802}
			uv {-1.74851,3.49405}
			uv {-1.74851,4.49207}
			uv {-2.87276,4.49207}
			uv {-2.87276,3.49405}
			uv {-2.87276,2.49604}
			uv {-3.99702,2.49604}
			uv {-3.99702,1.49802}
			uv {-2.87276,1.49802}
			uv {-0.62425,0.50000}
			uv {-0.62425,1.49802}
			uv {-1.74851,1.49802}
			uv {-2.87276,-1.49604}
			uv {-3.99702,-1.49604}
			uv {-3.99702,-2.49405}
			uv {-2.87276,-2.49405}
			uv {-1.74851,-2.49405}
			uv {-1.74851,-3.49207}
			uv {-0.62425,-3.49207}
			uv {-0.62425,-2.49405}
			uv {-0.62425,-1.49604}
			uv {0.50000,-0.49802}
			uv {-0.62425,-0.49802}
			uv {2.74851,-2.49405}
			uv {2.74851,-3.49207}
			uv {3.87276,-3.49207}
			uv {3.87276,-2.49405}
			uv {3.87276,-1.49604}
			uv {4.99702,-1.49604}
			uv {4.99702,-0.49802}
			uv {3.87276,-0.49802}
			uv {1.62425,0.50000}
			uv {1.62425,-0.49802}
			uv {2.74851,-0.49802}
			uv {3.87276,2.49604}
			uv {4.99702,2.49604}
			uv {4.99702,3.49405}
			uv {3.87276,3.49405}
			uv {2.74851,3.49405}
			uv {2.74851,4.49207}
			uv {1.62425,4.49207}
			uv {1.62425,3.49405}
			uv {0.50000,1.49802}
			uv {1.62425,1.49802}
			uv {1.62425,2.49604}
			uv {0.50000,4.49207}
			uv {-0.62425,4.49207}
			uv {-1.74851,2.49604}
			uv {-3.99702,0.50000}
			uv {-3.99702,-0.49802}
			uv {-1.74851,-1.49604}
			uv {0.50000,-3.49207}
			uv {1.62425,-3.49207}
			uv {2.74851,-1.49604}
			uv {4.99702,0.50000}
			uv {4.99702,1.49802}
			uv {2.74851,2.49604}
			uv {-3.99702,4.49207}
			uv {-3.99702,3.49405}
			uv {-3.99702,-3.49207}
			uv {-2.87276,-3.49207}
			uv {4.99702,-3.49207}
			uv {4.99702,-2.49405}
			uv {4.99702,4.49207}
			uv {3.87276,4.49207}
			uv {0.50000,0.50000}
		}
		CSurface
		{
			material "lambert6"
			CQuads
			{
				numQuads 64
				q {24,0,3,-1,-1} {25,0,2,-1,-1} {12,0,1,-1,-1} {28,0,0,-1,-1}
				q {29,0,7,-1,-1} {30,0,6,-1,-1} {11,0,5,-1,-1} {33,0,4,-1,-1}
				q {34,0,11,-1,-1} {35,0,10,-1,-1} {16,0,9,-1,-1} {38,0,8,-1,-1}
				q {39,0,15,-1,-1} {40,0,14,-1,-1} {20,0,13,-1,-1} {43,0,12,-1,-1}
				q {44,0,19,-1,-1} {45,0,18,-1,-1} {9,0,17,-1,-1} {27,0,16,-1,-1}
				q {48,0,23,-1,-1} {49,0,22,-1,-1} {10,0,21,-1,-1} {47,0,20,-1,-1}
				q {50,0,26,-1,-1} {51,0,25,-1,-1} {52,0,24,-1,-1} {11,0,5,-1,-1}
				q {54,0,30,-1,-1} {55,0,29,-1,-1} {14,0,28,-1,-1} {32,0,27,-1,-1}
				q {58,0,34,-1,-1} {59,0,33,-1,-1} {15,0,32,-1,-1} {57,0,31,-1,-1}
				q {61,0,37,-1,-1} {62,0,36,-1,-1} {16,0,9,-1,-1} {60,0,35,-1,-1}
				q {63,0,41,-1,-1} {64,0,40,-1,-1} {18,0,39,-1,-1} {37,0,38,-1,-1}
				q {67,0,45,-1,-1} {68,0,44,-1,-1} {19,0,43,-1,-1} {66,0,42,-1,-1}
				q {69,0,48,-1,-1} {70,0,47,-1,-1} {71,0,46,-1,-1} {20,0,13,-1,-1}
				q {72,0,52,-1,-1} {73,0,51,-1,-1} {22,0,50,-1,-1} {42,0,49,-1,-1}
				q {76,0,56,-1,-1} {77,0,55,-1,-1} {23,0,54,-1,-1} {75,0,53,-1,-1}
				q {12,0,1,-1,-1} {78,0,59,-1,-1} {79,0,58,-1,-1} {53,0,57,-1,-1}
				q {24,0,3,-1,-1} {26,0,61,-1,-1} {7,0,60,-1,-1} {25,0,2,-1,-1}
				q {24,0,3,-1,-1} {27,0,16,-1,-1} {9,0,17,-1,-1} {26,0,61,-1,-1}
				q {24,0,3,-1,-1} {28,0,0,-1,-1} {8,0,62,-1,-1} {27,0,16,-1,-1}
				q {29,0,7,-1,-1} {31,0,64,-1,-1} {4,0,63,-1,-1} {30,0,6,-1,-1}
				q {29,0,7,-1,-1} {32,0,27,-1,-1} {14,0,28,-1,-1} {31,0,64,-1,-1}
				q {29,0,7,-1,-1} {33,0,4,-1,-1} {13,0,65,-1,-1} {32,0,27,-1,-1}
				q {34,0,11,-1,-1} {36,0,67,-1,-1} {5,0,66,-1,-1} {35,0,10,-1,-1}
				q {34,0,11,-1,-1} {37,0,38,-1,-1} {18,0,39,-1,-1} {36,0,67,-1,-1}
				q {34,0,11,-1,-1} {38,0,8,-1,-1} {17,0,68,-1,-1} {37,0,38,-1,-1}
				q {39,0,15,-1,-1} {41,0,70,-1,-1} {6,0,69,-1,-1} {40,0,14,-1,-1}
				q {39,0,15,-1,-1} {42,0,49,-1,-1} {22,0,50,-1,-1} {41,0,70,-1,-1}
				q {39,0,15,-1,-1} {43,0,12,-1,-1} {21,0,71,-1,-1} {42,0,49,-1,-1}
				q {44,0,19,-1,-1} {46,0,73,-1,-1} {2,0,72,-1,-1} {45,0,18,-1,-1}
				q {44,0,19,-1,-1} {47,0,20,-1,-1} {10,0,21,-1,-1} {46,0,73,-1,-1}
				q {44,0,19,-1,-1} {27,0,16,-1,-1} {8,0,62,-1,-1} {47,0,20,-1,-1}
				q {48,0,23,-1,-1} {30,0,6,-1,-1} {4,0,63,-1,-1} {49,0,22,-1,-1}
				q {48,0,23,-1,-1} {50,0,26,-1,-1} {11,0,5,-1,-1} {30,0,6,-1,-1}
				q {48,0,23,-1,-1} {47,0,20,-1,-1} {8,0,62,-1,-1} {50,0,26,-1,-1}
				q {28,0,0,-1,-1} {12,0,1,-1,-1} {53,0,57,-1,-1} {51,0,25,-1,-1}
				q {51,0,25,-1,-1} {50,0,26,-1,-1} {8,0,62,-1,-1} {28,0,0,-1,-1}
				q {54,0,30,-1,-1} {56,0,75,-1,-1} {0,0,74,-1,-1} {55,0,29,-1,-1}
				q {54,0,30,-1,-1} {57,0,31,-1,-1} {15,0,32,-1,-1} {56,0,75,-1,-1}
				q {54,0,30,-1,-1} {32,0,27,-1,-1} {13,0,65,-1,-1} {57,0,31,-1,-1}
				q {58,0,34,-1,-1} {35,0,10,-1,-1} {5,0,66,-1,-1} {59,0,33,-1,-1}
				q {58,0,34,-1,-1} {60,0,35,-1,-1} {16,0,9,-1,-1} {35,0,10,-1,-1}
				q {58,0,34,-1,-1} {57,0,31,-1,-1} {13,0,65,-1,-1} {60,0,35,-1,-1}
				q {33,0,4,-1,-1} {11,0,5,-1,-1} {52,0,24,-1,-1} {61,0,37,-1,-1}
				q {61,0,37,-1,-1} {60,0,35,-1,-1} {13,0,65,-1,-1} {33,0,4,-1,-1}
				q {63,0,41,-1,-1} {65,0,77,-1,-1} {1,0,76,-1,-1} {64,0,40,-1,-1}
				q {63,0,41,-1,-1} {66,0,42,-1,-1} {19,0,43,-1,-1} {65,0,77,-1,-1}
				q {63,0,41,-1,-1} {37,0,38,-1,-1} {17,0,68,-1,-1} {66,0,42,-1,-1}
				q {67,0,45,-1,-1} {40,0,14,-1,-1} {6,0,69,-1,-1} {68,0,44,-1,-1}
				q {67,0,45,-1,-1} {69,0,48,-1,-1} {20,0,13,-1,-1} {40,0,14,-1,-1}
				q {67,0,45,-1,-1} {66,0,42,-1,-1} {17,0,68,-1,-1} {69,0,48,-1,-1}
				q {38,0,8,-1,-1} {16,0,9,-1,-1} {62,0,36,-1,-1} {70,0,47,-1,-1}
				q {70,0,47,-1,-1} {69,0,48,-1,-1} {17,0,68,-1,-1} {38,0,8,-1,-1}
				q {72,0,52,-1,-1} {74,0,79,-1,-1} {3,0,78,-1,-1} {73,0,51,-1,-1}
				q {72,0,52,-1,-1} {75,0,53,-1,-1} {23,0,54,-1,-1} {74,0,79,-1,-1}
				q {72,0,52,-1,-1} {42,0,49,-1,-1} {21,0,71,-1,-1} {75,0,53,-1,-1}
				q {76,0,56,-1,-1} {25,0,2,-1,-1} {7,0,60,-1,-1} {77,0,55,-1,-1}
				q {76,0,56,-1,-1} {78,0,59,-1,-1} {12,0,1,-1,-1} {25,0,2,-1,-1}
				q {76,0,56,-1,-1} {75,0,53,-1,-1} {21,0,71,-1,-1} {78,0,59,-1,-1}
				q {43,0,12,-1,-1} {20,0,13,-1,-1} {71,0,46,-1,-1} {79,0,58,-1,-1}
				q {79,0,58,-1,-1} {78,0,59,-1,-1} {21,0,71,-1,-1} {43,0,12,-1,-1}
				q {62,0,36,-1,-1} {80,0,80,-1,-1} {71,0,46,-1,-1} {70,0,47,-1,-1}
				q {61,0,37,-1,-1} {52,0,24,-1,-1} {80,0,80,-1,-1} {62,0,36,-1,-1}
				q {53,0,57,-1,-1} {79,0,58,-1,-1} {71,0,46,-1,-1} {80,0,80,-1,-1}
				q {51,0,25,-1,-1} {53,0,57,-1,-1} {80,0,80,-1,-1} {52,0,24,-1,-1}
			}
		}
	}
}
