// Source file: C:/dev/sdk/main/sdk_examples/ArtAssets/OpenGLES/maya7/env.mb
CIwModel
{
	name "roof17"
	CMesh
	{
		name "roof17"
		scale 10
		CVerts
		{
			numVerts 70
			v {-6000,2000,-3588.52441}
			v {-12000,2000,-3588.52441}
			v {-6000,2000,-3991.30835}
			v {-12000,2000,-3991.30835}
			v {-12000,1794.61426,-3991.30835}
			v {-12000,1794.61426,-3588.52441}
			v {-6000,1794.61426,-3991.30835}
			v {-6000,1794.61426,-3588.52441}
			v {-9000,2000,-3588.52441}
			v {-9000,1794.61426,-3588.52441}
			v {-9000,1794.61426,-3991.30835}
			v {-9000,2000,-3991.30835}
			v {-7500.00098,2000,-3588.52441}
			v {-7500.00098,1794.61426,-3588.52441}
			v {-7500.00098,1794.61426,-3991.30835}
			v {-7500.00098,2000,-3991.30835}
			v {-10500,2000,-3588.52441}
			v {-10500,1794.61426,-3588.52441}
			v {-10500,1794.61426,-3991.30835}
			v {-10500,2000,-3991.30835}
			v {-6000,1794.61426,-3789.91895}
			v {-7500.00098,1794.61426,-3789.91895}
			v {-9000,1794.61426,-3789.91895}
			v {-10500,1794.61426,-3789.91895}
			v {-12000,1794.61426,-3789.91895}
			v {-6000,2000,0}
			v {-12000,2000,0}
			v {-6000,2000,-3588.52441}
			v {-12000,2000,-3588.52441}
			v {-6000,2000,-1592.86768}
			v {-12000,2000,-1592.86768}
			v {-6000,2000,-1995.65613}
			v {-12000,2000,-1995.65613}
			v {-9000,2000,0}
			v {-9000,2000,-1592.86768}
			v {-9000,2000,-1995.65613}
			v {-9000,2000,-3588.52441}
			v {-7500.00098,2000,0}
			v {-7500.00098,2000,-1592.86768}
			v {-7500.00098,2000,-1995.65613}
			v {-7500.00098,2000,-3588.52441}
			v {-10500,2000,0}
			v {-10500,2000,-1592.86768}
			v {-10500,2000,-1995.65613}
			v {-10500,2000,-3588.52441}
			v {-6000,2000,-1592.86768}
			v {-12000,2000,-1592.86768}
			v {-6000,2000,-1995.65613}
			v {-12000,2000,-1995.65613}
			v {-12000,1794.61426,-1995.65613}
			v {-12000,1794.61426,-1592.86768}
			v {-6000,1794.61426,-1995.65613}
			v {-6000,1794.61426,-1592.86768}
			v {-9000,2000,-1592.86768}
			v {-9000,1794.61426,-1592.86768}
			v {-9000,1794.61426,-1995.65613}
			v {-9000,2000,-1995.65613}
			v {-7500.00098,2000,-1592.86768}
			v {-7500.00098,1794.61426,-1592.86768}
			v {-7500.00098,1794.61426,-1995.65613}
			v {-7500.00098,2000,-1995.65613}
			v {-10500,2000,-1592.86768}
			v {-10500,1794.61426,-1592.86768}
			v {-10500,1794.61426,-1995.65613}
			v {-10500,2000,-1995.65613}
			v {-6000,1794.61426,-1794.26270}
			v {-7500.00098,1794.61426,-1794.26270}
			v {-9000,1794.61426,-1794.26270}
			v {-10500,1794.61426,-1794.26270}
			v {-12000,1794.61426,-1794.26270}
		}
		CVertNorms
		{
			numVertNorms 3
			vn {0,-1,-0.00000}
			vn {0.00000,0,-1}
			vn {0.00000,0,1}
		}
		CUVs
		{
			setID 0
			numUVs 54
			uv {-0.46515,-0.05775}
			uv {-0.46515,0.94225}
			uv {0.53485,0.94225}
			uv {0.53485,-0.05775}
			uv {-0.48642,0.25218}
			uv {-0.48642,0.13505}
			uv {-0.99172,0.13502}
			uv {-0.99172,0.25218}
			uv {0.00764,0.25218}
			uv {0.00764,0.13505}
			uv {0.50170,0.25218}
			uv {0.50170,0.13505}
			uv {0.99576,0.25218}
			uv {0.99576,0.13502}
			uv {-0.48642,0.01553}
			uv {-0.99172,0.01553}
			uv {0.00764,0.01553}
			uv {0.50170,0.01553}
			uv {0.99576,0.01553}
			uv {-0.99172,0.48921}
			uv {-0.48642,0.48921}
			uv {-0.48642,0.36950}
			uv {-0.99172,0.36953}
			uv {0.00764,0.48920}
			uv {0.00764,0.36950}
			uv {0.50170,0.48920}
			uv {0.50170,0.36950}
			uv {0.99576,0.48920}
			uv {0.99576,0.36953}
			uv {-0.48642,0.25702}
			uv {-0.48642,0.14036}
			uv {-0.99172,0.14021}
			uv {-0.99172,0.25702}
			uv {0.00764,0.25702}
			uv {0.00764,0.14036}
			uv {-0.48642,0.37315}
			uv {-0.99172,0.37315}
			uv {0.50170,0.25702}
			uv {0.50170,0.14036}
			uv {0.00764,0.37315}
			uv {0.99576,0.25702}
			uv {0.99576,0.14021}
			uv {0.50170,0.37315}
			uv {0.99576,0.37315}
			uv {-0.48642,0.02107}
			uv {-0.99172,0.02107}
			uv {0.00764,0.02107}
			uv {0.50170,0.02107}
			uv {0.99576,0.02107}
			uv {-0.99172,0.49160}
			uv {-0.48642,0.49160}
			uv {0.99576,0.49160}
			uv {0.50170,0.49160}
			uv {0.00764,0.49160}
		}
		CUVs
		{
			setID 1
			numUVs 4
			uv {0,1}
			uv {1,1}
			uv {1,0}
			uv {0,0}
		}
		CSurface
		{
			material "lambert2"
			CQuads
			{
				numQuads 32
				q {20,0,7,-1,-1} {6,0,6,-1,-1} {14,0,5,-1,-1} {21,0,4,-1,-1}
				q {14,1,5,-1,-1} {6,1,6,-1,-1} {2,1,15,-1,-1} {15,1,14,-1,-1}
				q {7,2,22,-1,-1} {13,2,21,-1,-1} {12,2,20,-1,-1} {0,2,19,-1,-1}
				q {17,2,26,-1,-1} {16,2,25,-1,-1} {8,2,23,-1,-1} {9,2,24,-1,-1}
				q {22,0,8,-1,-1} {10,0,9,-1,-1} {18,0,11,-1,-1} {23,0,10,-1,-1}
				q {18,1,11,-1,-1} {10,1,9,-1,-1} {11,1,16,-1,-1} {19,1,17,-1,-1}
				q {9,2,24,-1,-1} {8,2,23,-1,-1} {12,2,20,-1,-1} {13,2,21,-1,-1}
				q {21,0,4,-1,-1} {14,0,5,-1,-1} {10,0,9,-1,-1} {22,0,8,-1,-1}
				q {10,1,9,-1,-1} {14,1,5,-1,-1} {15,1,14,-1,-1} {11,1,16,-1,-1}
				q {5,2,28,-1,-1} {1,2,27,-1,-1} {16,2,25,-1,-1} {17,2,26,-1,-1}
				q {23,0,10,-1,-1} {18,0,11,-1,-1} {4,0,13,-1,-1} {24,0,12,-1,-1}
				q {4,1,13,-1,-1} {18,1,11,-1,-1} {19,1,17,-1,-1} {3,1,18,-1,-1}
				q {7,0,22,-1,-1} {20,0,7,-1,-1} {21,0,4,-1,-1} {13,0,21,-1,-1}
				q {13,0,21,-1,-1} {21,0,4,-1,-1} {22,0,8,-1,-1} {9,0,24,-1,-1}
				q {9,0,24,-1,-1} {22,0,8,-1,-1} {23,0,10,-1,-1} {17,0,26,-1,-1}
				q {17,0,26,-1,-1} {23,0,10,-1,-1} {24,0,12,-1,-1} {5,0,28,-1,-1}
				q {65,0,32,-1,-1} {51,0,31,-1,-1} {59,0,30,-1,-1} {66,0,29,-1,-1}
				q {59,1,30,-1,-1} {51,1,31,-1,-1} {47,1,45,-1,-1} {60,1,44,-1,-1}
				q {52,2,36,-1,-1} {58,2,35,-1,-1} {57,2,50,-1,-1} {45,2,49,-1,-1}
				q {62,2,42,-1,-1} {61,2,52,-1,-1} {53,2,53,-1,-1} {54,2,39,-1,-1}
				q {67,0,33,-1,-1} {55,0,34,-1,-1} {63,0,38,-1,-1} {68,0,37,-1,-1}
				q {63,1,38,-1,-1} {55,1,34,-1,-1} {56,1,46,-1,-1} {64,1,47,-1,-1}
				q {54,2,39,-1,-1} {53,2,53,-1,-1} {57,2,50,-1,-1} {58,2,35,-1,-1}
				q {66,0,29,-1,-1} {59,0,30,-1,-1} {55,0,34,-1,-1} {67,0,33,-1,-1}
				q {55,1,34,-1,-1} {59,1,30,-1,-1} {60,1,44,-1,-1} {56,1,46,-1,-1}
				q {50,2,43,-1,-1} {46,2,51,-1,-1} {61,2,52,-1,-1} {62,2,42,-1,-1}
				q {68,0,37,-1,-1} {63,0,38,-1,-1} {49,0,41,-1,-1} {69,0,40,-1,-1}
				q {49,1,41,-1,-1} {63,1,38,-1,-1} {64,1,47,-1,-1} {48,1,48,-1,-1}
				q {52,0,36,-1,-1} {65,0,32,-1,-1} {66,0,29,-1,-1} {58,0,35,-1,-1}
				q {58,0,35,-1,-1} {66,0,29,-1,-1} {67,0,33,-1,-1} {54,0,39,-1,-1}
				q {54,0,39,-1,-1} {67,0,33,-1,-1} {68,0,37,-1,-1} {62,0,42,-1,-1}
				q {62,0,42,-1,-1} {68,0,37,-1,-1} {69,0,40,-1,-1} {50,0,43,-1,-1}
			}
		}
		CSurface
		{
			material "lambert3"
			CQuads
			{
				numQuads 8
				q {40,0,3,3,-1} {39,0,2,2,-1} {31,0,1,1,-1} {27,0,0,0,-1}
				q {38,0,2,3,-1} {37,0,3,2,-1} {25,0,0,1,-1} {29,0,1,0,-1}
				q {42,0,2,3,-1} {41,0,3,2,-1} {33,0,0,1,-1} {34,0,1,0,-1}
				q {44,0,3,3,-1} {43,0,2,2,-1} {35,0,1,1,-1} {36,0,0,0,-1}
				q {34,0,2,3,-1} {33,0,3,2,-1} {37,0,0,1,-1} {38,0,1,0,-1}
				q {36,0,3,3,-1} {35,0,2,2,-1} {39,0,1,1,-1} {40,0,0,0,-1}
				q {30,0,2,3,-1} {26,0,3,2,-1} {41,0,0,1,-1} {42,0,1,0,-1}
				q {28,0,3,3,-1} {32,0,2,2,-1} {43,0,1,1,-1} {44,0,0,0,-1}
			}
		}
	}
}
