// Source file: C:/dev/sdk/main/sdk_examples/ArtAssets/OpenGLES/maya7/bike.mb
CIwModel
{
	name "roof6"
	CMesh
	{
		name "roof6"
		scale 1.0
		CVerts
		{
			numVerts 85
			v {449.99997,200,723.87085}
			v {-93.09460,200,723.87085}
			v {449.99997,200,180.77634}
			v {-93.09460,200,180.77634}
			v {449.99997,200,665.03760}
			v {-93.09460,200,665.03760}
			v {449.99997,200,239.60957}
			v {-93.09460,200,239.60957}
			v {449.99997,200,634.79095}
			v {-93.09460,200,634.79095}
			v {449.99997,200,269.85629}
			v {-93.09460,200,269.85629}
			v {449.99997,200,472.80426}
			v {-93.09460,200,472.80426}
			v {449.99997,200,431.84302}
			v {-93.09460,200,431.84302}
			v {449.99997,187.17839,239.60957}
			v {449.99997,187.17839,269.85629}
			v {-93.09460,187.17839,269.85629}
			v {-93.09460,187.17839,239.60957}
			v {449.99997,187.17841,634.79095}
			v {449.99997,187.17841,665.03760}
			v {-93.09460,187.17841,665.03760}
			v {-93.09460,187.17841,634.79095}
			v {-93.09460,187.17841,431.84302}
			v {-93.09460,187.17841,472.80426}
			v {449.99997,187.17841,431.84302}
			v {449.99997,187.17841,472.80426}
			v {178.45270,200,723.87085}
			v {178.45270,200,665.03760}
			v {178.45270,187.17841,665.03760}
			v {178.45270,187.17841,634.79095}
			v {178.45270,200,634.79095}
			v {178.45270,200,472.80426}
			v {178.45270,187.17841,472.80426}
			v {178.45270,187.17841,431.84302}
			v {178.45270,200,431.84302}
			v {178.45270,200,269.85629}
			v {178.45270,187.17839,269.85629}
			v {178.45270,187.17839,239.60957}
			v {178.45270,200,239.60957}
			v {178.45270,200,180.77634}
			v {314.22635,200,723.87085}
			v {314.22635,200,665.03760}
			v {314.22635,187.17841,665.03760}
			v {314.22635,187.17841,634.79095}
			v {314.22635,200,634.79095}
			v {314.22635,200,472.80426}
			v {314.22635,187.17841,472.80426}
			v {314.22635,187.17841,431.84302}
			v {314.22635,200,431.84302}
			v {314.22635,200,269.85629}
			v {314.22635,187.17839,269.85629}
			v {314.22635,187.17839,239.60957}
			v {314.22635,200,239.60957}
			v {314.22635,200,180.77634}
			v {42.67905,200,723.87085}
			v {42.67905,200,665.03760}
			v {42.67905,187.17841,665.03760}
			v {42.67905,187.17841,634.79095}
			v {42.67905,200,634.79095}
			v {42.67905,200,472.80426}
			v {42.67905,187.17841,472.80426}
			v {42.67905,187.17841,431.84302}
			v {42.67905,200,431.84302}
			v {42.67905,200,269.85629}
			v {42.67905,187.17839,269.85629}
			v {42.67905,187.17839,239.60957}
			v {42.67905,200,239.60957}
			v {42.67905,200,180.77634}
			v {449.99997,187.17841,452.32364}
			v {314.22635,187.17841,452.32364}
			v {178.45270,187.17841,452.32364}
			v {42.67905,187.17841,452.32364}
			v {-93.09460,187.17841,452.32364}
			v {449.99997,187.17841,649.91425}
			v {314.22635,187.17841,649.91425}
			v {178.45270,187.17841,649.91425}
			v {42.67905,187.17841,649.91425}
			v {-93.09460,187.17841,649.91425}
			v {449.99997,187.17839,254.73293}
			v {314.22635,187.17839,254.73293}
			v {178.45270,187.17839,254.73293}
			v {42.67905,187.17839,254.73293}
			v {-93.09460,187.17839,254.73293}
		}
		CVertNorms
		{
			numVertNorms 3
			vn {0,-1,0}
			vn {0.00000,0,1}
			vn {0.00000,0,-1}
		}
		CUVs
		{
			setID 0
			numUVs 55
			uv {0,-2}
			uv {1,-2}
			uv {0,-3}
			uv {1,-3}
			uv {0,-2.75000}
			uv {1,-2.75000}
			uv {0,-2.25000}
			uv {1,-2.25000}
			uv {0,-2.62500}
			uv {1,-2.62500}
			uv {0,-2.37500}
			uv {1,-2.37500}
			uv {0,-2.56250}
			uv {1,-2.56250}
			uv {0,-2.43750}
			uv {1,-2.43750}
			uv {0.50000,-3}
			uv {0.50000,-2.75000}
			uv {0.50000,-2.62500}
			uv {0.50000,-2.56250}
			uv {0.50000,-2.43750}
			uv {0.50000,-2.37500}
			uv {0.50000,-2.25000}
			uv {0.50000,-2}
			uv {0.25000,-3}
			uv {0.25000,-2.75000}
			uv {0.25000,-2.62500}
			uv {0.25000,-2.56250}
			uv {0.25000,-2.43750}
			uv {0.25000,-2.37500}
			uv {0.25000,-2.25000}
			uv {0.25000,-2}
			uv {0.75000,-3}
			uv {0.75000,-2.75000}
			uv {0.75000,-2.62500}
			uv {0.75000,-2.56250}
			uv {0.75000,-2.43750}
			uv {0.75000,-2.37500}
			uv {0.75000,-2.25000}
			uv {0.75000,-2}
			uv {0,-2.50000}
			uv {0.25000,-2.50000}
			uv {0.50000,-2.50000}
			uv {0.75000,-2.50000}
			uv {1,-2.50000}
			uv {0,-2.68750}
			uv {0.25000,-2.68750}
			uv {0.50000,-2.68750}
			uv {0.75000,-2.68750}
			uv {1,-2.68750}
			uv {0,-2.31250}
			uv {0.25000,-2.31250}
			uv {0.50000,-2.31250}
			uv {0.75000,-2.31250}
			uv {1,-2.31250}
		}
		CSurface
		{
			material "lambert1"
			CQuads
			{
				numQuads 64
				q {55,0,31,-1,-1} {54,0,30,-1,-1} {6,0,6,-1,-1} {2,0,0,-1,-1}
				q {43,0,25,-1,-1} {42,0,24,-1,-1} {0,0,2,-1,-1} {4,0,4,-1,-1}
				q {53,0,30,-1,-1} {81,0,51,-1,-1} {80,0,50,-1,-1} {16,0,6,-1,-1}
				q {45,0,26,-1,-1} {76,0,46,-1,-1} {75,0,45,-1,-1} {20,0,8,-1,-1}
				q {51,0,29,-1,-1} {50,0,28,-1,-1} {14,0,14,-1,-1} {10,0,10,-1,-1}
				q {47,0,27,-1,-1} {46,0,26,-1,-1} {8,0,8,-1,-1} {12,0,12,-1,-1}
				q {70,0,40,-1,-1} {26,0,14,-1,-1} {49,0,28,-1,-1} {71,0,41,-1,-1}
				q {17,1,10,-1,-1} {52,1,29,-1,-1} {51,1,29,-1,-1} {10,1,10,-1,-1}
				q {53,2,30,-1,-1} {16,2,6,-1,-1} {6,2,6,-1,-1} {54,2,30,-1,-1}
				q {21,1,4,-1,-1} {44,1,25,-1,-1} {43,1,25,-1,-1} {4,1,4,-1,-1}
				q {45,2,26,-1,-1} {20,2,8,-1,-1} {8,2,8,-1,-1} {46,2,26,-1,-1}
				q {49,2,28,-1,-1} {26,2,14,-1,-1} {14,2,14,-1,-1} {50,2,28,-1,-1}
				q {27,1,12,-1,-1} {48,1,27,-1,-1} {47,1,27,-1,-1} {12,1,12,-1,-1}
				q {57,0,33,-1,-1} {56,0,32,-1,-1} {28,0,16,-1,-1} {29,0,17,-1,-1}
				q {58,1,33,-1,-1} {57,1,33,-1,-1} {29,1,17,-1,-1} {30,1,17,-1,-1}
				q {59,0,34,-1,-1} {78,0,48,-1,-1} {77,0,47,-1,-1} {31,0,18,-1,-1}
				q {59,2,34,-1,-1} {31,2,18,-1,-1} {32,2,18,-1,-1} {60,2,34,-1,-1}
				q {61,0,35,-1,-1} {60,0,34,-1,-1} {32,0,18,-1,-1} {33,0,19,-1,-1}
				q {62,1,35,-1,-1} {61,1,35,-1,-1} {33,1,19,-1,-1} {34,1,19,-1,-1}
				q {72,0,42,-1,-1} {35,0,20,-1,-1} {63,0,36,-1,-1} {73,0,43,-1,-1}
				q {63,2,36,-1,-1} {35,2,20,-1,-1} {36,2,20,-1,-1} {64,2,36,-1,-1}
				q {65,0,37,-1,-1} {64,0,36,-1,-1} {36,0,20,-1,-1} {37,0,21,-1,-1}
				q {66,1,37,-1,-1} {65,1,37,-1,-1} {37,1,21,-1,-1} {38,1,21,-1,-1}
				q {67,0,38,-1,-1} {83,0,53,-1,-1} {82,0,52,-1,-1} {39,0,22,-1,-1}
				q {67,2,38,-1,-1} {39,2,22,-1,-1} {40,2,22,-1,-1} {68,2,38,-1,-1}
				q {69,0,39,-1,-1} {68,0,38,-1,-1} {40,0,22,-1,-1} {41,0,23,-1,-1}
				q {29,0,17,-1,-1} {28,0,16,-1,-1} {42,0,24,-1,-1} {43,0,25,-1,-1}
				q {30,1,17,-1,-1} {29,1,17,-1,-1} {43,1,25,-1,-1} {44,1,25,-1,-1}
				q {31,0,18,-1,-1} {77,0,47,-1,-1} {76,0,46,-1,-1} {45,0,26,-1,-1}
				q {31,2,18,-1,-1} {45,2,26,-1,-1} {46,2,26,-1,-1} {32,2,18,-1,-1}
				q {33,0,19,-1,-1} {32,0,18,-1,-1} {46,0,26,-1,-1} {47,0,27,-1,-1}
				q {34,1,19,-1,-1} {33,1,19,-1,-1} {47,1,27,-1,-1} {48,1,27,-1,-1}
				q {71,0,41,-1,-1} {49,0,28,-1,-1} {35,0,20,-1,-1} {72,0,42,-1,-1}
				q {35,2,20,-1,-1} {49,2,28,-1,-1} {50,2,28,-1,-1} {36,2,20,-1,-1}
				q {37,0,21,-1,-1} {36,0,20,-1,-1} {50,0,28,-1,-1} {51,0,29,-1,-1}
				q {38,1,21,-1,-1} {37,1,21,-1,-1} {51,1,29,-1,-1} {52,1,29,-1,-1}
				q {39,0,22,-1,-1} {82,0,52,-1,-1} {81,0,51,-1,-1} {53,0,30,-1,-1}
				q {39,2,22,-1,-1} {53,2,30,-1,-1} {54,2,30,-1,-1} {40,2,22,-1,-1}
				q {41,0,23,-1,-1} {40,0,22,-1,-1} {54,0,30,-1,-1} {55,0,31,-1,-1}
				q {5,0,5,-1,-1} {1,0,3,-1,-1} {56,0,32,-1,-1} {57,0,33,-1,-1}
				q {22,1,5,-1,-1} {5,1,5,-1,-1} {57,1,33,-1,-1} {58,1,33,-1,-1}
				q {23,0,9,-1,-1} {79,0,49,-1,-1} {78,0,48,-1,-1} {59,0,34,-1,-1}
				q {23,2,9,-1,-1} {59,2,34,-1,-1} {60,2,34,-1,-1} {9,2,9,-1,-1}
				q {13,0,13,-1,-1} {9,0,9,-1,-1} {60,0,34,-1,-1} {61,0,35,-1,-1}
				q {25,1,13,-1,-1} {13,1,13,-1,-1} {61,1,35,-1,-1} {62,1,35,-1,-1}
				q {73,0,43,-1,-1} {63,0,36,-1,-1} {24,0,15,-1,-1} {74,0,44,-1,-1}
				q {24,2,15,-1,-1} {63,2,36,-1,-1} {64,2,36,-1,-1} {15,2,15,-1,-1}
				q {11,0,11,-1,-1} {15,0,15,-1,-1} {64,0,36,-1,-1} {65,0,37,-1,-1}
				q {18,1,11,-1,-1} {11,1,11,-1,-1} {65,1,37,-1,-1} {66,1,37,-1,-1}
				q {19,0,7,-1,-1} {84,0,54,-1,-1} {83,0,53,-1,-1} {67,0,38,-1,-1}
				q {19,2,7,-1,-1} {67,2,38,-1,-1} {68,2,38,-1,-1} {7,2,7,-1,-1}
				q {3,0,1,-1,-1} {7,0,7,-1,-1} {68,0,38,-1,-1} {69,0,39,-1,-1}
				q {27,0,12,-1,-1} {70,0,40,-1,-1} {71,0,41,-1,-1} {48,0,27,-1,-1}
				q {48,0,27,-1,-1} {71,0,41,-1,-1} {72,0,42,-1,-1} {34,0,19,-1,-1}
				q {34,0,19,-1,-1} {72,0,42,-1,-1} {73,0,43,-1,-1} {62,0,35,-1,-1}
				q {62,0,35,-1,-1} {73,0,43,-1,-1} {74,0,44,-1,-1} {25,0,13,-1,-1}
				q {44,0,25,-1,-1} {21,0,4,-1,-1} {75,0,45,-1,-1} {76,0,46,-1,-1}
				q {30,0,17,-1,-1} {44,0,25,-1,-1} {76,0,46,-1,-1} {77,0,47,-1,-1}
				q {58,0,33,-1,-1} {30,0,17,-1,-1} {77,0,47,-1,-1} {78,0,48,-1,-1}
				q {22,0,5,-1,-1} {58,0,33,-1,-1} {78,0,48,-1,-1} {79,0,49,-1,-1}
				q {52,0,29,-1,-1} {17,0,10,-1,-1} {80,0,50,-1,-1} {81,0,51,-1,-1}
				q {38,0,21,-1,-1} {52,0,29,-1,-1} {81,0,51,-1,-1} {82,0,52,-1,-1}
				q {66,0,37,-1,-1} {38,0,21,-1,-1} {82,0,52,-1,-1} {83,0,53,-1,-1}
				q {18,0,11,-1,-1} {66,0,37,-1,-1} {83,0,53,-1,-1} {84,0,54,-1,-1}
			}
		}
	}
}
