// Source file: C:/dev/sdk/main/sdk_examples/ArtAssets/OpenGLES/maya7/env.mb
CIwModel
{
	name "roof34"
	CMesh
	{
		name "roof34"
		scale 10
		CVerts
		{
			numVerts 70
			v {-6000,2000,4411.47559}
			v {-12000,2000,4411.47559}
			v {-6000,2000,4008.69165}
			v {-12000,2000,4008.69165}
			v {-12000,1794.61426,4008.69165}
			v {-12000,1794.61426,4411.47559}
			v {-6000,1794.61426,4008.69165}
			v {-6000,1794.61426,4411.47559}
			v {-9000,2000,4411.47559}
			v {-9000,1794.61426,4411.47559}
			v {-9000,1794.61426,4008.69165}
			v {-9000,2000,4008.69165}
			v {-7500.00098,2000,4411.47559}
			v {-7500.00098,1794.61426,4411.47559}
			v {-7500.00098,1794.61426,4008.69165}
			v {-7500.00098,2000,4008.69165}
			v {-10500,2000,4411.47559}
			v {-10500,1794.61426,4411.47559}
			v {-10500,1794.61426,4008.69165}
			v {-10500,2000,4008.69165}
			v {-6000,1794.61426,4210.08105}
			v {-7500.00098,1794.61426,4210.08105}
			v {-9000,1794.61426,4210.08105}
			v {-10500,1794.61426,4210.08105}
			v {-12000,1794.61426,4210.08105}
			v {-6000,2000,8000}
			v {-12000,2000,8000}
			v {-6000,2000,4411.47559}
			v {-12000,2000,4411.47559}
			v {-6000,2000,6407.13281}
			v {-12000,2000,6407.13281}
			v {-6000,2000,6004.34375}
			v {-12000,2000,6004.34375}
			v {-9000,2000,8000}
			v {-9000,2000,6407.13281}
			v {-9000,2000,6004.34375}
			v {-9000,2000,4411.47559}
			v {-7500.00098,2000,8000}
			v {-7500.00098,2000,6407.13281}
			v {-7500.00098,2000,6004.34375}
			v {-7500.00098,2000,4411.47559}
			v {-10500,2000,8000}
			v {-10500,2000,6407.13281}
			v {-10500,2000,6004.34375}
			v {-10500,2000,4411.47559}
			v {-6000,2000,6407.13281}
			v {-12000,2000,6407.13281}
			v {-6000,2000,6004.34375}
			v {-12000,2000,6004.34375}
			v {-12000,1794.61426,6004.34375}
			v {-12000,1794.61426,6407.13281}
			v {-6000,1794.61426,6004.34375}
			v {-6000,1794.61426,6407.13281}
			v {-9000,2000,6407.13281}
			v {-9000,1794.61426,6407.13281}
			v {-9000,1794.61426,6004.34375}
			v {-9000,2000,6004.34375}
			v {-7500.00098,2000,6407.13281}
			v {-7500.00098,1794.61426,6407.13281}
			v {-7500.00098,1794.61426,6004.34375}
			v {-7500.00098,2000,6004.34375}
			v {-10500,2000,6407.13281}
			v {-10500,1794.61426,6407.13281}
			v {-10500,1794.61426,6004.34375}
			v {-10500,2000,6004.34375}
			v {-6000,1794.61426,6205.73730}
			v {-7500.00098,1794.61426,6205.73730}
			v {-9000,1794.61426,6205.73730}
			v {-10500,1794.61426,6205.73730}
			v {-12000,1794.61426,6205.73730}
		}
		CVertNorms
		{
			numVertNorms 3
			vn {0,-1,-0.00000}
			vn {0.00000,0,-1}
			vn {0.00000,0,1}
		}
		CUVs
		{
			setID 0
			numUVs 29
			uv {-0.46515,-0.05775}
			uv {-0.46515,0.94225}
			uv {0.53485,0.94225}
			uv {0.53485,-0.05775}
			uv {-0.58394,0.39416}
			uv {-0.58394,0.07255}
			uv {-0.75592,0.07255}
			uv {-0.75592,0.39416}
			uv {-0.41579,0.39416}
			uv {-0.41579,0.07255}
			uv {-0.24763,0.39416}
			uv {-0.24763,0.07255}
			uv {-0.07947,0.39416}
			uv {-0.07947,0.07255}
			uv {-0.58394,-0.25594}
			uv {-0.75592,-0.25594}
			uv {-0.41579,-0.25594}
			uv {-0.24763,-0.25594}
			uv {-0.07947,-0.25594}
			uv {-0.75592,1.03984}
			uv {-0.58394,1.03984}
			uv {-0.58394,0.71364}
			uv {-0.75592,0.71364}
			uv {-0.41579,1.03984}
			uv {-0.41579,0.71364}
			uv {-0.24763,1.03984}
			uv {-0.24763,0.71364}
			uv {-0.07947,1.03984}
			uv {-0.07947,0.71364}
		}
		CSurface
		{
			material "lambert3"
			CQuads
			{
				numQuads 40
				q {20,0,7,-1,-1} {6,0,6,-1,-1} {14,0,5,-1,-1} {21,0,4,-1,-1}
				q {14,1,5,-1,-1} {6,1,6,-1,-1} {2,1,15,-1,-1} {15,1,14,-1,-1}
				q {7,2,22,-1,-1} {13,2,21,-1,-1} {12,2,20,-1,-1} {0,2,19,-1,-1}
				q {17,2,26,-1,-1} {16,2,25,-1,-1} {8,2,23,-1,-1} {9,2,24,-1,-1}
				q {22,0,8,-1,-1} {10,0,9,-1,-1} {18,0,11,-1,-1} {23,0,10,-1,-1}
				q {18,1,11,-1,-1} {10,1,9,-1,-1} {11,1,16,-1,-1} {19,1,17,-1,-1}
				q {9,2,24,-1,-1} {8,2,23,-1,-1} {12,2,20,-1,-1} {13,2,21,-1,-1}
				q {21,0,4,-1,-1} {14,0,5,-1,-1} {10,0,9,-1,-1} {22,0,8,-1,-1}
				q {10,1,9,-1,-1} {14,1,5,-1,-1} {15,1,14,-1,-1} {11,1,16,-1,-1}
				q {5,2,28,-1,-1} {1,2,27,-1,-1} {16,2,25,-1,-1} {17,2,26,-1,-1}
				q {23,0,10,-1,-1} {18,0,11,-1,-1} {4,0,13,-1,-1} {24,0,12,-1,-1}
				q {4,1,13,-1,-1} {18,1,11,-1,-1} {19,1,17,-1,-1} {3,1,18,-1,-1}
				q {7,0,22,-1,-1} {20,0,7,-1,-1} {21,0,4,-1,-1} {13,0,21,-1,-1}
				q {13,0,21,-1,-1} {21,0,4,-1,-1} {22,0,8,-1,-1} {9,0,24,-1,-1}
				q {9,0,24,-1,-1} {22,0,8,-1,-1} {23,0,10,-1,-1} {17,0,26,-1,-1}
				q {17,0,26,-1,-1} {23,0,10,-1,-1} {24,0,12,-1,-1} {5,0,28,-1,-1}
				q {40,0,3,-1,-1} {39,0,2,-1,-1} {31,0,1,-1,-1} {27,0,0,-1,-1}
				q {38,0,2,-1,-1} {37,0,3,-1,-1} {25,0,0,-1,-1} {29,0,1,-1,-1}
				q {42,0,2,-1,-1} {41,0,3,-1,-1} {33,0,0,-1,-1} {34,0,1,-1,-1}
				q {44,0,3,-1,-1} {43,0,2,-1,-1} {35,0,1,-1,-1} {36,0,0,-1,-1}
				q {34,0,2,-1,-1} {33,0,3,-1,-1} {37,0,0,-1,-1} {38,0,1,-1,-1}
				q {36,0,3,-1,-1} {35,0,2,-1,-1} {39,0,1,-1,-1} {40,0,0,-1,-1}
				q {30,0,2,-1,-1} {26,0,3,-1,-1} {41,0,0,-1,-1} {42,0,1,-1,-1}
				q {28,0,3,-1,-1} {32,0,2,-1,-1} {43,0,1,-1,-1} {44,0,0,-1,-1}
				q {65,0,7,-1,-1} {51,0,6,-1,-1} {59,0,5,-1,-1} {66,0,4,-1,-1}
				q {59,1,5,-1,-1} {51,1,6,-1,-1} {47,1,15,-1,-1} {60,1,14,-1,-1}
				q {52,2,22,-1,-1} {58,2,21,-1,-1} {57,2,20,-1,-1} {45,2,19,-1,-1}
				q {62,2,26,-1,-1} {61,2,25,-1,-1} {53,2,23,-1,-1} {54,2,24,-1,-1}
				q {67,0,8,-1,-1} {55,0,9,-1,-1} {63,0,11,-1,-1} {68,0,10,-1,-1}
				q {63,1,11,-1,-1} {55,1,9,-1,-1} {56,1,16,-1,-1} {64,1,17,-1,-1}
				q {54,2,24,-1,-1} {53,2,23,-1,-1} {57,2,20,-1,-1} {58,2,21,-1,-1}
				q {66,0,4,-1,-1} {59,0,5,-1,-1} {55,0,9,-1,-1} {67,0,8,-1,-1}
				q {55,1,9,-1,-1} {59,1,5,-1,-1} {60,1,14,-1,-1} {56,1,16,-1,-1}
				q {50,2,28,-1,-1} {46,2,27,-1,-1} {61,2,25,-1,-1} {62,2,26,-1,-1}
				q {68,0,10,-1,-1} {63,0,11,-1,-1} {49,0,13,-1,-1} {69,0,12,-1,-1}
				q {49,1,13,-1,-1} {63,1,11,-1,-1} {64,1,17,-1,-1} {48,1,18,-1,-1}
				q {52,0,22,-1,-1} {65,0,7,-1,-1} {66,0,4,-1,-1} {58,0,21,-1,-1}
				q {58,0,21,-1,-1} {66,0,4,-1,-1} {67,0,8,-1,-1} {54,0,24,-1,-1}
				q {54,0,24,-1,-1} {67,0,8,-1,-1} {68,0,10,-1,-1} {62,0,26,-1,-1}
				q {62,0,26,-1,-1} {68,0,10,-1,-1} {69,0,12,-1,-1} {50,0,28,-1,-1}
			}
		}
	}
}
