// Source file: C:/dev/sdk/main/sdk_examples/ArtAssets/OpenGLES/maya7/env.mb
CIwModel
{
	name "tv1"
	CMesh
	{
		name "tv1"
		scale 10
		CVerts
		{
			numVerts 26
			v {-2036.12122,397.55328,-902.56445}
			v {-2095.55151,413.47760,-902.56445}
			v {-1777.30212,1363.47900,-902.56445}
			v {-1836.73230,1379.40332,-902.56445}
			v {-1777.30212,1363.47900,1140.25830}
			v {-1836.73230,1379.40332,1140.25830}
			v {-2036.12122,397.55328,1140.25830}
			v {-2095.55151,413.47760,1140.25830}
			v {-1966.14185,896.44049,-902.56445}
			v {-1906.71155,880.51624,-902.56445}
			v {-1906.71155,880.51624,1140.25830}
			v {-1966.14185,896.44049,1140.25830}
			v {-1836.73230,1379.40332,118.84695}
			v {-1777.30212,1363.47900,118.84695}
			v {-2036.12122,397.55328,118.84695}
			v {-2095.55151,413.47760,118.84695}
			v {-1966.14185,896.44049,118.84695}
			v {-2028.57190,425.72607,118.84694}
			v {-2028.57178,425.72601,-842.98212}
			v {-1906.71082,880.51599,-842.98206}
			v {-1906.71155,880.51624,118.84695}
			v {-1784.85059,1335.30615,-842.98212}
			v {-1784.85095,1335.30627,118.84709}
			v {-1906.71155,880.51630,1080.67603}
			v {-1784.85120,1335.30640,1080.67615}
			v {-2028.57239,425.72614,1080.67590}
		}
		CVertNorms
		{
			numVertNorms 6
			vn {-0.00000,-0.00000,-1}
			vn {0.25882,0.96593,-0.00000}
			vn {0.00000,0.00000,1}
			vn {-0.25882,-0.96593,0.00000}
			vn {-0.96593,0.25882,-0.00000}
			vn {0.96593,-0.25882,0.00000}
		}
		CUVs
		{
			setID 0
			numUVs 50
			uv {0.95529,0.99603}
			uv {0.98161,0.99603}
			uv {0.98161,0.51040}
			uv {0.95529,0.51040}
			uv {0.00397,0.99603}
			uv {0.03029,0.99603}
			uv {0.03029,0.00397}
			uv {0.00397,0.00397}
			uv {0.96971,0.50134}
			uv {0.99603,0.50134}
			uv {0.99603,0.01570}
			uv {0.96971,0.01570}
			uv {0.04119,0.99603}
			uv {0.06752,0.99603}
			uv {0.06752,0.00397}
			uv {0.04119,0.00397}
			uv {0.07823,0.00397}
			uv {0.07823,0.99603}
			uv {0.50607,0.99603}
			uv {0.50607,0.00397}
			uv {0.98161,0.75321}
			uv {0.29215,0.00397}
			uv {0.95529,0.75321}
			uv {0.96971,0.25852}
			uv {0.99603,0.25852}
			uv {0.29215,0.99603}
			uv {0.03029,0.50000}
			uv {0.50607,0.50000}
			uv {0.00397,0.50000}
			uv {0.73109,0.50160}
			uv {0.04119,0.50000}
			uv {0.06752,0.50000}
			uv {0.07823,0.50000}
			uv {0.29215,0.50000}
			uv {0.51654,0.50160}
			uv {0.51654,0.00270}
			uv {0.73109,0.00270}
			uv {0.94564,0.00270}
			uv {0.94564,0.50160}
			uv {0.94564,1.00050}
			uv {0.73109,1.00050}
			uv {0.51654,1.00050}
			uv {0.52883,0.50160}
			uv {0.52883,0.97191}
			uv {0.73109,0.97191}
			uv {0.93334,0.97191}
			uv {0.93334,0.50160}
			uv {0.93334,0.03129}
			uv {0.73109,0.03129}
			uv {0.52883,0.03129}
		}
		CSurface
		{
			material "lambert8"
			CQuads
			{
				numQuads 20
				q {9,0,22,-1,-1} {8,0,20,-1,-1} {1,0,1,-1,-1} {0,0,0,-1,-1}
				q {13,1,28,-1,-1} {12,1,26,-1,-1} {3,1,5,-1,-1} {2,1,4,-1,-1}
				q {6,2,11,-1,-1} {7,2,10,-1,-1} {11,2,24,-1,-1} {10,2,23,-1,-1}
				q {0,3,15,-1,-1} {1,3,14,-1,-1} {15,3,31,-1,-1} {14,3,30,-1,-1}
				q {8,4,21,-1,-1} {16,4,33,-1,-1} {15,4,32,-1,-1} {1,4,16,-1,-1}
				q {2,0,3,-1,-1} {3,0,2,-1,-1} {8,0,20,-1,-1} {9,0,22,-1,-1}
				q {10,2,23,-1,-1} {11,2,24,-1,-1} {5,2,9,-1,-1} {4,2,8,-1,-1}
				q {3,4,19,-1,-1} {12,4,27,-1,-1} {16,4,33,-1,-1} {8,4,21,-1,-1}
				q {4,1,7,-1,-1} {5,1,6,-1,-1} {12,1,26,-1,-1} {13,1,28,-1,-1}
				q {14,3,30,-1,-1} {15,3,31,-1,-1} {7,3,13,-1,-1} {6,3,12,-1,-1}
				q {11,4,25,-1,-1} {7,4,17,-1,-1} {15,4,32,-1,-1} {16,4,33,-1,-1}
				q {5,4,18,-1,-1} {11,4,25,-1,-1} {16,4,33,-1,-1} {12,4,27,-1,-1}
				q {14,5,34,-1,-1} {17,5,42,-1,-1} {18,5,43,-1,-1} {0,5,41,-1,-1}
				q {18,5,43,-1,-1} {19,5,44,-1,-1} {9,5,40,-1,-1} {0,5,41,-1,-1}
				q {9,5,40,-1,-1} {19,5,44,-1,-1} {21,5,45,-1,-1} {2,5,39,-1,-1}
				q {21,5,45,-1,-1} {22,5,46,-1,-1} {13,5,38,-1,-1} {2,5,39,-1,-1}
				q {13,5,38,-1,-1} {22,5,46,-1,-1} {24,5,47,-1,-1} {4,5,37,-1,-1}
				q {24,5,47,-1,-1} {23,5,48,-1,-1} {10,5,36,-1,-1} {4,5,37,-1,-1}
				q {25,5,49,-1,-1} {17,5,42,-1,-1} {14,5,34,-1,-1} {6,5,35,-1,-1}
				q {10,5,36,-1,-1} {23,5,48,-1,-1} {25,5,49,-1,-1} {6,5,35,-1,-1}
			}
		}
		CSurface
		{
			material "lambert5"
			CQuads
			{
				numQuads 4
				q {20,5,29,-1,-1} {19,5,44,-1,-1} {18,5,43,-1,-1} {17,5,42,-1,-1}
				q {22,5,46,-1,-1} {21,5,45,-1,-1} {19,5,44,-1,-1} {20,5,29,-1,-1}
				q {24,5,47,-1,-1} {22,5,46,-1,-1} {20,5,29,-1,-1} {23,5,48,-1,-1}
				q {23,5,48,-1,-1} {20,5,29,-1,-1} {17,5,42,-1,-1} {25,5,49,-1,-1}
			}
		}
		CIwModelExtSelSetFace
		{
			name "sortForward"
			otzOfs -2

			f 20
			f 21
			f 22
			f 23
			f 12
			f 13
			f 14
			f 15
			f 16
			f 17
			f 18
			f 19
		}
	}
}
