// Source file: C:/dev/sdk/main/sdk_examples/ArtAssets/OpenGLES/maya7/bike.mb
CIwModel
{
	name "wheelFrontL"
	CMesh
	{
		name "wheelFrontL"
		scale 10
		CVerts
		{
			numVerts 76
			v {-0.00005,462.79678,489.08179}
			v {-0.00005,575.93152,602.21655}
			v {77.14992,573.65594,603.53027}
			v {77.14992,461.48309,491.35730}
			v {77.14992,308.25201,450.29907}
			v {0.00000,308.25208,447.67123}
			v {77.14992,155.02100,491.35730}
			v {-0.00005,153.70718,489.08188}
			v {77.14992,42.84811,603.53027}
			v {-0.00005,40.57251,602.21655}
			v {77.14992,1.78997,756.76117}
			v {0.00000,-0.83759,756.76117}
			v {77.14992,42.84811,909.99237}
			v {-0.00005,40.57251,911.30603}
			v {77.14992,155.02100,1022.16522}
			v {-0.00005,153.70718,1024.44080}
			v {77.14992,308.25201,1063.22339}
			v {-0.00005,308.25201,1065.85095}
			v {77.14992,461.48309,1022.16522}
			v {-0.00005,462.79678,1024.44080}
			v {77.14992,573.65594,909.99219}
			v {-0.00005,575.93152,911.30603}
			v {77.14992,614.71399,756.76117}
			v {0.00000,617.34161,756.76117}
			v {128.68692,517.38269,636.01953}
			v {128.68692,428.99359,547.63086}
			v {128.68692,549.73517,756.76117}
			v {128.68692,517.38269,877.50305}
			v {128.68692,428.99368,965.89185}
			v {128.68692,308.25201,998.24451}
			v {128.68692,187.51044,965.89185}
			v {128.68692,99.12140,877.50305}
			v {128.68692,66.76878,756.76117}
			v {128.68692,99.12140,636.01953}
			v {128.68692,187.51044,547.63049}
			v {128.68692,308.25201,515.27789}
			v {149.25169,308.25201,756.76117}
			v {134.45496,422.25684,559.29883}
			v {134.45496,505.71436,642.75635}
			v {134.45496,536.26172,756.76117}
			v {134.45465,505.71426,870.76611}
			v {134.45465,422.25684,954.22333}
			v {134.45496,308.25204,984.77100}
			v {134.45496,194.24716,954.22333}
			v {134.45496,110.78979,870.76611}
			v {134.45496,80.24227,756.76117}
			v {134.45496,110.78979,642.75635}
			v {134.45496,194.24716,559.29883}
			v {134.45496,308.25204,528.75146}
			v {143.52539,472.07397,756.76117}
			v {143.52539,450.12604,674.85016}
			v {143.52539,390.16302,614.88702}
			v {143.52539,308.25204,592.93927}
			v {143.52539,226.34106,614.88702}
			v {143.52539,166.37801,674.85016}
			v {143.52539,144.43001,756.76117}
			v {143.52539,166.37801,838.67236}
			v {143.52539,226.34106,898.63495}
			v {143.52539,308.25204,920.58319}
			v {143.52509,390.16302,898.63495}
			v {143.52509,450.12604,838.67200}
			v {128.68692,473.18817,921.69739}
			v {77.14992,527.84729,976.35193}
			v {-0.00005,529.73010,978.23474}
			v {128.68692,368.62286,982.06818}
			v {77.14992,388.62946,1056.72949}
			v {-0.00005,389.31857,1059.30127}
			v {128.68692,247.88123,982.06818}
			v {77.14992,227.87459,1056.72949}
			v {-0.00005,227.18542,1059.30127}
			v {128.68692,143.31590,921.69739}
			v {77.14992,88.65681,976.35193}
			v {-0.00005,86.77395,978.23474}
			v {128.68692,143.31590,591.82501}
			v {77.14992,88.65681,537.16150}
			v {-0.00005,86.77395,535.27881}
		}
		CVertNorms
		{
			numVertNorms 64
			vn {0.03404,0.49971,-0.86552}
			vn {0.03404,0.86552,-0.49971}
			vn {0.45466,0.77134,-0.44533}
			vn {0.45466,0.44533,-0.77134}
			vn {0.45466,0.00000,-0.89066}
			vn {0.03404,-0.00000,-0.99942}
			vn {0.46142,-0.38187,-0.80079}
			vn {0.03390,-0.41931,-0.90721}
			vn {0.47234,-0.62325,-0.62326}
			vn {0.03449,-0.70668,-0.70669}
			vn {0.46142,-0.80079,-0.38187}
			vn {0.45466,-0.89066,-0.00000}
			vn {0.03404,-0.99942,-0.00000}
			vn {0.03390,-0.90721,-0.41932}
			vn {0.46141,-0.80078,0.38190}
			vn {0.03390,-0.90719,0.41935}
			vn {0.47232,-0.62326,0.62326}
			vn {0.03449,-0.70669,0.70668}
			vn {0.47030,-0.44125,0.76427}
			vn {0.47232,-0.22813,0.85139}
			vn {0.03449,-0.25867,0.96535}
			vn {0.03404,-0.49971,0.86552}
			vn {0.47030,-0.00000,0.88251}
			vn {0.47232,0.22813,0.85139}
			vn {0.03449,0.25867,0.96535}
			vn {0.03404,0,0.99942}
			vn {0.47030,0.44125,0.76427}
			vn {0.47232,0.62326,0.62326}
			vn {0.03449,0.70669,0.70668}
			vn {0.03404,0.49971,0.86552}
			vn {0.46141,0.80078,0.38190}
			vn {0.45466,0.89066,-0.00000}
			vn {0.03404,0.99942,-0.00000}
			vn {0.03390,0.90719,0.41935}
			vn {0.93024,0.31779,-0.18347}
			vn {0.93024,0.18347,-0.31779}
			vn {0.93024,0.36695,-0.00000}
			vn {0.93396,0.31828,0.16250}
			vn {0.93785,0.17351,0.30054}
			vn {0.90038,0.30767,0.30767}
			vn {0.93785,-0.00000,0.34703}
			vn {0.90038,0.11262,0.42029}
			vn {0.93785,-0.17351,0.30054}
			vn {0.90038,-0.11262,0.42029}
			vn {0.93396,-0.31828,0.16250}
			vn {0.90038,-0.30767,0.30767}
			vn {0.93024,-0.36695,-0.00000}
			vn {0.93397,-0.31828,-0.16249}
			vn {0.93397,-0.16249,-0.31828}
			vn {0.90038,-0.30766,-0.30766}
			vn {0.93024,0.00000,-0.36695}
			vn {1,0.00000,-0.00000}
			vn {0.99016,0.06996,-0.12118}
			vn {0.99016,0.12118,-0.06996}
			vn {0.99016,0.13992,0.00000}
			vn {0.99016,0.12117,0.06996}
			vn {0.99016,0.06996,0.12117}
			vn {0.99016,0.00000,0.13992}
			vn {0.99016,-0.06996,0.12117}
			vn {0.99016,-0.12118,0.06996}
			vn {0.99016,-0.13992,-0.00000}
			vn {0.99016,-0.12118,-0.06996}
			vn {0.99016,-0.06996,-0.12118}
			vn {0.99016,0.00000,-0.13992}
		}
		CVertCols
		{
			numVertCols 3
			col {1,1,1,1}
			col {0.71630,0.71630,0.71630,1}
			col {0.43970,0.43970,0.43970,1}
		}
		CUVs
		{
			setID 0
			numUVs 75
			uv {0.49517,0.00750}
			uv {0.42996,0.00750}
			uv {0.42996,0.05235}
			uv {0.49517,0.05235}
			uv {0.58425,0.05235}
			uv {0.58425,0.00750}
			uv {0.67333,0.05235}
			uv {0.67333,0.00750}
			uv {0.73855,0.05235}
			uv {0.73855,0.00750}
			uv {0.82763,0.05235}
			uv {0.82763,0.00750}
			uv {0.91671,0.05235}
			uv {0.91671,0.00750}
			uv {0.98192,0.05235}
			uv {0.98192,0.00750}
			uv {0.00843,0.05235}
			uv {0.09751,0.05235}
			uv {0.09751,0.00750}
			uv {0.00843,0.00750}
			uv {0.18659,0.05235}
			uv {0.18659,0.00750}
			uv {0.25180,0.05235}
			uv {0.25180,0.00750}
			uv {0.34088,0.05235}
			uv {0.34088,0.00750}
			uv {0.30346,0.35307}
			uv {0.35905,0.29747}
			uv {0.33116,0.28137}
			uv {0.28736,0.32518}
			uv {0.37940,0.22153}
			uv {0.34720,0.22153}
			uv {0.35905,0.14559}
			uv {0.33116,0.16169}
			uv {0.30346,0.09000}
			uv {0.28736,0.11788}
			uv {0.22752,0.06965}
			uv {0.22752,0.10185}
			uv {0.15157,0.09000}
			uv {0.16768,0.11788}
			uv {0.09598,0.14559}
			uv {0.12387,0.16169}
			uv {0.07563,0.22153}
			uv {0.10784,0.22153}
			uv {0.09598,0.29747}
			uv {0.12387,0.28137}
			uv {0.15157,0.35307}
			uv {0.16768,0.32518}
			uv {0.22752,0.37342}
			uv {0.22752,0.34121}
			uv {0.22752,0.22153}
			uv {0,1}
			uv {1,1}
			uv {1,0}
			uv {0,0}
			uv {0.30926,0.13979}
			uv {0.21920,0.05235}
			uv {0.33126,0.11779}
			uv {0.21920,0.00750}
			uv {0.25744,0.10987}
			uv {0.14205,0.05235}
			uv {0.26549,0.07982}
			uv {0.14205,0.00750}
			uv {0.19760,0.10987}
			uv {0.05297,0.05235}
			uv {0.18955,0.07982}
			uv {0.05297,0.00750}
			uv {0.14577,0.13979}
			uv {0.94931,0.05235}
			uv {0.12378,0.11779}
			uv {0.94931,0.00750}
			uv {0.14577,0.30327}
			uv {0.70594,0.05235}
			uv {0.12378,0.32527}
			uv {0.70594,0.00750}
		}
		CSurface
		{
			material "phong13"
			CQuads
			{
				numQuads 12
				q {51,52,54,-1,0} {50,53,53,-1,0} {38,53,52,-1,0} {37,52,51,-1,0}
				q {50,53,54,-1,0} {49,54,53,-1,0} {39,54,52,-1,0} {38,53,51,-1,0}
				q {49,54,54,-1,0} {60,55,53,-1,0} {40,55,52,-1,0} {39,54,51,-1,0}
				q {60,55,54,-1,0} {59,56,53,-1,0} {41,56,52,-1,0} {40,55,51,-1,0}
				q {59,56,54,-1,0} {58,57,53,-1,0} {42,57,52,-1,0} {41,56,51,-1,0}
				q {58,57,54,-1,0} {57,58,53,-1,0} {43,58,52,-1,0} {42,57,51,-1,0}
				q {57,58,54,-1,0} {56,59,53,-1,0} {44,59,52,-1,0} {43,58,51,-1,0}
				q {56,59,54,-1,0} {55,60,53,-1,0} {45,60,52,-1,0} {44,59,51,-1,0}
				q {55,60,54,-1,0} {54,61,53,-1,0} {46,61,52,-1,0} {45,60,51,-1,0}
				q {54,61,54,-1,0} {53,62,53,-1,0} {47,62,52,-1,0} {46,61,51,-1,0}
				q {53,62,54,-1,0} {52,63,53,-1,0} {48,63,52,-1,0} {47,62,51,-1,0}
				q {52,63,54,-1,0} {51,52,53,-1,0} {37,52,52,-1,0} {48,63,51,-1,0}
			}
		}
		CSurface
		{
			material "phong1"
			CQuads
			{
				numQuads 39
				q {3,3,3,-1,1} {2,2,2,-1,1} {1,1,1,-1,0} {0,0,0,-1,0}
				q {4,4,4,-1,1} {3,3,3,-1,1} {0,0,0,-1,0} {5,5,5,-1,0}
				q {6,6,6,-1,1} {4,4,4,-1,1} {5,5,5,-1,0} {7,7,7,-1,0}
				q {75,9,74,-1,0} {74,8,72,-1,1} {6,6,6,-1,1} {7,7,7,-1,0}
				q {10,11,10,-1,1} {8,10,8,-1,1} {9,13,9,-1,0} {11,12,11,-1,0}
				q {12,14,12,-1,1} {10,11,10,-1,1} {11,12,11,-1,0} {13,15,13,-1,0}
				q {72,17,70,-1,0} {71,16,68,-1,1} {12,14,12,-1,1} {13,15,13,-1,0}
				q {68,19,64,-1,1} {14,18,16,-1,1} {15,21,19,-1,0} {69,20,66,-1,0}
				q {65,23,60,-1,1} {16,22,17,-1,1} {17,25,18,-1,0} {66,24,62,-1,0}
				q {62,27,56,-1,1} {18,26,20,-1,1} {19,29,21,-1,0} {63,28,58,-1,0}
				q {22,31,24,-1,1} {20,30,22,-1,1} {21,33,23,-1,0} {23,32,25,-1,0}
				q {2,2,2,-1,1} {22,31,24,-1,1} {23,32,25,-1,0} {1,1,1,-1,0}
				q {25,35,29,-1,2} {24,34,28,-1,2} {2,2,27,-1,1} {3,3,26,-1,1}
				q {24,34,28,-1,2} {26,36,31,-1,2} {22,31,30,-1,1} {2,2,27,-1,1}
				q {26,36,31,-1,2} {27,37,33,-1,2} {20,30,32,-1,1} {22,31,30,-1,1}
				q {61,39,55,-1,2} {28,38,35,-1,2} {18,26,34,-1,1} {62,27,57,-1,1}
				q {64,41,59,-1,2} {29,40,37,-1,2} {16,22,36,-1,1} {65,23,61,-1,1}
				q {67,43,63,-1,2} {30,42,39,-1,2} {14,18,38,-1,1} {68,19,65,-1,1}
				q {70,45,67,-1,2} {31,44,41,-1,2} {12,14,40,-1,1} {71,16,69,-1,1}
				q {12,14,40,-1,1} {31,44,41,-1,2} {32,46,43,-1,2} {10,11,42,-1,1}
				q {32,46,43,-1,2} {33,47,45,-1,2} {8,10,44,-1,1} {10,11,42,-1,1}
				q {73,49,71,-1,2} {34,48,47,-1,2} {6,6,46,-1,1} {74,8,73,-1,1}
				q {6,6,46,-1,1} {34,48,47,-1,2} {35,50,49,-1,2} {4,4,48,-1,1}
				q {35,50,49,-1,2} {25,35,29,-1,2} {3,3,26,-1,1} {4,4,48,-1,1}
				q {36,51,50,-1,2} {28,38,35,-1,2} {61,39,55,-1,2} {27,37,33,-1,2}
				q {36,51,50,-1,2} {29,40,37,-1,2} {64,41,59,-1,2} {28,38,35,-1,2}
				q {36,51,50,-1,2} {30,42,39,-1,2} {67,43,63,-1,2} {29,40,37,-1,2}
				q {36,51,50,-1,2} {31,44,41,-1,2} {70,45,67,-1,2} {30,42,39,-1,2}
				q {36,51,50,-1,2} {34,48,47,-1,2} {73,49,71,-1,2} {33,47,45,-1,2}
				q {20,30,32,-1,1} {27,37,33,-1,2} {61,39,55,-1,2} {62,27,57,-1,1}
				q {20,30,22,-1,1} {62,27,56,-1,1} {63,28,58,-1,0} {21,33,23,-1,0}
				q {18,26,34,-1,1} {28,38,35,-1,2} {64,41,59,-1,2} {65,23,61,-1,1}
				q {19,29,21,-1,0} {18,26,20,-1,1} {65,23,60,-1,1} {66,24,62,-1,0}
				q {16,22,36,-1,1} {29,40,37,-1,2} {67,43,63,-1,2} {68,19,65,-1,1}
				q {17,25,18,-1,0} {16,22,17,-1,1} {68,19,64,-1,1} {69,20,66,-1,0}
				q {14,18,38,-1,1} {30,42,39,-1,2} {70,45,67,-1,2} {71,16,69,-1,1}
				q {15,21,15,-1,0} {14,18,14,-1,1} {71,16,68,-1,1} {72,17,70,-1,0}
				q {8,10,44,-1,1} {33,47,45,-1,2} {73,49,71,-1,2} {74,8,73,-1,1}
				q {8,10,8,-1,1} {74,8,72,-1,1} {75,9,74,-1,0} {9,13,9,-1,0}
			}
			CTris
			{
				numTris 7
				t {36,51,50,-1,2} {24,34,28,-1,2} {25,35,29,-1,2}
				t {36,51,50,-1,2} {26,36,31,-1,2} {24,34,28,-1,2}
				t {36,51,50,-1,2} {27,37,33,-1,2} {26,36,31,-1,2}
				t {36,51,50,-1,2} {32,46,43,-1,2} {31,44,41,-1,2}
				t {36,51,50,-1,2} {33,47,45,-1,2} {32,46,43,-1,2}
				t {36,51,50,-1,2} {35,50,49,-1,2} {34,48,47,-1,2}
				t {36,51,50,-1,2} {25,35,29,-1,2} {35,50,49,-1,2}
			}
		}
	}
}
