// Source file: C:/dev/sdk/main/sdk_examples/ArtAssets/OpenGLES/maya7/bike.mb
CIwModel
{
	name "wheelRearR"
	CMesh
	{
		name "wheelRearR"
		scale 10
		CVerts
		{
			numVerts 82
			v {0.00010,462.79681,-993.90613}
			v {0.00010,575.93158,-880.77136}
			v {-77.14986,573.65594,-879.45752}
			v {-77.14986,461.48309,-991.63055}
			v {-77.14986,308.25201,-1032.68872}
			v {0.00005,308.25211,-1035.31665}
			v {-77.14986,155.02103,-991.63055}
			v {0.00010,153.70721,-993.90594}
			v {-77.14986,42.84814,-879.45752}
			v {0.00010,40.57254,-880.77136}
			v {-77.14986,1.79000,-726.22668}
			v {0.00005,-0.83756,-726.22668}
			v {-77.14986,42.84814,-572.99554}
			v {0.00010,40.57254,-571.68176}
			v {-77.14986,155.02103,-460.82263}
			v {0.00010,153.70721,-458.54706}
			v {-77.14986,308.25201,-419.76453}
			v {0.00010,308.25201,-417.13687}
			v {-77.14986,461.48309,-460.82263}
			v {0.00010,462.79681,-458.54706}
			v {-77.14986,573.65594,-572.99561}
			v {0.00010,575.93158,-571.68176}
			v {-77.14986,614.71399,-726.22668}
			v {0.00005,617.34167,-726.22668}
			v {-128.68687,517.38269,-846.96826}
			v {-128.68687,428.99365,-935.35693}
			v {-128.68687,549.73523,-726.22668}
			v {-128.68687,517.38269,-605.48486}
			v {-128.68687,428.99368,-517.09601}
			v {-128.68687,308.25201,-484.74335}
			v {-128.68687,187.51045,-517.09601}
			v {-128.68687,99.12144,-605.48486}
			v {-128.68687,66.76881,-726.22668}
			v {-128.68687,99.12144,-846.96826}
			v {-128.68687,187.51045,-935.35736}
			v {-128.68687,308.25201,-967.70996}
			v {-149.25165,308.25201,-726.22668}
			v {-134.45486,422.25690,-923.68896}
			v {-134.45486,505.71429,-840.23145}
			v {-134.45486,536.26172,-726.22668}
			v {-134.45456,505.71423,-612.22180}
			v {-134.45456,422.25690,-528.76459}
			v {-134.45486,308.25208,-498.21692}
			v {-134.45486,194.24721,-528.76459}
			v {-134.45486,110.78980,-612.22180}
			v {-134.45486,80.24228,-726.22668}
			v {-134.45486,110.78980,-840.23145}
			v {-134.45486,194.24721,-923.68896}
			v {-134.45486,308.25208,-954.23633}
			v {-143.52530,472.07397,-726.22668}
			v {-143.52530,450.12607,-808.13770}
			v {-143.52530,390.16302,-868.10071}
			v {-143.52530,308.25208,-890.04852}
			v {-143.52530,226.34109,-868.10071}
			v {-143.52530,166.37802,-808.13770}
			v {-143.52530,144.43002,-726.22668}
			v {-143.52530,166.37802,-644.31549}
			v {-143.52530,226.34109,-584.35297}
			v {-143.52530,308.25208,-562.40472}
			v {-143.52499,390.16302,-584.35297}
			v {-143.52499,450.12601,-644.31580}
			v {0.00009,607.68671,-806.45984}
			v {-77.14987,605.14105,-805.77771}
			v {-128.68687,533.55896,-786.59741}
			v {0.00012,527.45337,-945.42786}
			v {-77.14987,525.58997,-943.56445}
			v {-128.68687,473.18817,-891.16260}
			v {0.00009,388.48529,-1025.66138}
			v {-77.14987,387.80322,-1023.11584}
			v {-128.68687,368.62280,-951.53351}
			v {0.00009,228.01880,-1025.66138}
			v {-77.14987,228.70084,-1023.11584}
			v {-128.68687,247.88124,-951.53369}
			v {0.00012,89.05067,-945.42786}
			v {-77.14987,90.91416,-943.56445}
			v {-128.68687,143.31595,-891.16284}
			v {0.00012,89.05067,-507.02518}
			v {-77.14987,90.91416,-508.88867}
			v {-128.68687,143.31595,-561.29041}
			v {0.00012,228.01877,-426.79193}
			v {-77.14987,228.70084,-429.33746}
			v {-128.68687,247.88124,-500.91968}
		}
		CVertNorms
		{
			numVertNorms 70
			vn {-0.03414,0.70669,-0.70669}
			vn {-0.46554,0.62581,-0.62581}
			vn {-0.46671,0.76592,-0.44221}
			vn {-0.03404,0.86552,-0.49971}
			vn {-0.46671,0.44221,-0.76592}
			vn {-0.03404,0.49971,-0.86552}
			vn {-0.03414,0.25867,-0.96536}
			vn {-0.46554,0.22906,-0.85487}
			vn {-0.46671,0.00000,-0.88441}
			vn {-0.03404,0.00000,-0.99942}
			vn {-0.03414,-0.25867,-0.96536}
			vn {-0.46554,-0.22906,-0.85487}
			vn {-0.46671,-0.44221,-0.76592}
			vn {-0.03404,-0.49971,-0.86552}
			vn {-0.03414,-0.70669,-0.70669}
			vn {-0.46554,-0.62581,-0.62581}
			vn {-0.46003,-0.79484,-0.39572}
			vn {-0.03395,-0.89880,-0.43703}
			vn {-0.03404,-0.99942,-0.00000}
			vn {-0.45466,-0.89066,-0.00000}
			vn {-0.03395,-0.89880,0.43703}
			vn {-0.46003,-0.79484,0.39572}
			vn {-0.03414,-0.70669,0.70669}
			vn {-0.46554,-0.62581,0.62581}
			vn {-0.46671,-0.44221,0.76592}
			vn {-0.03404,-0.49971,0.86552}
			vn {-0.03414,-0.25867,0.96536}
			vn {-0.46554,-0.22906,0.85487}
			vn {-0.46003,0.05472,0.88621}
			vn {-0.03395,0.07092,0.99690}
			vn {-0.03404,0.49971,0.86552}
			vn {-0.45466,0.44533,0.77134}
			vn {-0.03404,0.86552,0.49971}
			vn {-0.45466,0.77134,0.44533}
			vn {-0.03395,0.99690,0.07092}
			vn {-0.46003,0.88621,0.05472}
			vn {-0.03414,0.96536,-0.25867}
			vn {-0.46554,0.85487,-0.22906}
			vn {-0.89672,0.31296,-0.31296}
			vn {-0.93630,0.30414,-0.17560}
			vn {-0.89672,0.42751,-0.11455}
			vn {-0.93322,0.35901,0.01461}
			vn {-0.93024,0.31779,0.18347}
			vn {-0.93024,0.18347,0.31779}
			vn {-0.93322,0.01461,0.35901}
			vn {-0.89672,-0.11455,0.42751}
			vn {-0.93630,-0.17560,0.30414}
			vn {-0.89672,-0.31296,0.31296}
			vn {-0.93322,-0.31822,0.16685}
			vn {-0.93024,-0.36695,-0.00000}
			vn {-0.93322,-0.31822,-0.16685}
			vn {-0.89672,-0.31296,-0.31296}
			vn {-0.93630,-0.17560,-0.30414}
			vn {-0.89672,-0.11455,-0.42751}
			vn {-0.93630,0.00000,-0.35119}
			vn {-0.89672,0.11455,-0.42751}
			vn {-0.93630,0.17560,-0.30414}
			vn {-1,0.00000,0.00000}
			vn {-0.99016,0.06996,-0.12118}
			vn {-0.99016,0.12118,-0.06996}
			vn {-0.99016,0.13992,0.00000}
			vn {-0.99016,0.12117,0.06996}
			vn {-0.99016,0.06996,0.12117}
			vn {-0.99016,0.00000,0.13992}
			vn {-0.99016,-0.06996,0.12117}
			vn {-0.99016,-0.12117,0.06996}
			vn {-0.99016,-0.13992,0.00000}
			vn {-0.99016,-0.12118,-0.06996}
			vn {-0.99016,-0.06996,-0.12117}
			vn {-0.99016,0.00000,-0.13992}
		}
		CVertCols
		{
			numVertCols 3
			col {1,1,1,1}
			col {0.71630,0.71630,0.71630,1}
			col {0.43970,0.43970,0.43970,1}
		}
		CUVs
		{
			setID 0
			numUVs 83
			uv {0.49517,0.00750}
			uv {0.42996,0.00750}
			uv {0.42996,0.05235}
			uv {0.49517,0.05235}
			uv {0.58425,0.05235}
			uv {0.58425,0.00750}
			uv {0.67333,0.05235}
			uv {0.67333,0.00750}
			uv {0.73855,0.05235}
			uv {0.73855,0.00750}
			uv {0.82763,0.05235}
			uv {0.82763,0.00750}
			uv {0.91671,0.05235}
			uv {0.91671,0.00750}
			uv {0.98192,0.05235}
			uv {0.98192,0.00750}
			uv {0.00843,0.05235}
			uv {0.09751,0.05235}
			uv {0.09751,0.00750}
			uv {0.00843,0.00750}
			uv {0.18659,0.05235}
			uv {0.18659,0.00750}
			uv {0.25180,0.05235}
			uv {0.25180,0.00750}
			uv {0.34088,0.05235}
			uv {0.34088,0.00750}
			uv {0.30346,0.35307}
			uv {0.35905,0.29747}
			uv {0.33116,0.28137}
			uv {0.28736,0.32518}
			uv {0.37940,0.22153}
			uv {0.34720,0.22153}
			uv {0.35905,0.14559}
			uv {0.33116,0.16169}
			uv {0.30346,0.09000}
			uv {0.28736,0.11788}
			uv {0.22752,0.06965}
			uv {0.22752,0.10185}
			uv {0.15157,0.09000}
			uv {0.16768,0.11788}
			uv {0.09598,0.14559}
			uv {0.12387,0.16169}
			uv {0.07563,0.22153}
			uv {0.10784,0.22153}
			uv {0.09598,0.29747}
			uv {0.12387,0.28137}
			uv {0.15157,0.35307}
			uv {0.16768,0.32518}
			uv {0.22752,0.37342}
			uv {0.22752,0.34121}
			uv {0.22752,0.22153}
			uv {0,1}
			uv {1,1}
			uv {1,0}
			uv {0,0}
			uv {0.38542,0.00750}
			uv {0.36923,0.25950}
			uv {0.38542,0.05235}
			uv {0.33918,0.25145}
			uv {0.46257,0.00750}
			uv {0.33126,0.32527}
			uv {0.46257,0.05235}
			uv {0.30926,0.30327}
			uv {0.53971,0.00750}
			uv {0.26549,0.36324}
			uv {0.53971,0.05235}
			uv {0.25744,0.33319}
			uv {0.62879,0.00750}
			uv {0.18955,0.36324}
			uv {0.62879,0.05235}
			uv {0.19760,0.33319}
			uv {0.70594,0.00750}
			uv {0.12378,0.32527}
			uv {0.70594,0.05235}
			uv {0.14577,0.30327}
			uv {0.94931,0.00750}
			uv {0.12378,0.11779}
			uv {0.94931,0.05235}
			uv {0.14577,0.13979}
			uv {0.05297,0.00750}
			uv {0.18955,0.07982}
			uv {0.05297,0.05235}
			uv {0.19760,0.10987}
		}
		CSurface
		{
			material "phong13"
			CQuads
			{
				numQuads 12
				q {38,59,52,-1,0} {50,59,53,-1,0} {51,58,54,-1,0} {37,58,51,-1,0}
				q {39,60,52,-1,0} {49,60,53,-1,0} {50,59,54,-1,0} {38,59,51,-1,0}
				q {40,61,52,-1,0} {60,61,53,-1,0} {49,60,54,-1,0} {39,60,51,-1,0}
				q {41,62,52,-1,0} {59,62,53,-1,0} {60,61,54,-1,0} {40,61,51,-1,0}
				q {42,63,52,-1,0} {58,63,53,-1,0} {59,62,54,-1,0} {41,62,51,-1,0}
				q {43,64,52,-1,0} {57,64,53,-1,0} {58,63,54,-1,0} {42,63,51,-1,0}
				q {44,65,52,-1,0} {56,65,53,-1,0} {57,64,54,-1,0} {43,64,51,-1,0}
				q {45,66,52,-1,0} {55,66,53,-1,0} {56,65,54,-1,0} {44,65,51,-1,0}
				q {46,67,52,-1,0} {54,67,53,-1,0} {55,66,54,-1,0} {45,66,51,-1,0}
				q {47,68,52,-1,0} {53,68,53,-1,0} {54,67,54,-1,0} {46,67,51,-1,0}
				q {48,69,52,-1,0} {52,69,53,-1,0} {53,68,54,-1,0} {47,68,51,-1,0}
				q {37,58,52,-1,0} {51,58,53,-1,0} {52,69,54,-1,0} {48,69,51,-1,0}
			}
		}
		CSurface
		{
			material "phong1"
			CQuads
			{
				numQuads 45
				q {1,3,1,-1,0} {2,2,2,-1,1} {65,1,61,-1,1} {64,0,59,-1,0}
				q {3,4,3,-1,1} {68,7,65,-1,1} {67,6,63,-1,0} {0,5,0,-1,0}
				q {4,8,4,-1,1} {71,11,69,-1,1} {70,10,67,-1,0} {5,9,5,-1,0}
				q {6,12,6,-1,1} {74,15,73,-1,1} {73,14,71,-1,0} {7,13,7,-1,0}
				q {9,17,9,-1,0} {8,16,8,-1,1} {10,19,10,-1,1} {11,18,11,-1,0}
				q {10,19,10,-1,1} {12,21,12,-1,1} {13,20,13,-1,0} {11,18,11,-1,0}
				q {12,21,12,-1,1} {77,23,77,-1,1} {76,22,75,-1,0} {13,20,13,-1,0}
				q {14,24,16,-1,1} {80,27,81,-1,1} {79,26,79,-1,0} {15,25,19,-1,0}
				q {17,29,18,-1,0} {16,28,17,-1,1} {18,31,20,-1,1} {19,30,21,-1,0}
				q {18,31,20,-1,1} {20,33,22,-1,1} {21,32,23,-1,0} {19,30,21,-1,0}
				q {20,33,22,-1,1} {22,35,24,-1,1} {23,34,25,-1,0} {21,32,23,-1,0}
				q {22,35,24,-1,1} {62,37,57,-1,1} {61,36,55,-1,0} {23,34,25,-1,0}
				q {2,2,27,-1,1} {24,39,28,-1,2} {66,38,62,-1,2} {65,1,60,-1,1}
				q {22,35,30,-1,1} {26,41,31,-1,2} {63,40,58,-1,2} {62,37,56,-1,1}
				q {27,42,33,-1,2} {26,41,31,-1,2} {22,35,30,-1,1} {20,33,32,-1,1}
				q {18,31,34,-1,1} {28,43,35,-1,2} {27,42,33,-1,2} {20,33,32,-1,1}
				q {16,28,36,-1,1} {29,44,37,-1,2} {28,43,35,-1,2} {18,31,34,-1,1}
				q {14,24,38,-1,1} {30,46,39,-1,2} {81,45,82,-1,2} {80,27,80,-1,1}
				q {12,21,40,-1,1} {31,48,41,-1,2} {78,47,78,-1,2} {77,23,76,-1,1}
				q {32,49,43,-1,2} {31,48,41,-1,2} {12,21,40,-1,1} {10,19,42,-1,1}
				q {8,16,44,-1,1} {33,50,45,-1,2} {32,49,43,-1,2} {10,19,42,-1,1}
				q {6,12,46,-1,1} {34,52,47,-1,2} {75,51,74,-1,2} {74,15,72,-1,1}
				q {4,8,48,-1,1} {35,54,49,-1,2} {72,53,70,-1,2} {71,11,68,-1,1}
				q {3,4,26,-1,1} {25,56,29,-1,2} {69,55,66,-1,2} {68,7,64,-1,1}
				q {66,38,62,-1,2} {24,39,28,-1,2} {36,57,50,-1,2} {25,56,29,-1,2}
				q {63,40,58,-1,2} {26,41,31,-1,2} {36,57,50,-1,2} {24,39,28,-1,2}
				q {81,45,82,-1,2} {30,46,39,-1,2} {36,57,50,-1,2} {29,44,37,-1,2}
				q {78,47,78,-1,2} {31,48,41,-1,2} {36,57,50,-1,2} {30,46,39,-1,2}
				q {75,51,74,-1,2} {34,52,47,-1,2} {36,57,50,-1,2} {33,50,45,-1,2}
				q {72,53,70,-1,2} {35,54,49,-1,2} {36,57,50,-1,2} {34,52,47,-1,2}
				q {69,55,66,-1,2} {25,56,29,-1,2} {36,57,50,-1,2} {35,54,49,-1,2}
				q {62,37,57,-1,1} {2,2,2,-1,1} {1,3,1,-1,0} {61,36,55,-1,0}
				q {63,40,58,-1,2} {24,39,28,-1,2} {2,2,27,-1,1} {62,37,56,-1,1}
				q {64,0,59,-1,0} {65,1,61,-1,1} {3,4,3,-1,1} {0,5,0,-1,0}
				q {66,38,62,-1,2} {25,56,29,-1,2} {3,4,26,-1,1} {65,1,60,-1,1}
				q {68,7,65,-1,1} {4,8,4,-1,1} {5,9,5,-1,0} {67,6,63,-1,0}
				q {69,55,66,-1,2} {35,54,49,-1,2} {4,8,48,-1,1} {68,7,64,-1,1}
				q {71,11,69,-1,1} {6,12,6,-1,1} {7,13,7,-1,0} {70,10,67,-1,0}
				q {72,53,70,-1,2} {34,52,47,-1,2} {6,12,46,-1,1} {71,11,68,-1,1}
				q {74,15,73,-1,1} {8,16,8,-1,1} {9,17,9,-1,0} {73,14,71,-1,0}
				q {75,51,74,-1,2} {33,50,45,-1,2} {8,16,44,-1,1} {74,15,72,-1,1}
				q {77,23,77,-1,1} {14,24,14,-1,1} {15,25,15,-1,0} {76,22,75,-1,0}
				q {78,47,78,-1,2} {30,46,39,-1,2} {14,24,38,-1,1} {77,23,76,-1,1}
				q {80,27,81,-1,1} {16,28,17,-1,1} {17,29,18,-1,0} {79,26,79,-1,0}
				q {81,45,82,-1,2} {29,44,37,-1,2} {16,28,36,-1,1} {80,27,80,-1,1}
			}
			CTris
			{
				numTris 5
				t {27,42,33,-1,2} {36,57,50,-1,2} {26,41,31,-1,2}
				t {28,43,35,-1,2} {36,57,50,-1,2} {27,42,33,-1,2}
				t {29,44,37,-1,2} {36,57,50,-1,2} {28,43,35,-1,2}
				t {32,49,43,-1,2} {36,57,50,-1,2} {31,48,41,-1,2}
				t {33,50,45,-1,2} {36,57,50,-1,2} {32,49,43,-1,2}
			}
		}
	}
}
