{
    "keys": [
        {
            "easing": 19,
            "name": "Position",
            "time": 400,
            "type": 0,
            "value": [
                335.83358764648438,
                378.80056762695312
            ]
        },
        {
            "easing": 1,
            "name": "Position",
            "time": 1270,
            "type": 0,
            "value": [
                635.0860595703125,
                380.97125244140625
            ]
        },
        {
            "easing": 0,
            "name": "Position",
            "time": 1890,
            "type": 0,
            "value": [
                1083.0687255859375,
                391.38214111328125
            ]
        },
        {
            "easing": 0,
            "name": "TextureId",
            "time": 0,
            "type": 0,
            "value": 4
        },
        {
            "easing": 0,
            "name": "TextureId",
            "time": 1890,
            "type": 0,
            "value": 4
        },
        {
            "easing": 0,
            "name": "TextureId",
            "time": 1010,
            "type": 0,
            "value": 3
        }
    ],
    "loop": true,
    "playDirection": 0,
    "version": "1.1"
}
