{
    "keys": [
        {
            "easing": 0,
            "name": "Position",
            "time": 0,
            "type": 1,
            "value": [
                -22.40521240234375,
                0
            ]
        },
        {
            "easing": 0,
            "name": "Position",
            "time": 4000,
            "type": 1,
            "value": [
                -369.0272216796875,
                -11.86163330078125
            ]
        },
        {
            "easing": 0,
            "name": "Position",
            "time": 8000,
            "type": 1,
            "value": [
                -210.87271118164062,
                -162.10842895507812
            ]
        },
        {
            "easing": 0,
            "name": "Rotation",
            "time": 4000,
            "type": 1,
            "value": 90
        }
    ],
    "loop": true,
    "playDirection": 2,
    "version": "1.1"
}
