// Source maya file: C:/Dev/dev/main/gamedemo1/Art/environment/fightArena/arena_grey.mb exported by: barclay
//: source C:/Dev/dev/main/gamedemo1/Art/environment/fightArena/arena_grey.mb
// Maya geometry export, written by IwEngineExporter.mll

// Meshes
CMesh
{
	name	"fightArea"
	scale 4.
	CVerts
	{
		numVerts 221
		v {853.507 -119.492 348.656}
		v {849.916 -55.5658 -355.192}
		v {849.916 -51.3484 355.192}
		v {840.624 -2.20671 348.198}
		v {840.624 -2.20671 -348.198}
		v {560.416 -2.20671 232.132}
		v {560.416 -2.20671 -232.132}
		v {280.208 -2.20671 116.066}
		v {280.208 -2.20671 -116.066}
		v {0. -2.20671 0.}
		v {763.126 -383.872 350.245}
		v {736.447 -383.872 -319.849}
		v {528.497 -676.028 303.462}
		v {565.046 -676.028 -239.823}
		v {852.14 -83.8479 100.024}
		v {875.945 -103.898 238.479}
		v {884.864 -112.547 42.1258}
		v {852.14 -37.1091 -78.5672}
		v {883.979 -117.719 -139.573}
		v {862.29 -111.903 -326.474}
		v {852.14 -57.5172 -273.417}
		v {876.22 -112.547 -211.147}
		v {757.591 -383.872 116.572}
		v {754.621 -383.872 -61.8346}
		v {784.688 -383.872 -219.063}
		v {810.441 -383.872 203.104}
		v {791.863 -383.872 3.88888}
		v {784.688 -383.872 -126.636}
		v {787.238 -383.872 -291.937}
		v {575.673 -676.028 111.5}
		v {566.657 -676.028 -32.5794}
		v {852.14 -41.6061 237.85}
		v {852.14 -27.6785 -1.68514}
		v {852.14 -20.9288 -166.384}
		v {355.192 -87.6691 -852.14}
		v {348.198 -2.20671 -840.624}
		v {232.132 -2.20671 -560.416}
		v {116.066 -2.20671 -280.208}
		v {299.404 -383.872 -752.331}
		v {673.282 -53.3829 -531.826}
		v {788.017 -103.898 -450.756}
		v {655.481 -112.547 -595.906}
		v {546.998 -87.7133 -658.109}
		v {409.219 -82.595 -795.889}
		v {470.277 -112.547 -768.884}
		v {618.093 -383.872 -453.255}
		v {489.84 -383.872 -577.307}
		v {360.702 -383.872 -731.813}
		v {716.651 -383.872 -429.438}
		v {562.647 -383.872 -557.168}
		v {421.792 -383.872 -687.876}
		v {513.182 -676.028 -318.759}
		v {442.812 -676.028 -337.652}
		v {410.424 -676.028 -405.258}
		v {323.932 -676.028 -442.161}
		v {271.168 -676.028 -544.214}
		v {770.74 -45.4312 -434.368}
		v {601.362 -39.746 -603.745}
		v {484.903 -46.5121 -720.205}
		v {-388.434 -112.547 -857.219}
		v {-353.275 -25.7536 -852.14}
		v {-348.198 -2.20671 -840.624}
		v {-232.132 -2.20671 -560.416}
		v {-116.066 -2.20671 -280.208}
		v {-336.615 -383.872 -730.35}
		v {100.024 -83.8479 -852.14}
		v {238.479 -103.898 -875.945}
		v {19.9972 -131.046 -884.864}
		v {-78.5671 -102.23 -852.14}
		v {-139.573 -117.199 -883.979}
		v {-329.549 -111.903 -862.29}
		v {-273.417 -58.6699 -852.14}
		v {-211.147 -107.557 -876.22}
		v {116.524 -383.872 -757.543}
		v {-61.8828 -383.872 -754.573}
		v {-188.184 -383.872 -784.64}
		v {203.056 -383.872 -810.393}
		v {3.84063 -383.872 -791.815}
		v {-126.684 -383.872 -784.64}
		v {-297.792 -383.872 -771.259}
		v {137.444 -676.028 -588.257}
		v {3.61853 -676.028 -576.76}
		v {-88.6106 -676.028 -554.661}
		v {-193.107 -676.028 -576.548}
		v {237.85 -43.2654 -852.14}
		v {-1.68514 -80.6877 -852.14}
		v {-166.384 -68.3724 -852.14}
		v {356.11 -60.1863 852.14}
		v {348.198 -2.20671 840.624}
		v {232.132 -2.20671 560.416}
		v {116.066 -2.20671 280.208}
		v {291.985 -383.872 787.287}
		v {159.158 -676.028 588.298}
		v {531.826 -83.8479 673.282}
		v {450.756 -103.898 788.017}
		v {595.906 -112.547 655.481}
		v {658.109 -64.9816 546.998}
		v {723.76 -117.719 526.374}
		v {824.645 -99.5388 394.817}
		v {795.889 -82.595 409.219}
		v {453.303 -383.872 618.141}
		v {577.355 -383.872 489.888}
		v {700.595 -383.872 371.257}
		v {429.486 -383.872 716.699}
		v {545.997 -383.872 579.519}
		v {666.181 -383.872 443.584}
		v {318.808 -676.028 513.23}
		v {423.758 -676.028 377.664}
		v {434.368 -64.9876 770.74}
		v {603.745 -42.0264 601.362}
		v {720.205 -46.0826 484.903}
		v {-350.741 -32.2975 852.14}
		v {-348.198 -2.20671 840.624}
		v {-232.132 -2.20671 560.416}
		v {-116.066 -2.20671 280.208}
		v {-291.468 -383.872 762.949}
		v {-220.637 -676.028 578.66}
		v {-100.292 -75.5971 852.14}
		v {-238.479 -103.898 875.945}
		v {-42.1258 -112.547 884.864}
		v {78.7649 -87.7454 852.14}
		v {139.573 -117.719 883.979}
		v {303.934 -111.903 862.29}
		v {274.122 -70.2972 852.14}
		v {211.147 -112.547 876.22}
		v {-104.046 -383.872 761.435}
		v {61.8829 -383.872 754.669}
		v {232.912 -383.872 757.928}
		v {-216.607 -383.872 806.066}
		v {-16.3191 -383.872 788.116}
		v {126.684 -383.872 784.736}
		v {188.184 -383.872 784.736}
		v {-111.451 -676.028 575.721}
		v {-3.61854 -676.028 576.856}
		v {68.8738 -676.028 556.553}
		v {-238.477 -35.7436 852.14}
		v {1.68254 -66.1469 852.14}
		v {166.81 -53.3107 852.14}
		v {-852.14 -48.4079 -355.192}
		v {-840.624 -2.20671 -348.198}
		v {-560.416 -2.20671 -232.132}
		v {-280.208 -2.20671 -116.066}
		v {-758.458 -383.872 -356.775}
		v {-528.497 -676.028 -303.365}
		v {-531.826 -71.1859 -673.282}
		v {-450.756 -117.376 -788.017}
		v {-595.906 -101.167 -655.481}
		v {-658.109 -87.7133 -546.998}
		v {-723.76 -117.719 -526.374}
		v {-824.645 -111.903 -390.318}
		v {-795.889 -82.595 -427.505}
		v {-768.884 -112.547 -470.277}
		v {-467.102 -383.872 -610.682}
		v {-577.355 -383.872 -489.791}
		v {-700.595 -383.872 -371.16}
		v {-429.486 -383.872 -716.602}
		v {-687.924 -383.872 -421.744}
		v {-300.168 -676.028 -485.822}
		v {-442.21 -676.028 -344.759}
		v {-434.368 -43.6088 -770.74}
		v {-603.745 -51.6638 -601.362}
		v {-720.205 -44.1855 -484.903}
		v {-852.14 -29.3001 355.192}
		v {-840.624 -2.20671 348.198}
		v {-560.416 -2.20671 232.132}
		v {-280.208 -2.20671 116.066}
		v {-787.238 -383.872 292.034}
		v {-565.154 -676.028 253.175}
		v {-852.14 -83.8479 -100.024}
		v {-875.945 -103.898 -228.409}
		v {-884.864 -112.547 -36.3236}
		v {-852.14 -87.7133 78.5671}
		v {-883.979 -117.719 139.573}
		v {-862.29 -91.37 310.841}
		v {-852.14 -26.2027 273.417}
		v {-876.22 -112.547 211.147}
		v {-781.364 -383.872 -106.528}
		v {-754.621 -383.872 61.9311}
		v {-757.88 -383.872 232.96}
		v {-810.441 -383.872 -203.008}
		v {-807.968 -383.872 -20.1207}
		v {-784.688 -383.872 126.733}
		v {-784.688 -383.872 188.232}
		v {-563.04 -676.028 -85.411}
		v {-576.808 -676.028 -3.57028}
		v {-556.505 -676.028 68.9221}
		v {-567.599 -676.028 159.206}
		v {-852.14 -56.2514 -237.85}
		v {-852.14 -66.171 -9.86613}
		v {-852.14 -44.8772 166.384}
		v {-673.282 -85.163 531.826}
		v {-788.017 -103.898 450.756}
		v {-655.481 -122.695 595.906}
		v {-546.998 -58.3135 658.109}
		v {-526.374 -117.719 723.76}
		v {-388.896 -92.9741 833.171}
		v {-409.219 -48.559 795.889}
		v {-470.277 -100.14 768.884}
		v {-609.453 -383.872 469.544}
		v {-489.84 -383.872 577.404}
		v {-371.208 -383.872 700.644}
		v {-716.651 -383.872 429.534}
		v {-571.288 -383.872 541.071}
		v {-465.279 -383.872 644.486}
		v {-421.792 -383.872 687.973}
		v {-350.197 -383.872 752.681}
		v {-485.87 -676.028 328.302}
		v {-410.424 -676.028 405.355}
		v {-344.807 -676.028 442.258}
		v {-303.414 -676.028 528.545}
		v {-770.74 -45.7495 434.368}
		v {-601.362 -57.5936 603.745}
		v {-484.903 -39.9033 720.205}
		v {-2.40613e-005 -2.20671 -840.624}
		v {594.411 -2.20671 -594.411}
		v {840.624 -2.20671 -2.40613e-005}
		v {594.411 -2.20671 594.411}
		v {2.40613e-005 -2.20671 840.624}
		v {-594.411 -2.20671 594.411}
		v {-840.624 -2.20671 2.40613e-005}
		v {-594.411 -2.20671 -594.411}
	}
	CVertNorms
	{
		numVertNorms 263
		vn {2.e-002 5.e-002 -0.99}
		vn {-0.1 2.e-002 -0.98}
		vn {-8.e-002 -0.1 -0.98}
		vn {-4.e-002 0.13 -0.98}
		vn {0. 0.1 -0.98}
		vn {0. 0.15 -0.98}
		vn {0. 0.17 -0.98}
		vn {1.e-002 0.11 -0.98}
		vn {1.e-002 0.13 -0.98}
		vn {2.e-002 0.16 -0.98}
		vn {4.e-002 0.16 -0.98}
		vn {5.e-002 0.14 -0.98}
		vn {-0.16 0.11 -0.97}
		vn {2.e-002 0.19 -0.97}
		vn {3.e-002 0.23 -0.96}
		vn {0.17 0.16 -0.96}
		vn {6.e-002 0.28 -0.95}
		vn {-0.26 0.2 -0.93}
		vn {2.e-002 0.37 -0.92}
		vn {-0.11 -0.42 -0.89}
		vn {-8.e-002 -0.41 -0.89}
		vn {-2.e-002 -0.43 -0.89}
		vn {0.41 -0.14 -0.89}
		vn {-6.e-002 -0.44 -0.88}
		vn {2.e-002 -0.45 -0.88}
		vn {-0.5 0. -0.85}
		vn {0.21 -0.44 -0.85}
		vn {-5.e-002 0.53 -0.84}
		vn {-0.53 6.e-002 -0.83}
		vn {-0.26 -0.47 -0.83}
		vn {9.e-002 0.55 -0.82}
		vn {0.31 -0.45 -0.82}
		vn {-0.1 -0.54 -0.81}
		vn {-1.e-002 -0.56 -0.81}
		vn {6.e-002 -0.57 -0.8}
		vn {0.6 -3.e-002 -0.79}
		vn {0.45 -0.41 -0.78}
		vn {-0.61 8.e-002 -0.77}
		vn {-0.62 0.13 -0.76}
		vn {-0.63 0.14 -0.75}
		vn {-0.24 -0.61 -0.74}
		vn {0.67 0. -0.74}
		vn {-0.44 -0.49 -0.73}
		vn {-0.52 -0.42 -0.72}
		vn {0.69 3.e-002 -0.72}
		vn {0.69 5.e-002 -0.71}
		vn {0.69 0.12 -0.71}
		vn {-0.69 0.13 -0.7}
		vn {-0.69 0.14 -0.69}
		vn {0.61 0.38 -0.69}
		vn {0.69 0.17 -0.69}
		vn {0.69 0.19 -0.69}
		vn {0.7 0.14 -0.69}
		vn {-0.69 0.16 -0.68}
		vn {-0.68 0.2 -0.68}
		vn {-0.68 0.23 -0.68}
		vn {0.72 6.e-002 -0.68}
		vn {-0.67 0.28 -0.67}
		vn {-0.67 0.29 -0.67}
		vn {-0.61 0.39 -0.67}
		vn {0.58 -0.44 -0.67}
		vn {0.69 0.22 -0.67}
		vn {0.69 0.23 -0.67}
		vn {0.7 0.21 -0.67}
		vn {0.7 0.22 -0.67}
		vn {0.73 9.e-002 -0.67}
		vn {-0.73 1.e-002 -0.66}
		vn {0.66 0.35 -0.66}
		vn {0.69 0.26 -0.66}
		vn {-0.68 0.29 -0.65}
		vn {-0.49 -0.55 -0.65}
		vn {0.46 -0.59 -0.65}
		vn {0.5 -0.55 -0.65}
		vn {0.61 -0.42 -0.65}
		vn {-0.74 -6.e-002 -0.64}
		vn {0.66 0.38 -0.64}
		vn {-0.68 0.35 -0.63}
		vn {0.62 -0.45 -0.63}
		vn {0.63 -0.43 -0.63}
		vn {-0.7 0.31 -0.62}
		vn {-0.65 -0.4 -0.62}
		vn {0.63 -0.44 -0.62}
		vn {-0.78 1.e-002 -0.61}
		vn {-0.75 -0.17 -0.61}
		vn {0.52 -0.57 -0.61}
		vn {0.53 -0.56 -0.61}
		vn {0.53 -0.58 -0.6}
		vn {-0.67 -0.41 -0.59}
		vn {-0.67 0.43 -0.58}
		vn {-0.64 -0.46 -0.58}
		vn {0.69 -0.42 -0.57}
		vn {-0.62 0.53 -0.56}
		vn {-0.72 -0.38 -0.55}
		vn {-0.59 -0.56 -0.55}
		vn {-0.59 -0.59 -0.52}
		vn {-0.71 -0.46 -0.5}
		vn {0.87 1.e-002 -0.49}
		vn {0.79 -0.44 -0.4}
		vn {-0.94 -1.e-002 -0.3}
		vn {0.75 -0.59 -0.27}
		vn {0.96 -9.e-002 -0.25}
		vn {-0.86 -0.44 -0.2}
		vn {0.98 0. -0.2}
		vn {-0.98 6.e-002 -0.14}
		vn {0.99 1.e-002 -0.12}
		vn {0.89 -0.43 -9.e-002}
		vn {0.89 -0.43 -8.e-002}
		vn {0.9 -0.41 -8.e-002}
		vn {0.9 -0.41 -7.e-002}
		vn {-0.91 0.38 -6.e-002}
		vn {0.81 -0.58 -5.e-002}
		vn {-0.98 0.13 -4.e-002}
		vn {-0.97 0.18 -4.e-002}
		vn {-0.77 -0.61 -3.e-002}
		vn {0.95 0.31 -3.e-002}
		vn {0.99 0.15 -3.e-002}
		vn {-0.89 -0.42 -2.e-002}
		vn {0.93 0.36 -2.e-002}
		vn {-0.89 -0.44 -1.e-002}
		vn {-0.8 -0.57 -1.e-002}
		vn {0.94 0.34 -1.e-002}
		vn {-0.98 0.12 0.}
		vn {-0.98 0.13 0.}
		vn {-0.97 0.19 0.}
		vn {-0.97 0.22 0.}
		vn {-0.93 0.35 0.}
		vn {-0.89 -0.44 0.}
		vn {-0.81 0.58 0.}
		vn {0. 1. 0.}
		vn {0.95 0.33 0.}
		vn {-0.98 0.13 1.e-002}
		vn {-0.97 0.19 1.e-002}
		vn {-0.96 0.22 1.e-002}
		vn {-0.91 0.39 1.e-002}
		vn {0.82 -0.56 1.e-002}
		vn {0.95 0.31 1.e-002}
		vn {0.96 0.29 1.e-002}
		vn {0.98 0.21 1.e-002}
		vn {0.98 0.22 1.e-002}
		vn {0.99 0.15 1.e-002}
		vn {1. 5.e-002 1.e-002}
		vn {-0.99 0. 2.e-002}
		vn {-0.98 -9.e-002 2.e-002}
		vn {-0.98 0.12 2.e-002}
		vn {-0.96 0.24 2.e-002}
		vn {0.91 -0.41 2.e-002}
		vn {0.97 0.24 2.e-002}
		vn {0.98 0.19 3.e-002}
		vn {1. 5.e-002 4.e-002}
		vn {-0.88 -0.44 5.e-002}
		vn {1. 7.e-002 5.e-002}
		vn {-0.88 0.46 6.e-002}
		vn {1. 8.e-002 6.e-002}
		vn {-0.79 -0.58 8.e-002}
		vn {-0.79 -0.59 9.e-002}
		vn {-0.88 -0.44 0.11}
		vn {0.91 0.41 0.11}
		vn {0.99 1.e-002 0.13}
		vn {-0.76 -0.6 0.16}
		vn {-0.89 -0.4 0.18}
		vn {-0.97 2.e-002 0.19}
		vn {0.87 -0.42 0.22}
		vn {-0.83 -0.46 0.27}
		vn {0.91 -0.12 0.4}
		vn {0.89 0.19 0.41}
		vn {-0.78 -0.42 0.44}
		vn {-0.88 1.e-002 0.45}
		vn {-0.63 -0.56 0.52}
		vn {0.61 -0.57 0.54}
		vn {0.64 0.52 0.56}
		vn {-0.66 0.48 0.57}
		vn {0.61 -0.55 0.57}
		vn {0.69 -0.41 0.58}
		vn {-0.67 -0.43 0.59}
		vn {0.68 -0.43 0.59}
		vn {0.68 -0.42 0.59}
		vn {-0.79 6.e-002 0.6}
		vn {-0.54 -0.57 0.6}
		vn {0.57 -0.54 0.6}
		vn {0.65 -0.42 0.63}
		vn {0.67 -0.38 0.63}
		vn {-0.65 0.39 0.64}
		vn {-0.52 -0.55 0.64}
		vn {-0.5 -0.56 0.64}
		vn {0.66 0.4 0.64}
		vn {-0.6 -0.44 0.65}
		vn {-0.74 9.e-002 0.66}
		vn {-0.73 0.11 0.66}
		vn {-0.61 -0.42 0.66}
		vn {0.59 -0.45 0.66}
		vn {-0.73 0.1 0.67}
		vn {0.59 0.45 0.67}
		vn {0.71 0.23 0.67}
		vn {0.73 0.15 0.67}
		vn {-0.7 0.18 0.68}
		vn {-0.68 0.24 0.68}
		vn {-0.67 0.27 0.68}
		vn {-0.59 -0.41 0.68}
		vn {0.71 0.19 0.68}
		vn {-0.69 0.15 0.69}
		vn {-0.68 0.21 0.69}
		vn {-0.63 0.34 0.69}
		vn {-0.57 0.43 0.69}
		vn {0.69 0.2 0.69}
		vn {0.7 0.19 0.69}
		vn {-0.65 0.27 0.7}
		vn {0.6 -0.38 0.7}
		vn {0.7 0.14 0.7}
		vn {-0.69 0.13 0.71}
		vn {-0.58 0.38 0.71}
		vn {0.67 0.22 0.71}
		vn {0.7 6.e-002 0.71}
		vn {-0.68 4.e-002 0.73}
		vn {-0.67 8.e-002 0.73}
		vn {-0.51 -0.42 0.73}
		vn {0.65 0.22 0.73}
		vn {0.65 0.23 0.73}
		vn {0.68 4.e-002 0.73}
		vn {0.69 5.e-002 0.73}
		vn {-0.66 -8.e-002 0.74}
		vn {0.67 9.e-002 0.74}
		vn {-0.48 -0.43 0.75}
		vn {-0.3 -0.57 0.75}
		vn {0.64 0.15 0.75}
		vn {0.67 -3.e-002 0.75}
		vn {-0.43 -0.44 0.77}
		vn {-0.56 4.e-002 0.82}
		vn {-7.e-002 -0.56 0.82}
		vn {1.e-002 -0.56 0.82}
		vn {5.e-002 -0.55 0.82}
		vn {8.e-002 -0.55 0.82}
		vn {4.e-002 0.55 0.83}
		vn {0.22 -0.45 0.86}
		vn {-0.23 -0.43 0.87}
		vn {-0.21 -0.42 0.87}
		vn {-5.e-002 -0.44 0.89}
		vn {-1.e-002 0.45 0.89}
		vn {2.e-002 -0.44 0.89}
		vn {0. -0.43 0.9}
		vn {2.e-002 -0.42 0.9}
		vn {1.e-002 -0.39 0.91}
		vn {0.41 6.e-002 0.91}
		vn {7.e-002 -0.38 0.92}
		vn {1.e-002 0.36 0.93}
		vn {-0.33 1.e-002 0.94}
		vn {1.e-002 0.34 0.94}
		vn {5.e-002 0.33 0.94}
		vn {1.e-002 0.27 0.96}
		vn {-0.14 9.e-002 0.98}
		vn {0. 0.19 0.98}
		vn {0. 0.2 0.98}
		vn {0.19 5.e-002 0.98}
		vn {-5.e-002 0.12 0.99}
		vn {-2.e-002 0.11 0.99}
		vn {0. 0.12 0.99}
		vn {0. 0.13 0.99}
		vn {0. 0.15 0.99}
		vn {0. 0.17 0.99}
		vn {1.e-002 0.16 0.99}
		vn {2.e-002 0.13 0.99}
		vn {-2.e-002 -8.e-002 1.}
		vn {0. 4.e-002 1.}
		vn {2.e-002 3.e-002 1.}
	}
	CVertCols
	{
		numVertCols 29
		col {0.2553 0.2553 0.2553 2.}
		col {0.294451 0.294451 0.294451 2.}
		col {0.315665 0.315665 0.315665 2.}
		col {0.362598 0.362598 0.362598 2.}
		col {0.42396 0.42396 0.42396 5.}
		col {0.444511 0.444511 0.444511 5.}
		col {0.454757 0.454757 0.454757 2.}
		col {0.466144 0.466144 0.466144 5.}
		col {0.49286 0.49286 0.49286 2.}
		col {0.495567 0.495567 0.495567 5.}
		col {0.519326 0.519326 0.519326 2.}
		col {0.539508 0.539508 0.539508 5.}
		col {0.540728 0.540728 0.540728 2.}
		col {0.571509 0.571509 0.571509 2.}
		col {0.574767 0.574767 0.574767 5.}
		col {0.595917 0.595917 0.595917 2.}
		col {0.611186 0.611186 0.611186 5.}
		col {0.627721 0.627721 0.627721 2.}
		col {0.636373 0.636373 0.636373 5.}
		col {0.648668 0.648668 0.648668 2.}
		col {0.658615 0.658615 0.658615 5.}
		col {0.678576 0.678576 0.678576 2.}
		col {0.6793 0.6793 0.6793 5.}
		col {0.7337 0.7337 0.7337 2.}
		col {0.756827 0.756827 0.756827 5.}
		col {0.8651 0.8651 0.8651 5.}
		col {0.9289 0.9289 0.9289 5.}
		col {1.0002 1.0002 1.0002 5.}
		col {1.0697 1.0697 1.0697 2.}
	}
	CUVs
	{
		setID 0
		numUVs 285
		uv {-2.1177 3.01352}
		uv {-2.1177 3.03983}
		uv {-2.1177 3.03831}
		uv {-2.1177 3.07202}
		uv {-2.02701 3.08984}
		uv {-2.01919 3.05307}
		uv {-2.01632 3.04268}
		uv {-1.93092 3.06184}
		uv {-1.88732 3.07587}
		uv {-1.88457 3.07563}
		uv {-1.81886 3.05382}
		uv {-1.78814 3.01352}
		uv {-1.78646 3.05973}
		uv {-1.78544 3.01352}
		uv {-1.78377 3.06781}
		uv {-1.74119 3.01352}
		uv {-1.74026 3.02661}
		uv {-1.73818 3.05907}
		uv {-1.7101 3.08954}
		uv {-1.70746 3.08567}
		uv {-1.62641 3.05069}
		uv {-1.62446 3.05355}
		uv {-1.62188 3.0572}
		uv {-1.53987 3.0853}
		uv {-1.52211 3.07125}
		uv {-1.47845 3.05726}
		uv {-1.45669 3.05704}
		uv {-1.45643 3.05387}
		uv {-1.45467 3.01352}
		uv {-1.45318 3.01352}
		uv {-1.45052 3.06289}
		uv {-1.36716 3.01352}
		uv {-1.36528 3.04599}
		uv {-1.35225 3.06035}
		uv {-1.35122 3.06686}
		uv {-1.27959 3.08565}
		uv {-1.22038 3.08317}
		uv {-1.1835 3.05158}
		uv {-1.13103 3.06856}
		uv {-1.1212 3.01352}
		uv {-1.11925 3.04787}
		uv {-1.07144 3.08141}
		uv {-1.0698 -3.17021}
		uv {-1.06468 -3.46977}
		uv {-1.04316 3.08637}
		uv {-1.04313 3.06685}
		uv {-1.03199 -3.45385}
		uv {-1.03107 -2.85947}
		uv {-1.03023 -3.17021}
		uv {-1.01366 -3.50578}
		uv {-0.99525 3.08561}
		uv {-0.993131 3.01352}
		uv {-0.992141 -3.17021}
		uv {-0.991596 -3.4641}
		uv {-0.95777 3.05123}
		uv {-0.954166 -3.5161}
		uv {-0.947739 -2.85947}
		uv {-0.926572 -3.45948}
		uv {-0.924838 -3.17021}
		uv {-0.912434 -3.55111}
		uv {-0.896024 -3.45879}
		uv {-0.892777 -3.17021}
		uv {-0.878354 3.0489}
		uv {-0.858223 3.08141}
		uv {-0.854819 3.04633}
		uv {-0.85165 -3.53212}
		uv {-0.848423 -3.45366}
		uv {-0.838134 -3.17021}
		uv {-0.8313 -2.85947}
		uv {-0.791328 3.05558}
		uv {-0.78866 3.01352}
		uv {-0.787863 3.03807}
		uv {-0.780976 -3.17021}
		uv {-0.773091 -3.50279}
		uv {-0.738059 -3.4709}
		uv {-0.730392 3.08245}
		uv {-0.713002 -3.52355}
		uv {-0.6867 3.04752}
		uv {-0.685232 3.05116}
		uv {-0.6726 -3.17021}
		uv {-0.667508 -3.48521}
		uv {-0.651698 -2.85947}
		uv {-0.63481 -3.45329}
		uv {-0.619102 3.01352}
		uv {-0.619102 3.07984}
		uv {-0.616489 -3.5315}
		uv {-0.594947 -3.17021}
		uv {-0.594421 -3.45879}
		uv {-0.580344 -2.85947}
		uv {-0.566095 -3.49065}
		uv {-0.563196 -3.17021}
		uv {-0.555259 3.08245}
		uv {-0.553367 3.08375}
		uv {-0.540383 -3.45948}
		uv {-0.539175 -3.17021}
		uv {-0.51654 -3.52701}
		uv {-0.456397 3.03601}
		uv {-0.456397 3.01352}
		uv {-0.454475 -3.51867}
		uv {-0.454185 3.01352}
		uv {-0.452506 3.06096}
		uv {-0.44582 -3.46799}
		uv {-0.440946 -3.17021}
		uv {-0.392959 -2.85947}
		uv {-0.385349 -3.17021}
		uv {-0.378607 3.04381}
		uv {-0.376143 3.06155}
		uv {-0.375916 -3.48932}
		uv {-0.337574 -3.45879}
		uv {-0.329418 -3.17021}
		uv {-0.322682 -3.50812}
		uv {-0.319957 -2.85947}
		uv {-0.293246 3.02915}
		uv {-0.290505 3.04633}
		uv {-0.275418 -3.17021}
		uv {-0.270333 -3.48521}
		uv {-0.254515 -2.85947}
		uv {-0.237635 -3.45329}
		uv {-0.235853 -3.17021}
		uv {-0.219314 -3.53077}
		uv {-0.197769 -3.17021}
		uv {-0.197246 -3.45879}
		uv {-0.193699 3.06068}
		uv {-0.190636 3.05349}
		uv {-0.178537 -2.85947}
		uv {-0.166019 -3.17021}
		uv {-0.159817 -3.55063}
		uv {-0.141864 -3.48132}
		uv {-0.137191 -3.17021}
		uv {-0.120847 3.04004}
		uv {-0.120847 3.01352}
		uv {-0.120828 3.05907}
		uv {-0.117114 -3.54734}
		uv {-0.103843 -2.85947}
		uv {-5.73006e-002 -3.52984}
		uv {-5.4073e-002 -3.46799}
		uv {-4.37747e-002 -3.17021}
		uv {-1.63259e-002 -2.85947}
		uv {-3.05653e-004 8.27509e-003}
		uv {7.37309e-004 8.27509e-003}
		uv {1.51397e-002 -3.17021}
		uv {2.1259e-002 -3.48792}
		uv {5.62908e-002 -3.448}
		uv {6.6614e-002 -3.17021}
		uv {7.72052e-002 -2.85947}
		uv {8.13476e-002 -3.51724}
		uv {0.121746 -3.17021}
		uv {0.126841 -3.51648}
		uv {0.135389 0.356495}
		uv {0.136431 0.356495}
		uv {0.142644 -2.85947}
		uv {0.159539 -3.45329}
		uv {0.160827 0.356495}
		uv {0.16131 -3.17021}
		uv {0.17786 -3.53606}
		uv {0.199392 -3.17021}
		uv {0.199928 -3.47199}
		uv {0.213991 -2.85947}
		uv {0.231141 -3.17021}
		uv {0.237358 -3.52685}
		uv {0.254863 0.656446}
		uv {0.256074 0.656446}
		uv {0.256679 -3.47961}
		uv {0.257303 -3.17021}
		uv {0.280064 -3.54415}
		uv {0.292984 -3.17021}
		uv {0.29331 -2.85947}
		uv {0.339529 -3.54048}
		uv {0.343102 -3.46799}
		uv {0.344766 -3.17021}
		uv {0.380822 -2.85947}
		uv {0.406776 8.27509e-003}
		uv {0.40782 8.27509e-003}
		uv {0.408847 -3.17021}
		uv {0.412917 0.973863}
		uv {0.418277 -3.49809}
		uv {0.453466 -3.45879}
		uv {0.467053 -3.17021}
		uv {0.47435 -2.85947}
		uv {0.478521 -3.50815}
		uv {0.518897 -3.17021}
		uv {0.524132 -3.48517}
		uv {0.539786 -2.85947}
		uv {0.556714 -3.45329}
		uv {0.558462 -3.17021}
		uv {0.570099 0.656446}
		uv {0.57131 0.656446}
		uv {0.575279 -3.5218}
		uv {0.596544 -3.17021}
		uv {0.597103 -3.45879}
		uv {0.609045 0.489976}
		uv {0.609045 0.796991}
		uv {0.611135 -2.85947}
		uv {0.628292 -3.17021}
		uv {0.634912 -3.50373}
		uv {0.648892 -3.45948}
		uv {0.657121 -3.17021}
		uv {0.664595 0.356495}
		uv {0.677699 -3.51448}
		uv {0.678163 0.356495}
		uv {0.679207 0.356495}
		uv {0.737049 -3.50938}
		uv {0.740277 -3.46799}
		uv {0.750535 -3.17021}
		uv {0.758613 -2.85947}
		uv {0.797502 -3.17021}
		uv {0.813858 8.27509e-003}
		uv {0.814901 8.27509e-003}
		uv {0.815609 -3.48932}
		uv {0.85064 -3.45879}
		uv {0.85964 -3.17021}
		uv {0.875697 -3.5338}
		uv {0.903751 -2.85947}
		uv {0.91605 -3.17021}
		uv {0.921191 -3.50938}
		uv {0.953889 -3.45329}
		uv {0.97221 -3.52949}
		uv {0.974802 -3.17021}
		uv {0.983303 0.33924}
		uv {0.983303 0.947675}
		uv {1.00829 -2.85947}
		uv {1.02545 -3.17021}
		uv {1.03171 -3.49065}
		uv {1.04607 -3.47263}
		uv {1.05428 -3.17021}
		uv {1.07169 -3.52388}
		uv {1.07576 -3.45141}
		uv {1.13422 -3.53425}
		uv {1.13745 -3.46799}
		uv {1.1477 -3.17021}
		uv {1.17512 -2.85947}
		uv {1.19466 -3.17021}
		uv {1.21278 -3.48932}
		uv {1.24782 -3.45879}
		uv {1.26939 -3.17021}
		uv {1.27287 -3.54906}
		uv {1.30091 -2.85947}
		uv {1.31322 -3.17021}
		uv {1.31837 -3.53903}
		uv {1.35106 -3.45329}
		uv {1.35279 -3.17021}
		uv {1.36938 -3.55624}
		uv {1.39145 -3.45879}
		uv {1.40954 -3.17021}
		uv {1.42888 -3.51732}
		uv {1.45145 -3.17021}
		uv {1.4549 -3.45948}
		uv {1.47205 -3.5194}
		uv {1.47485 -2.85947}
		uv {1.47907 -3.17021}
		uv {1.5314 -3.53018}
		uv {1.53463 -3.46799}
		uv {1.54487 -3.17021}
		uv {1.55295 -2.85947}
		uv {1.59184 -3.17021}
		uv {1.60132 -2.85947}
		uv {1.60996 -3.52172}
		uv {1.64499 -3.45879}
		uv {1.66584 -2.85947}
		uv {1.66657 -3.17021}
		uv {1.67005 -3.53623}
		uv {1.7104 -3.17021}
		uv {1.71554 -3.48521}
		uv {1.74648 -2.85947}
		uv {1.76656 -3.52903}
		uv {1.78806 -3.17021}
		uv {1.78863 -3.45879}
		uv {1.82606 -3.49065}
		uv {1.83245 -2.85947}
		uv {1.83464 -3.17021}
		uv {1.86651 -3.48525}
		uv {1.87469 -3.17021}
		uv {1.92857 -3.53248}
		uv {1.9318 -3.46799}
		uv {1.94207 -3.17021}
		uv {1.95015 -2.85947}
		uv {1.98904 -3.17021}
		uv {2.00713 -3.48932}
		uv {2.0548 -3.43912}
		uv {2.06305 -2.85947}
		uv {2.06377 -3.17021}
		uv {2.06722 -3.49268}
		uv {2.1076 -3.17021}
		uv {2.11272 -3.46977}
		uv {2.14633 -2.85947}
	}
	CSurface
	{
		material	"lavaRock"
		CTris
		{
			numTris 106
			t {14 152 232 -1 4} {32 156 235 -1 5} {16 150 233 -1 0}
			t {23 145 237 -1 23} {27 161 240 -1 23} {30 134 236 -1 28}
			t {31 117 227 -1 5} {15 140 228 -1 0} {2 164 225 -1 4}
			t {20 104 244 -1 4} {1 96 247 -1 4} {19 100 246 -1 0}
			t {17 148 238 -1 4} {33 114 241 -1 5} {18 157 239 -1 0}
			t {20 104 244 -1 4} {24 108 243 -1 17} {21 102 242 -1 0}
			t {0 163 226 -1 0} {2 164 225 -1 4} {15 140 228 -1 0}
			t {25 106 229 -1 23} {22 107 231 -1 10} {29 110 230 -1 28}
			t {26 105 234 -1 23} {23 145 237 -1 23} {30 134 236 -1 28}
			t {13 99 248 -1 28} {28 97 245 -1 23} {11 90 249 -1 23}
			t {24 108 243 -1 17} {28 97 245 -1 23} {13 99 248 -1 28}
			t {14 152 232 -1 4} {15 140 228 -1 0} {31 117 227 -1 5}
			t {32 156 235 -1 5} {17 148 238 -1 4} {16 150 233 -1 0}
			t {20 104 244 -1 4} {21 102 242 -1 0} {33 114 241 -1 5}
			t {33 114 241 -1 5} {21 102 242 -1 0} {18 157 239 -1 0}
			t {39 65 256 -1 4} {57 49 260 -1 5} {41 45 257 -1 0}
			t {56 75 250 -1 5} {40 56 251 -1 0} {1 96 247 -1 4}
			t {38 31 271 -1 23} {47 36 269 -1 23} {34 22 270 -1 4}
			t {34 22 270 -1 4} {47 36 269 -1 23} {43 35 267 -1 4}
			t {50 81 265 -1 23} {47 36 269 -1 23} {55 71 268 -1 28}
			t {39 65 256 -1 4} {40 56 251 -1 0} {56 75 250 -1 5}
			t {57 49 260 -1 5} {42 41 262 -1 4} {41 45 257 -1 0}
			t {43 35 267 -1 4} {44 44 266 -1 0} {58 67 264 -1 5}
			t {58 67 264 -1 5} {44 44 266 -1 0} {42 41 262 -1 4}
			t {65 4 277 -1 4} {85 27 281 -1 5} {67 3 278 -1 0}
			t {74 24 42 -1 10} {78 26 48 -1 23} {82 34 47 -1 28}
			t {84 18 272 -1 5} {66 0 273 -1 0} {34 22 270 -1 4}
			t {71 1 55 -1 4} {60 17 59 -1 5} {70 2 57 -1 0}
			t {68 10 43 -1 4} {86 30 49 -1 5} {69 15 46 -1 0}
			t {71 1 55 -1 4} {75 19 52 -1 17} {72 12 53 -1 0}
			t {76 21 274 -1 23} {73 20 276 -1 15} {80 33 275 -1 28}
			t {83 40 56 -1 28} {79 29 58 -1 23} {64 42 61 -1 23}
			t {75 19 52 -1 17} {79 29 58 -1 23} {83 40 56 -1 28}
			t {65 4 277 -1 4} {66 0 273 -1 0} {84 18 272 -1 5}
			t {85 27 281 -1 5} {68 10 283 -1 4} {67 3 278 -1 0}
			t {71 1 55 -1 4} {72 12 53 -1 0} {86 30 49 -1 5}
			t {86 30 49 -1 5} {72 12 53 -1 0} {69 15 46 -1 0}
			t {93 223 208 -1 4} {109 191 211 -1 9} {95 220 209 -1 0}
			t {101 179 213 -1 23} {105 189 217 -1 23} {107 178 212 -1 28}
			t {108 169 201 -1 7} {94 193 202 -1 0} {87 241 198 -1 9}
			t {0 163 226 -1 0} {10 180 224 -1 23} {98 224 223 -1 0}
			t {99 217 222 -1 4} {2 164 225 -1 4} {98 224 223 -1 0}
			t {96 211 214 -1 4} {110 184 216 -1 7} {97 218 215 -1 0}
			t {103 175 203 -1 23} {100 172 205 -1 10} {106 168 204 -1 28}
			t {104 174 210 -1 23} {101 179 213 -1 23} {107 178 212 -1 28}
			t {105 189 217 -1 23} {102 206 221 -1 10} {12 171 220 -1 28}
			t {107 178 212 -1 28} {105 189 217 -1 23} {12 171 220 -1 28}
			t {102 206 221 -1 10} {10 180 224 -1 23} {12 171 220 -1 28}
			t {93 223 208 -1 4} {94 193 202 -1 0} {108 169 201 -1 7}
			t {109 191 211 -1 9} {96 211 214 -1 4} {95 220 209 -1 0}
			t {99 217 222 -1 4} {97 218 215 -1 0} {110 184 216 -1 7}
			t {117 253 175 -1 18} {136 231 179 -1 16} {119 256 176 -1 12}
			t {126 235 180 -1 23} {130 233 184 -1 23} {134 227 182 -1 28}
			t {135 246 167 -1 14} {118 261 168 -1 10} {111 244 164 -1 20}
			t {87 241 198 -1 9} {91 242 196 -1 23} {122 260 195 -1 8}
			t {123 262 194 -1 16} {87 241 198 -1 9} {122 260 195 -1 8}
			t {120 252 181 -1 20} {137 236 187 -1 16} {121 248 183 -1 13}
			t {128 238 169 -1 23} {125 239 173 -1 10} {132 228 170 -1 28}
			t {131 232 188 -1 23} {127 240 193 -1 10} {92 229 192 -1 28}
			t {127 240 193 -1 10} {91 242 196 -1 23} {92 229 192 -1 28}
			t {117 253 175 -1 18} {118 261 168 -1 10} {135 246 167 -1 14}
			t {136 231 179 -1 16} {120 252 181 -1 20} {119 256 176 -1 12}
			t {123 262 194 -1 16} {124 251 189 -1 6} {137 236 187 -1 16}
			t {137 236 187 -1 16} {124 251 189 -1 6} {121 248 183 -1 13}
			t {144 39 73 -1 5} {160 91 76 -1 11} {146 38 74 -1 1}
			t {145 66 66 -1 2} {59 25 60 -1 0} {159 79 65 -1 9}
			t {138 98 95 -1 14} {142 92 94 -1 23} {149 83 93 -1 1}
			t {150 74 89 -1 5} {138 98 95 -1 14} {149 83 93 -1 1}
			t {147 37 80 -1 5} {161 59 85 -1 9} {148 28 82 -1 0}
			t {60 17 59 -1 5} {159 79 65 -1 9} {59 25 60 -1 0}
			t {146 38 74 -1 1} {152 87 72 -1 17} {144 39 73 -1 5}
			t {148 28 82 -1 0} {153 43 79 -1 17} {147 37 80 -1 5}
			t {155 89 67 -1 23} {152 87 72 -1 17} {157 94 68 -1 28}
			t {156 95 86 -1 23} {154 80 90 -1 10} {143 93 88 -1 28}
			t {154 80 90 -1 10} {142 92 94 -1 23} {143 93 88 -1 28}
			t {144 39 73 -1 5} {145 66 66 -1 2} {159 79 65 -1 9}
			t {160 91 76 -1 11} {147 37 80 -1 5} {146 38 74 -1 1}
			t {150 74 89 -1 5} {151 82 87 -1 3} {161 59 85 -1 9}
			t {161 59 85 -1 9} {151 82 87 -1 3} {148 28 82 -1 0}
			t {168 112 107 -1 22} {188 127 110 -1 18} {170 131 108 -1 15}
			t {177 118 114 -1 10} {181 101 118 -1 23} {185 119 116 -1 28}
			t {187 151 98 -1 16} {169 143 101 -1 15} {138 98 95 -1 14}
			t {162 166 132 -1 22} {166 159 128 -1 23} {173 142 127 -1 12}
			t {174 141 126 -1 18} {162 166 132 -1 22} {173 142 127 -1 12}
			t {171 111 115 -1 22} {189 109 119 -1 18} {172 103 117 -1 10}
			t {179 126 102 -1 23} {176 116 104 -1 10} {183 113 103 -1 28}
			t {182 162 120 -1 23} {178 155 125 -1 10} {186 153 124 -1 28}
			t {168 112 107 -1 22} {169 143 101 -1 15} {187 151 98 -1 16}
			t {188 127 110 -1 18} {171 111 115 -1 22} {170 131 108 -1 15}
			t {174 141 126 -1 18} {175 160 121 -1 15} {189 109 119 -1 18}
			t {189 109 119 -1 18} {175 160 121 -1 15} {172 103 117 -1 10}
			t {190 190 141 -1 24} {211 170 145 -1 22} {192 187 142 -1 21}
			t {199 173 146 -1 10} {203 165 153 -1 23} {208 167 150 -1 28}
			t {210 209 134 -1 18} {191 213 135 -1 19} {162 166 132 -1 22}
			t {196 212 159 -1 24} {111 244 164 -1 20} {195 219 162 -1 17}
			t {193 186 147 -1 24} {212 181 154 -1 20} {194 176 151 -1 19}
			t {201 197 136 -1 23} {198 188 140 -1 10} {206 177 137 -1 28}
			t {204 225 155 -1 23} {200 214 158 -1 10} {209 183 157 -1 28}
			t {190 190 141 -1 24} {191 213 135 -1 19} {210 209 134 -1 18}
			t {211 170 145 -1 22} {193 186 147 -1 24} {192 187 142 -1 21}
			t {196 212 159 -1 24} {197 226 156 -1 19} {212 181 154 -1 20}
			t {212 181 154 -1 20} {197 226 156 -1 19} {194 176 151 -1 19}
			t {55 71 268 -1 28} {47 36 269 -1 23} {38 31 271 -1 23}
			t {60 17 59 -1 5} {59 25 60 -1 0} {70 2 57 -1 0}
			t {116 222 166 -1 28} {205 221 163 -1 23} {115 234 165 -1 23}
			t {2 164 225 -1 4} {0 163 226 -1 0} {98 224 223 -1 0}
		}
		CQuads
		{
			numQuads 91
			q {1 96 247 -1 4} {11 90 249 -1 23} {28 97 245 -1 23} {19 100 246 -1 0}
			q {14 152 232 -1 4} {22 107 231 -1 10} {25 106 229 -1 23} {15 140 228 -1 0}
			q {17 148 238 -1 4} {23 145 237 -1 23} {26 105 234 -1 23} {16 150 233 -1 0}
			q {16 150 233 -1 0} {26 105 234 -1 23} {22 107 231 -1 10} {14 152 232 -1 4}
			q {18 157 239 -1 0} {27 161 240 -1 23} {23 145 237 -1 23} {17 148 238 -1 4}
			q {21 102 242 -1 0} {24 108 243 -1 17} {27 161 240 -1 23} {18 157 239 -1 0}
			q {19 100 246 -1 0} {28 97 245 -1 23} {24 108 243 -1 17} {20 104 244 -1 4}
			q {12 171 220 -1 28} {10 180 224 -1 23} {25 106 229 -1 23} {29 110 230 -1 28}
			q {29 110 230 -1 28} {22 107 231 -1 10} {26 105 234 -1 23} {30 134 236 -1 28}
			q {30 134 236 -1 28} {27 161 240 -1 23} {24 108 243 -1 17} {13 99 248 -1 28}
			q {39 65 256 -1 4} {45 73 254 -1 10} {48 78 252 -1 23} {40 56 251 -1 0}
			q {42 41 262 -1 4} {46 60 261 -1 17} {49 77 259 -1 23} {41 45 257 -1 0}
			q {43 35 267 -1 4} {47 36 269 -1 23} {50 81 265 -1 23} {44 44 266 -1 0}
			q {48 78 252 -1 23} {11 90 249 -1 23} {1 96 247 -1 4} {40 56 251 -1 0}
			q {41 45 257 -1 0} {49 77 259 -1 23} {45 73 254 -1 10} {39 65 256 -1 4}
			q {44 44 266 -1 0} {50 81 265 -1 23} {46 60 261 -1 17} {42 41 262 -1 4}
			q {13 99 248 -1 28} {11 90 249 -1 23} {48 78 252 -1 23} {51 85 253 -1 28}
			q {51 85 253 -1 28} {48 78 252 -1 23} {45 73 254 -1 10} {52 72 255 -1 28}
			q {52 72 255 -1 28} {45 73 254 -1 10} {49 77 259 -1 23} {53 86 258 -1 28}
			q {53 86 258 -1 28} {49 77 259 -1 23} {46 60 261 -1 17} {54 84 263 -1 28}
			q {54 84 263 -1 28} {46 60 261 -1 17} {50 81 265 -1 23} {55 71 268 -1 28}
			q {59 25 60 -1 0} {64 42 61 -1 23} {79 29 58 -1 23} {70 2 57 -1 0}
			q {65 4 277 -1 4} {73 20 276 -1 15} {76 21 274 -1 23} {66 0 273 -1 0}
			q {68 10 283 -1 4} {74 24 282 -1 10} {77 23 280 -1 23} {67 3 278 -1 0}
			q {76 21 274 -1 23} {38 31 271 -1 23} {34 22 270 -1 4} {66 0 273 -1 0}
			q {67 3 278 -1 0} {77 23 280 -1 23} {73 20 276 -1 15} {65 4 277 -1 4}
			q {69 15 46 -1 0} {78 26 48 -1 23} {74 24 42 -1 10} {68 10 43 -1 4}
			q {72 12 53 -1 0} {75 19 52 -1 17} {78 26 48 -1 23} {69 15 46 -1 0}
			q {70 2 57 -1 0} {79 29 58 -1 23} {75 19 52 -1 17} {71 1 55 -1 4}
			q {55 71 268 -1 28} {38 31 271 -1 23} {76 21 274 -1 23} {80 33 275 -1 28}
			q {80 33 275 -1 28} {73 20 276 -1 15} {77 23 280 -1 23} {81 32 279 -1 28}
			q {81 32 279 -1 28} {77 23 280 -1 23} {74 24 282 -1 10} {82 34 284 -1 28}
			q {82 34 47 -1 28} {78 26 48 -1 23} {75 19 52 -1 17} {83 40 56 -1 28}
			q {93 223 208 -1 4} {100 172 205 -1 10} {103 175 203 -1 23} {94 193 202 -1 0}
			q {96 211 214 -1 4} {101 179 213 -1 23} {104 174 210 -1 23} {95 220 209 -1 0}
			q {99 217 222 -1 4} {102 206 221 -1 10} {105 189 217 -1 23} {97 218 215 -1 0}
			q {103 175 203 -1 23} {91 242 196 -1 23} {87 241 198 -1 9} {94 193 202 -1 0}
			q {95 220 209 -1 0} {104 174 210 -1 23} {100 172 205 -1 10} {93 223 208 -1 4}
			q {97 218 215 -1 0} {105 189 217 -1 23} {101 179 213 -1 23} {96 211 214 -1 4}
			q {98 224 223 -1 0} {10 180 224 -1 23} {102 206 221 -1 10} {99 217 222 -1 4}
			q {92 229 192 -1 28} {91 242 196 -1 23} {103 175 203 -1 23} {106 168 204 -1 28}
			q {106 168 204 -1 28} {100 172 205 -1 10} {104 174 210 -1 23} {107 178 212 -1 28}
			q {117 253 175 -1 18} {125 239 173 -1 10} {128 238 169 -1 23} {118 261 168 -1 10}
			q {120 252 181 -1 20} {126 235 180 -1 23} {129 237 177 -1 23} {119 256 176 -1 12}
			q {123 262 194 -1 16} {127 240 193 -1 10} {131 232 188 -1 23} {124 251 189 -1 6}
			q {128 238 169 -1 23} {115 234 165 -1 23} {111 244 164 -1 20} {118 261 168 -1 10}
			q {119 256 176 -1 12} {129 237 177 -1 23} {125 239 173 -1 10} {117 253 175 -1 18}
			q {121 248 183 -1 13} {130 233 184 -1 23} {126 235 180 -1 23} {120 252 181 -1 20}
			q {124 251 189 -1 6} {131 232 188 -1 23} {130 233 184 -1 23} {121 248 183 -1 13}
			q {122 260 195 -1 8} {91 242 196 -1 23} {127 240 193 -1 10} {123 262 194 -1 16}
			q {116 222 166 -1 28} {115 234 165 -1 23} {128 238 169 -1 23} {132 228 170 -1 28}
			q {132 228 170 -1 28} {125 239 173 -1 10} {129 237 177 -1 23} {133 230 178 -1 28}
			q {133 230 178 -1 28} {129 237 177 -1 23} {126 235 180 -1 23} {134 227 182 -1 28}
			q {134 227 182 -1 28} {130 233 184 -1 23} {131 232 188 -1 23} {92 229 192 -1 28}
			q {144 39 73 -1 5} {152 87 72 -1 17} {155 89 67 -1 23} {145 66 66 -1 2}
			q {147 37 80 -1 5} {153 43 79 -1 17} {152 87 72 -1 17} {146 38 74 -1 1}
			q {150 74 89 -1 5} {154 80 90 -1 10} {156 95 86 -1 23} {151 82 87 -1 3}
			q {151 82 87 -1 3} {156 95 86 -1 23} {153 43 79 -1 17} {148 28 82 -1 0}
			q {149 83 93 -1 1} {142 92 94 -1 23} {154 80 90 -1 10} {150 74 89 -1 5}
			q {83 40 56 -1 28} {64 42 61 -1 23} {155 89 67 -1 23} {157 94 68 -1 28}
			q {157 94 68 -1 28} {152 87 72 -1 17} {153 43 79 -1 17} {158 70 81 -1 28}
			q {158 70 81 -1 28} {153 43 79 -1 17} {156 95 86 -1 23} {143 93 88 -1 28}
			q {168 112 107 -1 22} {176 116 104 -1 10} {179 126 102 -1 23} {169 143 101 -1 15}
			q {171 111 115 -1 22} {177 118 114 -1 10} {180 149 109 -1 23} {170 131 108 -1 15}
			q {174 141 126 -1 18} {178 155 125 -1 10} {182 162 120 -1 23} {175 160 121 -1 15}
			q {170 131 108 -1 15} {180 149 109 -1 23} {176 116 104 -1 10} {168 112 107 -1 22}
			q {172 103 117 -1 10} {181 101 118 -1 23} {177 118 114 -1 10} {171 111 115 -1 22}
			q {175 160 121 -1 15} {182 162 120 -1 23} {181 101 118 -1 23} {172 103 117 -1 10}
			q {173 142 127 -1 12} {166 159 128 -1 23} {178 155 125 -1 10} {174 141 126 -1 18}
			q {143 93 88 -1 28} {142 92 94 -1 23} {179 126 102 -1 23} {183 113 103 -1 28}
			q {183 113 103 -1 28} {176 116 104 -1 10} {180 149 109 -1 23} {184 154 111 -1 28}
			q {184 154 111 -1 28} {180 149 109 -1 23} {177 118 114 -1 10} {185 119 116 -1 28}
			q {185 119 116 -1 28} {181 101 118 -1 23} {182 162 120 -1 23} {186 153 124 -1 28}
			q {186 153 124 -1 28} {178 155 125 -1 10} {166 159 128 -1 23} {167 158 133 -1 28}
			q {111 244 164 -1 20} {115 234 165 -1 23} {205 221 163 -1 23} {195 219 162 -1 17}
			q {190 190 141 -1 24} {198 188 140 -1 10} {201 197 136 -1 23} {191 213 135 -1 19}
			q {193 186 147 -1 24} {199 173 146 -1 10} {202 185 143 -1 23} {192 187 142 -1 21}
			q {196 212 159 -1 24} {200 214 158 -1 10} {204 225 155 -1 23} {197 226 156 -1 19}
			q {201 197 136 -1 23} {166 159 128 -1 23} {162 166 132 -1 22} {191 213 135 -1 19}
			q {192 187 142 -1 21} {202 185 143 -1 23} {198 188 140 -1 10} {190 190 141 -1 24}
			q {194 176 151 -1 19} {203 165 153 -1 23} {199 173 146 -1 10} {193 186 147 -1 24}
			q {197 226 156 -1 19} {204 225 155 -1 23} {203 165 153 -1 23} {194 176 151 -1 19}
			q {195 219 162 -1 17} {205 221 163 -1 23} {200 214 158 -1 10} {196 212 159 -1 24}
			q {167 158 133 -1 28} {166 159 128 -1 23} {201 197 136 -1 23} {206 177 137 -1 28}
			q {206 177 137 -1 28} {198 188 140 -1 10} {202 185 143 -1 23} {207 182 144 -1 28}
			q {207 182 144 -1 28} {202 185 143 -1 23} {199 173 146 -1 10} {208 167 150 -1 28}
			q {208 167 150 -1 28} {203 165 153 -1 23} {204 225 155 -1 23} {209 183 157 -1 28}
			q {209 183 157 -1 28} {200 214 158 -1 10} {205 221 163 -1 23} {116 222 166 -1 28}
			q {25 106 229 -1 23} {10 180 224 -1 23} {0 163 226 -1 0} {15 140 228 -1 0}
			q {155 89 67 -1 23} {64 42 61 -1 23} {59 25 60 -1 0} {145 66 66 -1 2}
			q {179 126 102 -1 23} {142 92 94 -1 23} {138 98 95 -1 14} {169 143 101 -1 15}
		}
	}
	CSurface
	{
		material	"base2"
		CTris
		{
			numTris 56
			t {215 135 97 -1 18} {31 137 77 -1 5} {3 146 70 -1 18}
			t {5 128 199 -1 25} {6 128 148 -1 25} {215 128 171 -1 18}
			t {9 128 174 -1 27} {8 128 160 -1 26} {7 128 185 -1 26}
			t {6 128 199 -1 25} {214 128 171 -1 18} {4 128 206 -1 18}
			t {9 128 174 -1 27} {37 128 160 -1 26} {8 128 185 -1 26}
			t {61 14 15 -1 18} {86 13 7 -1 5} {213 5 0 -1 18}
			t {62 128 148 -1 25} {213 128 171 -1 18} {36 128 199 -1 25}
			t {9 128 174 -1 27} {63 128 160 -1 26} {37 128 185 -1 26}
			t {89 128 199 -1 25} {5 128 148 -1 25} {216 128 171 -1 18}
			t {9 128 174 -1 27} {7 128 160 -1 26} {90 128 185 -1 26}
			t {113 128 199 -1 25} {89 128 148 -1 25} {217 128 171 -1 18}
			t {9 128 174 -1 27} {90 128 160 -1 26} {114 128 185 -1 26}
			t {220 54 11 -1 18} {159 69 5 -1 9} {61 76 0 -1 18}
			t {62 128 199 -1 25} {140 128 148 -1 25} {220 128 171 -1 18}
			t {9 128 174 -1 27} {141 128 160 -1 26} {63 128 185 -1 26}
			t {219 123 39 -1 18} {187 131 33 -1 16} {139 132 28 -1 18}
			t {140 128 200 -1 25} {164 128 149 -1 25} {219 128 172 -1 18}
			t {9 128 174 -1 27} {165 128 161 -1 26} {141 128 186 -1 26}
			t {218 200 99 -1 18} {210 205 78 -1 18} {163 201 70 -1 18}
			t {164 128 199 -1 25} {113 128 148 -1 25} {218 128 171 -1 18}
			t {9 128 174 -1 27} {114 128 160 -1 26} {165 128 185 -1 26}
			t {35 9 51 -1 18} {84 9 62 -1 5} {34 11 50 -1 4}
			t {85 8 84 -1 5} {65 6 75 -1 4} {213 5 83 -1 18}
			t {36 128 199 -1 25} {213 128 171 -1 18} {35 128 206 -1 18}
			t {61 128 138 -1 18} {213 128 171 -1 18} {62 128 148 -1 25}
			t {6 128 199 -1 25} {36 128 148 -1 25} {214 128 171 -1 18}
			t {36 128 148 -1 25} {35 128 138 -1 18} {214 128 171 -1 18}
			t {35 51 51 -1 18} {58 50 37 -1 5} {214 62 31 -1 18}
			t {4 61 15 -1 18} {56 61 20 -1 5} {1 63 17 -1 4}
			t {57 64 32 -1 5} {39 68 25 -1 4} {214 62 31 -1 18}
			t {5 128 199 -1 25} {215 128 171 -1 18} {3 128 206 -1 18}
			t {6 128 148 -1 25} {4 128 138 -1 18} {215 128 171 -1 18}
			t {3 146 70 -1 18} {31 137 77 -1 5} {2 147 69 -1 4}
			t {4 120 130 -1 18} {33 129 112 -1 5} {215 135 97 -1 18}
			t {89 128 199 -1 25} {216 128 171 -1 18} {88 128 206 -1 18}
			t {5 128 148 -1 25} {3 128 138 -1 18} {216 128 171 -1 18}
			t {3 203 70 -1 18} {110 204 54 -1 7} {216 210 39 -1 18}
			t {88 198 29 -1 18} {108 198 34 -1 7} {87 192 30 -1 9}
			t {109 216 40 -1 9} {93 215 36 -1 4} {216 210 39 -1 18}
			t {113 128 199 -1 25} {217 128 171 -1 18} {112 128 206 -1 18}
			t {89 128 148 -1 25} {88 128 138 -1 18} {217 128 171 -1 18}
			t {217 250 13 -1 18} {135 247 6 -1 14} {112 245 0 -1 18}
			t {112 245 0 -1 18} {135 247 6 -1 14} {111 243 1 -1 20}
			t {88 249 29 -1 18} {137 257 22 -1 16} {217 250 13 -1 18}
			t {164 128 199 -1 25} {218 128 171 -1 18} {163 128 206 -1 18}
			t {113 128 148 -1 25} {112 128 138 -1 18} {218 128 171 -1 18}
			t {112 196 130 -1 18} {212 195 113 -1 20} {218 200 99 -1 18}
			t {163 201 70 -1 18} {210 205 78 -1 18} {162 202 71 -1 22}
			t {140 128 200 -1 25} {219 128 172 -1 18} {139 128 207 -1 18}
			t {164 128 149 -1 25} {163 128 139 -1 18} {219 128 172 -1 18}
			t {139 132 28 -1 18} {187 131 33 -1 16} {138 144 27 -1 14}
			t {162 133 71 -1 22} {174 125 64 -1 18} {163 125 70 -1 18}
			t {62 128 199 -1 25} {220 128 171 -1 18} {61 128 206 -1 18}
			t {140 128 148 -1 25} {139 128 138 -1 18} {220 128 171 -1 18}
			t {139 57 28 -1 18} {161 55 21 -1 9} {220 54 11 -1 18}
			t {61 76 0 -1 18} {159 69 5 -1 9} {60 88 2 -1 5}
		}
		CQuads
		{
			numQuads 32
			q {7 128 185 -1 26} {8 128 160 -1 26} {6 128 152 -1 25} {5 128 197 -1 25}
			q {214 62 31 -1 18} {39 68 25 -1 4} {56 61 20 -1 5} {4 61 15 -1 18}
			q {8 128 191 -1 26} {37 128 190 -1 26} {36 128 218 -1 25} {6 128 219 -1 25}
			q {37 128 185 -1 26} {63 128 160 -1 26} {62 128 152 -1 25} {36 128 197 -1 25}
			q {216 210 39 -1 18} {93 215 36 -1 4} {108 198 34 -1 7} {88 198 29 -1 18}
			q {90 128 191 -1 26} {7 128 190 -1 26} {5 128 218 -1 25} {89 128 219 -1 25}
			q {136 255 14 -1 16} {117 259 9 -1 18} {135 247 6 -1 14} {217 250 13 -1 18}
			q {114 128 185 -1 26} {90 128 160 -1 26} {89 128 152 -1 25} {113 128 197 -1 25}
			q {63 128 191 -1 26} {141 128 190 -1 26} {140 128 218 -1 25} {62 128 219 -1 25}
			q {141 128 186 -1 26} {165 128 161 -1 26} {164 128 152 -1 25} {140 128 197 -1 25}
			q {165 128 191 -1 26} {114 128 190 -1 26} {113 128 218 -1 25} {164 128 219 -1 25}
			q {213 5 83 -1 18} {65 6 75 -1 4} {84 9 62 -1 5} {35 9 51 -1 18}
			q {86 13 7 -1 5} {68 7 4 -1 4} {85 8 3 -1 5} {213 5 0 -1 18}
			q {60 16 16 -1 5} {71 16 10 -1 4} {86 13 7 -1 5} {61 14 15 -1 18}
			q {58 50 37 -1 5} {42 52 35 -1 4} {57 64 32 -1 5} {214 62 31 -1 18}
			q {34 46 50 -1 4} {43 46 41 -1 4} {58 50 37 -1 5} {35 51 51 -1 18}
			q {33 129 112 -1 5} {17 136 105 -1 4} {32 138 96 -1 5} {215 135 97 -1 18}
			q {32 138 96 -1 5} {14 139 91 -1 4} {31 137 77 -1 5} {215 135 97 -1 18}
			q {1 115 131 -1 4} {20 115 122 -1 4} {33 129 112 -1 5} {4 120 130 -1 18}
			q {110 204 54 -1 7} {96 204 45 -1 4} {109 216 40 -1 9} {216 210 39 -1 18}
			q {2 207 69 -1 4} {99 207 63 -1 4} {110 204 54 -1 7} {3 203 70 -1 18}
			q {137 257 22 -1 16} {120 254 19 -1 20} {136 255 14 -1 16} {217 250 13 -1 18}
			q {87 258 30 -1 9} {123 258 24 -1 16} {137 257 22 -1 16} {88 249 29 -1 18}
			q {211 199 100 -1 22} {190 208 92 -1 24} {210 205 78 -1 18} {218 200 99 -1 18}
			q {212 195 113 -1 20} {193 194 106 -1 24} {211 199 100 -1 22} {218 200 99 -1 18}
			q {111 195 129 -1 20} {196 195 123 -1 24} {212 195 113 -1 20} {112 196 130 -1 18}
			q {163 125 70 -1 18} {174 125 64 -1 18} {189 124 54 -1 18} {219 123 39 -1 18}
			q {188 122 38 -1 18} {168 130 36 -1 22} {187 131 33 -1 16} {219 123 39 -1 18}
			q {189 124 54 -1 18} {171 121 44 -1 22} {188 122 38 -1 18} {219 123 39 -1 18}
			q {160 48 12 -1 11} {144 53 8 -1 5} {159 69 5 -1 9} {220 54 11 -1 18}
			q {161 55 21 -1 9} {147 47 18 -1 5} {160 48 12 -1 11} {220 54 11 -1 18}
			q {138 58 26 -1 14} {150 58 23 -1 5} {161 55 21 -1 9} {139 57 28 -1 18}
		}
	}
}
