// Source maya file: C:/dev/dev/main/gamedemo1/Art/Characters/FunkyVic/Models/FunckyVic_Rig.mb
// Maya geometry export, written by IwEngineExporter.mll

// Meshes
CMesh
{
	name	"FunkyVicGLES2"
	scale 4.
	CVerts
	{
		numVerts 492
		v {0. 246.133 -16.721}
		v {2.83684 245.681 -16.0691}
		v {3.37722 250.744 -15.5725}
		v {0. 250.533 -17.4788}
		v {3.37722 251.439 -12.6387}
		v {1.8365 243.379 -12.8966}
		v {1.72087 251.152 -10.3382}
		v {0. 242.926 -12.5931}
		v {0. 250.037 -10.1158}
		v {9.92746 272.97 2.20267}
		v {11.0139 271.075 0.679702}
		v {2.66555 252.825 1.49062}
		v {2.38985 253.357 2.51925}
		v {4.53278 254.166 0.816923}
		v {4.95025 253.857 0.384984}
		v {6.88349 254.023 -2.35175}
		v {3.98647 253.827 -8.05045}
		v {2.35822 247.952 -3.67809}
		v {3.68532 247.307 -0.160126}
		v {0. 252.95 1.61376}
		v {0. 253.296 3.08959}
		v {5.21343 249.798 1.32034}
		v {0. 248.3 4.01914}
		v {0. 247.171 -3.21131}
		v {0. 246.037 2.63316}
		v {0. 271.005 5.3295}
		v {0. 273.969 5.23102}
		v {11.6082 265.97 -0.395938}
		v {11.1173 260.57 -1.18867}
		v {5.99733 259.364 1.94544}
		v {1.2832 259.662 5.76869}
		v {0. 259.552 6.04701}
		v {6.34635 256.198 -8.52135}
		v {0. 257.855 3.43224}
		v {0. 257.91 5.50077}
		v {1.28037 258.246 5.247}
		v {1.53997 258.211 3.22685}
		v {0. 253.951 4.03763}
		v {0. 255.213 4.23694}
		v {2.41485 255.171 3.60067}
		v {2.61844 253.993 3.3576}
		v {2.44634 255.138 2.54227}
		v {0. 255.235 3.17171}
		v {2.94521 257.515 2.18887}
		v {5.54073 256.066 0.638367}
		v {1.40639 260.275 4.10925}
		v {9.91598 253.16 -25.2869}
		v {0. 253.771 -29.2012}
		v {13.5136 252.037 -16.1538}
		v {10.1061 252.455 -9.07567}
		v {18.141 262.225 -33.2367}
		v {0. 262.611 -38.4701}
		v {23.091 260.186 -15.4929}
		v {19.4377 259.377 -1.73434}
		v {21.1786 276.197 -36.2986}
		v {0. 276.833 -42.0278}
		v {28.4911 271.468 -13.9488}
		v {24.1137 268.033 -7.32916e-002}
		v {20.6951 288.677 -33.6097}
		v {0. 291.918 -39.4104}
		v {29.2446 283.084 -12.5882}
		v {15.2623 278.314 9.88051}
		v {25.322 278.693 2.33532}
		v {0. 278.238 14.1117}
		v {15.9787 299.617 -26.7938}
		v {0. 301.867 -31.9812}
		v {22.5802 297.363 -10.4922}
		v {12.6548 295.45 7.65302}
		v {19.3182 295.942 1.86737}
		v {0. 294.84 10.3537}
		v {6.86318 305.423 -21.2694}
		v {0. 305.755 -24.3248}
		v {10.4958 304.444 -11.3473}
		v {5.83038 303.516 -2.15697}
		v {9.10285 303.735 -4.86782}
		v {0. 303.299 -0.743372}
		v {14.5228 17.0439 20.1686}
		v {10.0561 18.4625 22.2492}
		v {9.93932 16.2596 7.87207}
		v {14.6047 15.2408 7.86926}
		v {9.80085 17.545 3.42789}
		v {14.2101 17.627 -2.82017}
		v {17.1784 0.32209 22.1789}
		v {18.1007 0.322094 8.93609}
		v {10.2613 0.32209 24.2695}
		v {3.10992 0.322126 9.29518}
		v {4.12429 0.32209 21.7043}
		v {4.03497 16.3866 -8.31942}
		v {4.98321 15.0637 8.0199}
		v {3.33375 11.1244 9.05273}
		v {3.63586 12.0237 -4.35024}
		v {17.6588 11.102 9.24668}
		v {17.019 11.6547 -3.03514}
		v {3.29247 0.322126 -4.64184}
		v {9.59846 16.0163 -24.5501}
		v {9.66536 9.59093 -25.0364}
		v {13.5179 9.59094 -24.109}
		v {13.3388 15.9335 -22.6726}
		v {17.349 0.322126 -2.59526}
		v {5.64033 17.0442 20.6312}
		v {4.97256 15.9681 -22.5687}
		v {5.01203 9.39882 -24.0351}
		v {4.5162 10.0294 -10.7461}
		v {15.7224 16.0191 -10.9185}
		v {15.4158 10.0295 -10.7104}
		v {16.34 11.1112 22.7633}
		v {10.0359 11.1259 25.0348}
		v {4.51856 11.1192 22.7608}
		v {12.723 0.175294 -23.2058}
		v {9.39572 0.175282 -24.1331}
		v {15.2288 0.174902 -10.0284}
		v {4.5162 0.174842 -10.064}
		v {6.06377 0.175146 -23.1319}
		v {0. 166.464 -0.591032}
		v {0. 148.232 -1.24185}
		v {0. 143.808 -11.0522}
		v {9.95422 85.1946 -6.8635}
		v {12.6312 85.0258 -9.40083}
		v {12.802 80.9845 -10.0453}
		v {10.1716 81.3281 -7.94148}
		v {16.4569 38.5873 -1.98827}
		v {10.5434 41.6723 2.87294}
		v {8.50257 137.364 -2.22403}
		v {12.8235 137.418 -4.63949}
		v {6.45941 84.5989 -11.747}
		v {1.27221 137.842 -7.71607}
		v {2.85613 36.2372 -5.52294}
		v {6.46162 80.5376 -11.0511}
		v {14.7511 137.308 -8.31621}
		v {13.7685 84.5214 -12.6727}
		v {13.6838 80.1791 -12.664}
		v {18.5101 24.0666 2.60571}
		v {10.4621 28.2761 8.96584}
		v {18.6466 29.1401 -15.5846}
		v {21.9062 10.771 -16.6516}
		v {1.57569 23.7102 9.27748e-002}
		v {21.6137 13.8479 7.04583}
		v {10.4209 18.7918 15.6523}
		v {0.439183 13.5108 5.45683}
		v {13.9949 149.766 -4.3263}
		v {6.87166 149.137 -0.573815}
		v {16.2263 149.255 -10.5134}
		v {16.1662 168.447 -6.90903}
		v {4.61481 166.855 -1.51016}
		v {0.312881 11.4132 -24.3858}
		v {0. 149.113 -22.2259}
		v {0. 165.412 -23.4796}
		v {3.34164 135.89 -12.3411}
		v {8.80227 136.768 -15.1503}
		v {10.0894 150.52 -21.4285}
		v {10.3365 84.4067 -15.9337}
		v {8.11494 84.3168 -15.0279}
		v {10.6588 77.0009 -17.8066}
		v {7.64165 77.0084 -16.7118}
		v {2.82597 29.238 -21.707}
		v {11.2126 28.0445 -25.9265}
		v {13.9093 166.698 -18.8052}
		v {11.7618 12.472 -31.9926}
		v {5.99733 271.845 3.46994}
		v {6.26837 270.74 4.28013}
		v {1.10147 270.229 5.85902}
		v {10.6172 270.222 1.84146}
		v {11.1111 265.801 0.98233}
		v {10.7169 261.288 0.372826}
		v {6.26837 260.241 2.99769}
		v {2.28536 260.906 4.72686}
		v {0. 265.261 5.52323}
		v {1.21437 265.201 6.0074}
		v {6.56865 267.536 4.71413}
		v {5.20512 266.824 5.32162}
		v {7.93217 266.991 3.95318}
		v {8.49695 265.51 3.48453}
		v {7.93217 263.958 3.58271}
		v {6.56865 263.247 4.19019}
		v {5.20512 263.791 4.95115}
		v {4.64034 265.273 5.4198}
		v {5.29836 274.109 3.60333}
		v {123.075 209.899 -1.02157}
		v {124.199 211.046 -1.26717}
		v {123.537 210.78 -2.93001}
		v {116.965 216.722 2.13143e-002}
		v {119.616 216.138 -2.99934}
		v {125.565 214.518 -2.22422}
		v {122.044 216.306 -2.73563}
		v {123.952 214.006 -2.43883e-002}
		v {134.954 214.189 -2.9667}
		v {135.433 215.908 -10.153}
		v {132.417 214.333 -10.979}
		v {131.876 212.4 -3.67496}
		v {120.464 219.684 -14.861}
		v {122.1 216.537 -3.50839}
		v {115.008 212.785 -4.29128}
		v {114.858 212.69 -0.730758}
		v {105.742 216.772 -8.99745}
		v {109.127 219.638 -15.0661}
		v {134.061 213.099 1.32217}
		v {134.52 213.571 -0.299762}
		v {131.433 211.777 -1.14482}
		v {130.94 211.289 -7.00962e-002}
		v {126.181 217.544 0.715584}
		v {127.998 217.764 -0.888767}
		v {109.198 222.814 -12.65}
		v {120.924 223.946 -13.2605}
		v {121.598 223.081 -2.01819}
		v {108.133 223.627 -7.60904}
		v {118.3 221.989 0.108981}
		v {48.4684 228.73 -15.3628}
		v {49.5744 233.249 -17.4442}
		v {95.1727 217.917 -22.1896}
		v {110.815 213.309 -23.6075}
		v {113.285 226.97 -15.4873}
		v {96.7127 227.448 -16.255}
		v {111.547 227.488 -7.22781}
		v {106.563 213.686 1.25495}
		v {91.1331 218.362 -4.71398}
		v {95.2976 227.683 -10.7977}
		v {48.5149 229.567 -22.2983}
		v {48.7435 232.654 -20.6714}
		v {52.0796 232.136 -22.0582}
		v {51.8743 229.305 -23.2934}
		v {53.6834 227.322 -14.2313}
		v {54.5556 232.079 -17.8302}
		v {57.5475 228.183 -22.6913}
		v {57.5001 230.611 -21.016}
		v {106.828 201.781 -9.40256}
		v {92.5598 210.165 -13.1971}
		v {48.7759 226.884 -19.2619}
		v {52.7624 225.898 -19.982}
		v {128.179 219.927 -11.7067}
		v {126.441 217.009 -12.92}
		v {126.988 214.469 -3.59167}
		v {128.337 218.163 -2.83991}
		v {6.41848 240.542 -11.3323}
		v {9.32308 243.522 -13.3154}
		v {13.212 232.632 -18.4783}
		v {0. 201.183 -9.37902}
		v {9.69248 227.984 -15.1467}
		v {1.6964 211.574 -9.94166}
		v {0. 190.991 -7.60753}
		v {10.3242 190.586 -12.2247}
		v {9.59791 149.934 5.89615}
		v {9.57138 205.451 -13.4448}
		v {8.04368 207.625 -19.7289}
		v {8.88218 190.528 -18.7548}
		v {0. 210.072 -23.302}
		v {0. 190.123 -22.2387}
		v {24.0291 150.997 -22.6568}
		v {0. 147.983 -28.8254}
		v {24.4861 152.137 -4.25711}
		v {9.41572 233.089 -20.4793}
		v {0. 236.867 -21.7877}
		v {21.8124 242.642 -9.49623}
		v {18.7785 233.086 -5.24513}
		v {22.927 236.805 -5.3446}
		v {0. 211.29 -9.60236}
		v {0. 238.952 -11.513}
		v {16.7098 247.154 -14.8261}
		v {10.4063 249.589 -17.8063}
		v {0. 250.382 -19.7172}
		v {17.9696 241.738 -16.6745}
		v {18.4206 241.612 -14.1678}
		v {14.8485 235.029 -12.6589}
		v {0.640829 262.823 4.86657}
		v {0. 263.262 4.95858}
		v {10.0543 223.806 -7.94656}
		v {4.48757 230.02 -10.473}
		v {4.33082e-002 234.411 -11.0478}
		v {-2.83684 245.681 -16.0691}
		v {-3.37722 250.744 -15.5725}
		v {-3.37722 251.439 -12.6387}
		v {-1.8365 243.379 -12.8966}
		v {-1.72087 251.152 -10.3382}
		v {-9.92746 272.97 2.20267}
		v {-11.0139 271.075 0.679702}
		v {-2.66555 252.825 1.49062}
		v {-2.38985 253.357 2.51925}
		v {-4.53278 254.166 0.816923}
		v {-4.95025 253.857 0.384984}
		v {-6.88349 254.023 -2.35175}
		v {-3.98647 253.827 -8.05045}
		v {-2.35822 247.952 -3.67809}
		v {-3.68532 247.307 -0.160126}
		v {-5.21343 249.798 1.32034}
		v {-11.6082 265.97 -0.395938}
		v {-11.1173 260.57 -1.18867}
		v {-5.99733 259.364 1.94544}
		v {-1.2832 259.662 5.76869}
		v {-6.34635 256.198 -8.52135}
		v {-1.28037 258.246 5.247}
		v {-1.53997 258.211 3.22685}
		v {-2.41485 255.171 3.60067}
		v {-2.61844 253.993 3.3576}
		v {-2.44634 255.138 2.54227}
		v {-2.94521 257.515 2.18887}
		v {-5.54073 256.066 0.638367}
		v {-1.40639 260.275 4.10925}
		v {-9.91598 253.243 -25.2405}
		v {-13.5136 252.037 -16.1538}
		v {-10.1061 252.455 -9.07567}
		v {-18.141 262.225 -33.2367}
		v {-23.091 260.186 -15.4929}
		v {-19.4377 259.377 -1.73434}
		v {-21.1786 276.197 -36.2986}
		v {-28.4911 271.468 -13.9488}
		v {-24.1137 268.033 -7.32916e-002}
		v {-20.6951 288.677 -33.6097}
		v {-29.2446 283.084 -12.5882}
		v {-15.2623 278.314 9.88051}
		v {-25.322 278.693 2.33532}
		v {-15.9787 299.617 -26.7938}
		v {-22.5802 297.363 -10.4922}
		v {-12.6548 295.45 7.65302}
		v {-19.3182 295.942 1.86737}
		v {-6.86318 305.423 -21.2694}
		v {-10.4958 304.444 -11.3473}
		v {-5.83038 303.516 -2.15697}
		v {-9.10285 303.735 -4.86782}
		v {-14.5228 17.0439 20.1686}
		v {-10.0561 18.4625 22.2492}
		v {-9.93932 16.2596 7.87207}
		v {-14.6047 15.2408 7.86926}
		v {-9.80085 17.545 3.42789}
		v {-14.2101 17.627 -2.82017}
		v {-17.1784 0.32209 22.1789}
		v {-18.1007 0.322094 8.93609}
		v {-10.2613 0.32209 24.2695}
		v {-3.10992 0.322126 9.29518}
		v {-4.12429 0.32209 21.7043}
		v {-4.03497 16.3866 -8.31942}
		v {-4.98321 15.0637 8.0199}
		v {-3.33375 11.1244 9.05273}
		v {-3.63586 12.0237 -4.35024}
		v {-17.6588 11.102 9.24668}
		v {-17.019 11.6547 -3.03514}
		v {-3.29247 0.322126 -4.64184}
		v {-9.59846 16.0163 -24.5501}
		v {-9.66536 9.59093 -25.0364}
		v {-13.5179 9.59094 -24.109}
		v {-13.3388 15.9335 -22.6726}
		v {-17.349 0.322126 -2.59526}
		v {-5.64033 17.0442 20.6312}
		v {-4.97256 15.9681 -22.5687}
		v {-5.01203 9.39882 -24.0351}
		v {-4.5162 10.0294 -10.7461}
		v {-15.7224 16.0191 -10.9185}
		v {-15.4158 10.0295 -10.7104}
		v {-16.34 11.1112 22.7633}
		v {-10.0359 11.1259 25.0348}
		v {-4.51856 11.1192 22.7608}
		v {-12.723 0.175294 -23.2058}
		v {-9.39572 0.175282 -24.1331}
		v {-15.2288 0.174902 -10.0284}
		v {-4.5162 0.174842 -10.064}
		v {-6.06377 0.175146 -23.1319}
		v {-9.95422 85.1946 -6.8635}
		v {-12.6312 85.0258 -9.40083}
		v {-12.802 80.9845 -10.0453}
		v {-10.1716 81.3281 -7.94148}
		v {-16.4569 38.5873 -1.98827}
		v {-10.5434 41.6723 2.87294}
		v {-8.50257 137.364 -2.22403}
		v {-12.8235 137.418 -4.63949}
		v {-6.45941 84.5989 -11.747}
		v {-1.27221 137.842 -7.71607}
		v {-2.85613 36.2372 -5.52294}
		v {-6.46162 80.5376 -11.0511}
		v {-14.7511 137.308 -8.31621}
		v {-13.7685 84.5214 -12.6727}
		v {-13.6838 80.1791 -12.664}
		v {-18.5101 24.0666 2.60571}
		v {-10.4621 28.2761 8.96584}
		v {-18.6466 29.1401 -15.5846}
		v {-21.9062 10.771 -16.6516}
		v {-1.57569 23.7102 9.27748e-002}
		v {-21.6137 13.8479 7.04583}
		v {-10.4209 18.7918 15.6523}
		v {-0.439183 13.5108 5.45683}
		v {-13.9949 149.766 -4.3263}
		v {-6.87166 149.137 -0.573815}
		v {-16.2263 149.255 -10.5134}
		v {-16.1662 168.447 -6.90903}
		v {-4.61481 166.855 -1.51016}
		v {-0.312881 11.4132 -24.3858}
		v {-3.34164 135.89 -12.3411}
		v {-8.80227 136.768 -15.1503}
		v {-10.0894 150.52 -21.4285}
		v {-10.3365 84.4067 -15.9337}
		v {-8.11494 84.3168 -15.0279}
		v {-10.6588 77.0009 -17.8066}
		v {-7.64165 77.0084 -16.7118}
		v {-2.82597 29.238 -21.707}
		v {-11.2126 28.0445 -25.9265}
		v {-13.9093 166.698 -18.8052}
		v {-11.7618 12.472 -31.9926}
		v {-5.99733 271.845 3.46994}
		v {-6.26837 270.74 4.28013}
		v {-1.10147 270.229 5.85902}
		v {-10.6172 270.222 1.84146}
		v {-11.1111 265.801 0.98233}
		v {-10.7169 261.288 0.372826}
		v {-6.26837 260.241 2.99769}
		v {-2.28536 260.906 4.72686}
		v {-1.21437 265.201 6.0074}
		v {-6.56865 267.536 4.71413}
		v {-5.20512 266.824 5.32162}
		v {-7.93217 266.991 3.95318}
		v {-8.49695 265.51 3.48453}
		v {-7.93217 263.958 3.58271}
		v {-6.56865 263.247 4.19019}
		v {-5.20512 263.791 4.95115}
		v {-4.64034 265.273 5.4198}
		v {-5.29836 274.109 3.60333}
		v {-123.075 209.899 -1.02157}
		v {-124.199 211.046 -1.26717}
		v {-123.537 210.78 -2.93001}
		v {-116.965 216.722 2.13144e-002}
		v {-119.616 216.138 -2.99934}
		v {-125.565 214.518 -2.22422}
		v {-122.044 216.306 -2.73563}
		v {-123.952 214.006 -2.43883e-002}
		v {-134.954 214.189 -2.9667}
		v {-135.433 215.908 -10.153}
		v {-132.417 214.333 -10.979}
		v {-131.876 212.4 -3.67496}
		v {-120.464 219.684 -14.861}
		v {-122.1 216.537 -3.50839}
		v {-115.008 212.785 -4.29128}
		v {-114.858 212.69 -0.730758}
		v {-105.742 216.772 -8.99745}
		v {-109.127 219.638 -15.0661}
		v {-134.061 213.099 1.32217}
		v {-134.52 213.571 -0.299762}
		v {-131.433 211.777 -1.14482}
		v {-130.94 211.289 -7.00961e-002}
		v {-126.181 217.544 0.715584}
		v {-127.998 217.764 -0.888767}
		v {-109.198 222.814 -12.65}
		v {-120.924 223.946 -13.2605}
		v {-121.598 223.081 -2.01819}
		v {-108.133 223.627 -7.60904}
		v {-118.3 221.989 0.108981}
		v {-48.4646 228.728 -15.4504}
		v {-49.5705 233.247 -17.5318}
		v {-95.1735 217.915 -22.1837}
		v {-110.816 213.307 -23.6019}
		v {-113.285 226.968 -15.4817}
		v {-96.7131 227.446 -16.2492}
		v {-111.547 227.486 -7.22228}
		v {-106.562 213.684 1.26036}
		v {-91.1327 218.359 -4.70836}
		v {-95.2976 227.68 -10.7919}
		v {-48.5104 229.566 -22.3859}
		v {-48.7392 232.653 -20.759}
		v {-52.0778 232.134 -22.1008}
		v {-51.8725 229.303 -23.336}
		v {-53.6837 227.32 -14.2284}
		v {-54.5561 232.076 -17.8273}
		v {-57.5483 228.181 -22.6881}
		v {-57.5008 230.609 -21.0129}
		v {-106.828 201.779 -9.397}
		v {-92.56 210.163 -13.1912}
		v {-48.7718 226.883 -19.3496}
		v {-52.763 225.896 -19.9792}
		v {-128.179 219.927 -11.7067}
		v {-126.441 217.009 -12.92}
		v {-126.988 214.469 -3.59167}
		v {-128.337 218.163 -2.83991}
		v {-6.41848 240.542 -11.3323}
		v {-9.32308 243.522 -13.3154}
		v {-13.2079 232.631 -18.5625}
		v {-9.69248 227.984 -15.1467}
		v {-1.6964 211.626 -9.83587}
		v {-10.3242 190.586 -12.2247}
		v {-9.59791 149.934 5.89615}
		v {-9.57138 205.454 -13.4069}
		v {-8.04368 207.614 -19.6914}
		v {-8.88218 190.528 -18.7548}
		v {-24.0291 150.997 -22.6568}
		v {-24.4861 152.137 -4.25711}
		v {-9.41572 233.089 -20.4793}
		v {-21.8124 242.642 -9.49623}
		v {-18.7785 233.086 -5.24513}
		v {-22.927 236.805 -5.3446}
		v {-16.7075 247.156 -14.918}
		v {-10.4063 249.574 -17.8086}
		v {-17.9657 241.736 -16.7589}
		v {-18.417 241.61 -14.2523}
		v {-14.845 235.027 -12.7432}
		v {-0.640829 262.823 4.86657}
		v {-10.0543 223.806 -7.94656}
		v {-4.48757 230.02 -10.473}
		v {0. 304.527 -12.5341}
	}
	CVertNorms
	{
		numVertNorms 608
		vn {-4.93614e-004 9.52423e-003 -0.999955}
		vn {-9.31953e-004 -1.86329e-002 -0.999826}
		vn {-1.23739e-002 1.98198e-002 -0.999727}
		vn {1.23738e-002 1.98198e-002 -0.999727}
		vn {-1.26904e-007 -3.22713e-002 -0.999479}
		vn {-4.8301e-008 -5.09253e-002 -0.998702}
		vn {9.48008e-008 6.30611e-002 -0.99801}
		vn {-4.69494e-003 -0.108286 -0.994109}
		vn {4.69479e-003 -0.108286 -0.994109}
		vn {6.8007e-002 -0.120857 -0.990338}
		vn {-6.80363e-002 -0.120852 -0.990336}
		vn {4.9241e-002 -0.132453 -0.989965}
		vn {-5.28128e-002 -0.134315 -0.98953}
		vn {-2.00368e-002 0.150856 -0.988353}
		vn {2.00368e-002 0.150856 -0.988353}
		vn {-0.124116 -0.128061 -0.983969}
		vn {0.124126 -0.128057 -0.983968}
		vn {-0.220653 1.51749e-002 -0.975234}
		vn {0.220653 1.51749e-002 -0.975234}
		vn {-0.219892 0.117827 -0.968382}
		vn {0.219892 0.117827 -0.968382}
		vn {2.22179e-002 -0.255599 -0.966528}
		vn {-2.1123e-002 -0.257809 -0.965965}
		vn {0.207139 -0.231977 -0.950411}
		vn {-0.212917 -0.231856 -0.949162}
		vn {-0.256735 0.18458 -0.948692}
		vn {0.256735 0.18458 -0.948692}
		vn {-0.236832 0.231501 -0.943567}
		vn {0.236832 0.231501 -0.943567}
		vn {-4.58891e-008 0.332628 -0.943058}
		vn {0.145625 -0.318081 -0.936813}
		vn {-0.156458 -0.314968 -0.936118}
		vn {-0.211459 0.304696 -0.928679}
		vn {0.211459 0.304696 -0.928679}
		vn {-0.323319 -0.227892 -0.918439}
		vn {0.323319 -0.227892 -0.918439}
		vn {5.6091e-008 0.413353 -0.910571}
		vn {-5.8525e-002 -0.428129 -0.901821}
		vn {5.85252e-002 -0.428131 -0.90182}
		vn {-1.21883e-002 -0.454384 -0.890722}
		vn {1.21883e-002 -0.454385 -0.890722}
		vn {7.46172e-004 0.457248 -0.889339}
		vn {-1.70127e-007 0.479761 -0.877399}
		vn {0.314622 -0.36891 -0.874596}
		vn {-0.314622 -0.36891 -0.874596}
		vn {-5.39663e-004 -0.520484 -0.853871}
		vn {-1.77787e-002 -0.536058 -0.843994}
		vn {1.77791e-002 -0.536058 -0.843994}
		vn {0.121329 -0.539313 -0.833319}
		vn {-0.121329 -0.539313 -0.833319}
		vn {-0.494968 0.247225 -0.832998}
		vn {-6.21454e-002 -0.592337 -0.80329}
		vn {6.21453e-002 -0.592337 -0.80329}
		vn {-0.558828 -0.235162 -0.795242}
		vn {0.558828 -0.235162 -0.795242}
		vn {-2.51371e-003 -0.641087 -0.767464}
		vn {2.5137e-003 -0.641087 -0.767464}
		vn {-0.659752 -1.36123e-002 -0.75136}
		vn {0.659752 -1.36123e-002 -0.75136}
		vn {-0.259737 0.608504 -0.749839}
		vn {0.262378 0.607628 -0.749631}
		vn {-0.627167 -0.265881 -0.732099}
		vn {0.67848 -9.53939e-002 -0.728398}
		vn {-0.678481 -9.53939e-002 -0.728398}
		vn {0.199657 -0.686709 -0.698976}
		vn {-0.199657 -0.686713 -0.698972}
		vn {-0.717764 6.37977e-002 -0.693358}
		vn {0.717764 6.37977e-002 -0.693358}
		vn {-0.670698 -0.270742 -0.690553}
		vn {0.670698 -0.270742 -0.690553}
		vn {-0.124649 -0.727607 -0.674574}
		vn {0.124649 -0.727607 -0.674574}
		vn {0.528157 -0.521116 -0.670439}
		vn {-0.735082 -0.101266 -0.670373}
		vn {0.735082 -0.101266 -0.670373}
		vn {0.328407 -0.668232 -0.667544}
		vn {-0.328409 -0.668238 -0.667536}
		vn {-0.736906 0.149421 -0.659274}
		vn {0.736907 0.149421 -0.659274}
		vn {0.752416 -1.19741e-002 -0.65858}
		vn {-0.753013 -1.1819e-002 -0.657899}
		vn {-0.755884 -5.04039e-003 -0.654687}
		vn {0.755884 -5.04039e-003 -0.654687}
		vn {0.752871 7.19083e-002 -0.654229}
		vn {-0.753182 7.23252e-002 -0.653824}
		vn {-0.673599 0.363525 -0.643517}
		vn {0.673599 0.363525 -0.643517}
		vn {0.76061 -0.101487 -0.641227}
		vn {-0.76061 -0.101487 -0.641227}
		vn {7.95785e-008 0.767529 -0.641015}
		vn {-0.768885 8.83514e-002 -0.633254}
		vn {0.768885 8.83514e-002 -0.633254}
		vn {-0.760726 0.147417 -0.63211}
		vn {0.760726 0.147417 -0.63211}
		vn {-6.30468e-003 0.777723 -0.628575}
		vn {2.43339e-003 0.778188 -0.628026}
		vn {0.211187 -0.750769 -0.625897}
		vn {-0.211186 -0.750769 -0.625897}
		vn {0.780452 -1.55533e-002 -0.625022}
		vn {-0.780452 -1.55533e-002 -0.625022}
		vn {-0.758144 -0.202919 -0.619711}
		vn {0.543342 -0.569311 -0.61698}
		vn {0.762421 -0.196873 -0.616405}
		vn {-0.542849 -0.570421 -0.616388}
		vn {-0.632052 0.479929 -0.608423}
		vn {0.632052 0.479929 -0.608423}
		vn {0.793892 6.94617e-002 -0.604078}
		vn {-0.793892 6.94616e-002 -0.604078}
		vn {-4.77834e-003 -0.802485 -0.596653}
		vn {4.77822e-003 -0.802485 -0.596653}
		vn {0.676313 -0.432241 -0.596463}
		vn {-0.676317 -0.432241 -0.596459}
		vn {-7.95627e-002 0.806342 -0.586074}
		vn {7.95627e-002 0.806343 -0.586073}
		vn {-0.809184 7.7615e-002 -0.582406}
		vn {0.809184 7.76149e-002 -0.582406}
		vn {0.219833 0.804776 -0.55137}
		vn {-0.221971 0.804583 -0.550794}
		vn {-0.828199 0.172027 -0.533378}
		vn {0.828199 0.172027 -0.533378}
		vn {-9.84576e-002 0.843218 -0.528479}
		vn {9.84537e-002 0.843222 -0.528473}
		vn {-5.10558e-002 0.855801 -0.51478}
		vn {5.10868e-002 0.855804 -0.514772}
		vn {-0.544186 0.667084 -0.508783}
		vn {0.544186 0.667084 -0.508782}
		vn {0.852423 -0.131323 -0.506091}
		vn {-0.852424 -0.131323 -0.506091}
		vn {0.128096 0.858778 -0.496076}
		vn {-0.133198 0.858028 -0.49603}
		vn {-0.168378 0.857685 -0.485825}
		vn {0.169399 0.857576 -0.485662}
		vn {-2.52668e-003 -0.884278 -0.466954}
		vn {0.886835 7.7802e-002 -0.455489}
		vn {-0.886837 7.78023e-002 -0.455486}
		vn {-0.127307 -0.884708 -0.448424}
		vn {0.182952 0.882851 -0.432555}
		vn {-0.182952 0.882851 -0.432554}
		vn {-0.51912 0.747238 -0.41491}
		vn {0.51912 0.747238 -0.41491}
		vn {4.9128e-002 -0.918399 -0.392594}
		vn {-0.577844 -0.739551 -0.345196}
		vn {0.577844 -0.739551 -0.345195}
		vn {-0.556771 0.761012 -0.332968}
		vn {0.556771 0.761012 -0.332967}
		vn {-0.263217 -0.906072 -0.331287}
		vn {0.262102 -0.906872 -0.329979}
		vn {0.929317 0.178902 -0.323055}
		vn {1.56024e-008 -0.947753 -0.319004}
		vn {0.893026 -0.320718 -0.315665}
		vn {-0.89316 -0.320652 -0.315351}
		vn {-0.273297 -0.916043 -0.293552}
		vn {0.270178 -0.91732 -0.29245}
		vn {0.242038 -0.930005 -0.276603}
		vn {-0.245746 -0.929145 -0.276222}
		vn {-0.955431 0.153605 -0.252105}
		vn {0.955431 0.153605 -0.252105}
		vn {-3.84588e-003 -0.971998 -0.234958}
		vn {-0.973877 8.52923e-002 -0.21045}
		vn {0.973877 8.52923e-002 -0.21045}
		vn {-2.83582e-008 0.982721 -0.185094}
		vn {-0.957059 0.22652 -0.180908}
		vn {0.957059 0.22652 -0.180908}
		vn {-0.983829 -2.10997e-002 -0.177864}
		vn {0.983829 -2.10997e-002 -0.177864}
		vn {-0.984948 2.71891e-002 -0.170699}
		vn {0.984948 2.71892e-002 -0.170699}
		vn {-0.984724 -6.35095e-002 -0.162125}
		vn {0.984724 -6.35096e-002 -0.162125}
		vn {-0.101548 -0.982312 -0.157327}
		vn {0.267091 0.951287 -0.153998}
		vn {-0.267091 0.951287 -0.153997}
		vn {9.79622e-002 -0.983355 -0.153025}
		vn {0.761307 -0.631427 -0.147351}
		vn {-0.761299 -0.631494 -0.147102}
		vn {0.882939 -0.449573 -0.135287}
		vn {-0.882934 -0.449644 -0.135083}
		vn {-0.991317 1.41463e-002 -0.130727}
		vn {0.991317 1.41463e-002 -0.130727}
		vn {-0.986633 -0.101338 -0.127615}
		vn {0.986633 -0.101338 -0.127615}
		vn {0.943067 0.313919 -0.109907}
		vn {-0.943068 0.313918 -0.109905}
		vn {-0.984566 0.14482 -9.82721e-002}
		vn {0.984566 0.14482 -9.82721e-002}
		vn {-0.995722 -2.41668e-002 -8.91795e-002}
		vn {0.995722 -2.41668e-002 -8.91795e-002}
		vn {-0.780628 -0.619789 -8.05101e-002}
		vn {0.780628 -0.619789 -8.0509e-002}
		vn {-0.996697 1.94492e-002 -7.88488e-002}
		vn {0.996697 1.94492e-002 -7.88488e-002}
		vn {-0.995254 -6.1156e-002 -7.56977e-002}
		vn {0.995254 -6.1156e-002 -7.56977e-002}
		vn {0.407664 -0.910062 -7.48171e-002}
		vn {-0.407676 -0.910057 -7.48099e-002}
		vn {-0.779781 -0.62246 -6.69679e-002}
		vn {0.780389 -0.621757 -6.64141e-002}
		vn {0.971329 -0.229308 -6.27554e-002}
		vn {-0.971329 -0.229308 -6.27551e-002}
		vn {-0.995113 8.46214e-002 -5.08861e-002}
		vn {-0.991691 -0.120802 -4.42153e-002}
		vn {0.991691 -0.120802 -4.42152e-002}
		vn {-0.994073 0.101355 -3.93256e-002}
		vn {0.994073 0.101355 -3.93256e-002}
		vn {-0.968327 0.246641 -3.88672e-002}
		vn {0.968327 0.246641 -3.88672e-002}
		vn {-0.70051 -0.713031 -2.95454e-002}
		vn {0.70051 -0.713031 -2.95447e-002}
		vn {0.481296 -0.876075 -2.90801e-002}
		vn {-0.481312 -0.876067 -2.90775e-002}
		vn {-0.365074 -0.93074 -2.1059e-002}
		vn {0.366063 -0.930402 -1.86905e-002}
		vn {-0.993229 0.11523 -1.47776e-002}
		vn {-0.223478 0.974649 -1.08489e-002}
		vn {0.223478 0.974649 -1.08373e-002}
		vn {0.775435 -0.631361 -9.09336e-003}
		vn {-0.775435 -0.631361 -9.0926e-003}
		vn {0.19291 -0.981175 -9.02871e-003}
		vn {-0.19291 -0.981175 -9.01855e-003}
		vn {0.980427 0.196723 -7.92637e-003}
		vn {-0.980427 0.196723 -7.92628e-003}
		vn {-5.06432e-002 -0.99869 -7.24568e-003}
		vn {5.06432e-002 -0.99869 -7.24561e-003}
		vn {3.72667e-009 0.999989 -4.68355e-003}
		vn {1.23864e-005 -1. -3.20997e-005}
		vn {0.980193 -0.197749 1.08068e-002}
		vn {0.998896 4.51651e-002 1.2936e-002}
		vn {-0.998896 4.51651e-002 1.2936e-002}
		vn {-0.963888 0.265716 1.77411e-002}
		vn {0.963888 0.265716 1.77411e-002}
		vn {3.20107e-002 0.999327 1.79294e-002}
		vn {-3.20107e-002 0.999327 1.79295e-002}
		vn {-0.562175 -0.826759 2.06885e-002}
		vn {0.562175 -0.826759 2.06885e-002}
		vn {0.718834 0.694813 2.26493e-002}
		vn {-0.718834 0.694813 2.26493e-002}
		vn {-0.616372 0.786778 3.26478e-002}
		vn {0.616372 0.786778 3.26479e-002}
		vn {-0.999117 2.53199e-002 3.35407e-002}
		vn {0.999117 2.53199e-002 3.35407e-002}
		vn {-3.84101e-008 -0.999281 3.79051e-002}
		vn {-0.987862 0.150451 3.865e-002}
		vn {0.987862 0.150451 3.865e-002}
		vn {0.439587 -0.897118 4.40731e-002}
		vn {-0.439587 -0.897118 4.40732e-002}
		vn {0.734426 0.676812 5.04326e-002}
		vn {-0.734426 0.676812 5.04329e-002}
		vn {0.297909 -0.952781 5.88163e-002}
		vn {-0.297909 -0.952781 5.88164e-002}
		vn {-0.257221 0.962389 8.74358e-002}
		vn {0.257221 0.962389 8.7436e-002}
		vn {-2.90085e-003 0.995125 9.8574e-002}
		vn {2.90084e-003 0.995125 9.8575e-002}
		vn {-9.78368e-004 0.994857 0.101285}
		vn {9.7836e-004 0.994857 0.101285}
		vn {-0.785505 -0.610002 0.104301}
		vn {0.785505 -0.610002 0.104304}
		vn {4.34535e-003 0.994145 0.107966}
		vn {-4.34535e-003 0.994145 0.107968}
		vn {0.99014 7.53286e-002 0.118104}
		vn {-0.99014 7.53286e-002 0.118106}
		vn {0.992042 -3.47743e-002 0.121014}
		vn {-0.992029 -3.47154e-002 0.12113}
		vn {-0.55173 -0.824764 0.123929}
		vn {0.55173 -0.824764 0.123929}
		vn {-0.90588 -0.396748 0.148232}
		vn {0.90588 -0.396748 0.148232}
		vn {-0.597133 -0.784832 0.165745}
		vn {0.597133 -0.784832 0.165745}
		vn {-0.950566 -0.261372 0.167659}
		vn {0.950566 -0.261372 0.167659}
		vn {0.724765 -0.668072 0.16851}
		vn {3.27526e-002 -0.979109 0.200679}
		vn {-3.27523e-002 -0.979108 0.200685}
		vn {-0.893367 -0.399654 0.205358}
		vn {0.893367 -0.399654 0.205359}
		vn {-0.210742 0.950634 0.227779}
		vn {0.210742 0.950634 0.227779}
		vn {-0.782641 -0.576279 0.235321}
		vn {0.782641 -0.576279 0.235322}
		vn {2.289e-007 -0.964956 0.262412}
		vn {3.61564e-002 -0.960311 0.276578}
		vn {-3.61569e-002 -0.960311 0.276579}
		vn {-0.713335 -0.643869 0.276742}
		vn {0.713335 -0.643869 0.276743}
		vn {-0.952055 0.126004 0.278772}
		vn {0.952055 0.126004 0.278772}
		vn {0.92764 0.239644 0.286453}
		vn {-0.92764 0.239644 0.286453}
		vn {-0.922592 0.258067 0.286749}
		vn {0.922592 0.258067 0.286749}
		vn {-0.616385 0.732714 0.288444}
		vn {0.616385 0.732714 0.288444}
		vn {0.9389 0.178176 0.294483}
		vn {-0.9389 0.178176 0.294483}
		vn {0.147211 0.943502 0.296873}
		vn {-0.14446 0.943903 0.296948}
		vn {-0.871218 0.385041 0.304504}
		vn {0.871218 0.385041 0.304504}
		vn {0.613234 0.727728 0.307175}
		vn {-0.613234 0.727728 0.307176}
		vn {-0.949105 -4.16774e-002 0.312189}
		vn {0.949105 -4.16773e-002 0.312189}
		vn {-0.424589 -0.848766 0.315151}
		vn {0.424589 -0.848766 0.315151}
		vn {0.570266 -0.758398 0.315641}
		vn {-0.570266 -0.758398 0.315641}
		vn {0.669088 0.671003 0.319494}
		vn {-0.669088 0.671003 0.319494}
		vn {5.33413e-002 -0.945904 0.320031}
		vn {-5.31089e-002 -0.945115 0.322393}
		vn {0.239762 -0.914146 0.326882}
		vn {-0.239764 -0.914144 0.326886}
		vn {0.943102 -4.56833e-002 0.329349}
		vn {-0.943102 -4.56832e-002 0.32935}
		vn {-0.819676 -0.466717 0.332125}
		vn {0.819676 -0.466717 0.332125}
		vn {-1.86372e-008 -0.942561 0.334034}
		vn {-0.936755 7.90629e-002 0.340939}
		vn {0.936755 7.90627e-002 0.34094}
		vn {-0.186675 0.920602 0.342994}
		vn {0.189168 0.92 0.343242}
		vn {-0.88388 0.31756 0.343383}
		vn {0.88388 0.31756 0.343383}
		vn {0.772119 -0.529209 0.351809}
		vn {-0.771788 -0.529512 0.35208}
		vn {-1.58121e-008 0.932099 0.362204}
		vn {0.931868 -5.13293e-003 0.36276}
		vn {-0.931868 -5.13293e-003 0.362761}
		vn {-0.819206 -0.431276 0.378025}
		vn {0.819205 -0.431275 0.378027}
		vn {0.146552 0.905686 0.397812}
		vn {-0.146552 0.905686 0.397813}
		vn {-0.745454 0.53259 0.400806}
		vn {0.745454 0.53259 0.400806}
		vn {-1.99286e-007 -0.914442 0.404718}
		vn {0.883415 -0.220801 0.41331}
		vn {-0.883236 -0.220857 0.413663}
		vn {2.52919e-002 0.909385 0.415185}
		vn {-2.52683e-002 0.909381 0.415196}
		vn {0.886694 0.203187 0.415319}
		vn {-0.886694 0.203187 0.415319}
		vn {-0.849713 0.319541 0.419382}
		vn {0.849713 0.319541 0.419382}
		vn {-0.165625 -0.887295 0.430438}
		vn {0.165625 -0.887295 0.430438}
		vn {-0.766345 -0.476709 0.430655}
		vn {0.766345 -0.476709 0.430655}
		vn {2.26252e-008 -0.901257 0.433285}
		vn {7.35629e-002 0.897833 0.434147}
		vn {-7.35433e-002 0.89783 0.434158}
		vn {0.872148 0.213243 0.440323}
		vn {-0.872012 0.213037 0.440692}
		vn {-0.119142 -0.887826 0.44449}
		vn {0.119142 -0.887825 0.444491}
		vn {-0.270451 0.853768 0.4449}
		vn {0.266739 0.854671 0.445408}
		vn {-0.888852 4.79641e-002 0.455678}
		vn {0.888319 4.91121e-002 0.456594}
		vn {5.63508e-003 0.884919 0.465711}
		vn {-5.63506e-003 0.884919 0.465711}
		vn {0.873866 0.101246 0.475508}
		vn {-0.873865 0.101249 0.475509}
		vn {0.632513 0.609165 0.478378}
		vn {-0.632513 0.609165 0.478378}
		vn {9.09546e-002 -0.869703 0.485122}
		vn {-9.09546e-002 -0.869703 0.485122}
		vn {0.378566 -0.785543 0.489499}
		vn {-0.378563 -0.785541 0.489505}
		vn {-0.341174 -0.796342 0.499439}
		vn {0.341173 -0.796341 0.499442}
		vn {-0.443282 0.735738 0.512046}
		vn {0.443281 0.735738 0.512047}
		vn {0.853192 4.83301e-002 0.519353}
		vn {-0.853192 4.83301e-002 0.519353}
		vn {-0.301894 -0.789398 0.53452}
		vn {0.301893 -0.789398 0.53452}
		vn {-0.75849 0.360817 0.542682}
		vn {0.75849 0.360815 0.542684}
		vn {-0.83511 -7.85699e-002 0.544442}
		vn {0.83511 -7.85699e-002 0.544443}
		vn {-0.535203 0.638138 0.553478}
		vn {0.535199 0.638136 0.553484}
		vn {0.303876 -0.775176 0.553861}
		vn {-0.303876 -0.775174 0.553863}
		vn {-0.797321 -0.224372 0.5603}
		vn {-0.449721 -0.693664 0.562656}
		vn {0.44972 -0.693664 0.562656}
		vn {0.795348 -0.22498 0.562855}
		vn {-0.806861 0.173201 0.564781}
		vn {0.806861 0.173201 0.564781}
		vn {3.54953e-002 -0.824278 0.565072}
		vn {-3.54954e-002 -0.824278 0.565072}
		vn {-0.822926 5.02031e-002 0.565927}
		vn {0.822925 5.02031e-002 0.565927}
		vn {0.782524 0.254463 0.568248}
		vn {-0.782524 0.254463 0.568248}
		vn {-5.22948e-002 -0.819887 0.570132}
		vn {5.22946e-002 -0.819887 0.570132}
		vn {-4.45161e-007 -0.820081 0.572247}
		vn {0.814914 -7.83697e-002 0.574259}
		vn {-0.814913 -7.83682e-002 0.574261}
		vn {0.262275 0.772728 0.578016}
		vn {-0.26492 0.771651 0.578249}
		vn {-0.807755 -2.89102e-002 0.588808}
		vn {0.807755 -2.89102e-002 0.588809}
		vn {-6.37046e-007 -0.804393 0.594098}
		vn {-0.700955 -0.37491 0.606717}
		vn {0.700954 -0.37491 0.606717}
		vn {-0.785017 7.03694e-003 0.619434}
		vn {0.785017 7.03693e-003 0.619434}
		vn {-0.770459 -8.05885e-002 0.632376}
		vn {0.770459 -8.05885e-002 0.632376}
		vn {0.699623 0.313075 0.64227}
		vn {-0.699622 0.313075 0.642272}
		vn {0.760083 5.79799e-002 0.647234}
		vn {-0.760083 5.79786e-002 0.647234}
		vn {-0.755204 -6.38546e-002 0.652372}
		vn {0.755204 -6.38546e-002 0.652372}
		vn {-0.739664 -2.82744e-002 0.672382}
		vn {0.739664 -2.82743e-002 0.672382}
		vn {-0.65481 -0.307181 0.690553}
		vn {0.654809 -0.30718 0.690554}
		vn {-0.68962 0.205307 0.694459}
		vn {0.689619 0.205306 0.69446}
		vn {0.562348 -0.438877 0.700822}
		vn {-0.562348 -0.438877 0.700822}
		vn {-0.302736 0.640799 0.705499}
		vn {0.302735 0.640797 0.7055}
		vn {0.378731 -0.592249 0.711199}
		vn {-0.378731 -0.592248 0.7112}
		vn {-0.699769 -6.14988e-002 0.711717}
		vn {0.699768 -6.14992e-002 0.711718}
		vn {0.509552 -0.475897 0.716854}
		vn {-0.509551 -0.475896 0.716855}
		vn {-0.68081 -0.106744 0.72464}
		vn {0.680809 -0.106744 0.724641}
		vn {-0.664534 -0.130507 0.735773}
		vn {0.664534 -0.130507 0.735774}
		vn {-0.419956 -0.530807 0.736125}
		vn {0.419956 -0.530807 0.736126}
		vn {-0.350672 -0.566082 0.746043}
		vn {0.350671 -0.566082 0.746044}
		vn {0.16018 0.645774 0.746538}
		vn {-9.46706e-007 0.664983 0.746858}
		vn {-0.162765 0.642433 0.748858}
		vn {0.151671 0.638965 0.754135}
		vn {-0.651881 -6.73681e-002 0.755323}
		vn {0.651212 -6.98803e-002 0.755672}
		vn {-0.155546 0.63393 0.757587}
		vn {-3.67645e-008 -0.65257 0.757729}
		vn {0.174732 0.627621 0.758658}
		vn {-0.344812 0.552724 0.758684}
		vn {0.344812 0.552724 0.758684}
		vn {-0.175654 0.624567 0.760961}
		vn {-0.568052 -0.311539 0.761748}
		vn {0.568052 -0.311539 0.761749}
		vn {-0.117971 0.627266 0.769818}
		vn {0.117971 0.627266 0.769818}
		vn {-0.175194 0.605428 0.776378}
		vn {0.175194 0.605427 0.776379}
		vn {-0.454341 -0.43126 0.77948}
		vn {0.45434 -0.431259 0.779481}
		vn {0.607582 -0.10818 0.786855}
		vn {-0.607581 -0.10818 0.786856}
		vn {-0.106143 -0.601548 0.791753}
		vn {0.106143 -0.601546 0.791755}
		vn {0.116495 0.588243 0.800249}
		vn {-0.119403 0.587575 0.800311}
		vn {-0.417263 0.412177 0.809939}
		vn {0.417263 0.412177 0.809939}
		vn {0.575981 0.109245 0.81013}
		vn {-0.575981 0.109244 0.810131}
		vn {-5.39947e-002 0.582578 0.810979}
		vn {5.39947e-002 0.582578 0.810979}
		vn {0.172432 0.548831 0.817956}
		vn {-0.172432 0.548831 0.817956}
		vn {-4.31494e-004 0.573029 0.819535}
		vn {-0.320057 0.475161 0.819625}
		vn {0.320056 0.475161 0.819626}
		vn {-0.362528 0.415906 0.834024}
		vn {0.362528 0.415905 0.834024}
		vn {-0.549279 -1.5898e-002 0.835488}
		vn {0.519671 -0.172365 0.836799}
		vn {-0.51967 -0.172364 0.836799}
		vn {0.512948 -0.19113 0.836871}
		vn {-0.512947 -0.191129 0.836872}
		vn {-0.104021 0.537112 0.837072}
		vn {0.10402 0.537111 0.837073}
		vn {0.546616 -1.59877e-002 0.837231}
		vn {-0.167675 -0.516738 0.839563}
		vn {0.161528 -0.515366 0.841609}
		vn {-0.174471 -0.507175 0.843999}
		vn {0.17447 -0.507175 0.843999}
		vn {-5.47497e-008 0.535221 0.844712}
		vn {-9.18894e-007 -0.534585 0.845114}
		vn {-0.383562 -0.365393 0.848156}
		vn {0.383562 -0.365393 0.848156}
		vn {-0.483936 -0.208934 0.849795}
		vn {0.483935 -0.208933 0.849796}
		vn {0.440162 -0.287139 0.85077}
		vn {-0.440162 -0.287138 0.85077}
		vn {-5.6781e-002 0.512737 0.856666}
		vn {5.6781e-002 0.512737 0.856666}
		vn {0.501602 -5.52734e-002 0.863331}
		vn {-0.501602 -5.52734e-002 0.863331}
		vn {-7.71628e-002 -0.496422 0.864645}
		vn {7.71628e-002 -0.496422 0.864645}
		vn {-0.383287 0.3019 0.872896}
		vn {0.383287 0.3019 0.872896}
		vn {-0.392872 -0.286339 0.873877}
		vn {0.392871 -0.286337 0.873878}
		vn {-0.328 -0.355755 0.875131}
		vn {0.327999 -0.355755 0.875131}
		vn {7.60486e-002 -0.466833 0.881069}
		vn {-7.60485e-002 -0.466832 0.88107}
		vn {-0.456535 -7.41297e-002 0.886612}
		vn {0.456535 -7.41297e-002 0.886612}
		vn {-0.428968 -0.156309 0.889693}
		vn {0.428967 -0.156308 0.889694}
		vn {0.381929 0.212357 0.899464}
		vn {-0.381347 0.211687 0.899868}
		vn {-2.39467e-007 -0.4333 0.90125}
		vn {0.386129 -0.178264 0.905056}
		vn {-0.386129 -0.178264 0.905056}
		vn {0.418472 7.27584e-002 0.905311}
		vn {-0.418472 7.27581e-002 0.905311}
		vn {-0.406525 7.78473e-002 0.910317}
		vn {0.404533 7.96961e-002 0.911044}
		vn {-0.354154 -0.210793 0.911121}
		vn {0.354153 -0.210793 0.911121}
		vn {-0.406414 -3.63723e-002 0.912965}
		vn {0.406408 -3.63784e-002 0.912967}
		vn {-0.251377 -0.321059 0.913088}
		vn {0.251377 -0.321059 0.913089}
		vn {-0.13273 0.369433 0.919729}
		vn {0.132731 0.369432 0.919729}
		vn {-6.38737e-002 -0.380731 0.922477}
		vn {7.11935e-002 -0.379326 0.92252}
		vn {-0.361994 0.108653 0.925827}
		vn {0.361994 0.108653 0.925827}
		vn {0.359608 -8.58098e-002 0.92915}
		vn {-0.35958 -8.58128e-002 0.92916}
		vn {-0.165063 0.32936 0.929664}
		vn {0.165063 0.32936 0.929664}
		vn {0.36437 -2.52826e-002 0.930911}
		vn {-0.36437 -2.52827e-002 0.930911}
		vn {-0.350221 9.3448e-002 0.931994}
		vn {0.347776 9.59077e-002 0.932659}
		vn {-5.69061e-002 0.343286 0.937506}
		vn {5.69061e-002 0.343286 0.937506}
		vn {-0.338305 7.8205e-002 0.937781}
		vn {0.333415 8.31233e-002 0.939108}
		vn {-0.325858 -8.97862e-002 0.941145}
		vn {0.325858 -8.97862e-002 0.941145}
		vn {-2.39755e-002 0.333733 0.942363}
		vn {2.3866e-002 0.333519 0.942441}
		vn {0.239566 -0.223842 0.944724}
		vn {-0.232141 -0.225727 0.946128}
		vn {-0.297001 -5.82136e-002 0.953101}
		vn {4.89802e-007 0.298468 0.95442}
		vn {0.29078 -5.83664e-002 0.955008}
		vn {-0.263481 -0.109814 0.958394}
		vn {0.263481 -0.109814 0.958394}
		vn {-3.7776e-008 0.275039 0.961433}
		vn {-2.61074e-008 -0.271927 0.962318}
		vn {-0.242011 -4.77965e-002 0.969095}
		vn {0.242011 -4.77966e-002 0.969096}
		vn {0.210021 0.125478 0.969611}
		vn {-0.210021 0.125478 0.969611}
		vn {-0.160795 -0.183358 0.969807}
		vn {0.160794 -0.183357 0.969807}
		vn {5.43449e-002 0.234676 0.970553}
		vn {-5.43447e-002 0.234675 0.970554}
		vn {-0.12677 -0.194084 0.972759}
		vn {0.12677 -0.194084 0.972759}
		vn {-0.220543 -2.95356e-002 0.97493}
		vn {0.220543 -2.95357e-002 0.97493}
		vn {6.17956e-005 0.213842 0.976868}
		vn {-1.18447e-008 -0.211157 0.977452}
		vn {-2.10698e-007 -0.205163 0.978728}
		vn {-7.7829e-002 -0.186156 0.979433}
		vn {7.78289e-002 -0.186156 0.979433}
		vn {-2.53341e-002 -0.173127 0.984574}
		vn {2.5334e-002 -0.173127 0.984574}
		vn {-1.80458e-002 0.172194 0.984898}
		vn {1.80458e-002 0.172194 0.984898}
		vn {-2.27158e-008 0.142522 0.989792}
		vn {1.94192e-008 -0.133032 0.991112}
		vn {-1.52451e-008 -0.130209 0.991486}
		vn {9.36407e-002 3.49808e-002 0.994991}
		vn {2.42301e-003 8.01526e-002 0.99678}
		vn {3.07601e-002 7.00973e-002 0.997066}
		vn {-3.70215e-002 -6.32433e-002 0.997311}
		vn {3.70215e-002 -6.32433e-002 0.997311}
		vn {-2.3623e-002 6.83848e-002 0.997379}
		vn {-3.2919e-003 6.90795e-002 0.997606}
		vn {3.29193e-003 6.90795e-002 0.997606}
		vn {-5.56051e-002 3.68066e-002 0.997774}
		vn {-5.36668e-002 2.72543e-003 0.998555}
		vn {5.36667e-002 2.72544e-003 0.998555}
		vn {1.8995e-002 3.59951e-002 0.999171}
		vn {3.06662e-002 2.2083e-002 0.999286}
		vn {1.86976e-007 3.41801e-002 0.999416}
		vn {-1.55811e-002 -9.47217e-003 0.999834}
		vn {1.55811e-002 -9.472e-003 0.999834}
		vn {-2.70631e-007 -1.57886e-002 0.999875}
		vn {-1.84553e-007 8.46688e-003 0.999964}
	}
	CVertCols
	{
		numVertCols 32
		col {0. 0. 0. 1.}
		col {2.33161e-002 2.33161e-002 2.33161e-002 1.}
		col {4.50479e-002 4.50479e-002 4.50479e-002 1.}
		col {6.66189e-002 6.66189e-002 6.66189e-002 1.}
		col {9.10886e-002 9.10886e-002 9.10886e-002 1.}
		col {0.116134 0.116134 0.116134 1.}
		col {0.141844 0.141844 0.141844 1.}
		col {0.16461 0.16461 0.16461 1.}
		col {0.185405 0.185405 0.185405 1.}
		col {0.2065 0.2065 0.2065 1.}
		col {0.226882 0.226882 0.226882 1.}
		col {0.250675 0.250675 0.250675 1.}
		col {0.270753 0.270753 0.270753 1.}
		col {0.292307 0.292307 0.292307 1.}
		col {0.313946 0.313946 0.313946 1.}
		col {0.333987 0.333987 0.333987 1.}
		col {0.355547 0.355547 0.355547 1.}
		col {0.376975 0.376975 0.376975 1.}
		col {0.397802 0.397802 0.397802 1.}
		col {0.418061 0.418061 0.418061 1.}
		col {0.439917 0.439917 0.439917 1.}
		col {0.459979 0.459979 0.459979 1.}
		col {0.480316 0.480316 0.480316 1.}
		col {0.500854 0.500854 0.500854 1.}
		col {0.520858 0.520858 0.520858 1.}
		col {0.542722 0.542722 0.542722 1.}
		col {0.563665 0.563665 0.563665 1.}
		col {0.584894 0.584894 0.584894 1.}
		col {0.605277 0.605277 0.605277 1.}
		col {0.627349 0.627349 0.627349 1.}
		col {0.656579 0.656579 0.656579 1.}
		col {0.748814 0.748814 0.748814 1.}
	}
	CUVs
	{
		setID 0
		numUVs 113
		uv {4.85624e-003 0.213538}
		uv {8.6487e-003 0.155483}
		uv {1.19386e-002 2.08211e-002}
		uv {5.51693e-002 0.415177}
		uv {5.80372e-002 5.21469e-003}
		uv {7.08317e-002 5.21469e-003}
		uv {9.28672e-002 0.492856}
		uv {9.32482e-002 0.41949}
		uv {9.43167e-002 2.8066e-002}
		uv {9.44024e-002 5.21469e-003}
		uv {9.5138e-002 0.159028}
		uv {9.6127e-002 0.154668}
		uv {9.6127e-002 0.495138}
		uv {0.117993 5.21469e-003}
		uv {0.130886 5.21469e-003}
		uv {0.131351 0.416054}
		uv {0.176763 2.11326e-002}
		uv {0.183052 0.214035}
		uv {0.183605 0.155483}
		uv {0.19799 0.377206}
		uv {0.19799 0.449623}
		uv {0.234342 0.377206}
		uv {0.234342 0.449623}
		uv {0.254357 3.55262e-003}
		uv {0.254849 0.23571}
		uv {0.264129 0.445904}
		uv {0.264726 0.263659}
		uv {0.289943 0.463701}
		uv {0.3164 0.249308}
		uv {0.329698 0.321554}
		uv {0.345392 0.260316}
		uv {0.351497 0.180289}
		uv {0.354602 0.715987}
		uv {0.356578 0.956674}
		uv {0.35869 0.329337}
		uv {0.360467 0.716357}
		uv {0.361794 0.508895}
		uv {0.361802 0.354703}
		uv {0.361976 0.956674}
		uv {0.363201 0.956674}
		uv {0.365972 0.515111}
		uv {0.367166 0.515112}
		uv {0.367873 0.188075}
		uv {0.368872 0.494689}
		uv {0.383724 0.494689}
		uv {0.390794 0.354703}
		uv {0.393907 0.329337}
		uv {0.395239 0.956673}
		uv {0.395364 0.716588}
		uv {0.398531 0.52379}
		uv {0.398913 0.518549}
		uv {0.402648 0.154925}
		uv {0.406642 3.42113e-003}
		uv {0.407205 0.260316}
		uv {0.410387 0.512916}
		uv {0.41503 3.42113e-003}
		uv {0.417679 0.188075}
		uv {0.419024 0.154925}
		uv {0.422899 0.321554}
		uv {0.425938 0.956673}
		uv {0.426518 0.512556}
		uv {0.427073 0.702701}
		uv {0.430469 0.693429}
		uv {0.431222 0.956673}
		uv {0.434055 0.180289}
		uv {0.436197 0.249308}
		uv {0.440716 0.517993}
		uv {0.445128 0.960372}
		uv {0.446889 0.743535}
		uv {0.447427 0.519603}
		uv {0.462654 0.463701}
		uv {0.477505 0.519827}
		uv {0.478959 0.960366}
		uv {0.481291 0.759381}
		uv {0.481482 0.754554}
		uv {0.481544 0.960363}
		uv {0.482621 0.519615}
		uv {0.483876 0.754554}
		uv {0.48612 2.65624e-002}
		uv {0.487871 0.263659}
		uv {0.488467 0.445904}
		uv {0.490529 2.62311e-002}
		uv {0.495343 0.23571}
		uv {0.5 0.}
		uv {0.5 0.249601}
		uv {0.5 0.408449}
		uv {0.5 0.5}
		uv {0.5 0.925384}
		uv {0.546885 0.937669}
		uv {0.576226 0.5}
		uv {0.594669 0.5}
		uv {0.692378 0.506062}
		uv {0.692378 0.943212}
		uv {0.751351 0.5}
		uv {0.790087 0.5}
		uv {0.837871 0.937669}
		uv {0.898888 0.5}
		uv {0.898888 0.925384}
		uv {0.911632 0.5}
		uv {0.918613 0.546481}
		uv {0.918613 0.654884}
		uv {0.935439 0.703125}
		uv {0.935439 1.}
		uv {0.935439 0.777006}
		uv {0.988706 0.703125}
		uv {0.988706 1.}
		uv {0.988706 0.777006}
		uv {0.9961 0.546481}
		uv {0.9961 0.654884}
		uv {1. 0.}
		uv {1. 0.249601}
		uv {1. 0.403412}
		uv {1. 0.5}
	}
	CSurface
	{
		material	"lambert12"
		CTris
		{
			numTris 184
			t {5 471 21 -1 22} {6 284 22 -1 8} {4 316 20 -1 9}
			t {6 284 21 -1 8} {17 142 22 -1 14} {16 188 20 -1 13}
			t {16 188 21 -1 13} {32 215 22 -1 13} {4 316 20 -1 9}
			t {39 382 21 -1 22} {13 361 22 -1 17} {40 433 20 -1 13}
			t {40 433 21 -1 13} {13 361 22 -1 17} {12 367 20 -1 4}
			t {36 519 21 -1 19} {43 499 22 -1 18} {41 517 20 -1 20}
			t {21 432 21 -1 19} {15 275 22 -1 11} {18 207 20 -1 12}
			t {30 415 21 -1 19} {262 413 22 -1 21} {45 259 20 -1 13}
			t {45 259 21 -1 13} {35 330 22 -1 8} {30 415 20 -1 19}
			t {14 436 21 -1 18} {15 275 22 -1 11} {21 432 20 -1 19}
			t {11 511 21 -1 17} {14 436 22 -1 18} {21 432 20 -1 19}
			t {13 361 21 -1 17} {39 382 22 -1 22} {41 214 20 -1 13}
			t {32 439 109 -1 7} {49 397 112 -1 2} {4 310 86 -1 0}
			t {32 439 86 -1 7} {28 492 83 -1 10} {49 397 112 -1 2}
			t {28 492 86 -1 10} {27 584 84 -1 18} {53 442 112 -1 11}
			t {61 513 83 -1 16} {62 394 109 -1 18} {57 425 112 -1 13}
			t {176 354 93 -1 2} {26 348 86 -1 0} {63 450 83 -1 8}
			t {49 397 109 -1 2} {48 211 112 -1 7} {4 310 86 -1 0}
			t {83 224 47 -1 0} {84 224 33 -1 0} {82 224 38 -1 0}
			t {85 224 47 -1 0} {84 224 33 -1 0} {83 224 47 -1 0}
			t {86 224 39 -1 0} {84 224 33 -1 0} {85 224 47 -1 0}
			t {103 184 69 -1 15} {92 205 61 -1 15} {81 319 60 -1 14}
			t {109 224 75 -1 0} {110 224 67 -1 0} {108 224 72 -1 0}
			t {109 224 75 -1 0} {111 224 67 -1 0} {110 224 67 -1 0}
			t {111 224 67 -1 0} {109 224 75 -1 0} {112 224 72 -1 0}
			t {117 412 107 -1 17} {119 599 108 -1 19} {116 581 100 -1 16}
			t {136 298 107 -1 17} {131 323 108 -1 17} {134 162 100 -1 16}
			t {139 420 107 -1 18} {142 327 108 -1 13} {141 201 100 -1 13}
			t {119 599 107 -1 19} {127 285 108 -1 23} {124 301 100 -1 19}
			t {114 579 107 -1 17} {140 577 108 -1 21} {122 574 100 -1 16}
			t {138 289 107 -1 25} {144 212 108 -1 20} {135 288 100 -1 24}
			t {94 365 107 -1 0} {97 303 108 -1 0} {157 344 100 -1 0}
			t {98 224 59 -1 0} {85 224 47 -1 0} {83 224 47 -1 0}
			t {98 224 59 -1 0} {93 224 63 -1 0} {85 224 47 -1 0}
			t {98 52 59 -1 10} {102 52 68 -1 10} {93 48 63 -1 11}
			t {102 52 68 -1 10} {98 52 59 -1 10} {104 56 68 -1 9}
			t {166 580 102 -1 17} {167 570 101 -1 16} {262 533 105 -1 12}
			t {172 483 58 -1 19} {170 504 64 -1 20} {171 463 65 -1 19}
			t {169 545 42 -1 21} {174 523 34 -1 19} {175 563 30 -1 20}
			t {170 504 64 -1 20} {169 545 42 -1 21} {168 525 57 -1 22}
			t {174 523 34 -1 19} {172 483 58 -1 19} {173 500 45 -1 17}
			t {170 504 64 -1 20} {174 523 34 -1 19} {169 545 42 -1 21}
			t {172 483 58 -1 19} {174 523 34 -1 19} {170 504 64 -1 20}
			t {119 599 107 -1 19} {124 301 108 -1 19} {116 581 100 -1 16}
			t {117 412 107 -1 17} {118 373 108 -1 17} {119 599 100 -1 19}
			t {178 400 21 -1 16} {179 110 22 -1 13} {177 311 20 -1 1}
			t {183 75 21 -1 13} {184 248 22 -1 1} {182 37 20 -1 23}
			t {184 248 21 -1 1} {181 135 22 -1 10} {180 566 20 -1 18}
			t {183 75 21 -1 13} {181 135 22 -1 10} {184 248 20 -1 1}
			t {191 108 21 -1 12} {179 110 22 -1 13} {181 72 20 -1 13}
			t {191 108 21 -1 12} {193 263 22 -1 4} {192 386 20 -1 3}
			t {193 263 21 -1 4} {191 108 22 -1 12} {194 71 20 -1 14}
			t {181 72 21 -1 13} {194 71 22 -1 14} {191 108 20 -1 12}
			t {194 71 21 -1 14} {190 217 22 -1 3} {189 39 20 -1 21}
			t {190 217 21 -1 3} {181 72 22 -1 13} {183 75 20 -1 13}
			t {181 72 21 -1 13} {190 217 22 -1 3} {194 71 20 -1 14}
			t {201 112 21 -1 19} {202 136 22 -1 11} {204 371 20 -1 26}
			t {205 487 21 -1 23} {180 566 22 -1 18} {204 371 20 -1 26}
			t {203 299 21 -1 19} {190 217 22 -1 3} {183 75 20 -1 13}
			t {217 95 107 -1 18} {218 128 108 -1 13} {207 321 100 -1 18}
			t {218 128 107 -1 13} {221 295 108 -1 18} {207 321 100 -1 18}
			t {218 128 107 -1 13} {223 116 108 -1 13} {221 295 100 -1 18}
			t {212 173 107 -1 9} {204 175 108 -1 10} {213 149 100 -1 12}
			t {226 154 107 -1 7} {216 24 108 -1 28} {234 21 100 -1 24}
			t {216 24 107 -1 28} {226 154 108 -1 7} {219 31 100 -1 26}
			t {227 151 107 -1 8} {222 11 108 -1 24} {219 31 100 -1 26}
			t {226 154 107 -1 7} {227 151 108 -1 8} {219 31 100 -1 26}
			t {234 21 107 -1 24} {249 102 108 -1 18} {261 491 100 -1 12}
			t {265 547 107 -1 17} {264 547 108 -1 17} {237 551 100 -1 17}
			t {253 476 107 -1 21} {232 459 108 -1 21} {251 454 100 -1 22}
			t {235 602 6 -1 20} {254 601 7 -1 21} {237 590 15 -1 21}
			t {233 445 107 -1 22} {251 454 108 -1 22} {232 459 100 -1 21}
			t {1 60 107 -1 17} {0 42 108 -1 25} {250 41 100 -1 25}
			t {232 556 16 -1 23} {5 471 13 -1 22} {1 181 14 -1 14}
			t {143 568 18 -1 22} {113 587 11 -1 21} {238 564 12 -1 23}
			t {1 60 107 -1 17} {259 131 108 -1 13} {233 356 100 -1 20}
			t {233 356 107 -1 20} {259 131 108 -1 13} {260 402 100 -1 22}
			t {232 561 107 -1 21} {261 491 108 -1 12} {236 388 100 -1 14}
			t {249 102 107 -1 18} {234 21 108 -1 24} {250 41 100 -1 25}
			t {234 21 107 -1 24} {259 131 108 -1 13} {1 60 100 -1 17}
			t {234 21 107 -1 24} {1 60 108 -1 17} {250 41 100 -1 25}
			t {251 454 107 -1 22} {233 445 108 -1 22} {256 449 100 -1 21}
			t {261 491 107 -1 12} {249 102 108 -1 18} {236 388 100 -1 14}
			t {43 499 21 -1 18} {36 519 22 -1 19} {45 497 20 -1 16}
			t {4 316 21 -1 9} {6 284 22 -1 8} {16 188 20 -1 13}
			t {265 595 17 -1 21} {266 591 10 -1 21} {232 556 16 -1 23}
			t {266 591 10 -1 21} {255 578 8 -1 22} {232 556 16 -1 23}
			t {36 256 21 -1 11} {35 330 22 -1 8} {45 259 20 -1 13}
			t {271 283 21 -1 6} {270 472 22 -1 19} {269 315 20 -1 12}
			t {280 141 21 -1 15} {271 283 22 -1 6} {279 187 20 -1 11}
			t {287 216 21 -1 11} {279 187 22 -1 11} {269 315 20 -1 12}
			t {276 362 21 -1 23} {290 381 22 -1 24} {291 434 20 -1 7}
			t {276 362 21 -1 23} {291 434 22 -1 7} {275 368 20 -1 1}
			t {293 498 21 -1 12} {289 518 22 -1 13} {292 516 20 -1 13}
			t {278 274 21 -1 14} {282 431 22 -1 17} {281 206 20 -1 8}
			t {488 414 21 -1 23} {286 416 22 -1 20} {295 260 20 -1 23}
			t {288 329 21 -1 12} {295 260 22 -1 23} {286 416 20 -1 20}
			t {278 274 21 -1 14} {277 435 22 -1 16} {282 431 20 -1 17}
			t {277 435 21 -1 16} {274 510 22 -1 11} {282 431 20 -1 17}
			t {290 381 21 -1 24} {276 362 22 -1 23} {292 213 20 -1 20}
			t {298 398 109 -1 3} {287 440 112 -1 12} {269 309 86 -1 0}
			t {301 441 83 -1 6} {284 493 109 -1 12} {298 398 86 -1 3}
			t {283 583 110 -1 17} {284 493 112 -1 12} {301 441 86 -1 6}
			t {26 348 112 -1 0} {411 353 93 -1 0} {63 450 109 -1 8}
			t {297 210 109 -1 3} {298 398 112 -1 3} {269 309 86 -1 0}
			t {325 224 33 -1 0} {324 224 47 -1 0} {323 224 38 -1 0}
			t {325 224 33 -1 0} {326 224 47 -1 0} {324 224 47 -1 0}
			t {325 224 33 -1 0} {327 224 39 -1 0} {326 224 47 -1 0}
			t {333 204 61 -1 22} {344 183 69 -1 20} {322 318 60 -1 20}
			t {351 224 67 -1 0} {350 224 75 -1 0} {349 224 72 -1 0}
			t {352 224 67 -1 0} {350 224 75 -1 0} {351 224 67 -1 0}
			t {350 224 75 -1 0} {352 224 67 -1 0} {353 224 72 -1 0}
			t {357 600 107 -1 20} {355 411 108 -1 16} {354 582 100 -1 17}
			t {369 322 107 -1 26} {374 297 108 -1 27} {372 161 100 -1 20}
			t {380 328 107 -1 21} {377 419 108 -1 18} {379 200 100 -1 17}
			t {365 286 107 -1 14} {357 600 108 -1 20} {362 302 100 -1 12}
			t {378 576 107 -1 17} {114 579 108 -1 17} {360 575 100 -1 18}
			t {382 147 107 -1 18} {376 290 108 -1 16} {373 287 100 -1 16}
			t {338 304 107 -1 1} {335 366 108 -1 0} {393 345 100 -1 0}
			t {326 224 47 -1 0} {339 224 59 -1 0} {324 224 47 -1 0}
			t {334 224 63 -1 0} {339 224 59 -1 0} {326 224 47 -1 0}
			t {343 51 68 -1 9} {339 51 59 -1 9} {334 49 63 -1 9}
			t {339 51 59 -1 9} {343 51 68 -1 9} {345 55 68 -1 8}
			t {402 571 104 -1 18} {166 580 105 -1 17} {488 534 102 -1 16}
			t {405 505 31 -1 13} {407 484 29 -1 12} {406 464 28 -1 15}
			t {409 524 46 -1 13} {404 546 56 -1 15} {410 562 53 -1 16}
			t {404 546 56 -1 15} {405 505 31 -1 13} {403 526 51 -1 15}
			t {407 484 29 -1 12} {409 524 46 -1 13} {408 501 37 -1 11}
			t {409 524 46 -1 13} {405 505 31 -1 13} {404 546 56 -1 15}
			t {409 524 46 -1 13} {407 484 29 -1 12} {405 505 31 -1 13}
			t {362 302 107 -1 12} {357 600 108 -1 20} {354 582 100 -1 17}
			t {356 374 107 -1 20} {355 411 108 -1 16} {357 600 100 -1 20}
			t {414 111 21 -1 17} {413 401 22 -1 14} {412 312 20 -1 0}
			t {419 247 21 -1 5} {418 76 22 -1 15} {417 38 20 -1 21}
			t {416 140 21 -1 8} {419 247 22 -1 5} {415 567 20 -1 20}
			t {416 140 21 -1 8} {418 76 22 -1 15} {419 247 20 -1 5}
			t {414 111 21 -1 17} {426 109 22 -1 11} {416 61 20 -1 23}
			t {428 264 21 -1 9} {426 109 22 -1 11} {427 387 20 -1 6}
			t {426 109 21 -1 11} {428 264 22 -1 9} {429 70 20 -1 13}
			t {429 70 21 -1 13} {416 61 22 -1 23} {426 109 20 -1 11}
			t {425 218 21 -1 1} {429 70 22 -1 13} {424 40 20 -1 21}
			t {416 140 21 -1 8} {425 218 22 -1 1} {418 76 20 -1 15}
			t {425 218 21 -1 1} {416 61 22 -1 23} {429 70 20 -1 13}
			t {437 137 21 -1 22} {436 113 22 -1 21} {439 372 20 -1 21}
			t {415 567 21 -1 20} {440 488 22 -1 23} {439 372 20 -1 21}
			t {425 218 21 -1 1} {438 300 22 -1 26} {418 76 20 -1 15}
			t {453 129 107 -1 19} {452 94 108 -1 21} {442 320 100 -1 23}
			t {456 296 107 -1 23} {453 129 108 -1 19} {442 320 100 -1 23}
			t {458 117 107 -1 22} {453 129 108 -1 19} {456 296 100 -1 23}
			t {439 176 107 -1 11} {447 174 108 -1 8} {448 150 100 -1 15}
			t {451 23 107 -1 21} {461 153 108 -1 9} {469 22 100 -1 25}
			t {461 153 107 -1 9} {451 23 108 -1 21} {454 30 100 -1 21}
			t {457 12 107 -1 26} {462 152 108 -1 9} {454 30 100 -1 21}
			t {462 152 107 -1 9} {461 153 108 -1 9} {454 30 100 -1 21}
			t {479 100 107 -1 26} {469 22 108 -1 25} {487 490 100 -1 9}
			t {489 548 107 -1 22} {490 548 108 -1 22} {471 552 100 -1 22}
			t {467 460 107 -1 24} {482 475 108 -1 24} {480 451 100 -1 23}
			t {254 601 7 -1 21} {235 602 6 -1 20} {471 598 3 -1 20}
			t {480 451 107 -1 23} {468 443 108 -1 23} {467 460 100 -1 24}
			t {0 42 107 -1 25} {267 59 108 -1 26} {250 41 100 -1 25}
			t {467 458 107 -1 23} {468 458 108 -1 23} {267 458 100 -1 23}
			t {113 587 11 -1 21} {381 569 1 -1 19} {238 564 12 -1 23}
			t {485 130 107 -1 19} {267 59 108 -1 26} {468 355 100 -1 24}
			t {485 130 107 -1 19} {468 355 108 -1 24} {486 403 100 -1 23}
			t {487 490 107 -1 9} {467 559 108 -1 16} {470 385 100 -1 16}
			t {469 22 107 -1 25} {479 100 108 -1 26} {250 41 100 -1 25}
			t {485 130 107 -1 19} {469 22 108 -1 25} {267 59 100 -1 26}
			t {267 59 107 -1 26} {469 22 108 -1 25} {250 41 100 -1 25}
			t {468 443 107 -1 23} {480 451 108 -1 23} {483 446 100 -1 23}
			t {479 100 107 -1 26} {487 490 108 -1 9} {470 385 100 -1 16}
			t {289 518 21 -1 13} {293 498 22 -1 12} {295 496 20 -1 10}
			t {308 393 83 -1 21} {307 512 109 -1 11} {304 426 86 -1 8}
			t {271 283 21 -1 6} {269 315 22 -1 12} {279 187 20 -1 11}
			t {266 591 10 -1 21} {490 592 0 -1 21} {467 555 2 -1 22}
			t {255 578 8 -1 22} {266 591 10 -1 21} {467 555 2 -1 22}
			t {288 329 21 -1 12} {289 255 22 -1 10} {295 260 20 -1 23}
			t {270 472 5 -1 19} {467 555 2 -1 22} {267 182 4 -1 25}
			t {233 457 107 -1 21} {232 457 108 -1 21} {1 457 100 -1 21}
			t {28 492 83 -1 10} {53 442 109 -1 11} {49 397 112 -1 2}
			t {284 493 109 -1 12} {287 440 112 -1 12} {298 398 86 -1 3}
			t {166 580 105 -1 17} {263 565 103 -1 16} {488 534 102 -1 16}
			t {263 565 106 -1 16} {166 580 102 -1 17} {262 533 105 -1 12}
			t {314 249 112 -1 19} {491 257 86 -1 14} {316 276 109 -1 18}
			t {74 277 112 -1 15} {491 258 86 -1 15} {72 250 109 -1 13}
		}
		CQuads
		{
			numQuads 394
			q {1 181 19 -1 14} {2 126 21 -1 18} {3 5 22 -1 26} {0 5 20 -1 26}
			q {2 126 19 -1 18} {1 181 21 -1 14} {5 471 22 -1 22} {4 316 20 -1 9}
			q {7 607 19 -1 20} {8 335 21 -1 0} {6 284 22 -1 8} {5 471 20 -1 22}
			q {12 370 19 -1 4} {13 422 21 -1 15} {14 436 22 -1 18} {11 511 20 -1 17}
			q {16 188 19 -1 13} {17 142 21 -1 14} {18 207 22 -1 12} {15 275 20 -1 11}
			q {20 317 19 -1 0} {12 370 21 -1 4} {11 511 22 -1 17} {19 522 20 -1 13}
			q {22 588 19 -1 18} {19 522 21 -1 13} {11 511 22 -1 17} {21 432 20 -1 19}
			q {23 148 19 -1 9} {24 280 21 -1 0} {18 207 22 -1 12} {17 142 20 -1 14}
			q {31 606 19 -1 20} {263 560 21 -1 22} {262 413 22 -1 21} {30 415 20 -1 19}
			q {8 335 19 -1 0} {23 148 21 -1 9} {17 142 22 -1 14} {6 284 20 -1 8}
			q {16 188 19 -1 13} {15 275 21 -1 11} {28 279 22 -1 9} {32 215 20 -1 13}
			q {34 406 19 -1 3} {35 330 21 -1 8} {36 256 22 -1 11} {33 240 20 -1 3}
			q {38 444 19 -1 22} {39 382 21 -1 22} {40 433 22 -1 13} {37 495 20 -1 11}
			q {37 495 19 -1 11} {40 433 21 -1 13} {12 367 22 -1 4} {20 399 20 -1 2}
			q {41 517 19 -1 20} {42 589 21 -1 18} {33 589 22 -1 18} {36 519 20 -1 19}
			q {13 422 19 -1 15} {44 456 21 -1 16} {15 275 22 -1 11} {14 436 20 -1 18}
			q {41 517 19 -1 20} {43 499 21 -1 18} {44 456 22 -1 16} {13 422 20 -1 15}
			q {24 280 19 -1 0} {22 588 21 -1 18} {21 432 22 -1 19} {18 207 20 -1 12}
			q {35 330 19 -1 8} {34 406 21 -1 3} {31 606 22 -1 20} {30 415 20 -1 19}
			q {45 497 19 -1 16} {29 462 21 -1 14} {44 456 22 -1 16} {43 499 20 -1 18}
			q {15 275 19 -1 11} {44 456 21 -1 16} {29 462 22 -1 14} {28 279 20 -1 9}
			q {38 444 19 -1 22} {42 223 21 -1 17} {41 214 22 -1 13} {39 382 20 -1 22}
			q {2 172 83 -1 7} {46 146 109 -1 10} {47 132 112 -1 11} {3 157 86 -1 7}
			q {4 310 83 -1 0} {48 211 109 -1 7} {46 146 112 -1 10} {2 172 86 -1 7}
			q {46 146 86 -1 10} {50 101 83 -1 16} {51 45 109 -1 21} {47 132 112 -1 11}
			q {48 211 86 -1 7} {52 196 83 -1 13} {50 101 109 -1 16} {46 146 112 -1 10}
			q {50 101 86 -1 16} {54 62 83 -1 18} {55 4 109 -1 25} {51 45 112 -1 21}
			q {52 196 86 -1 13} {56 197 83 -1 14} {54 62 109 -1 18} {50 101 112 -1 16}
			q {54 62 86 -1 18} {58 86 83 -1 14} {59 36 109 -1 22} {55 4 112 -1 25}
			q {56 197 86 -1 14} {60 219 83 -1 12} {58 86 109 -1 14} {54 62 112 -1 18}
			q {176 354 93 -1 2} {63 450 83 -1 8} {61 513 109 -1 16} {9 392 112 -1 2}
			q {65 89 109 -1 14} {59 36 112 -1 22} {58 86 86 -1 14} {64 139 83 -1 7}
			q {64 139 109 -1 7} {58 86 112 -1 14} {60 219 86 -1 12} {66 245 83 -1 13}
			q {68 363 109 -1 20} {62 394 112 -1 18} {61 513 86 -1 16} {67 453 83 -1 24}
			q {69 494 83 -1 22} {67 453 109 -1 24} {61 513 112 -1 16} {63 450 86 -1 8}
			q {64 139 86 -1 7} {70 170 83 -1 8} {71 160 109 -1 11} {65 89 112 -1 14}
			q {66 245 86 -1 13} {72 250 83 -1 13} {70 170 109 -1 8} {64 139 112 -1 7}
			q {67 453 86 -1 24} {73 331 83 -1 18} {74 277 109 -1 15} {68 363 112 -1 20}
			q {69 494 86 -1 22} {75 326 83 -1 16} {73 331 109 -1 18} {67 453 112 -1 24}
			q {313 171 83 -1 17} {71 160 109 -1 11} {491 254 112 -1 14} {314 249 86 -1 19}
			q {68 363 86 -1 20} {74 277 83 -1 15} {72 250 109 -1 13} {66 245 112 -1 13}
			q {66 245 109 -1 13} {60 219 112 -1 12} {62 394 86 -1 18} {68 363 83 -1 20}
			q {57 425 86 -1 13} {62 394 83 -1 18} {60 219 109 -1 12} {56 197 112 -1 14}
			q {53 442 86 -1 11} {57 425 83 -1 13} {56 197 109 -1 14} {52 196 112 -1 13}
			q {49 397 86 -1 2} {53 442 83 -1 11} {52 196 109 -1 13} {48 211 112 -1 7}
			q {77 360 36 -1 30} {78 231 50 -1 31} {79 237 49 -1 24} {76 292 41 -1 21}
			q {78 231 50 -1 31} {80 604 54 -1 19} {81 319 60 -1 14} {79 237 49 -1 24}
			q {88 235 49 -1 30} {89 241 48 -1 21} {90 202 62 -1 19} {87 199 66 -1 19}
			q {79 237 49 -1 24} {81 319 60 -1 14} {92 205 61 -1 15} {91 229 48 -1 15}
			q {93 189 63 -1 17} {90 202 62 -1 19} {89 241 48 -1 21} {85 238 47 -1 18}
			q {95 3 77 -1 24} {96 82 74 -1 17} {97 91 71 -1 18} {94 14 76 -1 27}
			q {98 178 59 -1 14} {83 226 47 -1 13} {91 229 48 -1 15} {92 205 61 -1 15}
			q {88 235 49 -1 30} {78 231 50 -1 31} {77 360 36 -1 30} {99 308 40 -1 30}
			q {78 231 50 -1 31} {88 235 49 -1 30} {87 271 66 -1 4} {80 604 54 -1 19}
			q {101 99 73 -1 23} {95 3 77 -1 24} {94 14 76 -1 27} {100 107 71 -1 24}
			q {102 185 68 -1 16} {101 99 73 -1 23} {100 107 71 -1 24} {87 199 66 -1 19}
			q {104 164 68 -1 14} {103 184 69 -1 15} {97 91 71 -1 18} {96 82 74 -1 17}
			q {76 292 41 -1 21} {105 395 35 -1 20} {106 585 32 -1 21} {77 360 36 -1 30}
			q {88 235 49 -1 30} {99 308 40 -1 30} {107 389 35 -1 22} {89 241 48 -1 21}
			q {102 185 68 -1 16} {87 199 66 -1 19} {90 202 62 -1 19} {93 189 63 -1 17}
			q {104 164 68 -1 14} {98 178 59 -1 14} {92 205 61 -1 15} {103 184 69 -1 15}
			q {79 237 49 -1 24} {91 229 48 -1 15} {105 395 35 -1 20} {76 292 41 -1 21}
			q {77 360 36 -1 30} {106 585 32 -1 21} {107 389 35 -1 22} {99 308 40 -1 30}
			q {107 389 35 -1 22} {106 585 32 -1 21} {84 593 33 -1 18} {86 404 39 -1 17}
			q {84 593 33 -1 18} {106 585 32 -1 21} {105 395 35 -1 20} {82 410 38 -1 17}
			q {85 238 47 -1 18} {89 241 48 -1 21} {107 389 35 -1 22} {86 404 39 -1 17}
			q {105 395 35 -1 20} {91 229 48 -1 15} {83 226 47 -1 13} {82 410 38 -1 17}
			q {102 185 68 -1 16} {111 191 67 -1 15} {112 88 72 -1 21} {101 99 73 -1 23}
			q {104 596 68 -1 21} {110 596 67 -1 21} {111 596 67 -1 21} {102 596 68 -1 21}
			q {96 82 74 -1 17} {108 74 72 -1 16} {110 168 67 -1 14} {104 164 68 -1 14}
			q {95 3 77 -1 24} {109 8 75 -1 21} {108 74 72 -1 16} {96 82 74 -1 17}
			q {101 99 73 -1 23} {112 88 72 -1 21} {109 8 75 -1 21} {95 3 77 -1 24}
			q {121 549 99 -1 23} {119 599 107 -1 19} {118 373 108 -1 17} {120 340 100 -1 17}
			q {122 574 99 -1 16} {123 418 107 -1 17} {117 412 108 -1 17} {116 581 100 -1 16}
			q {125 269 99 -1 14} {122 574 107 -1 16} {116 581 108 -1 16} {124 301 100 -1 19}
			q {121 549 99 -1 23} {126 294 107 -1 23} {127 285 108 -1 23} {119 599 100 -1 19}
			q {123 418 99 -1 17} {128 180 107 -1 14} {129 166 108 -1 15} {117 412 100 -1 17}
			q {130 159 99 -1 16} {118 373 107 -1 17} {117 412 108 -1 17} {129 166 100 -1 15}
			q {131 323 99 -1 17} {132 502 107 -1 25} {121 549 108 -1 23} {120 340 100 -1 17}
			q {134 162 99 -1 16} {131 323 107 -1 17} {120 340 108 -1 17} {133 156 100 -1 17}
			q {132 502 99 -1 25} {135 288 107 -1 24} {126 294 108 -1 23} {121 549 100 -1 23}
			q {120 340 99 -1 17} {118 373 107 -1 17} {130 159 108 -1 16} {133 156 100 -1 17}
			q {137 473 99 -1 26} {132 502 107 -1 25} {131 323 108 -1 17} {136 298 100 -1 17}
			q {135 288 99 -1 24} {132 502 107 -1 25} {137 473 108 -1 26} {138 289 100 -1 25}
			q {123 418 99 -1 17} {122 574 107 -1 16} {140 577 108 -1 21} {139 420 100 -1 18}
			q {142 327 96 -1 13} {139 420 97 -1 18} {140 577 95 -1 21} {143 568 94 -1 22}
			q {140 577 95 -1 21} {114 579 92 -1 17} {113 587 91 -1 21} {143 568 94 -1 22}
			q {139 420 99 -1 18} {141 201 107 -1 13} {128 180 108 -1 14} {123 418 100 -1 17}
			q {136 244 99 -1 0} {81 319 107 -1 14} {80 604 108 -1 19} {137 222 100 -1 0}
			q {134 267 99 -1 0} {103 267 107 -1 0} {81 319 108 -1 14} {136 244 100 -1 0}
			q {137 222 99 -1 0} {80 604 107 -1 19} {87 271 108 -1 4} {138 233 100 -1 1}
			q {125 269 99 -1 14} {147 68 107 -1 23} {145 44 108 -1 22} {115 265 100 -1 10}
			q {128 180 99 -1 14} {141 201 107 -1 13} {149 54 108 -1 17} {148 35 100 -1 17}
			q {129 166 99 -1 15} {128 180 107 -1 14} {148 35 108 -1 17} {150 20 100 -1 24}
			q {151 66 99 -1 28} {150 20 107 -1 24} {148 35 108 -1 17} {147 68 100 -1 23}
			q {129 166 99 -1 15} {150 20 107 -1 24} {152 26 108 -1 24} {130 159 100 -1 16}
			q {151 66 99 -1 28} {153 92 107 -1 28} {152 26 108 -1 24} {150 20 100 -1 24}
			q {155 28 99 -1 25} {152 26 107 -1 24} {153 92 108 -1 28} {154 118 100 -1 25}
			q {145 44 99 -1 22} {147 68 107 -1 23} {148 35 108 -1 17} {149 54 100 -1 17}
			q {147 68 99 -1 23} {125 269 107 -1 14} {124 301 108 -1 19} {151 66 100 -1 28}
			q {151 66 99 -1 28} {124 301 107 -1 19} {127 285 108 -1 23} {153 92 100 -1 28}
			q {149 54 99 -1 17} {141 201 107 -1 13} {142 327 108 -1 13} {156 58 100 -1 18}
			q {156 58 99 -1 18} {146 18 107 -1 22} {145 44 108 -1 22} {149 54 100 -1 17}
			q {144 50 99 -1 30} {157 33 107 -1 26} {155 28 108 -1 25} {154 118 100 -1 25}
			q {133 156 99 -1 17} {130 159 107 -1 16} {152 26 108 -1 24} {155 28 100 -1 25}
			q {133 156 99 -1 17} {155 28 107 -1 25} {157 33 108 -1 26} {134 162 100 -1 16}
			q {154 118 99 -1 25} {153 92 107 -1 28} {127 285 108 -1 23} {126 294 100 -1 23}
			q {144 212 99 -1 20} {154 118 107 -1 25} {126 294 108 -1 23} {135 288 100 -1 24}
			q {144 305 99 -1 3} {100 305 107 -1 3} {94 365 108 -1 0} {157 344 100 -1 0}
			q {138 233 99 -1 1} {87 271 107 -1 4} {100 305 108 -1 3} {144 305 100 -1 3}
			q {115 265 99 -1 10} {114 579 107 -1 17} {122 574 108 -1 16} {125 269 100 -1 14}
			q {158 428 102 -1 23} {159 481 101 -1 24} {160 572 104 -1 22} {25 535 105 -1 21}
			q {10 378 102 -1 20} {161 424 101 -1 21} {159 481 104 -1 24} {158 428 105 -1 23}
			q {27 313 102 -1 13} {162 380 101 -1 16} {161 424 104 -1 21} {10 378 105 -1 20}
			q {28 347 102 -1 9} {163 408 101 -1 13} {162 380 104 -1 16} {27 313 105 -1 13}
			q {29 383 102 -1 5} {164 429 101 -1 10} {163 408 104 -1 13} {28 347 105 -1 9}
			q {45 465 102 -1 8} {165 514 101 -1 13} {164 429 104 -1 10} {29 383 105 -1 5}
			q {25 535 102 -1 21} {160 572 101 -1 22} {167 570 104 -1 16} {166 580 105 -1 17}
			q {159 481 55 -1 24} {168 525 57 -1 22} {169 545 42 -1 21} {160 572 23 -1 22}
			q {161 424 78 -1 21} {170 504 64 -1 20} {168 525 57 -1 22} {159 481 55 -1 24}
			q {162 380 82 -1 16} {171 463 65 -1 19} {170 504 64 -1 20} {161 424 78 -1 21}
			q {163 408 80 -1 13} {172 483 58 -1 19} {171 463 65 -1 19} {162 380 82 -1 16}
			q {164 429 44 -1 10} {173 500 45 -1 17} {172 483 58 -1 19} {163 408 80 -1 13}
			q {165 514 27 -1 13} {174 523 34 -1 19} {173 500 45 -1 17} {164 429 44 -1 10}
			q {167 570 26 -1 16} {175 563 30 -1 20} {174 523 34 -1 19} {165 514 27 -1 13}
			q {160 572 23 -1 22} {169 545 42 -1 21} {175 563 30 -1 20} {167 570 26 -1 16}
			q {176 554 19 -1 20} {158 554 21 -1 20} {25 603 22 -1 20} {26 603 20 -1 20}
			q {9 530 19 -1 19} {10 530 21 -1 19} {158 554 22 -1 20} {176 554 20 -1 20}
			q {178 400 19 -1 16} {180 566 21 -1 18} {181 72 22 -1 13} {179 110 20 -1 13}
			q {186 115 19 -1 13} {187 96 21 -1 13} {188 281 22 -1 0} {185 438 20 -1 18}
			q {230 375 19 -1 1} {188 281 21 -1 0} {187 96 22 -1 13} {229 46 20 -1 20}
			q {179 110 19 -1 13} {191 108 21 -1 12} {192 386 22 -1 3} {177 311 20 -1 1}
			q {196 133 19 -1 13} {197 64 21 -1 14} {198 272 22 -1 0} {195 485 20 -1 19}
			q {199 544 19 -1 24} {200 144 21 -1 8} {196 133 22 -1 13} {195 485 20 -1 19}
			q {194 71 19 -1 14} {189 39 21 -1 21} {202 136 22 -1 11} {201 112 20 -1 19}
			q {229 46 19 -1 20} {187 96 21 -1 13} {186 115 22 -1 13} {228 125 20 -1 10}
			q {199 544 19 -1 24} {195 485 21 -1 19} {198 272 22 -1 0} {184 248 20 -1 1}
			q {177 311 19 -1 1} {192 386 21 -1 3} {180 566 22 -1 18} {178 400 20 -1 16}
			q {180 566 19 -1 18} {192 386 21 -1 3} {193 263 22 -1 4} {204 371 20 -1 26}
			q {231 479 19 -1 25} {228 125 21 -1 10} {186 115 22 -1 13} {185 438 20 -1 18}
			q {197 64 19 -1 14} {196 133 21 -1 13} {200 144 22 -1 8} {182 37 20 -1 23}
			q {185 438 19 -1 18} {188 281 21 -1 0} {230 375 22 -1 1} {231 479 20 -1 25}
			q {182 37 19 -1 23} {200 144 21 -1 8} {203 299 22 -1 19} {183 75 20 -1 13}
			q {205 487 19 -1 23} {203 299 21 -1 19} {200 144 22 -1 8} {199 544 20 -1 24}
			q {205 487 19 -1 23} {199 544 21 -1 24} {184 248 22 -1 1} {180 566 20 -1 18}
			q {197 64 19 -1 14} {182 37 21 -1 23} {184 248 22 -1 1} {198 272 20 -1 0}
			q {261 491 99 -1 12} {260 402 107 -1 22} {207 321 108 -1 18} {206 537 100 -1 14}
			q {209 15 99 -1 27} {210 123 107 -1 14} {211 121 108 -1 14} {208 10 100 -1 26}
			q {213 531 99 -1 16} {214 542 107 -1 15} {215 339 108 -1 22} {212 350 100 -1 23}
			q {212 350 99 -1 23} {215 339 107 -1 22} {211 121 108 -1 14} {210 123 100 -1 14}
			q {216 24 99 -1 28} {217 95 107 -1 18} {259 131 108 -1 13} {234 21 100 -1 24}
			q {260 402 99 -1 22} {259 131 107 -1 13} {217 95 108 -1 18} {207 321 100 -1 18}
			q {217 95 99 -1 18} {216 24 107 -1 28} {219 31 108 -1 26} {218 128 100 -1 13}
			q {206 537 99 -1 14} {207 321 107 -1 18} {221 295 108 -1 18} {220 558 100 -1 15}
			q {219 31 99 -1 26} {222 11 107 -1 24} {223 116 108 -1 13} {218 128 100 -1 13}
			q {214 542 99 -1 15} {220 558 107 -1 15} {221 295 108 -1 18} {215 339 100 -1 22}
			q {221 295 99 -1 18} {223 116 107 -1 13} {211 121 108 -1 14} {215 339 100 -1 22}
			q {222 11 99 -1 24} {208 10 107 -1 26} {211 121 108 -1 14} {223 116 100 -1 13}
			q {213 149 99 -1 12} {204 175 107 -1 10} {193 261 108 -1 9} {224 261 100 -1 9}
			q {210 324 99 -1 7} {201 324 107 -1 7} {204 175 108 -1 10} {212 173 100 -1 9}
			q {224 261 99 -1 9} {193 261 107 -1 9} {194 336 108 -1 12} {209 336 100 -1 12}
			q {209 336 99 -1 12} {194 336 107 -1 12} {201 324 108 -1 7} {210 324 100 -1 7}
			q {224 209 99 -1 5} {225 194 107 -1 5} {214 542 108 -1 15} {213 531 100 -1 16}
			q {224 209 99 -1 5} {209 15 107 -1 27} {208 10 108 -1 26} {225 194 100 -1 5}
			q {227 151 99 -1 8} {226 154 107 -1 7} {206 537 108 -1 14} {220 558 100 -1 15}
			q {222 11 99 -1 24} {227 151 107 -1 8} {225 194 108 -1 5} {208 10 100 -1 26}
			q {227 151 99 -1 8} {220 558 107 -1 15} {214 542 108 -1 15} {225 194 100 -1 5}
			q {261 491 99 -1 12} {206 537 107 -1 14} {226 154 108 -1 7} {234 21 100 -1 24}
			q {189 39 19 -1 21} {229 46 21 -1 20} {228 125 22 -1 10} {202 136 20 -1 11}
			q {190 217 19 -1 3} {230 375 21 -1 1} {229 46 22 -1 20} {189 39 20 -1 21}
			q {231 479 19 -1 25} {230 375 21 -1 1} {190 217 22 -1 3} {203 299 20 -1 19}
			q {231 479 19 -1 25} {203 299 21 -1 19} {202 136 22 -1 11} {228 125 20 -1 10}
			q {202 136 19 -1 11} {203 299 21 -1 19} {205 487 22 -1 23} {204 371 20 -1 26}
			q {241 358 99 -1 16} {235 528 107 -1 22} {237 489 108 -1 21} {236 388 100 -1 14}
			q {237 489 99 -1 21} {265 448 107 -1 19} {232 561 108 -1 21} {236 388 100 -1 14}
			q {238 520 99 -1 23} {239 351 107 -1 17} {142 343 108 -1 18} {143 509 100 -1 24}
			q {235 528 99 -1 22} {241 358 107 -1 16} {239 351 108 -1 17} {238 520 100 -1 23}
			q {241 358 99 -1 16} {242 79 107 -1 19} {243 83 108 -1 19} {239 351 100 -1 17}
			q {245 0 99 -1 26} {243 83 107 -1 19} {242 79 108 -1 19} {244 1 100 -1 26}
			q {239 351 99 -1 17} {243 83 107 -1 19} {156 78 108 -1 19} {142 343 100 -1 18}
			q {156 105 99 -1 17} {146 29 107 -1 28} {247 29 108 -1 28} {246 105 100 -1 17}
			q {243 83 99 -1 19} {245 0 107 -1 26} {146 6 108 -1 27} {156 78 100 -1 19}
			q {246 105 99 -1 17} {248 334 107 -1 20} {142 334 108 -1 20} {156 105 100 -1 17}
			q {241 358 99 -1 16} {236 388 107 -1 14} {249 102 108 -1 18} {242 79 100 -1 19}
			q {249 102 99 -1 18} {250 41 107 -1 25} {244 1 108 -1 26} {242 79 100 -1 19}
			q {143 470 99 -1 24} {142 334 107 -1 20} {248 334 108 -1 20} {240 470 100 -1 24}
			q {237 590 15 -1 21} {254 601 7 -1 21} {266 591 10 -1 21} {265 595 17 -1 21}
			q {256 449 99 -1 21} {233 445 107 -1 22} {1 468 108 -1 22} {257 468 100 -1 22}
			q {232 556 16 -1 23} {255 578 8 -1 22} {7 607 9 -1 20} {5 471 13 -1 22}
			q {257 468 99 -1 22} {1 468 107 -1 22} {0 477 108 -1 23} {258 477 100 -1 23}
			q {232 561 99 -1 21} {233 356 107 -1 20} {260 402 108 -1 22} {261 491 100 -1 12}
			q {262 533 102 -1 12} {167 570 101 -1 16} {165 514 104 -1 13} {45 465 105 -1 8}
			q {27 584 84 -1 18} {10 506 83 -1 11} {57 425 109 -1 13} {53 442 112 -1 11}
			q {232 539 99 -1 17} {252 539 107 -1 17} {264 547 108 -1 17} {265 547 100 -1 17}
			q {157 344 99 -1 0} {97 303 107 -1 0} {103 267 108 -1 0} {134 267 100 -1 0}
			q {3 5 19 -1 26} {268 127 21 -1 26} {267 182 22 -1 25} {0 5 20 -1 26}
			q {270 472 19 -1 19} {267 182 21 -1 25} {268 127 22 -1 26} {269 315 20 -1 12}
			q {271 283 19 -1 6} {8 335 21 -1 0} {7 607 22 -1 20} {270 472 20 -1 19}
			q {277 435 19 -1 16} {276 421 21 -1 12} {275 369 22 -1 1} {274 510 20 -1 11}
			q {281 206 19 -1 8} {280 141 21 -1 15} {279 187 22 -1 11} {278 274 20 -1 14}
			q {274 510 19 -1 11} {275 369 21 -1 1} {20 317 22 -1 0} {19 522 20 -1 13}
			q {274 510 19 -1 11} {19 522 21 -1 13} {22 588 22 -1 18} {282 431 20 -1 17}
			q {281 206 19 -1 8} {24 280 21 -1 0} {23 148 22 -1 9} {280 141 20 -1 15}
			q {488 414 19 -1 23} {263 560 21 -1 22} {31 606 22 -1 20} {286 416 20 -1 20}
			q {280 141 19 -1 15} {23 148 21 -1 9} {8 335 22 -1 0} {271 283 20 -1 6}
			q {284 278 19 -1 8} {278 274 21 -1 14} {279 187 22 -1 11} {287 216 20 -1 11}
			q {289 255 19 -1 10} {288 329 21 -1 12} {34 406 22 -1 3} {33 240 20 -1 3}
			q {291 434 19 -1 7} {290 381 21 -1 24} {38 444 22 -1 22} {37 495 20 -1 11}
			q {275 368 19 -1 1} {291 434 21 -1 7} {37 495 22 -1 11} {20 399 20 -1 2}
			q {33 589 19 -1 18} {42 589 21 -1 18} {292 516 22 -1 13} {289 518 20 -1 13}
			q {278 274 19 -1 14} {294 455 21 -1 10} {276 421 22 -1 12} {277 435 20 -1 16}
			q {294 455 19 -1 10} {293 498 21 -1 12} {292 516 22 -1 13} {276 421 20 -1 12}
			q {282 431 19 -1 17} {22 588 21 -1 18} {24 280 22 -1 0} {281 206 20 -1 8}
			q {31 606 19 -1 20} {34 406 21 -1 3} {288 329 22 -1 12} {286 416 20 -1 20}
			q {294 455 19 -1 10} {285 461 21 -1 8} {295 496 22 -1 10} {293 498 20 -1 12}
			q {285 461 19 -1 8} {294 455 21 -1 10} {278 274 22 -1 14} {284 278 20 -1 8}
			q {292 213 19 -1 20} {42 223 21 -1 17} {38 444 22 -1 22} {290 381 20 -1 24}
			q {47 132 83 -1 11} {296 145 109 -1 10} {268 169 112 -1 6} {3 157 86 -1 7}
			q {296 145 83 -1 10} {297 210 109 -1 3} {269 309 112 -1 0} {268 169 86 -1 6}
			q {51 45 83 -1 21} {299 103 109 -1 23} {296 145 112 -1 10} {47 132 86 -1 11}
			q {299 103 83 -1 23} {300 195 109 -1 11} {297 210 112 -1 3} {296 145 86 -1 10}
			q {55 4 83 -1 25} {302 63 109 -1 29} {299 103 112 -1 23} {51 45 86 -1 21}
			q {302 63 83 -1 29} {303 198 109 -1 18} {300 195 112 -1 11} {299 103 86 -1 23}
			q {59 36 83 -1 22} {305 85 109 -1 26} {302 63 112 -1 29} {55 4 86 -1 25}
			q {305 85 83 -1 26} {306 220 109 -1 25} {303 198 112 -1 18} {302 63 86 -1 29}
			q {307 512 83 -1 11} {63 450 109 -1 8} {411 353 93 -1 0} {272 391 86 -1 3}
			q {305 85 112 -1 26} {59 36 86 -1 22} {65 89 83 -1 14} {309 138 109 -1 19}
			q {306 220 112 -1 25} {305 85 86 -1 26} {309 138 83 -1 19} {310 246 109 -1 26}
			q {307 512 112 -1 11} {308 393 86 -1 21} {312 364 83 -1 24} {311 452 109 -1 19}
			q {307 512 86 -1 11} {311 452 83 -1 19} {69 494 109 -1 22} {63 450 112 -1 8}
			q {71 160 83 -1 11} {313 171 109 -1 17} {309 138 112 -1 19} {65 89 86 -1 14}
			q {313 171 83 -1 17} {314 249 109 -1 19} {310 246 112 -1 26} {309 138 86 -1 19}
			q {316 276 83 -1 18} {315 332 109 -1 18} {311 452 112 -1 19} {312 364 86 -1 24}
			q {315 332 83 -1 18} {75 326 109 -1 16} {69 494 112 -1 22} {311 452 86 -1 19}
			q {314 249 83 -1 19} {316 276 109 -1 18} {312 364 112 -1 24} {310 246 86 -1 26}
			q {308 393 112 -1 21} {306 220 86 -1 25} {310 246 83 -1 26} {312 364 109 -1 24}
			q {306 220 83 -1 25} {308 393 109 -1 21} {304 426 112 -1 8} {303 198 86 -1 18}
			q {303 198 83 -1 18} {304 426 109 -1 8} {301 441 112 -1 6} {300 195 86 -1 11}
			q {300 195 83 -1 11} {301 441 109 -1 6} {298 398 112 -1 3} {297 210 86 -1 3}
			q {320 236 49 -1 30} {319 230 50 -1 31} {318 359 36 -1 30} {317 291 41 -1 30}
			q {322 318 60 -1 20} {321 605 54 -1 19} {319 230 50 -1 31} {320 236 49 -1 30}
			q {331 203 62 -1 15} {330 242 48 -1 14} {329 234 49 -1 21} {328 225 66 -1 11}
			q {333 204 61 -1 22} {322 318 60 -1 20} {320 236 49 -1 30} {332 228 48 -1 23}
			q {330 242 48 -1 14} {331 203 62 -1 15} {334 190 63 -1 14} {326 239 47 -1 13}
			q {338 90 71 -1 24} {337 81 74 -1 22} {336 2 77 -1 24} {335 13 76 -1 27}
			q {332 228 48 -1 23} {324 227 47 -1 17} {339 177 59 -1 16} {333 204 61 -1 22}
			q {318 359 36 -1 30} {319 230 50 -1 31} {329 234 49 -1 21} {340 307 40 -1 21}
			q {328 225 66 -1 11} {329 234 49 -1 21} {319 230 50 -1 31} {321 605 54 -1 19}
			q {335 13 76 -1 27} {336 2 77 -1 24} {342 98 73 -1 18} {341 106 71 -1 19}
			q {341 106 71 -1 19} {342 98 73 -1 18} {343 186 68 -1 14} {328 225 66 -1 11}
			q {338 90 71 -1 24} {344 183 69 -1 20} {345 163 68 -1 15} {337 81 74 -1 22}
			q {347 586 32 -1 22} {346 396 35 -1 23} {317 291 41 -1 30} {318 359 36 -1 30}
			q {348 390 35 -1 19} {340 307 40 -1 21} {329 234 49 -1 21} {330 242 48 -1 14}
			q {331 203 62 -1 15} {328 225 66 -1 11} {343 186 68 -1 14} {334 190 63 -1 14}
			q {333 204 61 -1 22} {339 177 59 -1 16} {345 163 68 -1 15} {344 183 69 -1 20}
			q {346 396 35 -1 23} {332 228 48 -1 23} {320 236 49 -1 30} {317 291 41 -1 30}
			q {348 390 35 -1 19} {347 586 32 -1 22} {318 359 36 -1 30} {340 307 40 -1 21}
			q {325 594 33 -1 18} {347 586 32 -1 22} {348 390 35 -1 19} {327 405 39 -1 16}
			q {346 396 35 -1 23} {347 586 32 -1 22} {325 594 33 -1 18} {323 409 38 -1 17}
			q {348 390 35 -1 19} {330 242 48 -1 14} {326 239 47 -1 13} {327 405 39 -1 16}
			q {324 227 47 -1 17} {332 228 48 -1 23} {346 396 35 -1 23} {323 409 38 -1 17}
			q {353 87 72 -1 17} {352 192 67 -1 14} {343 186 68 -1 14} {342 98 73 -1 18}
			q {352 597 67 -1 21} {351 597 67 -1 21} {345 597 68 -1 21} {343 597 68 -1 21}
			q {351 167 67 -1 14} {349 73 72 -1 20} {337 81 74 -1 22} {345 163 68 -1 15}
			q {349 73 72 -1 20} {350 7 75 -1 21} {336 2 77 -1 24} {337 81 74 -1 22}
			q {350 7 75 -1 21} {353 87 72 -1 17} {342 98 73 -1 18} {336 2 77 -1 24}
			q {356 374 99 -1 20} {357 600 107 -1 20} {359 550 108 -1 24} {358 341 100 -1 23}
			q {355 411 99 -1 16} {361 417 107 -1 17} {360 575 108 -1 18} {354 582 100 -1 17}
			q {354 582 99 -1 17} {360 575 107 -1 18} {363 270 108 -1 10} {362 302 100 -1 12}
			q {365 286 99 -1 14} {364 293 107 -1 15} {359 550 108 -1 24} {357 600 100 -1 20}
			q {367 165 99 -1 18} {366 179 107 -1 17} {361 417 108 -1 17} {355 411 100 -1 16}
			q {355 411 99 -1 16} {356 374 107 -1 20} {368 158 108 -1 19} {367 165 100 -1 18}
			q {359 550 99 -1 24} {370 503 107 -1 24} {369 322 108 -1 26} {358 341 100 -1 23}
			q {358 341 99 -1 23} {369 322 107 -1 26} {372 161 108 -1 20} {371 155 100 -1 19}
			q {364 293 99 -1 15} {373 287 107 -1 16} {370 503 108 -1 24} {359 550 100 -1 24}
			q {368 158 99 -1 19} {356 374 107 -1 20} {358 341 108 -1 23} {371 155 100 -1 19}
			q {369 322 99 -1 26} {370 503 107 -1 24} {375 474 108 -1 25} {374 297 100 -1 27}
			q {375 474 99 -1 25} {370 503 107 -1 24} {373 287 108 -1 16} {376 290 100 -1 16}
			q {378 576 99 -1 17} {360 575 107 -1 18} {361 417 108 -1 17} {377 419 100 -1 18}
			q {378 576 88 -1 17} {377 419 87 -1 18} {380 328 86 -1 21} {381 569 90 -1 19}
			q {113 587 91 -1 21} {114 579 92 -1 17} {378 576 88 -1 17} {381 569 90 -1 19}
			q {366 179 99 -1 17} {379 200 107 -1 17} {377 419 108 -1 18} {361 417 100 -1 17}
			q {321 605 99 -1 19} {322 318 107 -1 20} {374 243 108 -1 0} {375 221 100 -1 0}
			q {322 318 99 -1 20} {344 268 107 -1 2} {372 268 108 -1 2} {374 243 100 -1 0}
			q {328 225 99 -1 11} {321 605 107 -1 19} {375 221 108 -1 0} {376 232 100 -1 0}
			q {145 43 99 -1 16} {383 69 107 -1 17} {363 270 108 -1 10} {115 266 100 -1 9}
			q {385 53 99 -1 25} {379 200 107 -1 17} {366 179 108 -1 17} {384 34 100 -1 25}
			q {384 34 99 -1 25} {366 179 107 -1 17} {367 165 108 -1 18} {386 19 100 -1 29}
			q {384 34 99 -1 25} {386 19 107 -1 29} {387 67 108 -1 19} {383 69 100 -1 17}
			q {388 25 99 -1 30} {386 19 107 -1 29} {367 165 108 -1 18} {368 158 100 -1 19}
			q {388 25 99 -1 30} {389 93 107 -1 20} {387 67 108 -1 19} {386 19 100 -1 29}
			q {389 93 99 -1 20} {388 25 107 -1 30} {391 27 108 -1 30} {390 119 100 -1 19}
			q {384 34 99 -1 25} {383 69 107 -1 17} {145 43 108 -1 16} {385 53 100 -1 25}
			q {362 302 99 -1 12} {363 270 107 -1 10} {383 69 108 -1 17} {387 67 100 -1 19}
			q {365 286 99 -1 14} {362 302 107 -1 12} {387 67 108 -1 19} {389 93 100 -1 20}
			q {380 328 99 -1 21} {379 200 107 -1 17} {385 53 108 -1 25} {392 57 100 -1 28}
			q {145 43 99 -1 16} {146 17 107 -1 29} {392 57 108 -1 28} {385 53 100 -1 25}
			q {391 27 99 -1 30} {393 32 107 -1 30} {382 147 108 -1 18} {390 119 100 -1 19}
			q {388 25 99 -1 30} {368 158 107 -1 19} {371 155 108 -1 19} {391 27 100 -1 30}
			q {393 32 99 -1 30} {391 27 107 -1 30} {371 155 108 -1 19} {372 161 100 -1 20}
			q {365 286 99 -1 14} {389 93 107 -1 20} {390 119 108 -1 19} {364 293 100 -1 15}
			q {364 293 99 -1 15} {390 119 107 -1 19} {382 147 108 -1 18} {373 287 100 -1 16}
			q {335 366 99 -1 0} {341 306 107 -1 0} {382 306 108 -1 0} {393 345 100 -1 0}
			q {341 306 99 -1 0} {328 225 107 -1 11} {376 232 108 -1 0} {382 306 100 -1 0}
			q {360 575 99 -1 18} {114 579 107 -1 17} {115 266 108 -1 9} {363 270 100 -1 10}
			q {396 573 101 -1 21} {395 480 104 -1 19} {394 427 105 -1 20} {25 536 102 -1 23}
			q {395 480 101 -1 19} {397 423 104 -1 21} {273 377 105 -1 25} {394 427 102 -1 20}
			q {397 423 101 -1 21} {398 379 104 -1 19} {283 314 105 -1 21} {273 377 102 -1 25}
			q {398 379 101 -1 19} {399 407 104 -1 12} {284 346 105 -1 11} {283 314 102 -1 21}
			q {399 407 101 -1 12} {400 430 104 -1 6} {285 384 105 -1 2} {284 346 102 -1 11}
			q {400 430 101 -1 6} {401 515 104 -1 12} {295 466 105 -1 10} {285 384 102 -1 2}
			q {402 571 101 -1 18} {396 573 104 -1 21} {25 536 105 -1 23} {166 580 102 -1 17}
			q {404 546 56 -1 15} {403 526 51 -1 15} {395 480 52 -1 19} {396 573 81 -1 21}
			q {403 526 51 -1 15} {405 505 31 -1 13} {397 423 23 -1 21} {395 480 52 -1 19}
			q {405 505 31 -1 13} {406 464 28 -1 15} {398 379 24 -1 19} {397 423 23 -1 21}
			q {406 464 28 -1 15} {407 484 29 -1 12} {399 407 25 -1 12} {398 379 24 -1 19}
			q {407 484 29 -1 12} {408 501 37 -1 11} {400 430 43 -1 6} {399 407 25 -1 12}
			q {408 501 37 -1 11} {409 524 46 -1 13} {401 515 70 -1 12} {400 430 43 -1 6}
			q {409 524 46 -1 13} {410 562 53 -1 16} {402 571 79 -1 18} {401 515 70 -1 12}
			q {410 562 53 -1 16} {404 546 56 -1 15} {396 573 81 -1 21} {402 571 79 -1 18}
			q {25 603 19 -1 20} {394 553 21 -1 15} {411 553 22 -1 15} {26 603 20 -1 20}
			q {394 553 19 -1 15} {273 529 21 -1 13} {272 529 22 -1 13} {411 553 20 -1 15}
			q {416 61 19 -1 23} {415 567 21 -1 20} {413 401 22 -1 14} {414 111 20 -1 17}
			q {423 282 19 -1 0} {422 97 21 -1 12} {421 114 22 -1 22} {420 437 20 -1 11}
			q {422 97 19 -1 12} {423 282 21 -1 0} {465 376 22 -1 4} {464 47 20 -1 18}
			q {427 387 19 -1 6} {426 109 21 -1 11} {414 111 22 -1 17} {412 312 20 -1 0}
			q {433 273 19 -1 0} {432 65 21 -1 15} {431 134 22 -1 21} {430 486 20 -1 12}
			q {431 134 19 -1 21} {435 143 21 -1 25} {434 543 22 -1 20} {430 486 20 -1 12}
			q {437 137 19 -1 22} {424 40 21 -1 21} {429 70 22 -1 13} {436 113 20 -1 21}
			q {421 114 19 -1 22} {422 97 21 -1 12} {464 47 22 -1 18} {463 124 20 -1 23}
			q {433 273 19 -1 0} {430 486 21 -1 12} {434 543 22 -1 20} {419 247 20 -1 5}
			q {415 567 19 -1 20} {427 387 21 -1 6} {412 312 22 -1 0} {413 401 20 -1 14}
			q {428 264 19 -1 9} {427 387 21 -1 6} {415 567 22 -1 20} {439 372 20 -1 21}
			q {421 114 19 -1 22} {463 124 21 -1 23} {466 478 22 -1 18} {420 437 20 -1 11}
			q {435 143 19 -1 25} {431 134 21 -1 21} {432 65 22 -1 15} {417 38 20 -1 21}
			q {465 376 19 -1 4} {423 282 21 -1 0} {420 437 22 -1 11} {466 478 20 -1 18}
			q {438 300 19 -1 26} {435 143 21 -1 25} {417 38 22 -1 21} {418 76 20 -1 15}
			q {435 143 19 -1 25} {438 300 21 -1 26} {440 488 22 -1 23} {434 543 20 -1 20}
			q {419 247 19 -1 5} {434 543 21 -1 20} {440 488 22 -1 23} {415 567 20 -1 20}
			q {419 247 19 -1 5} {417 38 21 -1 21} {432 65 22 -1 15} {433 273 20 -1 0}
			q {442 320 99 -1 23} {486 403 107 -1 23} {487 490 108 -1 9} {441 538 100 -1 14}
			q {446 120 99 -1 21} {445 122 107 -1 20} {444 16 108 -1 24} {443 9 100 -1 25}
			q {450 338 99 -1 22} {449 541 107 -1 20} {448 532 108 -1 20} {447 349 100 -1 21}
			q {446 120 99 -1 21} {450 338 107 -1 22} {447 349 108 -1 21} {445 122 100 -1 20}
			q {485 130 99 -1 19} {452 94 107 -1 21} {451 23 108 -1 21} {469 22 100 -1 25}
			q {452 94 99 -1 21} {485 130 107 -1 19} {486 403 108 -1 23} {442 320 100 -1 23}
			q {454 30 99 -1 21} {451 23 107 -1 21} {452 94 108 -1 21} {453 129 100 -1 19}
			q {456 296 99 -1 23} {442 320 107 -1 23} {441 538 108 -1 14} {455 557 100 -1 18}
			q {458 117 99 -1 22} {457 12 107 -1 26} {454 30 108 -1 21} {453 129 100 -1 19}
			q {456 296 99 -1 23} {455 557 107 -1 18} {449 541 108 -1 20} {450 338 100 -1 22}
			q {446 120 99 -1 21} {458 117 107 -1 22} {456 296 108 -1 23} {450 338 100 -1 22}
			q {446 120 99 -1 21} {443 9 107 -1 25} {457 12 108 -1 26} {458 117 100 -1 22}
			q {428 262 99 -1 18} {439 176 107 -1 11} {448 150 108 -1 15} {459 262 100 -1 18}
			q {439 176 99 -1 11} {436 325 107 -1 5} {445 325 108 -1 5} {447 174 100 -1 8}
			q {429 337 99 -1 13} {428 262 107 -1 18} {459 262 108 -1 18} {444 337 100 -1 13}
			q {436 325 99 -1 5} {429 337 107 -1 13} {444 337 108 -1 13} {445 325 100 -1 5}
			q {449 541 99 -1 20} {460 193 107 -1 8} {459 208 108 -1 9} {448 532 100 -1 20}
			q {443 9 99 -1 25} {444 16 107 -1 24} {459 208 108 -1 9} {460 193 100 -1 8}
			q {441 538 99 -1 14} {461 153 107 -1 9} {462 152 108 -1 9} {455 557 100 -1 18}
			q {460 193 99 -1 8} {462 152 107 -1 9} {457 12 108 -1 26} {443 9 100 -1 25}
			q {449 541 99 -1 20} {455 557 107 -1 18} {462 152 108 -1 9} {460 193 100 -1 8}
			q {461 153 99 -1 9} {441 538 107 -1 14} {487 490 108 -1 9} {469 22 100 -1 25}
			q {463 124 19 -1 23} {464 47 21 -1 18} {424 40 22 -1 21} {437 137 20 -1 22}
			q {464 47 19 -1 18} {465 376 21 -1 4} {425 218 22 -1 1} {424 40 20 -1 21}
			q {425 218 19 -1 1} {465 376 21 -1 4} {466 478 22 -1 18} {438 300 20 -1 26}
			q {437 137 19 -1 22} {438 300 21 -1 26} {466 478 22 -1 18} {463 124 20 -1 23}
			q {440 488 19 -1 23} {438 300 21 -1 26} {437 137 22 -1 22} {439 372 20 -1 21}
			q {471 482 99 -1 16} {235 527 107 -1 16} {474 357 108 -1 22} {470 385 100 -1 16}
			q {467 559 99 -1 16} {490 447 107 -1 17} {471 482 108 -1 16} {470 385 100 -1 16}
			q {380 342 99 -1 26} {472 352 107 -1 25} {238 521 108 -1 18} {381 508 100 -1 20}
			q {472 352 99 -1 25} {474 357 107 -1 22} {235 527 108 -1 16} {238 521 100 -1 18}
			q {476 84 99 -1 28} {475 80 107 -1 28} {474 357 108 -1 22} {472 352 100 -1 25}
			q {475 80 99 -1 28} {476 84 107 -1 28} {245 0 108 -1 26} {244 1 100 -1 26}
			q {392 77 99 -1 28} {476 84 107 -1 28} {472 352 108 -1 25} {380 342 100 -1 26}
			q {247 29 99 -1 28} {146 29 107 -1 28} {392 104 108 -1 29} {477 104 100 -1 29}
			q {146 6 99 -1 27} {245 0 107 -1 26} {476 84 108 -1 28} {392 77 100 -1 28}
			q {380 333 99 -1 28} {478 333 107 -1 28} {477 104 108 -1 29} {392 104 100 -1 29}
			q {479 100 99 -1 26} {470 385 107 -1 16} {474 357 108 -1 22} {475 80 100 -1 28}
			q {244 1 99 -1 26} {250 41 107 -1 25} {479 100 108 -1 26} {475 80 100 -1 28}
			q {478 333 99 -1 28} {380 333 107 -1 28} {381 469 108 -1 22} {473 469 100 -1 22}
			q {266 591 10 -1 21} {254 601 7 -1 21} {471 598 3 -1 20} {490 592 0 -1 21}
			q {267 467 99 -1 24} {468 443 107 -1 23} {483 446 108 -1 23} {484 467 100 -1 23}
			q {7 607 9 -1 20} {255 578 8 -1 22} {467 555 2 -1 22} {270 472 5 -1 19}
			q {0 477 99 -1 23} {267 467 107 -1 24} {484 467 108 -1 23} {258 477 100 -1 23}
			q {486 403 99 -1 23} {468 355 107 -1 24} {467 559 108 -1 16} {487 490 100 -1 9}
			q {401 515 101 -1 12} {402 571 104 -1 18} {488 534 105 -1 16} {295 466 102 -1 10}
			q {489 548 99 -1 22} {481 540 107 -1 22} {467 540 108 -1 23} {490 548 100 -1 22}
			q {344 268 99 -1 2} {338 304 107 -1 1} {393 345 108 -1 0} {372 268 100 -1 2}
			q {304 426 83 -1 8} {273 507 109 -1 12} {283 583 110 -1 17} {301 441 86 -1 6}
			q {10 506 89 -1 11} {9 392 85 -1 2} {61 513 83 -1 16} {57 425 112 -1 13}
			q {307 512 109 -1 11} {272 391 111 -1 3} {273 507 98 -1 12} {304 426 86 -1 8}
			q {70 170 83 -1 8} {72 250 109 -1 13} {491 253 112 -1 14} {71 160 86 -1 11}
			q {316 276 83 -1 18} {491 252 109 -1 14} {75 326 112 -1 16} {315 332 86 -1 18}
			q {73 331 112 -1 18} {75 326 86 -1 16} {491 251 83 -1 14} {74 277 109 -1 15}
		}
	}
}
