// Source file: C:/Dev/sdk/main/sdk_examples/ArtAssets/combatEva/Maya7/combatEva_rig.mb
CIwMaterial
{
	name "combatEva/lambert12"
	colEmissive {0,0,0}
	texture0 "evaFace.bmp"
}
CIwMaterial
{
	name "combatEva/evaTextureFinal_lambert11"
	colEmissive {0,0,0}
	texture0 "evaBody.bmp"
}
CIwMaterial
{
	name "combatEva/lambert13"
	colEmissive {0,0,0}
	texture0 "hairPiece.bmp"
}
