{
    "keys": [
        {
            "easing": 0,
            "name": "TextureId",
            "time": 0,
            "type": 0,
            "value": 14
        },
        {
            "easing": 0,
            "name": "TextureId",
            "time": 500,
            "type": 0,
            "value": 15
        },
        {
            "easing": 0,
            "name": "TextureId",
            "time": 1000,
            "type": 0,
            "value": 14
        }
    ],
    "loop": true,
    "playDirection": 0,
    "version": "1.1"
}
