{
    "keys": [
        {
            "easing": 0,
            "name": "NormalResourceID",
            "time": 2,
            "type": 0,
            "value": 14
        },
        {
            "easing": 0,
            "name": "PressedResourceID",
            "time": 0,
            "type": 0,
            "value": 16
        },
        {
            "easing": 0,
            "name": "OverResourceID",
            "time": 1,
            "type": 0,
            "value": 12
        },
        {
            "easing": 0,
            "name": "DisabledResourceID",
            "time": 0,
            "type": 0,
            "value": 10
        },
        {
            "easing": 0,
            "name": "PressedResourceID",
            "time": 500,
            "type": 0,
            "value": 17
        },
        {
            "easing": 0,
            "name": "OverResourceID",
            "time": 500,
            "type": 0,
            "value": 13
        },
        {
            "easing": 0,
            "name": "DisabledResourceID",
            "time": 500,
            "type": 0,
            "value": 11
        },
        {
            "easing": 0,
            "name": "NormalResourceID",
            "time": 1000,
            "type": 0,
            "value": 15
        },
        {
            "easing": 0,
            "name": "PressedResourceID",
            "time": 1001,
            "type": 0,
            "value": 17
        },
        {
            "easing": 0,
            "name": "OverResourceID",
            "time": 1000,
            "type": 0,
            "value": 13
        },
        {
            "easing": 0,
            "name": "DisabledResourceID",
            "time": 1001,
            "type": 0,
            "value": 11
        }
    ],
    "loop": true,
    "playDirection": 0,
    "version": "1.1"
}
