// Source file: C:/dev/sdk/main/sdk_examples/ToolsExamples/transparency/transparencyexample.max
CIwModel
{
	name "sidewall"
	CMesh
	{
		name "sidewall"
		scale 1.0
		CVerts
		{
			numVerts 14
			v {3306.13672,-83.56895,6448.53613}
			v {3306.13672,-83.56934,0.68436}
			v {3306.10840,4027.06079,6448.53613}
			v {3306.10815,4027.06079,0.68436}
			v {3308.10889,424.83026,6448.53613}
			v {3308.10889,424.83139,0.68436}
			v {3228.04956,-82.95174,59.51614}
			v {3228.04956,395.84808,59.51614}
			v {3228.04980,395.84692,6348.53613}
			v {3228.04980,-82.95135,6348.53613}
			v {3183.04932,-84.23309,101.98059}
			v {3183.04932,331.94275,101.98059}
			v {3183.04980,331.94159,6248.53613}
			v {3183.04980,-84.23271,6248.53613}
		}
		CVertNorms
		{
			numVertNorms 12
			vn {0,-1.00000,0.00056}
			vn {0,-1,0}
			vn {0.79869,-0.60174,0}
			vn {0.80542,-0.59270,-0.00230}
			vn {0,-0.34040,-0.94028}
			vn {-0.62498,-0.78064,0}
			vn {-0.61547,-0.78816,-0.00306}
			vn {0,-0.00791,0.99997}
			vn {0.72730,-0.68632,0}
			vn {0,-0.81763,-0.57575}
			vn {-0.41036,-0.91192,0}
			vn {0,0.02846,0.99959}
		}
		CUVs
		{
			setID 0
			numUVs 14
			uv {0.00050,-0.00066}
			uv {0.99950,-0.00066}
			uv {0.00050,-0.99950}
			uv {0.99950,-0.99950}
			uv {0.00050,-0.12420}
			uv {0.99950,-0.12420}
			uv {0.99039,-0.00081}
			uv {0.99039,-0.11715}
			uv {0.01599,-0.11715}
			uv {0.01599,-0.00081}
			uv {0.98381,-0.00050}
			uv {0.98381,-0.10163}
			uv {0.03149,-0.10163}
			uv {0.03149,-0.00050}
		}
		CUVs
		{
			setID 1
			numUVs 14
			uv {-0.00447,0.00903}
			uv {1.00377,0.00903}
			uv {-0.00447,-1.00015}
			uv {1.00378,-1.00015}
			uv {-0.00447,-0.04012}
			uv {1.00377,-0.04012}
			uv {0.99959,0.00897}
			uv {0.99959,-0.03732}
			uv {0.00263,-0.03732}
			uv {0.00263,0.00897}
			uv {0.99657,0.00910}
			uv {0.99657,-0.03114}
			uv {0.00974,-0.03114}
			uv {0.00974,0.00910}
		}
		CSurface
		{
			material "walls1"
			CQuads
			{
				numQuads 10
				q {2,0,2,2,-1} {4,0,4,4,-1} {5,0,5,5,-1} {3,0,3,3,-1}
				q {12,1,12,12,-1} {13,1,13,13,-1} {10,1,10,10,-1} {11,1,11,11,-1}
				q {7,2,7,7,-1} {6,2,6,6,-1} {1,2,1,1,-1} {5,3,5,5,-1}
				q {8,4,8,8,-1} {7,4,7,7,-1} {5,4,5,5,-1} {4,4,4,4,-1}
				q {0,6,0,0,-1} {9,5,9,9,-1} {8,5,8,8,-1} {4,5,4,4,-1}
				q {1,7,1,1,-1} {6,7,6,6,-1} {9,7,9,9,-1} {0,7,0,0,-1}
				q {11,8,11,11,-1} {10,8,10,10,-1} {6,8,6,6,-1} {7,8,7,7,-1}
				q {12,9,12,12,-1} {11,9,11,11,-1} {7,9,7,7,-1} {8,9,8,8,-1}
				q {9,10,9,9,-1} {13,10,13,13,-1} {12,10,12,12,-1} {8,10,8,8,-1}
				q {6,11,6,6,-1} {10,11,10,10,-1} {13,11,13,13,-1} {9,11,9,9,-1}
			}
		}
	}
}
