// Source file: C:/dev/sdk/main/sdk_examples/ToolsExamples/transparency/transparencyexample.max
CIwModel
{
	name "windowwall"
	CMesh
	{
		name "windowwall"
		scale 1.0
		CVerts
		{
			numVerts 36
			v {-3092.70483,-82.70340,-0.00001}
			v {3337.35498,-82.70340,-0.00001}
			v {-3092.70483,420.37354,0.00002}
			v {3339.43481,420.37354,0.00002}
			v {-3092.70483,1348.01221,0.00006}
			v {-903.53906,1345.20874,0.00001}
			v {851.26550,1345.20874,0.00008}
			v {3337.35498,1348.01221,0.00006}
			v {-3092.70483,3180.21729,0.00014}
			v {-902.61688,3163.76001,0.00010}
			v {846.49542,3163.97144,0.00017}
			v {3337.35498,3180.21729,0.00014}
			v {-3092.70483,4027.66455,0.00018}
			v {-913.68048,4027.66504,0.00010}
			v {846.53644,4027.66504,0.00024}
			v {3337.35498,4027.66504,0.00018}
			v {-3067.70483,395.37354,58.57566}
			v {-3067.70483,-82.79457,58.57565}
			v {3337.35498,-82.79457,58.57565}
			v {3339.43481,395.37354,58.57566}
			v {-3003.70483,331.37360,101.25333}
			v {-3003.70483,-82.78160,101.25332}
			v {3337.47144,-81.56891,101.25330}
			v {3336.71802,331.20154,101.25330}
			v {-893.39771,3159.32202,-128.15855}
			v {-893.39771,1342.40527,-128.15869}
			v {855.99463,1342.40527,-128.15866}
			v {855.99463,3159.32202,-128.15849}
			v {-893.39771,1449.98743,0.00006}
			v {855.99463,1449.98743,0.00006}
			v {855.99463,1449.98743,-128.15866}
			v {-893.39771,1449.98743,-128.15869}
			v {-893.39771,1342.40527,191.38208}
			v {855.99463,1342.40527,191.38210}
			v {855.99463,1449.98706,191.38214}
			v {-893.39771,1449.98706,191.38213}
		}
		CVertNorms
		{
			numVertNorms 29
			vn {-0.91973,0.39254,0}
			vn {0,0.95633,-0.29229}
			vn {0.00001,0.93978,-0.34178}
			vn {0,0.52415,0.85163}
			vn {0.00013,0.71742,0.69664}
			vn {-0.55480,0.83198,0}
			vn {0,0.88013,-0.47474}
			vn {0,0.54862,-0.83607}
			vn {0,0.63674,-0.77108}
			vn {0,0.83417,-0.55151}
			vn {0.99688,0.07890,0.00051}
			vn {0.99742,0.07175,0}
			vn {-0.99727,-0.07382,0.00262}
			vn {-0.99932,-0.03688,0}
			vn {0.00012,0.03462,0.99940}
			vn {0,0.03625,0.99934}
			vn {0,1,0}
			vn {0,-0.00156,1.00000}
			vn {0.00010,0.01353,0.99991}
			vn {0,-0.00113,1.00000}
			vn {0,0,-1}
			vn {0.99932,0.03688,0}
			vn {0.99898,0,0.04509}
			vn {0,-1,0}
			vn {-0.99211,-0.08061,-0.09602}
			vn {-1,0,0}
			vn {0,-0.01465,0.99989}
			vn {0.99969,-0.02470,0}
			vn {-0.99389,0.05408,-0.09620}
		}
		CUVs
		{
			setID 0
			numUVs 29
			uv {0.00050,-0.00052}
			uv {0.99918,-0.00052}
			uv {0.00050,-0.12275}
			uv {0.99950,-0.12275}
			uv {0.00050,-0.34813}
			uv {0.34051,-0.34745}
			uv {0.61305,-0.34745}
			uv {0.99918,-0.34813}
			uv {0.00050,-0.79329}
			uv {0.34065,-0.78929}
			uv {0.61231,-0.78934}
			uv {0.99918,-0.79329}
			uv {0.00050,-0.99919}
			uv {0.33893,-0.99919}
			uv {0.61232,-0.99919}
			uv {0.99918,-0.99919}
			uv {0.00438,-0.11668}
			uv {0.00438,-0.00050}
			uv {0.99950,-0.11668}
			uv {0.01432,-0.10113}
			uv {0.01432,-0.00050}
			uv {0.99920,-0.00080}
			uv {0.99908,-0.10108}
			uv {0.34208,-0.78821}
			uv {0.34208,-0.34677}
			uv {0.61379,-0.34677}
			uv {0.61379,-0.78821}
			uv {0.34208,-0.37291}
			uv {0.61379,-0.37291}
		}
		CUVs
		{
			setID 1
			numUVs 36
			uv {0.92150,-1.18202}
			uv {0.96030,-0.07850}
			uv {0.03957,-1.13387}
			uv {0.99950,-0.84867}
			uv {0.65509,-0.84867}
			uv {0.36221,-0.84867}
			uv {0.03970,-0.84867}
			uv {0.99950,-0.33264}
			uv {0.65509,-0.33264}
			uv {0.36221,-0.33264}
			uv {0.03970,-0.33264}
			uv {0.99950,-0.18303}
			uv {0.65509,-0.18303}
			uv {0.36221,-0.18303}
			uv {0.03970,-0.18303}
			uv {0.91723,-1.13626}
			uv {0.91723,-1.18203}
			uv {0.96030,-0.08277}
			uv {0.03957,-0.08277}
			uv {0.99392,-1.14239}
			uv {0.99392,-1.18203}
			uv {0.03970,-1.18191}
			uv {0.03974,-1.14241}
			uv {0.92150,-1.13387}
			uv {0.00050,-0.07850}
			uv {0.00207,-0.08277}
			uv {0.99950,-0.07850}
			uv {0.99793,-1.13626}
			uv {0.99793,-1.18203}
			uv {0.00608,-0.08588}
			uv {-23.29559,26.87952}
			uv {23.29559,26.87952}
			uv {-23.29559,-26.87952}
			uv {23.29559,-26.87952}
			uv {-23.29559,24.87952}
			uv {23.29559,24.87952}
		}
		CSurface
		{
			material "walls"
			CQuads
			{
				numQuads 16
				q {16,0,16,15,-1} {17,0,17,16,-1} {0,0,0,0,-1} {2,0,2,23,-1}
				q {20,2,19,19,-1} {23,1,22,22,-1} {22,4,21,21,-1} {21,3,20,29,-1}
				q {20,5,19,19,-1} {21,5,20,20,-1} {17,5,17,28,-1} {16,5,16,27,-1}
				q {19,8,18,18,-1} {16,7,16,27,-1} {2,6,2,26,-1} {3,9,3,2,-1}
				q {24,11,23,32,-1} {25,10,24,30,-1} {5,10,5,30,-1} {9,10,9,32,-1}
				q {6,12,6,31,-1} {26,13,25,31,-1} {27,12,26,33,-1} {10,12,10,33,-1}
				q {24,14,23,32,-1} {9,14,9,32,-1} {10,14,10,33,-1} {27,15,26,33,-1}
				q {19,8,18,18,-1} {23,1,22,22,-1} {20,2,19,19,-1} {16,7,16,27,-1}
				q {2,6,2,26,-1} {4,16,4,3,-1} {5,16,5,4,-1} {3,9,3,2,-1}
				q {17,19,17,25,-1} {18,18,1,17,-1} {1,17,1,1,-1} {0,17,0,24,-1}
				q {21,3,20,29,-1} {22,4,21,21,-1} {18,18,1,17,-1} {17,19,17,25,-1}
				q {14,16,14,13,-1} {15,16,15,14,-1} {11,16,11,10,-1} {10,16,10,9,-1}
				q {7,16,7,6,-1} {6,16,6,5,-1} {10,16,10,9,-1} {11,16,11,10,-1}
				q {4,16,4,3,-1} {8,16,8,7,-1} {9,16,9,8,-1} {5,16,5,4,-1}
				q {8,16,8,7,-1} {12,16,12,11,-1} {13,16,13,12,-1} {9,16,9,8,-1}
				q {10,16,10,9,-1} {9,16,9,8,-1} {13,16,13,12,-1} {14,16,14,13,-1}
			}
			CTris
			{
				numTris 2
				t {3,9,3,2,-1} {6,16,6,5,-1} {7,16,7,6,-1}
				t {3,9,3,2,-1} {5,16,5,4,-1} {6,16,6,5,-1}
			}
		}
		CSurface
		{
			material "windowsill"
			CQuads
			{
				numQuads 9
				q {29,20,28,35,-1} {28,20,27,34,-1} {31,20,27,34,-1} {30,20,28,35,-1}
				q {33,16,25,31,-1} {32,16,24,30,-1} {35,16,27,34,-1} {34,16,28,35,-1}
				q {6,21,6,31,-1} {29,22,28,35,-1} {30,21,28,35,-1} {26,21,25,31,-1}
				q {25,23,24,30,-1} {26,23,25,31,-1} {30,23,28,35,-1} {31,23,27,34,-1}
				q {31,25,27,34,-1} {28,24,27,34,-1} {5,24,5,30,-1} {25,24,24,30,-1}
				q {32,26,24,30,-1} {33,26,25,31,-1} {6,26,6,31,-1} {5,26,5,30,-1}
				q {34,22,28,35,-1} {29,22,28,35,-1} {6,22,6,31,-1} {33,27,25,31,-1}
				q {28,20,27,34,-1} {29,20,28,35,-1} {34,20,28,35,-1} {35,20,27,34,-1}
				q {5,28,5,30,-1} {28,28,27,34,-1} {35,25,27,34,-1} {32,28,24,30,-1}
			}
		}
	}
}
