{
    "keys": [
        {
            "easing": 0,
            "name": "Position",
            "time": 0,
            "type": 0,
            "value": [
                827.09381103515625,
                435.65069580078125
            ]
        },
        {
            "easing": 0,
            "name": "Position",
            "time": 1000,
            "type": 0,
            "value": [
                1067.995849609375,
                434.38278198242188
            ]
        }
    ],
    "labels": [
        {
            "name": "HalfWay",
            "time": 500
        }
    ],
    "loop": false,
    "playDirection": 0,
    "version": "1.1"
}
