-- TRACE FILE TRUNCATED --
-- START TRACE TO FILE --
tracing to: 'iwtrace.txt'
MarmaladeSDK v8.4.0 [475431] (S3E Loader v4.40.0)
Copyright (C) 2001-2014 Marmalade Technologies Ltd.
System Info:
 OS           : OSX (13)
 OS Version   : Darwin 15.5.0 (15.5)
 Device ID    : OSX (0x1)
 Device Class : WINDOWS_GENERIC (3000)
 Phone Number : 0044123456789
 Unique ID    : SIMULATOR_ID
 Device Name  : 
 Memory       : 1048576KiB
22/07/16 16:44:04.115: [0x00000fa0] DEVICE: Initialising SURFACE
22/07/16 16:44:04.115: [0xa3bc3000] SURFACE: Found 2 render drivers.
22/07/16 16:44:04.115: [0xa3bc3000] SURFACE: Driver name: opengl
22/07/16 16:44:04.115: [0xa3bc3000] SURFACE: max_texture_width: 0
22/07/16 16:44:04.115: [0xa3bc3000] SURFACE: max_texture_height: 0
22/07/16 16:44:04.115: [0xa3bc3000] SURFACE: Driver name: software
22/07/16 16:44:04.115: [0xa3bc3000] SURFACE: max_texture_width: 0
22/07/16 16:44:04.115: [0xa3bc3000] SURFACE: max_texture_height: 0
22/07/16 16:44:04.115: [0xa3bc3000] SURFACE: ConfigureSDLVideo_real 0x0 stretch 0 fullscreen 0
22/07/16 16:44:04.115: [0xa3bc3000] SURFACE: requesting window: 800x600
22/07/16 16:44:04.115: [0xa3bc3000] SURFACE: SDL_WINDOW_FULLSCREEN: 0
22/07/16 16:44:04.115: [0xa3bc3000] SURFACE: SDL_WINDOW_OPENGL: 1
22/07/16 16:44:04.115: [0xa3bc3000] SURFACE: SDL_WINDOW_SHOWN: 0
22/07/16 16:44:04.115: [0xa3bc3000] SURFACE: SDL_WINDOW_HIDDEN: 0
22/07/16 16:44:04.115: [0xa3bc3000] SURFACE: SDL_WINDOW_BORDERLESS: 0
22/07/16 16:44:04.115: [0xa3bc3000] SURFACE: SDL_WINDOW_RESIZABLE: 1
22/07/16 16:44:04.115: [0xa3bc3000] SURFACE: SDL_WINDOW_MINIMIZED: 0
22/07/16 16:44:04.116: [0xa3bc3000] SURFACE: SDL_WINDOW_MAXIMIZED: 0
22/07/16 16:44:04.116: [0xa3bc3000] SURFACE: SDL_WINDOW_INPUT_GRABBED: 0
22/07/16 16:44:04.116: [0xa3bc3000] SURFACE: SDL_WINDOW_INPUT_FOCUS: 0
22/07/16 16:44:04.116: [0xa3bc3000] SURFACE: SDL_WINDOW_MOUSE_FOCUS: 0
22/07/16 16:44:04.116: [0xa3bc3000] SURFACE: SDL_WINDOW_FULLSCREEN_DESKTOP: 0
22/07/16 16:44:04.116: [0xa3bc3000] SURFACE: SDL_WINDOW_FOREIGN: 0
22/07/16 16:44:04.116: [0xa3bc3000] SURFACE: SDL_WINDOW_ALLOW_HIGHDPI: 0
22/07/16 16:44:04.116: [0xa3bc3000] SURFACE: SDL_WINDOW_MOUSE_CAPTURE: 0
22/07/16 16:44:04.116: [0xa3bc3000] SURFACE: calling SDL_CreateWindowAndRenderer: 800x600 16 0x22
22/07/16 16:44:04.140: [0xa3bc3000] DEFAULT: 1
22/07/16 16:44:04.140: [0xa3bc3000] SURFACE: mallocd surface: 0x7be1d9c0 800x600 pitch=0
22/07/16 16:44:04.140: [0xa3bc3000] SURFACE: format = RGB565 ptr = 0x7be1d9c0, owned = 1, size = 0
22/07/16 16:44:04.140: [0x00000fa0] SURFACE: s3eSurfaceSetup: PixelType=RGB565, pitch=0, ptr=0x00000000, blit=0
22/07/16 16:44:04.140: [0x00000fa0] SURFACE: s3eSurfaceSetup: matches native type
22/07/16 16:44:04.140: [0x00000fa0] SURFACE: s3eSurfaceSetup: no user surface needed
22/07/16 16:44:04.140: [0x00000fa0] SURFACE: done s3eSurfaceInit: 800x600 p:0 (800x600 p:0) o:0
22/07/16 16:44:04.140: [0x00000fa0] DEVICE: Initialising EXT
22/07/16 16:44:04.140: [0x00000fa0] EXT: registering extension: s3eLibrary [0xe6dd6ce5]
22/07/16 16:44:04.140: [0x00000fa0] EXT: registering extension: s3eExtLoadLibaray [0xf23d6d85]
22/07/16 16:44:04.140: [0x00000fa0] EXT: registering extension: s3eWindow [0xd31aa8a8]
22/07/16 16:44:04.140: [0x00000fa0] EXT: registering extension: s3eVFS [0x17f48c9f]
22/07/16 16:44:04.140: [0x00000fa0] EXT: registering extension: s3eContacts [0x5e39d2af]
22/07/16 16:44:04.140: [0x00000fa0] EXT: registering extension: s3eCompass [0x40d632c6]
22/07/16 16:44:04.140: [0x00000fa0] EXT: registering extension: Compass [0xd3653f1b]
22/07/16 16:44:04.140: [0x00000fa0] EXT: registering extension: s3eDebugHeap [0xc667a795]
22/07/16 16:44:04.140: [0x00000fa0] EXT: registering extension: s3eExtDebugHeap [0xff96de46]
22/07/16 16:44:04.140: [0x00000fa0] EXT: registering extension: s3eClipboard [0xd68f3420]
22/07/16 16:44:04.140: [0x00000fa0] EXT: registering extension: s3eOSExec [0xc121bcf7]
22/07/16 16:44:04.140: [0x00000fa0] EXT: registering extension: s3eExtOSExec [0x20380948]
22/07/16 16:44:04.140: [0x00000fa0] EXT: registering extension: s3eEval [0x167d1038]
22/07/16 16:44:04.140: [0x00000fa0] EXT: registering extension: s3eExtEval [0xf0421449]
22/07/16 16:44:04.140: [0x00000fa0] EXT: registering extension: s3eOSReadString [0x9fe3ea45]
22/07/16 16:44:04.140: [0x00000fa0] EXT: registering extension: s3eTestEmulatorConfig [0x4a0d0a4f]
22/07/16 16:44:04.140: [0x00000fa0] EXT: registering extension: s3eThread [0xcc0b4a28]
22/07/16 16:44:04.140: [0x00000fa0] EXT: registering extension: s3eSocketOpt [0x09cdcdec]
22/07/16 16:44:04.140: [0x00000fa0] EXT: registering extension: s3eExtSocketOpt [0x42fd049d]
22/07/16 16:44:04.140: [0x00000fa0] EXT: registering extension: s3eTest [0x168503f0]
22/07/16 16:44:04.140: [0x00000fa0] EXT: registering extension: s3eMetrics [0x2bc8e047]
22/07/16 16:44:04.140: [0x00000fa0] EXT: registering extension: Metrics [0xbe57ec9c]
22/07/16 16:44:04.140: [0x00000fa0] EXT: registering extension: s3eLocation [0x91944229]
22/07/16 16:44:04.140: [0x00000fa0] EXT: registering extension: Location [0x7604d91e]
22/07/16 16:44:04.140: [0x00000fa0] EXT: registering extension: OSXDataDirChange [0x48ecb37e]
22/07/16 16:44:04.140: [0x00000fa0] DEVICE: Initialising CONFIG
22/07/16 16:44:04.140: [0x00000fa0] DEVICE: Initialising TIMER
22/07/16 16:44:04.140: [0x00000fa0] DEVICE: Initialising COMPRESSION
22/07/16 16:44:04.140: [0x00000fa0] DEVICE: DeviceInit done: services=0x0a216148
22/07/16 16:44:04.140: [0x00000fa0] EXT: s3eExtGetHash: 0xd31aa8a8 [0x00000000 size=0]
22/07/16 16:44:04.140: [0x00000fa0] EXT: initializing extension: s3eWindow
22/07/16 16:44:04.140: [0x00000fa0] EXT: initializing extension: s3eWindow 0x000bf720
22/07/16 16:44:04.140: [0x00000fa0] DEVICE: SetupPaths: NULL
22/07/16 16:44:04.140: [0x00000fa0] LOADER: ParseCommandLineData ["--via=/Users/geoffrey/_dev/mjrpoker/Client/Marmalade/MahjongPoker/build_temp/MahjongPoker_debug.via" ]
22/07/16 16:44:04.140: [0x00000fa0] LOADER: setting [commandline]  via=/Users/geoffrey/_dev/mjrpoker/Client/Marmalade/MahjongPoker/build_temp/MahjongPoker_debug.via
22/07/16 16:44:04.140: [0x00000fa0] Dynamic Tracing (re)starting
22/07/16 16:44:04.140: [0x00000fa0] LOADER: parsing via file: /Users/geoffrey/_dev/mjrpoker/Client/Marmalade/MahjongPoker/build_temp/MahjongPoker_debug.via
22/07/16 16:44:04.140: [0x00000fa0] FILE: open: /Users/geoffrey/_dev/mjrpoker/Client/Marmalade/MahjongPoker/build_temp/MahjongPoker_debug.via 0X9 0X0
22/07/16 16:44:04.140: [0x00000fa0] FILE: s3eFileOpen('/Users/geoffrey/_dev/mjrpoker/Client/Marmalade/MahjongPoker/build_temp/MahjongPoker_debug.via', 'r') succeeded, id=1783992 p=0x001b38b8
22/07/16 16:44:04.140: [0x00000fa0] LOADER: reading 1883 bytes from via files
22/07/16 16:44:04.140: [0x00000fa0] FILE: s3eFileClose h=0x001b38b8
22/07/16 16:44:04.140: [0x00000fa0] LOADER: ParseCommandLineData ["--via=/Users/geoffrey/_dev/mjrpoker/Client/Marmalade/MahjongPoker/build_temp/MahjongPoker_debug.via"  --dll="/Applications/Marmalade.app/Contents/quick/target/osx/quick_prebuilt_d.s86"
--r
22/07/16 16:44:04.140: [0x00000fa0] LOADER: setting [commandline]  via=/Users/geoffrey/_dev/mjrpoker/Client/Marmalade/MahjongPoker/build_temp/MahjongPoker_debug.via
22/07/16 16:44:04.140: [0x00000fa0] LOADER: setting [commandline]  dll=/Applications/Marmalade.app/Contents/quick/target/osx/quick_prebuilt_d.s86
22/07/16 16:44:04.140: [0x00000fa0] LOADER: setting [commandline]  release=0
22/07/16 16:44:04.140: [0x00000fa0] LOADER: setting [commandline]  sim-release=None
22/07/16 16:44:04.140: [0x00000fa0] LOADER: setting [commandline]  data=/Users/geoffrey/_dev/mjrpoker/Client/Marmalade/MahjongPoker/resources
22/07/16 16:44:04.140: [0x00000fa0] LOADER: setting [commandline]  checks3edir=1
22/07/16 16:44:04.141: [0x00000fa0] LOADER: setting [commandline]  app-icf1=/Users/geoffrey/_dev/mjrpoker/Client/Marmalade/MahjongPoker/resources/common.icf
22/07/16 16:44:04.141: [0x00000fa0] LOADER: setting [commandline]  app-icf2=/Users/geoffrey/_dev/mjrpoker/Client/Marmalade/MahjongPoker/resources/app.icf
22/07/16 16:44:04.141: [0x00000fa0] LOADER: setting [commandline]  osx-ext-dll1=/Applications/Marmalade.app/Contents/extensions/s3eWebView/lib/osx/libs3eWebView.dylib
22/07/16 16:44:04.141: [0x00000fa0] LOADER: setting [commandline]  config-txt1=/Applications/Marmalade.app/Contents/modules/iwbilling/docs/billing.config.txt
22/07/16 16:44:04.141: [0x00000fa0] LOADER: setting [commandline]  config-txt2=/Applications/Marmalade.app/Contents/modules/iwhttp/docs/iwhttp.config.txt
22/07/16 16:44:04.141: [0x00000fa0] LOADER: setting [commandline]  config-txt3=/Applications/Marmalade.app/Contents/modules/iwutil/docs/iwutil.config.txt
22/07/16 16:44:04.141: [0x00000fa0] LOADER: setting [commandline]  config-txt4=/Applications/Marmalade.app/Contents/quick/docs/app.config.txt
22/07/16 16:44:04.141: [0x00000fa0] LOADER: setting [commandline]  config-txt5=/Applications/Marmalade.app/Contents/quick/docs/billing.config.txt
22/07/16 16:44:04.141: [0x00000fa0] LOADER: setting [commandline]  config-txt6=/Applications/Marmalade.app/Contents/quick/docs/iwgeom.config.txt
22/07/16 16:44:04.141: [0x00000fa0] LOADER: setting [commandline]  config-txt7=/Applications/Marmalade.app/Contents/quick/docs/iwgl.config.txt
22/07/16 16:44:04.141: [0x00000fa0] LOADER: setting [commandline]  config-txt8=/Applications/Marmalade.app/Contents/quick/docs/iwgx.config.txt
22/07/16 16:44:04.141: [0x00000fa0] LOADER: setting [commandline]  config-txt9=/Applications/Marmalade.app/Contents/quick/docs/iwgxfont.config.txt
22/07/16 16:44:04.141: [0x00000fa0] LOADER: setting [commandline]  config-txt10=/Applications/Marmalade.app/Contents/quick/docs/iwhttp.config.txt
22/07/16 16:44:04.141: [0x00000fa0] LOADER: setting [commandline]  config-txt11=/Applications/Marmalade.app/Contents/quick/docs/iwresmanager.config.txt
22/07/16 16:44:04.141: [0x00000fa0] LOADER: setting [commandline]  config-txt12=/Applications/Marmalade.app/Contents/quick/docs/iwui.config.txt
22/07/16 16:44:04.141: [0x00000fa0] LOADER: setting [commandline]  config-txt13=/Applications/Marmalade.app/Contents/quick/docs/iwutil.config.txt
22/07/16 16:44:04.141: [0x00000fa0] LOADER: setting [commandline]  config-txt14=/Applications/Marmalade.app/Contents/quick/docs/quick.config.txt
22/07/16 16:44:04.141: [0x00000fa0] LOADER: setting [commandline]  config-txt15=/Applications/Marmalade.app/Contents/s3e/s3e.config.txt
22/07/16 16:44:04.141: [0x00000fa0] LOADER: setting [commandline]  config-txt16=/Applications/Marmalade.app/Contents/s3e/s3e.config.txt
22/07/16 16:44:04.141: [0x00000fa0] LOADER: setting [commandline]  s3e-dir=/Applications/Marmalade.app/Contents/s3e
22/07/16 16:44:04.141: [0x00000fa0] Dynamic Tracing (re)starting
22/07/16 16:44:04.141: [0x00000fa0] Dynamic Tracing (re)starting
22/07/16 16:44:04.141: [0x00000fa0] FILE: new filesystem: drive=0 type=0 ro=1 name=rom://
22/07/16 16:44:04.141: [0x00000fa0] FILE: fs[00]: system[rom://] '/Users/geoffrey/_dev/mjrpoker/Client/Marmalade/MahjongPoker/resources'
22/07/16 16:44:04.141: [0x00000fa0] FILE: fs[03]: system[raw://] ''
22/07/16 16:44:04.141: [0x00000fa0] FILE: listed 2 active filesystems
22/07/16 16:44:04.141: [0x00000fa0] FILE: new filesystem: drive=1 type=0 ro=0 name=ram://
22/07/16 16:44:04.141: [0x00000fa0] FILE: fs[00]: system[rom://] '/Users/geoffrey/_dev/mjrpoker/Client/Marmalade/MahjongPoker/resources'
22/07/16 16:44:04.141: [0x00000fa0] FILE: fs[01]: system[ram://] '/Users/geoffrey/_dev/mjrpoker/Client/Marmalade/MahjongPoker/resources-ram'
22/07/16 16:44:04.141: [0x00000fa0] FILE: fs[03]: system[raw://] ''
22/07/16 16:44:04.141: [0x00000fa0] FILE: listed 3 active filesystems
22/07/16 16:44:04.142: [0x00000fa0] FILE: new filesystem: drive=0 type=0 ro=1 name=rom://
22/07/16 16:44:04.142: [0x00000fa0] FILE: new filesystem: drive=1 type=0 ro=0 name=ram://
22/07/16 16:44:04.142: [0x00000fa0] LOADER: Using data directory /Users/geoffrey/_dev/mjrpoker/Client/Marmalade/MahjongPoker/resources as ROM drive
22/07/16 16:44:04.142: [0x00000fa0] LOADER: Using directory /Users/geoffrey/_dev/mjrpoker/Client/Marmalade/MahjongPoker/resources-ram as RAM drive
22/07/16 16:44:04.142: [0x00000fa0] FILE: open: /Applications/Marmalade.app/Contents/modules/iwbilling/docs/billing.config.txt 0X9 0X0
22/07/16 16:44:04.142: [0x00000fa0] FILE: s3eFileOpen('raw:///Applications/Marmalade.app/Contents/modules/iwbilling/docs/billing.config.txt', 'r') succeeded, id=1000 p=0x001b52e0
22/07/16 16:44:04.142: [0x00000fa0] FILE: s3eFileClose h=0x001b52e0
22/07/16 16:44:04.142: [0x00000fa0] FILE: open: /Applications/Marmalade.app/Contents/modules/iwhttp/docs/iwhttp.config.txt 0X9 0X0
22/07/16 16:44:04.142: [0x00000fa0] FILE: s3eFileOpen('raw:///Applications/Marmalade.app/Contents/modules/iwhttp/docs/iwhttp.config.txt', 'r') succeeded, id=1001 p=0x001b56fc
22/07/16 16:44:04.142: [0x00000fa0] FILE: s3eFileClose h=0x001b56fc
22/07/16 16:44:04.142: [0x00000fa0] FILE: open: /Applications/Marmalade.app/Contents/modules/iwutil/docs/iwutil.config.txt 0X9 0X0
22/07/16 16:44:04.142: [0x00000fa0] FILE: s3eFileOpen('raw:///Applications/Marmalade.app/Contents/modules/iwutil/docs/iwutil.config.txt', 'r') succeeded, id=1002 p=0x001b5b18
22/07/16 16:44:04.142: [0x00000fa0] FILE: s3eFileClose h=0x001b5b18
22/07/16 16:44:04.142: [0x00000fa0] FILE: open: /Applications/Marmalade.app/Contents/quick/docs/app.config.txt 0X9 0X0
22/07/16 16:44:04.142: [0x00000fa0] FILE: s3eFileOpen('raw:///Applications/Marmalade.app/Contents/quick/docs/app.config.txt', 'r') succeeded, id=1003 p=0x001b5f34
22/07/16 16:44:04.142: [0x00000fa0] FILE: s3eFileClose h=0x001b5f34
22/07/16 16:44:04.142: [0x00000fa0] FILE: open: /Applications/Marmalade.app/Contents/quick/docs/billing.config.txt 0X9 0X0
22/07/16 16:44:04.142: [0x00000fa0] FILE: s3eFileOpen('raw:///Applications/Marmalade.app/Contents/quick/docs/billing.config.txt', 'r') succeeded, id=1004 p=0x001b6350
22/07/16 16:44:04.143: [0x00000fa0] FILE: s3eFileClose h=0x001b6350
22/07/16 16:44:04.143: [0x00000fa0] FILE: open: /Applications/Marmalade.app/Contents/quick/docs/iwgeom.config.txt 0X9 0X0
22/07/16 16:44:04.143: [0x00000fa0] FILE: s3eFileOpen('raw:///Applications/Marmalade.app/Contents/quick/docs/iwgeom.config.txt', 'r') succeeded, id=1005 p=0x001b676c
22/07/16 16:44:04.143: [0x00000fa0] FILE: s3eFileClose h=0x001b676c
22/07/16 16:44:04.143: [0x00000fa0] FILE: open: /Applications/Marmalade.app/Contents/quick/docs/iwgl.config.txt 0X9 0X0
22/07/16 16:44:04.143: [0x00000fa0] FILE: s3eFileOpen('raw:///Applications/Marmalade.app/Contents/quick/docs/iwgl.config.txt', 'r') succeeded, id=1006 p=0x001b6b88
22/07/16 16:44:04.143: [0x00000fa0] FILE: s3eFileClose h=0x001b6b88
22/07/16 16:44:04.143: [0x00000fa0] FILE: open: /Applications/Marmalade.app/Contents/quick/docs/iwgx.config.txt 0X9 0X0
22/07/16 16:44:04.143: [0x00000fa0] FILE: s3eFileOpen('raw:///Applications/Marmalade.app/Contents/quick/docs/iwgx.config.txt', 'r') succeeded, id=1007 p=0x001b6fa4
22/07/16 16:44:04.144: [0x00000fa0] FILE: s3eFileClose h=0x001b6fa4
22/07/16 16:44:04.144: [0x00000fa0] FILE: open: /Applications/Marmalade.app/Contents/quick/docs/iwgxfont.config.txt 0X9 0X0
22/07/16 16:44:04.144: [0x00000fa0] FILE: s3eFileOpen('raw:///Applications/Marmalade.app/Contents/quick/docs/iwgxfont.config.txt', 'r') succeeded, id=1008 p=0x001b73c0
22/07/16 16:44:04.144: [0x00000fa0] FILE: s3eFileClose h=0x001b73c0
22/07/16 16:44:04.144: [0x00000fa0] FILE: open: /Applications/Marmalade.app/Contents/quick/docs/iwhttp.config.txt 0X9 0X0
22/07/16 16:44:04.144: [0x00000fa0] FILE: s3eFileOpen('raw:///Applications/Marmalade.app/Contents/quick/docs/iwhttp.config.txt', 'r') succeeded, id=1009 p=0x001b77dc
22/07/16 16:44:04.144: [0x00000fa0] FILE: s3eFileClose h=0x001b77dc
22/07/16 16:44:04.144: [0x00000fa0] FILE: open: /Applications/Marmalade.app/Contents/quick/docs/iwresmanager.config.txt 0X9 0X0
22/07/16 16:44:04.144: [0x00000fa0] FILE: s3eFileOpen('raw:///Applications/Marmalade.app/Contents/quick/docs/iwresmanager.config.txt', 'r') succeeded, id=1010 p=0x001b7bf8
22/07/16 16:44:04.144: [0x00000fa0] FILE: s3eFileClose h=0x001b7bf8
22/07/16 16:44:04.144: [0x00000fa0] FILE: open: /Applications/Marmalade.app/Contents/quick/docs/iwui.config.txt 0X9 0X0
22/07/16 16:44:04.144: [0x00000fa0] FILE: s3eFileOpen('raw:///Applications/Marmalade.app/Contents/quick/docs/iwui.config.txt', 'r') succeeded, id=1011 p=0x001b8014
22/07/16 16:44:04.144: [0x00000fa0] FILE: s3eFileClose h=0x001b8014
22/07/16 16:44:04.144: [0x00000fa0] FILE: open: /Applications/Marmalade.app/Contents/quick/docs/iwutil.config.txt 0X9 0X0
22/07/16 16:44:04.144: [0x00000fa0] FILE: s3eFileOpen('raw:///Applications/Marmalade.app/Contents/quick/docs/iwutil.config.txt', 'r') succeeded, id=1012 p=0x001b8430
22/07/16 16:44:04.144: [0x00000fa0] FILE: s3eFileClose h=0x001b8430
22/07/16 16:44:04.144: [0x00000fa0] FILE: open: /Applications/Marmalade.app/Contents/quick/docs/quick.config.txt 0X9 0X0
22/07/16 16:44:04.144: [0x00000fa0] FILE: s3eFileOpen('raw:///Applications/Marmalade.app/Contents/quick/docs/quick.config.txt', 'r') succeeded, id=1013 p=0x001b884c
22/07/16 16:44:04.144: [0x00000fa0] FILE: s3eFileClose h=0x001b884c
22/07/16 16:44:04.144: [0x00000fa0] FILE: open: /Applications/Marmalade.app/Contents/s3e/s3e.config.txt 0X9 0X0
22/07/16 16:44:04.144: [0x00000fa0] FILE: s3eFileOpen('raw:///Applications/Marmalade.app/Contents/s3e/s3e.config.txt', 'r') succeeded, id=1014 p=0x001b8c68
22/07/16 16:44:04.149: [0x00000fa0] FILE: s3eFileClose h=0x001b8c68
22/07/16 16:44:04.149: [0x00000fa0] FILE: open: /Applications/Marmalade.app/Contents/s3e/s3e.config.txt 0X9 0X0
22/07/16 16:44:04.149: [0x00000fa0] FILE: s3eFileOpen('raw:///Applications/Marmalade.app/Contents/s3e/s3e.config.txt', 'r') succeeded, id=1015 p=0x001b9084
22/07/16 16:44:04.155: [0x00000fa0] FILE: s3eFileClose h=0x001b9084
22/07/16 16:44:04.156: [0x00000fa0] FILE: open: /Applications/Marmalade.app/Contents/s3e/s3e.icf 0X9 0X0
22/07/16 16:44:04.156: [0x00000fa0] FILE: s3eFileOpen('raw:///Applications/Marmalade.app/Contents/s3e/s3e.icf', 'rb') succeeded, id=1016 p=0x001b94a0
22/07/16 16:44:04.156: [0x00000fa0] LOADER: Loading config from: /Applications/Marmalade.app/Contents/s3e/s3e.icf
22/07/16 16:44:04.156: [0x00000fa0] FILE: s3eFileClose h=0x001b94a0
22/07/16 16:44:04.156: [0x00000fa0] LOADER: Loading app-icf from command line specified location /Users/geoffrey/_dev/mjrpoker/Client/Marmalade/MahjongPoker/resources/common.icf
22/07/16 16:44:04.156: [0x00000fa0] FILE: open: /Users/geoffrey/_dev/mjrpoker/Client/Marmalade/MahjongPoker/resources/common.icf 0X9 0X0
22/07/16 16:44:04.156: [0x00000fa0] FILE: s3eFileOpen('raw:///Users/geoffrey/_dev/mjrpoker/Client/Marmalade/MahjongPoker/resources/common.icf', 'rb') succeeded, id=1017 p=0x001b98bc
22/07/16 16:44:04.156: [0x00000fa0] LOADER: Loading config from: raw:///Users/geoffrey/_dev/mjrpoker/Client/Marmalade/MahjongPoker/resources/common.icf
22/07/16 16:44:04.157: [0x00000fa0] FILE: s3eFileClose h=0x001b98bc
22/07/16 16:44:04.157: [0x00000fa0] FILE: open: /Users/geoffrey/_dev/mjrpoker/Client/Marmalade/MahjongPoker/resources/app.icf 0X9 0X0
22/07/16 16:44:04.157: [0x00000fa0] FILE: s3eFileOpen('raw:///Users/geoffrey/_dev/mjrpoker/Client/Marmalade/MahjongPoker/resources/app.icf', 'rb') succeeded, id=1018 p=0x001b9cd8
22/07/16 16:44:04.157: [0x00000fa0] LOADER: Loading config from: raw:///Users/geoffrey/_dev/mjrpoker/Client/Marmalade/MahjongPoker/resources/app.icf
22/07/16 16:44:04.157: [0x00000fa0] FILE: s3eFileClose h=0x001b9cd8
22/07/16 16:44:04.157: [0x00000fa0] LOADER: ParseCommandLineData ["--via=/Users/geoffrey/_dev/mjrpoker/Client/Marmalade/MahjongPoker/build_temp/MahjongPoker_debug.via" ]
22/07/16 16:44:04.157: [0x00000fa0] LOADER: setting [commandline]  via=/Users/geoffrey/_dev/mjrpoker/Client/Marmalade/MahjongPoker/build_temp/MahjongPoker_debug.via
22/07/16 16:44:04.157: [0x00000fa0] Dynamic Tracing (re)starting
22/07/16 16:44:04.157: [0x00000fa0] Dynamic Tracing (re)starting
22/07/16 16:44:04.157: [0x00000fa0] Dynamic Tracing (re)starting
22/07/16 16:44:04.157: [0x00000fa0] Dynamic Tracing (re)starting
MarmaladeSDK v8.4.0 [475431] (S3E Loader v4.40.0)
Copyright (C) 2001-2014 Marmalade Technologies Ltd.
System Info:
 OS           : IPHONE (14)
 OS Version   : Darwin 15.5.0 (15.5)
 Device ID    : iPhone 4/4S (0x1)
 Device Class : WINDOWS_GENERIC (3000)
 Phone Number : 0044123456789
 Unique ID    : SIMULATOR_ID
 Device Name  : 
 Memory       : 1048576KiB
22/07/16 16:44:04.183: [0x00000fa0] LIBRARY: s3eLibraryLoad '/Applications/Marmalade.app/Contents/extensions/s3eWebView/lib/osx/libs3eWebView_d.dylib' -> 0x7d1704a0
22/07/16 16:44:04.235: [0x00000fa0] GL: GLES desired version is 2
22/07/16 16:44:04.235: [0x00000fa0] GL: DLL search path: /Applications/Marmalade.app/Contents/s3e/loader/osx/dgles2
22/07/16 16:44:04.236: [0x00000fa0] LIBRARY: s3eLibraryLoad '/Applications/Marmalade.app/Contents/s3e/loader/osx/dgles2/libGLESv2.dylib' -> 0x7d022020
22/07/16 16:44:04.236: [0x00000fa0] GL: Loaded GL DLL /Applications/Marmalade.app/Contents/s3e/loader/osx/dgles2/libGLESv2.dylib
22/07/16 16:44:04.237: [0x00000fa0] LIBRARY: s3eLibraryLoad '/Applications/Marmalade.app/Contents/s3e/loader/osx/dgles2/libEGL.dylib' -> 0x7be68100
22/07/16 16:44:04.237: [0x00000fa0] GL: Loaded GL DLL /Applications/Marmalade.app/Contents/s3e/loader/osx/dgles2/libEGL.dylib
22/07/16 16:44:04.237: [0x00000fa0] GL: Using GLES 2
22/07/16 16:44:04.282: [0x00000fa0] GL: checking GLSurface...
22/07/16 16:44:04.284: [0x00000fa0] GL: s3eSurfaceRenderGLEglInit
22/07/16 16:44:04.288: [0x00000fa0] GL: s3eEglInitialize: 0x7be62ef0 -> 1 1.4
22/07/16 16:44:04.288: [0x00000fa0] GL_CORE: rejecting config 0 RGB < 565
22/07/16 16:44:04.288: [0x00000fa0] GL_CORE: rejecting config 1 RGB < 565
22/07/16 16:44:04.288: [0x00000fa0] GL_CORE: rejecting config 2: EGL_DEPTH_SIZE < 16
22/07/16 16:44:04.288: [0x00000fa0] GL_CORE: rejecting config 6: EGL_CONFIG_CAVEAT == EGL_SLOW_CONFIG
22/07/16 16:44:04.288: [0x00000fa0] GL_CORE: rejecting config 7: EGL_CONFIG_CAVEAT == EGL_SLOW_CONFIG
22/07/16 16:44:04.288: [0x00000fa0] GL_CORE: rejecting config 8: EGL_CONFIG_CAVEAT == EGL_SLOW_CONFIG
22/07/16 16:44:04.288: [0x00000fa0] GL_CORE: rejecting config 9: EGL_CONFIG_CAVEAT == EGL_SLOW_CONFIG
22/07/16 16:44:04.288: [0x00000fa0] GL_CORE: EGL: Chose EGL_CONFIG_ID 4
22/07/16 16:44:04.288: [0x00000fa0] GL: Creating OpenGL ES 2.0 context
22/07/16 16:44:04.298: [0x00000fa0] GL: eglCreateContext: 0x7d173e30
22/07/16 16:44:04.298: [0x00000fa0] GL: s3eGLGetNativeWindow_platform: main win=0x7bf10ef0
22/07/16 16:44:04.302: [0x00000fa0] GL: s3eGLGetNativeWindow_platform: 0x7d1763a0
22/07/16 16:44:04.303: [0x00000fa0] SPLASH: s3eSplashScreenManager::add > splash->show()
22/07/16 16:44:04.303: [0x00000fa0] SPLASH: displaying debug splash-screen
22/07/16 16:44:04.304: [0x00000fa0] GL: Initialising GL-based s3eSurface implementation
22/07/16 16:44:04.304: [0x00000fa0] GL: Tiles required for GL copyup: 164
22/07/16 16:44:04.304: [0x00000fa0] GL: Initialising OpenGL ES 2.0-based s3eSurface implementation
22/07/16 16:44:04.314: [0x00000fa0] GL: s3eSurfaceRenderGLInit done
22/07/16 16:44:04.352: [0x00000fa0] SPLASH: No splash screen specified
22/07/16 16:44:04.378: [0x00000fa0] SOCKET: CreateSocketFd: new socket fd 9 (PF_INET, SOCK_STREAM, IPPROTO_TCP)
22/07/16 16:44:04.378: [0x00000fa0] SOCKET: s3eSocketCreate -> p=0x001d6dd0 id=3000
22/07/16 16:44:04.378: [0x00000fa0] SOCKET: s3eInetLookup: resolving 'www.google-analytics.com' (maxIPs 1, famHint: 0)
22/07/16 16:44:04.380: [0x00000fa0] SOCKET: s3eInetLookup resolved ipv4 216.58.203.46
22/07/16 16:44:04.380: [0x00000fa0] SOCKET: s3eInetLookup_done: DNS resolved 1 addresses for 'www.google-analytics.com'
22/07/16 16:44:04.380: [0x00000fa0] SOCKET: s3eSocketConnect: 0x001d6dd0 -> 216.58.203.46:80
22/07/16 16:44:04.380: [0x00000fa0] SOCKET: TryConnect error: Operation now in progress (36)
22/07/16 16:44:04.380: [0x00000fa0] SOCKET: Connect: FAILED (0: )
22/07/16 16:44:04.381: [0x00000fa0] LIBRARY: s3eLibraryLoad '/Applications/Marmalade.app/Contents/quick/target/osx/quick_prebuilt_d.s86' -> 0x7d15ace0
22/07/16 16:44:04.387: [0x00000fa0] SOCKET: TryConnect error: Socket is already connected (56)
22/07/16 16:44:04.387: [0x00000fa0] SOCKET: NotifyConnect: 3000 0x001d6dd0
22/07/16 16:44:04.387: [0x00000fa0] SOCKET: s3eSocketClose: 0x001d6dd0 open=1
22/07/16 16:44:06.322: [0x00000fa0] VIDEO: s3eVideoPlay raw:///Applications/Marmalade.app/Contents/s3e/deploy/resources/mwm-splash-540.jpg
22/07/16 16:44:06.322: [0x00000fa0] VIDEO: data in JPG (EXIF) format
22/07/16 16:44:06.322: [0x00000fa0] VIDEO: s3eVideoPlay w=540 h=540
22/07/16 16:44:06.322: [0x00000fa0] JPEG: s3eVideoPlay_jpeglib: raw:///Applications/Marmalade.app/Contents/s3e/deploy/resources/mwm-splash-540.jpg
22/07/16 16:44:06.322: [0x00000fa0] JPEG: loading jpeg file: raw:///Applications/Marmalade.app/Contents/s3e/deploy/resources/mwm-splash-540.jpg [64646]
22/07/16 16:44:06.322: [0x00000fa0] JPEG: jpeg head was read: [540x540]
22/07/16 16:44:06.328: [0x00000fa0] JPEG: CanvasSink: canvas[540x540], pos[210x50], display[(0-540)x(0-540)]
22/07/16 16:44:06.328: [0x00000fa0] JPEG: from [540x540] to [540x540]
22/07/16 16:44:06.346: [0x00000fa0] VIDEO: s3eVideoPlay done: 0
COCOS2DX LOG: cocos2d: cocos2d-2.1beta3-x-2.1.0
22/07/16 16:44:08.323: [0xfa0] IW_GL: EGL: eglGetDisplay returned 0x7d025330
22/07/16 16:44:08.323: [0x00000fa0] GL: Terminating GL-based s3eSurface implementation
22/07/16 16:44:08.326: [0x00000fa0] GL: s3eSurfaceRenderGLTerminate done
22/07/16 16:44:08.326: [0x00000fa0] GL: s3eEglInitialize: 0x7d025330 -> 1 1.4
22/07/16 16:44:08.326: [0xfa0] IW_GL: eglInitialise succeeded - version 1.4
22/07/16 16:44:08.326: [0xfa0] IW_GL: S3E_EGL_VERSION: 0103
22/07/16 16:44:08.326: [0xfa0] IW_GL: S3E_GL_VERSION: 0200
22/07/16 16:44:08.326: [0xfa0] IW_GL: EGL_VENDOR: Nokia Corporation
22/07/16 16:44:08.326: [0xfa0] IW_GL: EGL_VERSION: 1.4 DGLES2-1.4.0
22/07/16 16:44:08.326: [0xfa0] GL_CORE: rejecting config 0 RGB < 565
22/07/16 16:44:08.326: [0xfa0] GL_CORE: rejecting config 1 RGB < 565
22/07/16 16:44:08.326: [0xfa0] GL_CORE: rejecting config 2: EGL_DEPTH_SIZE < 16
22/07/16 16:44:08.326: [0xfa0] GL_CORE: rejecting config 6: EGL_CONFIG_CAVEAT == EGL_SLOW_CONFIG
22/07/16 16:44:08.326: [0xfa0] GL_CORE: rejecting config 7: EGL_CONFIG_CAVEAT == EGL_SLOW_CONFIG
22/07/16 16:44:08.326: [0xfa0] GL_CORE: rejecting config 8: EGL_CONFIG_CAVEAT == EGL_SLOW_CONFIG
22/07/16 16:44:08.326: [0xfa0] GL_CORE: rejecting config 9: EGL_CONFIG_CAVEAT == EGL_SLOW_CONFIG
22/07/16 16:44:08.326: [0xfa0] GL_CORE: EGL: Chose EGL_CONFIG_ID 4
22/07/16 16:44:08.335: [0x00000fa0] GL: eglCreateContext: 0x7d166420
22/07/16 16:44:08.335: [0x00000fa0] GL: s3eGLGetNativeWindow_platform: main win=0x7bf10ef0
22/07/16 16:44:08.335: [0x00000fa0] GL: s3eGLGetNativeWindow_platform: 0x7d1763a0
22/07/16 16:44:08.336: [0xfa0] IW_GL: IW_GL_VERSION 200 (2:T 3:F 31:F).
22/07/16 16:44:08.336: [0xfa0] IW_GL: GL_VENDOR: Intel Inc.
22/07/16 16:44:08.336: [0xfa0] IW_GL: GL_RENDERER: Intel(R) Iris(TM) Graphics 6100
22/07/16 16:44:08.336: [0xfa0] IW_GL: GL_VERSION: 2.1 INTEL-10.14.66
22/07/16 16:44:08.336: [0xfa0] IW_GL: GL properties reported by driver:
22/07/16 16:44:08.336: [0xfa0] IW_GL:     GL_MAX_COMBINED_TEXTURE_IMAGE_UNITS: 16
22/07/16 16:44:08.336: [0xfa0] IW_GL:     GL_SHADER_COMPILER: 1
22/07/16 16:44:08.336: [0xfa0] IW_GL:     GL_MAX_VERTEX_ATTRIBS: 16
22/07/16 16:44:08.336: [0xfa0] IW_GL:     GL_MAX_VERTEX_UNIFORM_VECTORS: 4096
22/07/16 16:44:08.336: [0xfa0] IW_GL:     GL_MAX_VARYING_VECTORS: 60
22/07/16 16:44:08.336: [0xfa0] IW_GL:     GL_MAX_TEXTURE_IMAGE_UNITS: 16
22/07/16 16:44:08.336: [0xfa0] IW_GL:     GL_MAX_VERTEX_TEXTURE_IMAGE_UNITS: 16
22/07/16 16:44:08.336: [0xfa0] IW_GL:     GL_MAX_FRAGMENT_UNIFORM_VECTORS: 4096
22/07/16 16:44:08.336: [0xfa0] IW_GL:     GL_MAX_CUBE_MAP_TEXTURE_SIZE: 16384
22/07/16 16:44:08.337: [0xfa0] IW_GL:     GL_IMPLEMENTATION_COLOR_READ_FORMAT: GL_RGBA
22/07/16 16:44:08.337: [0xfa0] IW_GL:     GL_IMPLEMENTATION_COLOR_READ_TYPE: GL_UNSIGNED_BYTE
22/07/16 16:44:08.337: [0xfa0] IW_GL:     GL_MAX_RENDERBUFFER_SIZE: 16384
22/07/16 16:44:08.337: [0xfa0] IW_GL:     GL_POINT_SIZE_MAX: 256
22/07/16 16:44:08.337: [0xfa0] IW_GL:     GL_MAX_TEXTURE_SIZE: 16384
22/07/16 16:44:08.337: [0xfa0] IW_GL:     GL_MAX_VIEWPORT_DIMS: (16384, 16384)
22/07/16 16:44:08.337: [0xfa0] IW_GL: Supported GL_EXTENSIONS:
22/07/16 16:44:08.337: [0xfa0] IW_GL:     GL_OES_packed_depth_stencil
22/07/16 16:44:08.337: [0xfa0] IW_GL:     GL_EXT_texture_compression_s3tc
22/07/16 16:44:08.337: [0xfa0] IW_GL:     GL_ARB_texture_env_combine
22/07/16 16:44:08.360: [0xfa0] QUICK_VERBOSE: luac:// is mapped to rom://
COCOS2DX LOG: cocos2d: GL_VENDOR:     Intel Inc.
COCOS2DX LOG: cocos2d: GL_RENDERER:   Intel(R) Iris(TM) Graphics 6100
COCOS2DX LOG: cocos2d: GL_VERSION:    2.1 INTEL-10.14.66
COCOS2DX LOG: cocos2d: GL_MAX_TEXTURE_SIZE: 16384
COCOS2DX LOG: cocos2d: GL_MAX_TEXTURE_UNITS: 16
COCOS2DX LOG: cocos2d: GL supports PVRTC: NO
COCOS2DX LOG: cocos2d: GL supports BGRA8888 textures: NO
COCOS2DX LOG: cocos2d: GL supports NPOT textures: YES
COCOS2DX LOG: cocos2d: GL supports discard_framebuffer: NO
COCOS2DX LOG: cocos2d: GL supports shareable VAO: NO
COCOS2DX LOG: cocos2d: compiled with Profiling Support: NO
ERROR:  in 0x000bfc50 - Configuration setting [trace] [WINDOW_VERBOSE] not found
ERROR:  in 0x000bfc50 - Configuration setting [trace] [WINDOW_VERBOSE] not found
QUICKCPP LOG: Loading app...
Creating default font
COCOS2DX LOG: cocos2d: padding: 1,1,1,1
COCOS2DX LOG: cocos2d: CCTextureCache: texture: textures/bkg.jpg
COCOS2DX LOG: cocos2d: CCTextureCache: texture: textures/gem1.png
COCOS2DX LOG: cocos2d: CCTextureCache: texture: fonts/Default_0.png
COCOS2DX LOG: cocos2d: CCTextureCache: texture: textures/pause_icon.png
COCOS2DX LOG: cocos2d: CCTextureCache: texture: textures/menu_bkg.jpg
COCOS2DX LOG: cocos2d: CCTextureCache: texture: textures/button_bg.png
COCOS2DX LOG: cocos2d: CCTextureCache: texture: images/loadpage.jpg
COCOS2DX LOG: cocos2d: CCTextureCache: texture: images/loading.png
COCOS2DX LOG: cocos2d: CCTextureCache: texture: textures/bkg.jpg
COCOS2DX LOG: cocos2d: CCTextureCache: texture: textures/gem1.png
COCOS2DX LOG: cocos2d: CCTextureCache: texture: fonts/Default_0.png
COCOS2DX LOG: cocos2d: CCTextureCache: texture: textures/pause_icon.png
COCOS2DX LOG: cocos2d: CCTextureCache: texture: textures/menu_bkg.jpg
COCOS2DX LOG: cocos2d: CCTextureCache: texture: textures/button_bg.png
COCOS2DX LOG: cocos2d: CCTextureCache: texture: images/loadpage.jpg
COCOS2DX LOG: cocos2d: CCTextureCache: texture: images/loading.png
COCOS2DX LOG: cocos2d: CCTextureCache: texture: textures/bkg.jpg
COCOS2DX LOG: cocos2d: CCTextureCache: texture: textures/gem1.png
COCOS2DX LOG: cocos2d: CCTextureCache: texture: fonts/Default_0.png
COCOS2DX LOG: cocos2d: CCTextureCache: texture: textures/pause_icon.png
COCOS2DX LOG: cocos2d: CCTextureCache: texture: textures/menu_bkg.jpg
COCOS2DX LOG: cocos2d: CCTextureCache: texture: textures/button_bg.png
COCOS2DX LOG: cocos2d: CCTextureCache: texture: images/loadpage.jpg
COCOS2DX LOG: cocos2d: CCTextureCache: texture: images/loading.png
22/07/16 16:45:13.445: [0xfa0] IW_GL: Leaked Program with handle 2
22/07/16 16:45:13.445: [0xfa0] IW_GL: Leaked Program with handle 5
22/07/16 16:45:13.445: [0xfa0] IW_GL: Leaked Texture with handle 1
22/07/16 16:45:13.446: [0xfa0] IW_GL: Leaked Texture with handle 2
22/07/16 16:45:13.446: [0xfa0] IW_GL: Leaked Texture with handle 3
22/07/16 16:45:13.446: [0xfa0] IW_GL: Leaked Texture with handle 4
22/07/16 16:45:13.446: [0xfa0] IW_GL: Leaked Texture with handle 5
22/07/16 16:45:13.446: [0xfa0] IW_GL: Leaked Texture with handle 6
22/07/16 16:45:13.447: [0xfa0] IW_GL: Leaked Texture with handle 7
22/07/16 16:45:13.447: [0xfa0] IW_GL: Leaked Texture with handle 8
22/07/16 16:45:13.447: [0xfa0] IW_GL: Leaked VBO with handle 1
22/07/16 16:45:13.447: [0xfa0] IW_GL: Leaked VBO with handle 2
22/07/16 16:45:13.447: [0xfa0] IW_GL: Leaked VBO with handle 3
22/07/16 16:45:13.447: [0xfa0] IW_GL: Leaked VBO with handle 4
22/07/16 16:45:13.447: [0xfa0] IW_GL: Leaked VBO with handle 5
22/07/16 16:45:13.447: [0xfa0] IW_GL: Leaked VBO with handle 6
22/07/16 16:45:13.447: [0xfa0] IW_GL: Terminating EGL...
22/07/16 16:45:13.447: [0xfa0] IW_GL: Terminating EGL... Done
COCOS2DX LOG: cocos2d: deallocing CCDirector 0x7eea3a8
COCOS2DX LOG: cocos2d: cocos2d-2.1beta3-x-2.1.0
COCOS2DX LOG: cocos2d: deallocing CCDirector 0x7eea3a8
-- END TRACE --
