{
    "elements": [
        {
            "ConsumeTouch": 0,
            "Name": "Scene",
            "Size": [
                1024,
                768
            ],
            "TemplateName": "",
            "id": "{b77c9d24-9e85-4733-ae9b-f908a998d1bb}",
            "typeName": "RootNode"
        },
        {
            "AnchoringType": "None",
            "AnchoringUnits": "Percents",
            "AnchoringVector": [
                -150,
                -150
            ],
            "Animation": -1,
            "Color": [
                255,
                255,
                255,
                255
            ],
            "ConsumeTouch": 1,
            "Name": "Background",
            "Pivot": [
                0.5,
                0.5
            ],
            "Position": [
                512,
                384
            ],
            "Rotation": 0,
            "Scale": [
                1,
                1
            ],
            "Size": [
                1024,
                768
            ],
            "SizeAnchoringType": "None",
            "TemplateName": "",
            "TextureId": 11,
            "Visible": true,
            "ZIndex": 0,
            "id": "{0ca07caa-934d-43f7-9d84-53713f76d318}",
            "parentID": "{b77c9d24-9e85-4733-ae9b-f908a998d1bb}",
            "typeName": "Sprite"
        },
        {
            "AnchoringType": "None",
            "AnchoringUnits": "Pixels",
            "AnchoringVector": [
                -1532.48046875,
                -1158.70751953125
            ],
            "Animation": -1,
            "Color": [
                255,
                255,
                255,
                255
            ],
            "ConsumeTouch": 1,
            "Name": "behaviour_bgpanel_1",
            "Pivot": [
                0.5,
                0.5
            ],
            "Position": [
                508.48046875,
                390.70755004882812
            ],
            "Rotation": 0,
            "Scale": [
                1,
                1
            ],
            "Size": [
                833,
                553
            ],
            "SizeAnchoringType": "None",
            "TemplateName": "",
            "TextureId": 10,
            "Visible": true,
            "ZIndex": 0,
            "id": "{750aed65-589c-4f52-8376-90ec279a7f0f}",
            "parentID": "{b77c9d24-9e85-4733-ae9b-f908a998d1bb}",
            "typeName": "Sprite"
        },
        {
            "AnchoringType": "None",
            "AnchoringUnits": "Percents",
            "AnchoringVector": [
                -152.30989074707031,
                -142.79603576660156
            ],
            "Animation": -1,
            "Background": 14,
            "Color": [
                255,
                255,
                255,
                255
            ],
            "ConsumeTouch": 0,
            "Enabled": true,
            "Name": "Slider",
            "NubDisabled": 2,
            "NubNormal": 15,
            "NubPressed": 16,
            "Pivot": [
                0.5,
                0.5
            ],
            "Position": [
                535.65325927734375,
                328.67352294921875
            ],
            "ProgressBar": 17,
            "Rotation": 0,
            "Scale": [
                1,
                1
            ],
            "Size": [
                238,
                17
            ],
            "SizeAnchoringType": "None",
            "TemplateName": "",
            "Value": 0,
            "Visible": true,
            "ZIndex": 0,
            "id": "{9f3a4417-2c39-40f5-9fb5-e04bc18c9bb0}",
            "parentID": "{b77c9d24-9e85-4733-ae9b-f908a998d1bb}",
            "typeName": "Slider"
        },
        {
            "Alignment": "Centre",
            "AnchoringType": "None",
            "AnchoringUnits": "Percents",
            "AnchoringVector": [
                -143.02629089355469,
                344.73483276367188
            ],
            "Animation": -1,
            "Color": [
                255,
                255,
                255,
                255
            ],
            "ConsumeTouch": 1,
            "FontColor": [
                85,
                170,
                255,
                255
            ],
            "FontId": 1,
            "FontSize": 30,
            "Name": "Label",
            "Pivot": [
                0.5,
                0.5
            ],
            "Position": [
                102.402587890625,
                -75.60491943359375
            ],
            "Rotation": 0,
            "Scale": [
                1,
                1
            ],
            "Size": [
                512,
                64
            ],
            "SizeAnchoringType": "None",
            "TemplateName": "",
            "Text": "Slider value: 0.0",
            "Visible": true,
            "ZIndex": 0,
            "id": "{89d22b2a-a06d-464b-ac39-a55445f9de81}",
            "parentID": "{9f3a4417-2c39-40f5-9fb5-e04bc18c9bb0}",
            "typeName": "Label"
        },
        {
            "AnchoringType": "None",
            "AnchoringUnits": "Pixels",
            "AnchoringVector": [
                -1552.302490234375,
                -1282.1640625
            ],
            "Animation": -1,
            "Checked": true,
            "Checked Disabled Skin": -1,
            "Checked Mouse Over Skin": -1,
            "Checked Skin": 13,
            "Color": [
                255,
                255,
                255,
                255
            ],
            "ConsumeTouch": 0,
            "Enabled": true,
            "Name": "Checkbox",
            "Pivot": [
                0.5,
                0.5
            ],
            "Position": [
                528.30242919921875,
                514.16412353515625
            ],
            "Rotation": 0,
            "Scale": [
                1,
                1
            ],
            "Size": [
                272,
                106
            ],
            "SizeAnchoringType": "None",
            "TemplateName": "",
            "TextureId": -1,
            "Unchecked Disabled Skin": -1,
            "Unchecked Mouse Over Skin": -1,
            "Unchecked Skin": 12,
            "Visible": true,
            "ZIndex": 0,
            "id": "{11d45f18-c39b-4e4d-a741-a2697da9c0fa}",
            "parentID": "{b77c9d24-9e85-4733-ae9b-f908a998d1bb}",
            "typeName": "CheckBox"
        },
        {
            "Alignment": "Centre",
            "AnchoringType": "None",
            "AnchoringUnits": "Percents",
            "AnchoringVector": [
                -149.37689208984375,
                -139.80528259277344
            ],
            "Animation": -1,
            "Color": [
                255,
                255,
                255,
                255
            ],
            "ConsumeTouch": 1,
            "FontColor": [
                85,
                170,
                255,
                255
            ],
            "FontId": 1,
            "FontSize": 24,
            "Name": "Label",
            "Pivot": [
                0.5,
                0.5
            ],
            "Position": [
                134.30517578125,
                42.193603515625
            ],
            "Rotation": 0,
            "Scale": [
                1,
                1
            ],
            "Size": [
                256,
                64
            ],
            "SizeAnchoringType": "None",
            "TemplateName": "",
            "Text": "Disable slider",
            "Visible": true,
            "ZIndex": 0,
            "id": "{55cd4899-ce63-4392-a2e0-1cdb9020e2d9}",
            "parentID": "{11d45f18-c39b-4e4d-a741-a2697da9c0fa}",
            "typeName": "Label"
        }
    ],
    "orientation": 0
}
