{
    "name": "Scene",
    "nodes": [
        {
            "id": "{48649c83-5bbb-4fea-9630-e188b2707fa4}",
            "properties": {
                "ConsumeTouch": 2,
                "Name": "Scene",
                "Size": [
                    1334,
                    750
                ],
                "TemplateName": ""
            },
            "timeStamp": 1449242290177,
            "typeName": "RootNode",
            "user_properties": {
            }
        },
        {
            "id": "{6b09346e-4fb4-4de3-9352-35039f20bd1f}",
            "parentID": "{48649c83-5bbb-4fea-9630-e188b2707fa4}",
            "properties": {
                "AnchoringType": 0,
                "AnchoringUnits": 0,
                "AnchoringVector": [
                    -124.59613037109375,
                    -178.75827026367188
                ],
                "Animation": 1,
                "Color": [
                    255,
                    255,
                    255,
                    255
                ],
                "ConsumeTouch": 1,
                "EditorLock": false,
                "EditorVisible": true,
                "InternalSizeAnchoringBaseSize": [
                    90,
                    90
                ],
                "InternalSizeAnchoringCachedParentSize": [
                    1334,
                    750
                ],
                "InternalSizeAnchoringCoeff": [
                    1,
                    1
                ],
                "Name": "eye_1_1",
                "Pivot": [
                    0.50000137090682983,
                    0.5
                ],
                "Position": [
                    329.31906127929688,
                    589.480224609375
                ],
                "Rotation": 0,
                "Scale": [
                    1,
                    1
                ],
                "Size": [
                    90,
                    90
                ],
                "SizeAnchoringType": 0,
                "TemplateName": "",
                "TextureId": 3,
                "Visible": true,
                "ZIndex": 0
            },
            "timeStamp": 1449242654360,
            "typeName": "Sprite",
            "user_properties": {
            }
        },
        {
            "id": "{5ef19d55-0426-4560-81b6-56d5c01a42e1}",
            "parentID": "{48649c83-5bbb-4fea-9630-e188b2707fa4}",
            "properties": {
                "AnchoringType": 0,
                "AnchoringUnits": 0,
                "AnchoringVector": [
                    -131.10678100585938,
                    -125.06203460693359
                ],
                "Animation": 5,
                "Color": [
                    255,
                    255,
                    255,
                    255
                ],
                "ConsumeTouch": 1,
                "EditorLock": false,
                "EditorVisible": true,
                "InternalSizeAnchoringBaseSize": [
                    90,
                    90
                ],
                "InternalSizeAnchoringCachedParentSize": [
                    1334,
                    750
                ],
                "InternalSizeAnchoringCoeff": [
                    1,
                    1
                ],
                "Name": "eye_2_1",
                "Pivot": [
                    0.5,
                    0.5
                ],
                "Position": [
                    414.96438598632812,
                    187.96522521972656
                ],
                "Rotation": 0,
                "Scale": [
                    1,
                    1
                ],
                "Size": [
                    90,
                    90
                ],
                "SizeAnchoringType": 0,
                "TemplateName": "",
                "TextureId": 4,
                "Visible": true,
                "ZIndex": 0
            },
            "timeStamp": 1449762356681,
            "typeName": "Sprite",
            "user_properties": {
            }
        },
        {
            "id": "{25de6979-ea22-4287-a24c-cb0804394913}",
            "parentID": "{48649c83-5bbb-4fea-9630-e188b2707fa4}",
            "properties": {
                "AnchoringType": 0,
                "AnchoringUnits": 0,
                "AnchoringVector": [
                    -162.64872741699219,
                    -173.73037719726562
                ],
                "Animation": 6,
                "Color": [
                    255,
                    255,
                    255,
                    255
                ],
                "ConsumeTouch": 1,
                "EditorLock": false,
                "EditorVisible": true,
                "InternalSizeAnchoringBaseSize": [
                    90,
                    90
                ],
                "InternalSizeAnchoringCachedParentSize": [
                    1334,
                    750
                ],
                "InternalSizeAnchoringCoeff": [
                    1,
                    1
                ],
                "Name": "eye_2_2",
                "Pivot": [
                    0.5,
                    0.5
                ],
                "Position": [
                    835.734130859375,
                    552.97772216796875
                ],
                "Rotation": 0,
                "Scale": [
                    1,
                    1
                ],
                "Size": [
                    90,
                    90
                ],
                "SizeAnchoringType": 0,
                "TemplateName": "",
                "TextureId": 4,
                "Visible": true,
                "ZIndex": 0
            },
            "timeStamp": 1450261783040,
            "typeName": "Sprite",
            "user_properties": {
            }
        },
        {
            "id": "{720366a8-54e8-4eaf-b324-b3e3152b147a}",
            "parentID": "{48649c83-5bbb-4fea-9630-e188b2707fa4}",
            "properties": {
                "AnchoringType": 0,
                "AnchoringUnits": 0,
                "AnchoringVector": [
                    -153.21446228027344,
                    -119.62281036376953
                ],
                "Animation": 7,
                "Color": [
                    255,
                    255,
                    255,
                    255
                ],
                "ConsumeTouch": 1,
                "EditorLock": false,
                "EditorVisible": true,
                "InternalSizeAnchoringBaseSize": [
                    90,
                    90
                ],
                "InternalSizeAnchoringCachedParentSize": [
                    1334,
                    750
                ],
                "InternalSizeAnchoringCoeff": [
                    1,
                    1
                ],
                "Name": "eye_2_3",
                "Pivot": [
                    0.5,
                    0.5
                ],
                "Position": [
                    709.8809814453125,
                    147.17109680175781
                ],
                "Rotation": 0,
                "Scale": [
                    1,
                    1
                ],
                "Size": [
                    90,
                    90
                ],
                "SizeAnchoringType": 0,
                "TemplateName": "",
                "TextureId": 4,
                "Visible": true,
                "ZIndex": 0
            },
            "timeStamp": 1450268343174,
            "typeName": "Sprite",
            "user_properties": {
            }
        },
        {
            "id": "{cfb3c11a-bdc9-422b-8292-556f35cf1fab}",
            "parentID": "{720366a8-54e8-4eaf-b324-b3e3152b147a}",
            "properties": {
                "AnchoringType": 0,
                "AnchoringUnits": 0,
                "AnchoringVector": [
                    -254.92146301269531,
                    -149.98126220703125
                ],
                "Animation": -1,
                "Color": [
                    255,
                    255,
                    255,
                    255
                ],
                "ConsumeTouch": 1,
                "EditorLock": false,
                "EditorVisible": true,
                "InternalSizeAnchoringBaseSize": [
                    90,
                    90
                ],
                "InternalSizeAnchoringCachedParentSize": [
                    90,
                    90
                ],
                "InternalSizeAnchoringCoeff": [
                    1,
                    1
                ],
                "Name": "eye_2_4",
                "Pivot": [
                    0.5,
                    0.5
                ],
                "Position": [
                    139.4293212890625,
                    44.983139038085938
                ],
                "Rotation": 0,
                "Scale": [
                    1,
                    1
                ],
                "Size": [
                    90,
                    90
                ],
                "SizeAnchoringType": 0,
                "TemplateName": "",
                "TextureId": 4,
                "Visible": true,
                "ZIndex": 0
            },
            "timeStamp": 1450268345829,
            "typeName": "Sprite",
            "user_properties": {
            }
        },
        {
            "id": "{dd9e25f3-20ec-4d63-9fd5-5b9616d7bf7b}",
            "parentID": "{cfb3c11a-bdc9-422b-8292-556f35cf1fab}",
            "properties": {
                "AnchoringType": 0,
                "AnchoringUnits": 0,
                "AnchoringVector": [
                    -361.90206909179688,
                    -152.84432983398438
                ],
                "Animation": -1,
                "Color": [
                    255,
                    255,
                    255,
                    255
                ],
                "ConsumeTouch": 1,
                "EditorLock": false,
                "EditorVisible": true,
                "InternalSizeAnchoringBaseSize": [
                    90,
                    90
                ],
                "InternalSizeAnchoringCachedParentSize": [
                    90,
                    90
                ],
                "InternalSizeAnchoringCoeff": [
                    1,
                    1
                ],
                "Name": "eye_2_5",
                "Pivot": [
                    0.5,
                    0.5
                ],
                "Position": [
                    235.71185302734375,
                    47.559890747070312
                ],
                "Rotation": 0,
                "Scale": [
                    1,
                    1
                ],
                "Size": [
                    90,
                    90
                ],
                "SizeAnchoringType": 0,
                "TemplateName": "",
                "TextureId": 4,
                "Visible": true,
                "ZIndex": 0
            },
            "timeStamp": 1450268347957,
            "typeName": "Sprite",
            "user_properties": {
            }
        },
        {
            "id": "{6c59ce7e-5d6c-4ce9-a34f-bbc191336ac6}",
            "parentID": "{48649c83-5bbb-4fea-9630-e188b2707fa4}",
            "properties": {
                "AnchoringType": 0,
                "AnchoringUnits": 0,
                "AnchoringVector": [
                    -171.03036499023438,
                    -158.00222778320312
                ],
                "Animation": 8,
                "Color": [
                    255,
                    255,
                    255,
                    255
                ],
                "ConsumeTouch": 1,
                "DisabledResourceID": -1,
                "EditorLock": false,
                "EditorVisible": true,
                "Enabled": true,
                "InternalSizeAnchoringBaseSize": [
                    90,
                    90
                ],
                "InternalSizeAnchoringCachedParentSize": [
                    1334,
                    750
                ],
                "InternalSizeAnchoringCoeff": [
                    1,
                    1
                ],
                "Name": "Button_1",
                "NormalResourceID": 9,
                "OverResourceID": -1,
                "Pivot": [
                    0.5,
                    0.5
                ],
                "Position": [
                    947.5447998046875,
                    435.0167236328125
                ],
                "PressedResourceID": -1,
                "Rotation": 0,
                "Scale": [
                    1,
                    1
                ],
                "Size": [
                    90,
                    90
                ],
                "SizeAnchoringType": 0,
                "TemplateName": "",
                "TextureId": 3,
                "Visible": true,
                "ZIndex": 0
            },
            "timeStamp": 1452781770864,
            "typeName": "Button",
            "user_properties": {
            }
        }
    ],
    "orientation": 0,
    "version": "1.0"
}
