{
    "keys": [
        {
            "easing": 0,
            "name": "Scale",
            "time": 0,
            "type": 0,
            "value": [
                1,
                1
            ]
        },
        {
            "easing": 0,
            "name": "Scale",
            "time": 200,
            "type": 0,
            "value": [
                1.2000000476837158,
                1.2000000476837158
            ]
        },
        {
            "easing": 0,
            "name": "Scale",
            "time": 400,
            "type": 0,
            "value": [
                1,
                1
            ]
        },
        {
            "easing": 0,
            "name": "TextureId",
            "time": 200,
            "type": 0,
            "value": 17
        },
        {
            "easing": 0,
            "name": "TextureId",
            "time": 0,
            "type": 0,
            "value": 16
        },
        {
            "easing": 0,
            "name": "TextureId",
            "time": 400,
            "type": 0,
            "value": 16
        }
    ],
    "loop": true,
    "playDirection": 0,
    "version": "1.1"
}
