[
    {
        "easing": 0,
        "name": "Rotation",
        "time": 0,
        "type": 0,
        "value": -1.5671364068984985
    },
    {
        "easing": 0,
        "name": "Rotation",
        "time": 1000,
        "type": 0,
        "value": -336.82550048828125
    }
]
