{
    "keys": [
        {
            "easing": 0,
            "name": "Progress",
            "time": 0,
            "type": 0,
            "value": 0
        },
        {
            "easing": 0,
            "name": "Progress",
            "time": 1000,
            "type": 0,
            "value": 100
        }
    ],
    "loop": true,
    "playDirection": 0,
    "version": "1.1"
}
