{
    "keys": [
        {
            "easing": 0,
            "name": "Rotation",
            "time": 0,
            "type": 0,
            "value": 0
        },
        {
            "easing": 0,
            "name": "Rotation",
            "time": 1000,
            "type": 0,
            "value": -25
        },
        {
            "easing": 0,
            "name": "TextureId",
            "time": 0,
            "type": 0,
            "value": 5
        },
        {
            "easing": 0,
            "name": "TextureId",
            "time": 500,
            "type": 0,
            "value": 6
        },
        {
            "easing": 0,
            "name": "TextureId",
            "time": 1000,
            "type": 0,
            "value": 5
        }
    ],
    "loop": true,
    "playDirection": 0,
    "version": "1.1"
}
