{
    "keys": [
        {
            "easing": 0,
            "name": "Scale",
            "time": 0,
            "type": 0,
            "value": [
                1,
                1
            ]
        },
        {
            "easing": 0,
            "name": "Scale",
            "time": 500,
            "type": 0,
            "value": [
                1.1000000238418579,
                1.1000000238418579
            ]
        },
        {
            "easing": 0,
            "name": "Scale",
            "time": 1000,
            "type": 0,
            "value": [
                1,
                1
            ]
        },
        {
            "easing": 0,
            "name": "TextureId",
            "time": 0,
            "type": 0,
            "value": 7
        },
        {
            "easing": 0,
            "name": "TextureId",
            "time": 500,
            "type": 0,
            "value": 8
        },
        {
            "easing": 0,
            "name": "TextureId",
            "time": 1000,
            "type": 0,
            "value": 7
        }
    ],
    "loop": true,
    "playDirection": 0,
    "version": "1.1"
}
