// Source file: C:/dev/generalWork/singleBoneAnimExample/singleBoneAnimExample_A.mb
CIwModel
{
	name "tower"
	CMesh
	{
		name "tower"
		scale 4
		CVerts
		{
			numVerts 71
			v {-1600,-0.00000,1600}
			v {4120.27393,-0.00000,4120.27393}
			v {2000,-0.00000,1600}
			v {-1600,0.00000,-2000}
			v {-1600,400,1600}
			v {1999.99976,400,1600}
			v {-1200,400,1200}
			v {2000,400,1200}
			v {-1200,400,-2000}
			v {2000,800,800}
			v {-1200,800,1200}
			v {1999.99976,800,1200}
			v {-800,800,800}
			v {-800,800,-2000}
			v {-800,1200,800}
			v {1999.99976,1200,800}
			v {-400,1200,400}
			v {2000,1200,400}
			v {-400,1200,-2000}
			v {-400,1600,400}
			v {1999.99988,1600,400.00003}
			v {-0.00000,1600,0.00000}
			v {2000,1600,0}
			v {0,1600,-2000}
			v {0.00000,2000,-0.00000}
			v {1999.99988,2000,0.00001}
			v {400,2000,-400}
			v {2000,2000,-400}
			v {400,2000,-2000}
			v {400,2400,-400}
			v {1999.99988,2400,-400}
			v {800,2400,-800}
			v {2000,2400,-800}
			v {800,2400,-2000}
			v {800,2800,-800}
			v {2000.00024,2800,-800}
			v {1200,2800,-1200}
			v {2000.00012,2800,-1200.00012}
			v {1200.00012,2800,-1999.99988}
			v {1200,3200,-1200}
			v {2000.00012,3200,-1199.99976}
			v {1600,3200,-1600}
			v {2000.00049,3200,-1600}
			v {1600.00024,3200,-2000.00012}
			v {2000.00073,3600,-2000.00073}
			v {1600,3600,-1600}
			v {2000.00073,3600,-1600}
			v {1600.00024,3600,-2000.00012}
			v {-4120.27393,-0.00000,4120.27393}
			v {4120.27441,1199.99976,4120.27393}
			v {1999.99939,1199.99988,1599.99988}
			v {1999.99939,2000,799.99988}
			v {1999.99976,2999.99976,-199.99997}
			v {2000.00024,3599.99976,-799.99988}
			v {-4120.27393,-0.00000,-4120.27393}
			v {-1600,400,-1999.99976}
			v {-1200,800,-1999.99976}
			v {-800,1200,-1999.99976}
			v {-400,1600,-1999.99988}
			v {0,2000,-1999.99988}
			v {400,2400,-1999.99988}
			v {800,2800,-2000.00024}
			v {1199.99976,3200,-2000.00012}
			v {-4120.27441,1199.99976,-4120.27393}
			v {-1600,1199.99988,-1999.99951}
			v {-800,2000,-1999.99951}
			v {200,2999.99976,-1999.99976}
			v {799.99988,3599.99976,-2000.00024}
			v {2000.00073,4050.82520,-2000.00073}
			v {2000.00024,4050.82495,-799.99988}
			v {799.99988,4050.82495,-2000.00024}
		}
		CVertNorms
		{
			numVertNorms 5
			vn {0,1,0.00000}
			vn {-0.00000,0,1}
			vn {-0.76522,0.00000,0.64377}
			vn {-1,-0.00000,-0.00000}
			vn {-0.64377,-0.00000,0.76522}
		}
		CVertCols
		{
			numVertCols 2
			col {0.30500,0.30500,0.30500,1}
			col {0.78010,0.78010,0.78010,1}
		}
		CUVs
		{
			setID 0
			numUVs 29
			uv {0.20000,0.80000}
			uv {0.10000,0.90000}
			uv {0.30000,0.70000}
			uv {0.40000,0.60000}
			uv {0.50000,0.50000}
			uv {0.60000,0.40000}
			uv {0.70000,0.30000}
			uv {0.80000,0.20000}
			uv {0.90000,0.10000}
			uv {0.90000,0}
			uv {1,0.10000}
			uv {1,0}
			uv {0.05000,0.82500}
			uv {0.77500,0.85000}
			uv {0.77500,0.90000}
			uv {0.80000,0.78750}
			uv {0.80000,0.80000}
			uv {0.82500,0.70000}
			uv {0.85000,0.60000}
			uv {0.87500,0.50000}
			uv {0.90000,0.40000}
			uv {0.92500,0.30000}
			uv {0.95000,0.20000}
			uv {0.75000,1}
			uv {1,1}
			uv {0,1}
			uv {0,0}
			uv {0,0.50000}
			uv {0.50000,0}
		}
		CSurface
		{
			material "lambert3"
			CQuads
			{
				numQuads 39
				q {44,0,11,-1,0} {46,0,10,-1,1} {45,0,8,-1,1} {47,0,9,-1,1}
				q {5,1,14,-1,1} {2,1,13,-1,0} {0,1,12,-1,0} {4,1,1,-1,1}
				q {11,1,16,-1,1} {7,1,15,-1,0} {6,1,0,-1,0} {10,1,0,-1,1}
				q {15,1,17,-1,1} {9,1,17,-1,0} {12,1,2,-1,0} {14,1,2,-1,1}
				q {20,1,18,-1,1} {17,1,18,-1,0} {16,1,3,-1,0} {19,1,3,-1,1}
				q {25,1,19,-1,1} {22,1,19,-1,0} {21,1,4,-1,0} {24,1,4,-1,1}
				q {30,1,20,-1,1} {27,1,20,-1,0} {26,1,5,-1,0} {29,1,5,-1,1}
				q {35,1,21,-1,1} {32,1,21,-1,0} {31,1,6,-1,0} {34,1,6,-1,1}
				q {40,1,22,-1,1} {37,1,22,-1,0} {36,1,7,-1,0} {39,1,7,-1,1}
				q {46,1,10,-1,1} {42,1,10,-1,0} {41,1,8,-1,0} {45,1,8,-1,1}
				q {0,0,24,-1,0} {2,0,13,-1,0} {1,0,23,-1,0} {48,0,11,-1,1}
				q {6,0,0,-1,0} {7,0,15,-1,0} {5,0,14,-1,1} {4,0,1,-1,1}
				q {12,0,2,-1,0} {9,0,17,-1,0} {11,0,16,-1,1} {10,0,0,-1,1}
				q {16,0,3,-1,0} {17,0,18,-1,0} {15,0,17,-1,1} {14,0,2,-1,1}
				q {21,0,4,-1,0} {22,0,19,-1,0} {20,0,18,-1,1} {19,0,3,-1,1}
				q {26,0,5,-1,0} {27,0,20,-1,0} {25,0,19,-1,1} {24,0,4,-1,1}
				q {31,0,6,-1,0} {32,0,21,-1,0} {30,0,20,-1,1} {29,0,5,-1,1}
				q {36,0,7,-1,0} {37,0,22,-1,0} {35,0,21,-1,1} {34,0,6,-1,1}
				q {41,0,8,-1,0} {42,0,10,-1,0} {40,0,22,-1,1} {39,0,7,-1,1}
				q {5,2,24,-1,1} {49,2,11,-1,1} {1,2,26,-1,0} {2,2,25,-1,0}
				q {0,3,12,-1,0} {3,3,13,-1,0} {55,3,14,-1,1} {4,3,1,-1,1}
				q {6,3,0,-1,0} {8,3,15,-1,0} {56,3,16,-1,1} {10,3,0,-1,1}
				q {12,3,2,-1,0} {13,3,17,-1,0} {57,3,17,-1,1} {14,3,2,-1,1}
				q {16,3,3,-1,0} {18,3,18,-1,0} {58,3,18,-1,1} {19,3,3,-1,1}
				q {21,3,4,-1,0} {23,3,19,-1,0} {59,3,19,-1,1} {24,3,4,-1,1}
				q {26,3,5,-1,0} {28,3,20,-1,0} {60,3,20,-1,1} {29,3,5,-1,1}
				q {31,3,6,-1,0} {33,3,21,-1,0} {61,3,21,-1,1} {34,3,6,-1,1}
				q {36,3,7,-1,0} {38,3,22,-1,0} {62,3,22,-1,1} {39,3,7,-1,1}
				q {41,3,8,-1,0} {43,3,10,-1,0} {47,3,10,-1,1} {45,3,8,-1,1}
				q {54,0,23,-1,0} {3,0,13,-1,0} {0,0,24,-1,0} {48,0,11,-1,1}
				q {55,0,14,-1,1} {8,0,15,-1,0} {6,0,0,-1,0} {4,0,1,-1,1}
				q {56,0,16,-1,1} {13,0,17,-1,0} {12,0,2,-1,0} {10,0,0,-1,1}
				q {57,0,17,-1,1} {18,0,18,-1,0} {16,0,3,-1,0} {14,0,2,-1,1}
				q {58,0,18,-1,1} {23,0,19,-1,0} {21,0,4,-1,0} {19,0,3,-1,1}
				q {59,0,19,-1,1} {28,0,20,-1,0} {26,0,5,-1,0} {24,0,4,-1,1}
				q {60,0,20,-1,1} {33,0,21,-1,0} {31,0,6,-1,0} {29,0,5,-1,1}
				q {61,0,21,-1,1} {38,0,22,-1,0} {36,0,7,-1,0} {34,0,6,-1,1}
				q {62,0,22,-1,1} {43,0,10,-1,0} {41,0,8,-1,0} {39,0,7,-1,1}
				q {55,4,24,-1,1} {3,4,25,-1,0} {54,4,26,-1,0} {63,4,11,-1,1}
			}
			CTris
			{
				numTris 46
				t {11,3,24,-1,1} {5,3,26,-1,1} {7,3,25,-1,0}
				t {50,3,11,-1,1} {11,3,26,-1,1} {15,3,24,-1,1}
				t {51,3,11,-1,1} {15,3,26,-1,1} {20,3,24,-1,1}
				t {51,3,11,-1,1} {20,3,26,-1,1} {25,3,24,-1,1}
				t {51,3,11,-1,1} {25,3,26,-1,1} {30,3,24,-1,1}
				t {52,3,11,-1,1} {30,3,26,-1,1} {35,3,24,-1,1}
				t {40,3,24,-1,1} {35,3,26,-1,1} {37,3,25,-1,0}
				t {46,3,24,-1,1} {40,3,26,-1,1} {42,3,25,-1,0}
				t {50,3,11,-1,1} {15,3,24,-1,1} {51,3,27,-1,1}
				t {51,3,11,-1,1} {30,3,24,-1,1} {52,3,27,-1,1}
				t {52,3,11,-1,1} {40,3,24,-1,1} {53,3,27,-1,1}
				t {49,2,28,-1,1} {5,2,24,-1,1} {50,2,25,-1,1}
				t {53,3,11,-1,1} {40,3,26,-1,1} {46,3,24,-1,1}
				t {52,3,11,-1,1} {35,3,26,-1,1} {40,3,24,-1,1}
				t {50,3,11,-1,1} {5,3,26,-1,1} {11,3,24,-1,1}
				t {15,3,24,-1,1} {11,3,26,-1,1} {9,3,25,-1,0}
				t {20,3,24,-1,1} {15,3,26,-1,1} {17,3,25,-1,0}
				t {25,3,24,-1,1} {20,3,26,-1,1} {22,3,25,-1,0}
				t {30,3,24,-1,1} {25,3,26,-1,1} {27,3,25,-1,0}
				t {35,3,24,-1,1} {30,3,26,-1,1} {32,3,25,-1,0}
				t {55,1,26,-1,1} {56,1,24,-1,1} {8,1,25,-1,0}
				t {56,1,26,-1,1} {64,1,11,-1,1} {57,1,24,-1,1}
				t {57,1,26,-1,1} {65,1,11,-1,1} {58,1,24,-1,1}
				t {58,1,26,-1,1} {65,1,11,-1,1} {59,1,24,-1,1}
				t {59,1,26,-1,1} {65,1,11,-1,1} {60,1,24,-1,1}
				t {60,1,26,-1,1} {66,1,11,-1,1} {61,1,24,-1,1}
				t {61,1,26,-1,1} {62,1,24,-1,1} {38,1,25,-1,0}
				t {62,1,26,-1,1} {47,1,24,-1,1} {43,1,25,-1,0}
				t {57,1,24,-1,1} {64,1,11,-1,1} {65,1,27,-1,1}
				t {60,1,24,-1,1} {65,1,11,-1,1} {66,1,27,-1,1}
				t {62,1,24,-1,1} {66,1,11,-1,1} {67,1,27,-1,1}
				t {55,4,24,-1,1} {63,4,28,-1,1} {64,4,25,-1,1}
				t {62,1,26,-1,1} {67,1,11,-1,1} {47,1,24,-1,1}
				t {61,1,26,-1,1} {66,1,11,-1,1} {62,1,24,-1,1}
				t {55,1,26,-1,1} {64,1,11,-1,1} {56,1,24,-1,1}
				t {56,1,26,-1,1} {57,1,24,-1,1} {13,1,25,-1,0}
				t {57,1,26,-1,1} {58,1,24,-1,1} {18,1,25,-1,0}
				t {58,1,26,-1,1} {59,1,24,-1,1} {23,1,25,-1,0}
				t {59,1,26,-1,1} {60,1,24,-1,1} {28,1,25,-1,0}
				t {60,1,26,-1,1} {61,1,24,-1,1} {33,1,25,-1,0}
				t {68,1,28,-1,1} {44,1,24,-1,0} {47,1,25,-1,1}
				t {44,3,24,-1,0} {68,3,28,-1,1} {46,3,25,-1,1}
				t {68,3,26,-1,1} {69,3,11,-1,1} {46,3,25,-1,1}
				t {68,1,11,-1,1} {47,1,24,-1,1} {70,1,26,-1,1}
				t {69,3,11,-1,1} {53,3,24,-1,1} {46,3,25,-1,1}
				t {70,1,26,-1,1} {47,1,24,-1,1} {67,1,25,-1,1}
			}
		}
	}
}
