// Source file: exportersexample.max
CIwModel
{
	name "Box01"
	CMesh
	{
		name "Box01"
		baseName ""
		scale 1.0
		CVerts
		{
			numVerts 8
			v {18.69694,0,-46.58283}
			v {66.20651,0,-46.58283}
			v {18.69694,0,-94.09241}
			v {66.20651,0,-94.09241}
			v {18.69694,47.50958,-46.58283}
			v {66.20651,47.50958,-46.58283}
			v {18.69694,47.50958,-94.09241}
			v {66.20651,47.50958,-94.09241}
		}
		CVertNorms
		{
			numVertNorms 6
			vn {0,-1,0}
			vn {0,1,0}
			vn {0,0,1}
			vn {1,0,0}
			vn {0,0,-1}
			vn {-1,0,0}
		}
		CUVs
		{
			setID 0
			numUVs 4
			uv {0,1}
			uv {1,1}
			uv {0,0}
			uv {1,0}
		}
		CSurface
		{
			material "box"
			CQuads
			{
				numQuads 6
				q {0,0,1,-1,-1} {1,0,0,-1,-1} {3,0,2,-1,-1} {2,0,3,-1,-1}
				q {4,1,0,-1,-1} {6,1,2,-1,-1} {7,1,3,-1,-1} {5,1,1,-1,-1}
				q {0,2,0,-1,-1} {4,2,2,-1,-1} {5,2,3,-1,-1} {1,2,1,-1,-1}
				q {1,3,0,-1,-1} {5,3,2,-1,-1} {7,3,3,-1,-1} {3,3,1,-1,-1}
				q {3,4,0,-1,-1} {7,4,2,-1,-1} {6,4,3,-1,-1} {2,4,1,-1,-1}
				q {2,5,0,-1,-1} {6,5,2,-1,-1} {4,5,3,-1,-1} {0,5,1,-1,-1}
			}
		}
	}
}
