// Source file: exportersexample.max
CIwModel
{
	name "Cone01"
	CMesh
	{
		name "Cone01"
		baseName ""
		scale 1.0
		CVerts
		{
			numVerts 34
			v {-75.42439,0,36.59383}
			v {-57.95044,0,36.59383}
			v {-59.28056,0,29.90684}
			v {-63.06844,0,24.23788}
			v {-68.73740,0,20.45001}
			v {-75.42439,0,19.11988}
			v {-82.11139,0,20.45001}
			v {-87.78034,0,24.23788}
			v {-91.56822,0,29.90684}
			v {-92.89835,0,36.59383}
			v {-91.56822,0,43.28083}
			v {-87.78034,0,48.94979}
			v {-82.11138,0,52.73766}
			v {-75.42439,0,54.06779}
			v {-68.73740,0,52.73766}
			v {-63.06844,0,48.94978}
			v {-59.28056,0,43.28082}
			v {-75.42439,57.47127,36.59383}
			v {-75.42439,57.47127,36.59383}
			v {-75.42439,57.47127,36.59383}
			v {-75.42439,57.47127,36.59383}
			v {-75.42439,57.47127,36.59383}
			v {-75.42439,57.47127,36.59383}
			v {-75.42439,57.47127,36.59383}
			v {-75.42439,57.47127,36.59383}
			v {-75.42439,57.47127,36.59383}
			v {-75.42439,57.47127,36.59383}
			v {-75.42439,57.47127,36.59383}
			v {-75.42439,57.47127,36.59383}
			v {-75.42439,57.47127,36.59383}
			v {-75.42439,57.47127,36.59383}
			v {-75.42439,57.47127,36.59383}
			v {-75.42439,57.47127,36.59383}
			v {-75.42439,57.47127,36.59383}
		}
		CVertNorms
		{
			numVertNorms 34
			vn {0,-1,0}
			vn {0.95675,0.29090,-0.00000}
			vn {0.93989,0.28577,-0.18695}
			vn {0.93989,0.28577,0.18695}
			vn {0.88393,0.29090,-0.36613}
			vn {0.79680,0.28577,-0.53240}
			vn {0.67653,0.29090,-0.67653}
			vn {0.53240,0.28577,-0.79680}
			vn {0.36613,0.29090,-0.88393}
			vn {0.18695,0.28577,-0.93989}
			vn {-0.00000,0.29090,-0.95675}
			vn {-0.18695,0.28577,-0.93989}
			vn {-0.36613,0.29090,-0.88393}
			vn {-0.53240,0.28577,-0.79680}
			vn {-0.67653,0.29090,-0.67653}
			vn {-0.79680,0.28577,-0.53240}
			vn {-0.88393,0.29090,-0.36613}
			vn {-0.93989,0.28577,-0.18695}
			vn {-0.95675,0.29090,0.00000}
			vn {-0.93989,0.28577,0.18695}
			vn {-0.88393,0.29090,0.36613}
			vn {-0.79680,0.28577,0.53240}
			vn {-0.67653,0.29090,0.67653}
			vn {-0.53240,0.28577,0.79680}
			vn {-0.36613,0.29090,0.88393}
			vn {-0.18695,0.28577,0.93989}
			vn {0.00000,0.29090,0.95675}
			vn {0.18695,0.28577,0.93989}
			vn {0.36613,0.29090,0.88393}
			vn {0.53240,0.28577,0.79680}
			vn {0.67653,0.29090,0.67653}
			vn {0.79680,0.28577,0.53240}
			vn {0.88393,0.29090,0.36613}
			vn {1,0,0}
		}
		CUVs
		{
			setID 0
			numUVs 33
			uv {0.50000,0.50000}
			uv {0.50000,0.99950}
			uv {0.69115,0.99950}
			uv {0.14680,0.99950}
			uv {0.30885,0.99950}
			uv {0.14680,0.99950}
			uv {0.30885,0.99950}
			uv {0.50000,0.99950}
			uv {0.69115,0.99950}
			uv {0.50000,0.00050}
			uv {0.03852,0.30885}
			uv {0.00050,0.50000}
			uv {0.14680,0.14680}
			uv {0.30885,0.03852}
			uv {0.50000,0.00050}
			uv {0.69115,0.03852}
			uv {0.85320,0.14680}
			uv {0.96148,0.30885}
			uv {0.99950,0.50000}
			uv {0.96148,0.69115}
			uv {0.85320,0.85320}
			uv {0.69115,0.96148}
			uv {0.30885,0.96148}
			uv {0.14680,0.85320}
			uv {0.03852,0.69115}
			uv {0.85320,0.99950}
			uv {0.96148,0.99950}
			uv {0.99950,0.99950}
			uv {0.96148,0.99950}
			uv {0.85320,0.99950}
			uv {0.03852,0.99950}
			uv {0.00050,0.99950}
			uv {0.03852,0.99950}
		}
		CSurface
		{
			material "cone"
			CQuads
			{
				numQuads 6
				q {18,2,9,-1,-1} {2,4,2,-1,-1} {1,1,1,-1,-1} {17,3,9,-1,-1}
				q {19,5,9,-1,-1} {3,6,25,-1,-1} {2,4,2,-1,-1} {18,2,9,-1,-1}
				q {26,19,9,-1,-1} {10,20,8,-1,-1} {9,18,7,-1,-1} {25,17,9,-1,-1}
				q {28,23,9,-1,-1} {12,24,6,-1,-1} {11,22,5,-1,-1} {27,21,9,-1,-1}
				q {32,31,9,-1,-1} {16,32,4,-1,-1} {15,30,3,-1,-1} {31,29,9,-1,-1}
				q {17,3,9,-1,-1} {1,1,1,-1,-1} {16,32,4,-1,-1} {32,31,9,-1,-1}
			}
			CTris
			{
				numTris 52
				t {1,0,11,-1,-1} {2,0,10,-1,-1} {0,0,0,-1,-1}
				t {2,0,10,-1,-1} {3,0,12,-1,-1} {0,0,0,-1,-1}
				t {3,0,12,-1,-1} {4,0,13,-1,-1} {0,0,0,-1,-1}
				t {4,0,13,-1,-1} {5,0,14,-1,-1} {0,0,0,-1,-1}
				t {5,0,14,-1,-1} {6,0,15,-1,-1} {0,0,0,-1,-1}
				t {6,0,15,-1,-1} {7,0,16,-1,-1} {0,0,0,-1,-1}
				t {7,0,16,-1,-1} {8,0,17,-1,-1} {0,0,0,-1,-1}
				t {8,0,17,-1,-1} {9,0,18,-1,-1} {0,0,0,-1,-1}
				t {9,0,18,-1,-1} {10,0,19,-1,-1} {0,0,0,-1,-1}
				t {10,0,19,-1,-1} {11,0,20,-1,-1} {0,0,0,-1,-1}
				t {11,0,20,-1,-1} {12,0,21,-1,-1} {0,0,0,-1,-1}
				t {12,0,21,-1,-1} {13,0,7,-1,-1} {0,0,0,-1,-1}
				t {13,0,7,-1,-1} {14,0,22,-1,-1} {0,0,0,-1,-1}
				t {14,0,22,-1,-1} {15,0,23,-1,-1} {0,0,0,-1,-1}
				t {15,0,23,-1,-1} {16,0,24,-1,-1} {0,0,0,-1,-1}
				t {16,0,24,-1,-1} {1,0,11,-1,-1} {0,0,0,-1,-1}
				t {19,5,9,-1,-1} {20,7,9,-1,-1} {3,6,25,-1,-1}
				t {20,7,9,-1,-1} {4,8,4,-1,-1} {3,6,3,-1,-1}
				t {20,7,9,-1,-1} {21,9,9,-1,-1} {4,8,26,-1,-1}
				t {21,9,9,-1,-1} {5,10,1,-1,-1} {4,8,4,-1,-1}
				t {21,9,9,-1,-1} {22,11,9,-1,-1} {5,10,27,-1,-1}
				t {22,11,9,-1,-1} {6,12,2,-1,-1} {5,10,1,-1,-1}
				t {22,11,9,-1,-1} {23,13,9,-1,-1} {6,12,28,-1,-1}
				t {23,13,9,-1,-1} {7,14,25,-1,-1} {6,12,2,-1,-1}
				t {23,13,9,-1,-1} {24,15,9,-1,-1} {7,14,29,-1,-1}
				t {24,15,9,-1,-1} {8,16,6,-1,-1} {7,14,5,-1,-1}
				t {24,15,9,-1,-1} {25,17,9,-1,-1} {8,16,8,-1,-1}
				t {25,17,9,-1,-1} {9,18,7,-1,-1} {8,16,6,-1,-1}
				t {26,19,9,-1,-1} {27,21,9,-1,-1} {10,20,6,-1,-1}
				t {27,21,9,-1,-1} {11,22,29,-1,-1} {10,20,8,-1,-1}
				t {28,23,9,-1,-1} {29,25,9,-1,-1} {12,24,30,-1,-1}
				t {29,25,9,-1,-1} {13,26,7,-1,-1} {12,24,6,-1,-1}
				t {29,25,9,-1,-1} {30,27,9,-1,-1} {13,26,31,-1,-1}
				t {30,27,9,-1,-1} {14,28,8,-1,-1} {13,26,7,-1,-1}
				t {30,27,9,-1,-1} {31,29,9,-1,-1} {14,28,32,-1,-1}
				t {31,29,9,-1,-1} {15,30,29,-1,-1} {14,28,8,-1,-1}
				t {18,33,9,-1,-1} {17,33,9,-1,-1} {33,33,9,-1,-1}
				t {19,33,9,-1,-1} {18,33,9,-1,-1} {33,33,9,-1,-1}
				t {20,33,9,-1,-1} {19,33,9,-1,-1} {33,33,9,-1,-1}
				t {21,33,9,-1,-1} {20,33,9,-1,-1} {33,33,9,-1,-1}
				t {22,33,9,-1,-1} {21,33,9,-1,-1} {33,33,9,-1,-1}
				t {23,33,9,-1,-1} {22,33,9,-1,-1} {33,33,9,-1,-1}
				t {24,33,9,-1,-1} {23,33,9,-1,-1} {33,33,9,-1,-1}
				t {25,33,9,-1,-1} {24,33,9,-1,-1} {33,33,9,-1,-1}
				t {26,33,9,-1,-1} {25,33,9,-1,-1} {33,33,9,-1,-1}
				t {27,33,9,-1,-1} {26,33,9,-1,-1} {33,33,9,-1,-1}
				t {28,33,9,-1,-1} {27,33,9,-1,-1} {33,33,9,-1,-1}
				t {29,33,9,-1,-1} {28,33,9,-1,-1} {33,33,9,-1,-1}
				t {30,33,9,-1,-1} {29,33,9,-1,-1} {33,33,9,-1,-1}
				t {31,33,9,-1,-1} {30,33,9,-1,-1} {33,33,9,-1,-1}
				t {32,33,9,-1,-1} {31,33,9,-1,-1} {33,33,9,-1,-1}
				t {17,33,9,-1,-1} {32,33,9,-1,-1} {33,33,9,-1,-1}
			}
		}
	}
}
