// Source file: exportersexample.max
CIwModel
{
	name "Sphere01"
	CMesh
	{
		name "Sphere01"
		baseName ""
		scale 1.0
		CVerts
		{
			numVerts 182
			v {-58.94044,47.99651,-61.51904}
			v {-58.94044,46.84848,-68.76743}
			v {-61.18032,46.84848,-68.41267}
			v {-63.20094,46.84848,-67.38311}
			v {-64.80452,46.84848,-65.77953}
			v {-65.83408,46.84848,-63.75891}
			v {-66.18884,46.84848,-61.51904}
			v {-65.83408,46.84848,-59.27916}
			v {-64.80452,46.84848,-57.25854}
			v {-63.20094,46.84848,-55.65496}
			v {-61.18032,46.84848,-54.62540}
			v {-58.94044,46.84848,-54.27065}
			v {-56.70057,46.84848,-54.62540}
			v {-54.67995,46.84848,-55.65496}
			v {-53.07637,46.84848,-57.25854}
			v {-52.04681,46.84848,-59.27916}
			v {-51.69205,46.84848,-61.51904}
			v {-52.04681,46.84848,-63.75891}
			v {-53.07637,46.84848,-65.77953}
			v {-54.67995,46.84848,-67.38311}
			v {-56.70057,46.84848,-68.41267}
			v {-58.94044,43.51676,-75.30630}
			v {-63.20094,43.51676,-74.63150}
			v {-67.04440,43.51676,-72.67316}
			v {-70.09457,43.51676,-69.62299}
			v {-72.05291,43.51676,-65.77953}
			v {-72.72771,43.51676,-61.51904}
			v {-72.05291,43.51676,-57.25854}
			v {-70.09457,43.51676,-53.41508}
			v {-67.04439,43.51676,-50.36491}
			v {-63.20094,43.51676,-48.40657}
			v {-58.94044,43.51676,-47.73177}
			v {-54.67995,43.51676,-48.40657}
			v {-50.83649,43.51676,-50.36491}
			v {-47.78632,43.51676,-53.41509}
			v {-45.82798,43.51676,-57.25854}
			v {-45.15318,43.51676,-61.51904}
			v {-45.82798,43.51676,-65.77953}
			v {-47.78632,43.51676,-69.62299}
			v {-50.83650,43.51676,-72.67316}
			v {-54.67995,43.51676,-74.63150}
			v {-58.94044,38.32748,-80.49557}
			v {-64.80452,38.32748,-79.56680}
			v {-70.09457,38.32748,-76.87138}
			v {-74.29279,38.32748,-72.67316}
			v {-76.98820,38.32748,-67.38310}
			v {-77.91698,38.32748,-61.51904}
			v {-76.98820,38.32748,-55.65496}
			v {-74.29279,38.32748,-50.36491}
			v {-70.09457,38.32748,-46.16669}
			v {-64.80451,38.32748,-43.47128}
			v {-58.94044,38.32748,-42.54250}
			v {-53.07637,38.32748,-43.47128}
			v {-47.78632,38.32748,-46.16670}
			v {-43.58810,38.32748,-50.36491}
			v {-40.89268,38.32748,-55.65497}
			v {-39.96391,38.32748,-61.51904}
			v {-40.89269,38.32748,-67.38311}
			v {-43.58811,38.32748,-72.67316}
			v {-47.78632,38.32748,-76.87138}
			v {-53.07638,38.32748,-79.56680}
			v {-58.94044,31.78861,-83.82729}
			v {-65.83408,31.78861,-82.73544}
			v {-72.05291,31.78861,-79.56680}
			v {-76.98820,31.78861,-74.63150}
			v {-80.15686,31.78861,-68.41267}
			v {-81.24870,31.78861,-61.51903}
			v {-80.15686,31.78861,-54.62540}
			v {-76.98820,31.78861,-48.40657}
			v {-72.05291,31.78861,-43.47128}
			v {-65.83408,31.78861,-40.30262}
			v {-58.94044,31.78861,-39.21078}
			v {-52.04681,31.78861,-40.30262}
			v {-45.82798,31.78861,-43.47128}
			v {-40.89268,31.78861,-48.40657}
			v {-37.72403,31.78861,-54.62541}
			v {-36.63219,31.78861,-61.51904}
			v {-37.72403,31.78861,-68.41267}
			v {-40.89269,31.78861,-74.63150}
			v {-45.82798,31.78861,-79.56680}
			v {-52.04682,31.78861,-82.73545}
			v {-58.94044,24.54022,-84.97533}
			v {-66.18884,24.54022,-83.82729}
			v {-72.72771,24.54022,-80.49557}
			v {-77.91698,24.54022,-75.30629}
			v {-81.24870,24.54022,-68.76743}
			v {-82.39673,24.54022,-61.51903}
			v {-81.24870,24.54022,-54.27064}
			v {-77.91698,24.54022,-47.73177}
			v {-72.72770,24.54022,-42.54250}
			v {-66.18884,24.54022,-39.21078}
			v {-58.94044,24.54022,-38.06275}
			v {-51.69205,24.54022,-39.21078}
			v {-45.15318,24.54022,-42.54250}
			v {-39.96391,24.54022,-47.73178}
			v {-36.63219,24.54022,-54.27065}
			v {-35.48416,24.54022,-61.51904}
			v {-36.63219,24.54022,-68.76743}
			v {-39.96391,24.54022,-75.30630}
			v {-45.15319,24.54022,-80.49557}
			v {-51.69206,24.54022,-83.82729}
			v {-58.94044,17.29183,-83.82729}
			v {-65.83408,17.29183,-82.73544}
			v {-72.05291,17.29183,-79.56679}
			v {-76.98820,17.29183,-74.63150}
			v {-80.15686,17.29183,-68.41267}
			v {-81.24870,17.29183,-61.51903}
			v {-80.15685,17.29183,-54.62540}
			v {-76.98820,17.29183,-48.40657}
			v {-72.05290,17.29183,-43.47128}
			v {-65.83408,17.29183,-40.30262}
			v {-58.94044,17.29183,-39.21078}
			v {-52.04681,17.29183,-40.30263}
			v {-45.82798,17.29183,-43.47128}
			v {-40.89268,17.29183,-48.40657}
			v {-37.72403,17.29183,-54.62541}
			v {-36.63219,17.29183,-61.51904}
			v {-37.72404,17.29183,-68.41267}
			v {-40.89269,17.29183,-74.63150}
			v {-45.82799,17.29183,-79.56680}
			v {-52.04682,17.29183,-82.73544}
			v {-58.94044,10.75296,-80.49557}
			v {-64.80452,10.75296,-79.56679}
			v {-70.09457,10.75296,-76.87138}
			v {-74.29279,10.75296,-72.67316}
			v {-76.98820,10.75296,-67.38310}
			v {-77.91698,10.75296,-61.51904}
			v {-76.98820,10.75296,-55.65496}
			v {-74.29279,10.75296,-50.36491}
			v {-70.09457,10.75296,-46.16669}
			v {-64.80451,10.75296,-43.47128}
			v {-58.94044,10.75296,-42.54250}
			v {-53.07637,10.75296,-43.47128}
			v {-47.78632,10.75296,-46.16670}
			v {-43.58810,10.75296,-50.36491}
			v {-40.89268,10.75296,-55.65497}
			v {-39.96391,10.75296,-61.51904}
			v {-40.89269,10.75296,-67.38311}
			v {-43.58811,10.75296,-72.67316}
			v {-47.78632,10.75296,-76.87138}
			v {-53.07638,10.75296,-79.56680}
			v {-58.94044,5.56369,-75.30629}
			v {-63.20094,5.56369,-74.63150}
			v {-67.04440,5.56369,-72.67316}
			v {-70.09457,5.56369,-69.62299}
			v {-72.05291,5.56369,-65.77953}
			v {-72.72771,5.56369,-61.51904}
			v {-72.05290,5.56369,-57.25854}
			v {-70.09457,5.56369,-53.41508}
			v {-67.04439,5.56369,-50.36491}
			v {-63.20094,5.56369,-48.40657}
			v {-58.94044,5.56369,-47.73178}
			v {-54.67995,5.56369,-48.40657}
			v {-50.83649,5.56369,-50.36491}
			v {-47.78632,5.56369,-53.41509}
			v {-45.82798,5.56369,-57.25854}
			v {-45.15319,5.56369,-61.51904}
			v {-45.82798,5.56369,-65.77953}
			v {-47.78632,5.56369,-69.62299}
			v {-50.83650,5.56369,-72.67316}
			v {-54.67995,5.56369,-74.63150}
			v {-58.94044,2.23197,-68.76743}
			v {-61.18032,2.23197,-68.41267}
			v {-63.20094,2.23197,-67.38310}
			v {-64.80452,2.23197,-65.77953}
			v {-65.83408,2.23197,-63.75891}
			v {-66.18884,2.23197,-61.51904}
			v {-65.83408,2.23197,-59.27916}
			v {-64.80451,2.23197,-57.25854}
			v {-63.20094,2.23197,-55.65496}
			v {-61.18032,2.23197,-54.62541}
			v {-58.94044,2.23197,-54.27065}
			v {-56.70057,2.23197,-54.62541}
			v {-54.67995,2.23197,-55.65496}
			v {-53.07637,2.23197,-57.25854}
			v {-52.04682,2.23197,-59.27916}
			v {-51.69205,2.23197,-61.51904}
			v {-52.04682,2.23197,-63.75891}
			v {-53.07637,2.23197,-65.77953}
			v {-54.67995,2.23197,-67.38311}
			v {-56.70057,2.23197,-68.41267}
			v {-58.94044,1.08394,-61.51904}
		}
		CVertNorms
		{
			numVertNorms 182
			vn {-0.00000,1,0.00000}
			vn {-0.00000,0.94639,-0.32302}
			vn {-0.09982,0.94639,-0.30721}
			vn {-0.18987,0.94639,-0.26133}
			vn {-0.26133,0.94639,-0.18987}
			vn {-0.30721,0.94639,-0.09982}
			vn {-0.32302,0.94639,0.00000}
			vn {-0.30721,0.94639,0.09982}
			vn {-0.26133,0.94639,0.18987}
			vn {-0.18987,0.94639,0.26133}
			vn {-0.09982,0.94639,0.30721}
			vn {0.00000,0.94639,0.32302}
			vn {0.09982,0.94639,0.30721}
			vn {0.18987,0.94639,0.26133}
			vn {0.26133,0.94639,0.18987}
			vn {0.30721,0.94639,0.09982}
			vn {0.32302,0.94639,-0.00000}
			vn {0.30721,0.94639,-0.09982}
			vn {0.26133,0.94639,-0.18987}
			vn {0.18987,0.94639,-0.26133}
			vn {0.09982,0.94639,-0.30721}
			vn {-0.00000,0.80163,-0.59783}
			vn {-0.18474,0.80163,-0.56857}
			vn {-0.35139,0.80163,-0.48365}
			vn {-0.48365,0.80163,-0.35139}
			vn {-0.56857,0.80163,-0.18474}
			vn {-0.59783,0.80163,0.00000}
			vn {-0.56857,0.80163,0.18474}
			vn {-0.48365,0.80163,0.35139}
			vn {-0.35139,0.80163,0.48365}
			vn {-0.18474,0.80163,0.56857}
			vn {0.00000,0.80163,0.59783}
			vn {0.18474,0.80163,0.56857}
			vn {0.35139,0.80163,0.48365}
			vn {0.48365,0.80163,0.35139}
			vn {0.56857,0.80163,0.18474}
			vn {0.59783,0.80163,-0.00000}
			vn {0.56857,0.80163,-0.18474}
			vn {0.48365,0.80163,-0.35139}
			vn {0.35139,0.80163,-0.48365}
			vn {0.18474,0.80163,-0.56857}
			vn {-0.00000,0.58048,-0.81428}
			vn {-0.25163,0.58048,-0.77442}
			vn {-0.47862,0.58048,-0.65876}
			vn {-0.65876,0.58048,-0.47862}
			vn {-0.77442,0.58048,-0.25162}
			vn {-0.81428,0.58048,0.00000}
			vn {-0.77442,0.58048,0.25163}
			vn {-0.65876,0.58048,0.47862}
			vn {-0.47862,0.58048,0.65876}
			vn {-0.25162,0.58048,0.77442}
			vn {0.00000,0.58048,0.81428}
			vn {0.25163,0.58048,0.77442}
			vn {0.47862,0.58048,0.65876}
			vn {0.65876,0.58048,0.47862}
			vn {0.77442,0.58048,0.25162}
			vn {0.81428,0.58048,-0.00000}
			vn {0.77442,0.58048,-0.25163}
			vn {0.65876,0.58048,-0.47862}
			vn {0.47862,0.58048,-0.65876}
			vn {0.25162,0.58048,-0.77442}
			vn {-0.00000,0.30453,-0.95250}
			vn {-0.29434,0.30453,-0.90588}
			vn {-0.55987,0.30453,-0.77059}
			vn {-0.77059,0.30453,-0.55987}
			vn {-0.90588,0.30453,-0.29434}
			vn {-0.95250,0.30453,0.00000}
			vn {-0.90588,0.30453,0.29434}
			vn {-0.77059,0.30453,0.55987}
			vn {-0.55987,0.30453,0.77059}
			vn {-0.29434,0.30453,0.90588}
			vn {0.00000,0.30453,0.95250}
			vn {0.29434,0.30453,0.90588}
			vn {0.55987,0.30453,0.77059}
			vn {0.77059,0.30453,0.55987}
			vn {0.90588,0.30453,0.29434}
			vn {0.95250,0.30453,-0.00000}
			vn {0.90588,0.30453,-0.29434}
			vn {0.77059,0.30453,-0.55987}
			vn {0.55987,0.30453,-0.77059}
			vn {0.29434,0.30453,-0.90588}
			vn {-0.00000,-0.00000,-1}
			vn {-0.30902,-0.00000,-0.95106}
			vn {-0.58779,-0.00000,-0.80902}
			vn {-0.80902,-0.00000,-0.58779}
			vn {-0.95106,-0.00000,-0.30902}
			vn {-1,-0.00000,0.00000}
			vn {-0.95106,-0.00000,0.30902}
			vn {-0.80902,-0.00000,0.58779}
			vn {-0.58779,-0.00000,0.80902}
			vn {-0.30902,-0.00000,0.95106}
			vn {0.00000,-0.00000,1}
			vn {0.30902,-0.00000,0.95106}
			vn {0.58779,-0.00000,0.80902}
			vn {0.80902,-0.00000,0.58779}
			vn {0.95106,-0.00000,0.30902}
			vn {1,-0.00000,-0.00000}
			vn {0.95106,-0.00000,-0.30902}
			vn {0.80902,-0.00000,-0.58779}
			vn {0.58779,-0.00000,-0.80902}
			vn {0.30902,-0.00000,-0.95106}
			vn {-0.00000,-0.30453,-0.95250}
			vn {-0.29434,-0.30453,-0.90588}
			vn {-0.55987,-0.30453,-0.77059}
			vn {-0.77059,-0.30453,-0.55987}
			vn {-0.90588,-0.30453,-0.29434}
			vn {-0.95250,-0.30453,0.00000}
			vn {-0.90588,-0.30453,0.29434}
			vn {-0.77059,-0.30453,0.55987}
			vn {-0.55987,-0.30453,0.77059}
			vn {-0.29434,-0.30453,0.90588}
			vn {0.00000,-0.30453,0.95250}
			vn {0.29434,-0.30453,0.90588}
			vn {0.55987,-0.30453,0.77059}
			vn {0.77059,-0.30453,0.55987}
			vn {0.90588,-0.30453,0.29434}
			vn {0.95250,-0.30453,-0.00000}
			vn {0.90588,-0.30453,-0.29434}
			vn {0.77059,-0.30453,-0.55987}
			vn {0.55987,-0.30453,-0.77059}
			vn {0.29434,-0.30453,-0.90588}
			vn {-0.00000,-0.58048,-0.81428}
			vn {-0.25163,-0.58048,-0.77442}
			vn {-0.47862,-0.58048,-0.65876}
			vn {-0.65876,-0.58048,-0.47862}
			vn {-0.77442,-0.58048,-0.25163}
			vn {-0.81428,-0.58048,0.00000}
			vn {-0.77442,-0.58048,0.25163}
			vn {-0.65876,-0.58048,0.47862}
			vn {-0.47862,-0.58048,0.65876}
			vn {-0.25162,-0.58048,0.77442}
			vn {0.00000,-0.58048,0.81428}
			vn {0.25163,-0.58048,0.77442}
			vn {0.47862,-0.58048,0.65876}
			vn {0.65876,-0.58048,0.47862}
			vn {0.77442,-0.58048,0.25162}
			vn {0.81428,-0.58048,-0.00000}
			vn {0.77442,-0.58048,-0.25163}
			vn {0.65876,-0.58048,-0.47862}
			vn {0.47862,-0.58048,-0.65876}
			vn {0.25162,-0.58048,-0.77442}
			vn {-0.00000,-0.80163,-0.59783}
			vn {-0.18474,-0.80163,-0.56857}
			vn {-0.35139,-0.80163,-0.48365}
			vn {-0.48365,-0.80163,-0.35139}
			vn {-0.56857,-0.80163,-0.18474}
			vn {-0.59783,-0.80163,0.00000}
			vn {-0.56857,-0.80163,0.18474}
			vn {-0.48365,-0.80163,0.35139}
			vn {-0.35139,-0.80163,0.48365}
			vn {-0.18474,-0.80163,0.56857}
			vn {0.00000,-0.80163,0.59783}
			vn {0.18474,-0.80163,0.56857}
			vn {0.35139,-0.80163,0.48365}
			vn {0.48365,-0.80163,0.35139}
			vn {0.56857,-0.80163,0.18474}
			vn {0.59783,-0.80163,-0.00000}
			vn {0.56857,-0.80163,-0.18474}
			vn {0.48365,-0.80163,-0.35139}
			vn {0.35139,-0.80163,-0.48365}
			vn {0.18474,-0.80163,-0.56857}
			vn {-0.00000,-0.94639,-0.32302}
			vn {-0.09982,-0.94639,-0.30721}
			vn {-0.18987,-0.94639,-0.26133}
			vn {-0.26133,-0.94639,-0.18987}
			vn {-0.30721,-0.94639,-0.09982}
			vn {-0.32302,-0.94639,0.00000}
			vn {-0.30721,-0.94639,0.09982}
			vn {-0.26133,-0.94639,0.18987}
			vn {-0.18987,-0.94639,0.26133}
			vn {-0.09982,-0.94639,0.30721}
			vn {0.00000,-0.94639,0.32302}
			vn {0.09982,-0.94639,0.30721}
			vn {0.18987,-0.94639,0.26133}
			vn {0.26133,-0.94639,0.18987}
			vn {0.30721,-0.94639,0.09982}
			vn {0.32302,-0.94639,-0.00000}
			vn {0.30721,-0.94639,-0.09982}
			vn {0.26133,-0.94639,-0.18987}
			vn {0.18987,-0.94639,-0.26133}
			vn {0.09982,-0.94639,-0.30721}
			vn {-0.00000,-1,-0.00000}
		}
		CUVs
		{
			setID 0
			numUVs 229
			uv {0.97500,0.00000}
			uv {1.00000,0.10000}
			uv {0.05000,0.10000}
			uv {0.10000,0.10000}
			uv {0.15000,0.10000}
			uv {0.20000,0.10000}
			uv {0.25000,0.10000}
			uv {0.30000,0.10000}
			uv {0.35000,0.10000}
			uv {0.40000,0.10000}
			uv {0.45000,0.10000}
			uv {0.50000,0.10000}
			uv {0.55000,0.10000}
			uv {0.60000,0.10000}
			uv {0.65000,0.10000}
			uv {0.70000,0.10000}
			uv {0.75000,0.10000}
			uv {0.80000,0.10000}
			uv {0.85000,0.10000}
			uv {0.90000,0.10000}
			uv {0.95000,0.10000}
			uv {1.00000,0.20000}
			uv {0.05000,0.20000}
			uv {0.10000,0.20000}
			uv {0.15000,0.20000}
			uv {0.20000,0.20000}
			uv {0.25000,0.20000}
			uv {0.30000,0.20000}
			uv {0.35000,0.20000}
			uv {0.40000,0.20000}
			uv {0.45000,0.20000}
			uv {0.50000,0.20000}
			uv {0.55000,0.20000}
			uv {0.60000,0.20000}
			uv {0.65000,0.20000}
			uv {0.70000,0.20000}
			uv {0.75000,0.20000}
			uv {0.80000,0.20000}
			uv {0.85000,0.20000}
			uv {0.90000,0.20000}
			uv {0.95000,0.20000}
			uv {1.00000,0.30000}
			uv {0.05000,0.30000}
			uv {0.10000,0.30000}
			uv {0.15000,0.30000}
			uv {0.20000,0.30000}
			uv {0.25000,0.30000}
			uv {0.30000,0.30000}
			uv {0.35000,0.30000}
			uv {0.40000,0.30000}
			uv {0.45000,0.30000}
			uv {0.50000,0.30000}
			uv {0.55000,0.30000}
			uv {0.60000,0.30000}
			uv {0.65000,0.30000}
			uv {0.70000,0.30000}
			uv {0.75000,0.30000}
			uv {0.80000,0.30000}
			uv {0.85000,0.30000}
			uv {0.90000,0.30000}
			uv {0.95000,0.30000}
			uv {1.00000,0.40000}
			uv {0.05000,0.40000}
			uv {0.10000,0.40000}
			uv {0.15000,0.40000}
			uv {0.20000,0.40000}
			uv {0.25000,0.40000}
			uv {0.30000,0.40000}
			uv {0.35000,0.40000}
			uv {0.40000,0.40000}
			uv {0.45000,0.40000}
			uv {0.50000,0.40000}
			uv {0.55000,0.40000}
			uv {0.60000,0.40000}
			uv {0.65000,0.40000}
			uv {0.70000,0.40000}
			uv {0.75000,0.40000}
			uv {0.80000,0.40000}
			uv {0.85000,0.40000}
			uv {0.90000,0.40000}
			uv {0.95000,0.40000}
			uv {1.00000,0.50000}
			uv {0.05000,0.50000}
			uv {0.10000,0.50000}
			uv {0.15000,0.50000}
			uv {0.20000,0.50000}
			uv {0.25000,0.50000}
			uv {0.30000,0.50000}
			uv {0.35000,0.50000}
			uv {0.40000,0.50000}
			uv {0.45000,0.50000}
			uv {0.50000,0.50000}
			uv {0.55000,0.50000}
			uv {0.60000,0.50000}
			uv {0.65000,0.50000}
			uv {0.70000,0.50000}
			uv {0.75000,0.50000}
			uv {0.80000,0.50000}
			uv {0.85000,0.50000}
			uv {0.90000,0.50000}
			uv {0.95000,0.50000}
			uv {1.00000,0.60000}
			uv {0.05000,0.60000}
			uv {0.10000,0.60000}
			uv {0.15000,0.60000}
			uv {0.20000,0.60000}
			uv {0.25000,0.60000}
			uv {0.30000,0.60000}
			uv {0.35000,0.60000}
			uv {0.40000,0.60000}
			uv {0.45000,0.60000}
			uv {0.50000,0.60000}
			uv {0.55000,0.60000}
			uv {0.60000,0.60000}
			uv {0.65000,0.60000}
			uv {0.70000,0.60000}
			uv {0.75000,0.60000}
			uv {0.80000,0.60000}
			uv {0.85000,0.60000}
			uv {0.90000,0.60000}
			uv {0.95000,0.60000}
			uv {1.00000,0.70000}
			uv {0.05000,0.70000}
			uv {0.10000,0.70000}
			uv {0.15000,0.70000}
			uv {0.20000,0.70000}
			uv {0.25000,0.70000}
			uv {0.30000,0.70000}
			uv {0.35000,0.70000}
			uv {0.40000,0.70000}
			uv {0.45000,0.70000}
			uv {0.50000,0.70000}
			uv {0.55000,0.70000}
			uv {0.60000,0.70000}
			uv {0.65000,0.70000}
			uv {0.70000,0.70000}
			uv {0.75000,0.70000}
			uv {0.80000,0.70000}
			uv {0.85000,0.70000}
			uv {0.90000,0.70000}
			uv {0.95000,0.70000}
			uv {1.00000,0.80000}
			uv {0.05000,0.80000}
			uv {0.10000,0.80000}
			uv {0.15000,0.80000}
			uv {0.20000,0.80000}
			uv {0.25000,0.80000}
			uv {0.30000,0.80000}
			uv {0.35000,0.80000}
			uv {0.40000,0.80000}
			uv {0.45000,0.80000}
			uv {0.50000,0.80000}
			uv {0.55000,0.80000}
			uv {0.60000,0.80000}
			uv {0.65000,0.80000}
			uv {0.70000,0.80000}
			uv {0.75000,0.80000}
			uv {0.80000,0.80000}
			uv {0.85000,0.80000}
			uv {0.90000,0.80000}
			uv {0.95000,0.80000}
			uv {1.00000,0.90000}
			uv {0.05000,0.90000}
			uv {0.10000,0.90000}
			uv {0.15000,0.90000}
			uv {0.20000,0.90000}
			uv {0.25000,0.90000}
			uv {0.30000,0.90000}
			uv {0.35000,0.90000}
			uv {0.40000,0.90000}
			uv {0.45000,0.90000}
			uv {0.50000,0.90000}
			uv {0.55000,0.90000}
			uv {0.60000,0.90000}
			uv {0.65000,0.90000}
			uv {0.70000,0.90000}
			uv {0.75000,0.90000}
			uv {0.80000,0.90000}
			uv {0.85000,0.90000}
			uv {0.90000,0.90000}
			uv {0.95000,0.90000}
			uv {0.97500,1}
			uv {0.02500,0.00000}
			uv {-0.00000,0.10000}
			uv {0.07500,0.00000}
			uv {0.12500,0.00000}
			uv {0.17500,0.00000}
			uv {0.22500,0.00000}
			uv {0.27500,0.00000}
			uv {0.32500,0.00000}
			uv {0.37500,0.00000}
			uv {0.42500,0.00000}
			uv {0.47500,0.00000}
			uv {0.52500,0.00000}
			uv {0.57500,0.00000}
			uv {0.62500,0.00000}
			uv {0.67500,0.00000}
			uv {0.72500,0.00000}
			uv {0.77500,0.00000}
			uv {0.82500,0.00000}
			uv {0.87500,0.00000}
			uv {0.92500,0.00000}
			uv {-0.00000,0.20000}
			uv {-0.00000,0.30000}
			uv {-0.00000,0.40000}
			uv {-0.00000,0.50000}
			uv {-0.00000,0.60000}
			uv {-0.00000,0.70000}
			uv {-0.00000,0.80000}
			uv {-0.00000,0.90000}
			uv {0.02500,1}
			uv {0.07500,1}
			uv {0.12500,1}
			uv {0.17500,1}
			uv {0.22500,1}
			uv {0.27500,1}
			uv {0.32500,1}
			uv {0.37500,1}
			uv {0.42500,1}
			uv {0.47500,1}
			uv {0.52500,1}
			uv {0.57500,1}
			uv {0.62500,1}
			uv {0.67500,1}
			uv {0.72500,1}
			uv {0.77500,1}
			uv {0.82500,1}
			uv {0.87500,1}
			uv {0.92500,1}
		}
		CSurface
		{
			material "sphere"
			CQuads
			{
				numQuads 160
				q {1,1,183,-1,-1} {2,2,2,-1,-1} {22,22,22,-1,-1} {21,21,202,-1,-1}
				q {2,2,2,-1,-1} {3,3,3,-1,-1} {23,23,23,-1,-1} {22,22,22,-1,-1}
				q {3,3,3,-1,-1} {4,4,4,-1,-1} {24,24,24,-1,-1} {23,23,23,-1,-1}
				q {4,4,4,-1,-1} {5,5,5,-1,-1} {25,25,25,-1,-1} {24,24,24,-1,-1}
				q {5,5,5,-1,-1} {6,6,6,-1,-1} {26,26,26,-1,-1} {25,25,25,-1,-1}
				q {6,6,6,-1,-1} {7,7,7,-1,-1} {27,27,27,-1,-1} {26,26,26,-1,-1}
				q {7,7,7,-1,-1} {8,8,8,-1,-1} {28,28,28,-1,-1} {27,27,27,-1,-1}
				q {8,8,8,-1,-1} {9,9,9,-1,-1} {29,29,29,-1,-1} {28,28,28,-1,-1}
				q {9,9,9,-1,-1} {10,10,10,-1,-1} {30,30,30,-1,-1} {29,29,29,-1,-1}
				q {10,10,10,-1,-1} {11,11,11,-1,-1} {31,31,31,-1,-1} {30,30,30,-1,-1}
				q {11,11,11,-1,-1} {12,12,12,-1,-1} {32,32,32,-1,-1} {31,31,31,-1,-1}
				q {12,12,12,-1,-1} {13,13,13,-1,-1} {33,33,33,-1,-1} {32,32,32,-1,-1}
				q {13,13,13,-1,-1} {14,14,14,-1,-1} {34,34,34,-1,-1} {33,33,33,-1,-1}
				q {14,14,14,-1,-1} {15,15,15,-1,-1} {35,35,35,-1,-1} {34,34,34,-1,-1}
				q {15,15,15,-1,-1} {16,16,16,-1,-1} {36,36,36,-1,-1} {35,35,35,-1,-1}
				q {16,16,16,-1,-1} {17,17,17,-1,-1} {37,37,37,-1,-1} {36,36,36,-1,-1}
				q {17,17,17,-1,-1} {18,18,18,-1,-1} {38,38,38,-1,-1} {37,37,37,-1,-1}
				q {18,18,18,-1,-1} {19,19,19,-1,-1} {39,39,39,-1,-1} {38,38,38,-1,-1}
				q {19,19,19,-1,-1} {20,20,20,-1,-1} {40,40,40,-1,-1} {39,39,39,-1,-1}
				q {20,20,20,-1,-1} {1,1,1,-1,-1} {21,21,21,-1,-1} {40,40,40,-1,-1}
				q {21,21,202,-1,-1} {22,22,22,-1,-1} {42,42,42,-1,-1} {41,41,203,-1,-1}
				q {22,22,22,-1,-1} {23,23,23,-1,-1} {43,43,43,-1,-1} {42,42,42,-1,-1}
				q {23,23,23,-1,-1} {24,24,24,-1,-1} {44,44,44,-1,-1} {43,43,43,-1,-1}
				q {24,24,24,-1,-1} {25,25,25,-1,-1} {45,45,45,-1,-1} {44,44,44,-1,-1}
				q {25,25,25,-1,-1} {26,26,26,-1,-1} {46,46,46,-1,-1} {45,45,45,-1,-1}
				q {26,26,26,-1,-1} {27,27,27,-1,-1} {47,47,47,-1,-1} {46,46,46,-1,-1}
				q {27,27,27,-1,-1} {28,28,28,-1,-1} {48,48,48,-1,-1} {47,47,47,-1,-1}
				q {28,28,28,-1,-1} {29,29,29,-1,-1} {49,49,49,-1,-1} {48,48,48,-1,-1}
				q {29,29,29,-1,-1} {30,30,30,-1,-1} {50,50,50,-1,-1} {49,49,49,-1,-1}
				q {30,30,30,-1,-1} {31,31,31,-1,-1} {51,51,51,-1,-1} {50,50,50,-1,-1}
				q {31,31,31,-1,-1} {32,32,32,-1,-1} {52,52,52,-1,-1} {51,51,51,-1,-1}
				q {32,32,32,-1,-1} {33,33,33,-1,-1} {53,53,53,-1,-1} {52,52,52,-1,-1}
				q {33,33,33,-1,-1} {34,34,34,-1,-1} {54,54,54,-1,-1} {53,53,53,-1,-1}
				q {34,34,34,-1,-1} {35,35,35,-1,-1} {55,55,55,-1,-1} {54,54,54,-1,-1}
				q {35,35,35,-1,-1} {36,36,36,-1,-1} {56,56,56,-1,-1} {55,55,55,-1,-1}
				q {36,36,36,-1,-1} {37,37,37,-1,-1} {57,57,57,-1,-1} {56,56,56,-1,-1}
				q {37,37,37,-1,-1} {38,38,38,-1,-1} {58,58,58,-1,-1} {57,57,57,-1,-1}
				q {38,38,38,-1,-1} {39,39,39,-1,-1} {59,59,59,-1,-1} {58,58,58,-1,-1}
				q {39,39,39,-1,-1} {40,40,40,-1,-1} {60,60,60,-1,-1} {59,59,59,-1,-1}
				q {40,40,40,-1,-1} {21,21,21,-1,-1} {41,41,41,-1,-1} {60,60,60,-1,-1}
				q {41,41,203,-1,-1} {42,42,42,-1,-1} {62,62,62,-1,-1} {61,61,204,-1,-1}
				q {42,42,42,-1,-1} {43,43,43,-1,-1} {63,63,63,-1,-1} {62,62,62,-1,-1}
				q {43,43,43,-1,-1} {44,44,44,-1,-1} {64,64,64,-1,-1} {63,63,63,-1,-1}
				q {44,44,44,-1,-1} {45,45,45,-1,-1} {65,65,65,-1,-1} {64,64,64,-1,-1}
				q {45,45,45,-1,-1} {46,46,46,-1,-1} {66,66,66,-1,-1} {65,65,65,-1,-1}
				q {46,46,46,-1,-1} {47,47,47,-1,-1} {67,67,67,-1,-1} {66,66,66,-1,-1}
				q {47,47,47,-1,-1} {48,48,48,-1,-1} {68,68,68,-1,-1} {67,67,67,-1,-1}
				q {48,48,48,-1,-1} {49,49,49,-1,-1} {69,69,69,-1,-1} {68,68,68,-1,-1}
				q {49,49,49,-1,-1} {50,50,50,-1,-1} {70,70,70,-1,-1} {69,69,69,-1,-1}
				q {50,50,50,-1,-1} {51,51,51,-1,-1} {71,71,71,-1,-1} {70,70,70,-1,-1}
				q {51,51,51,-1,-1} {52,52,52,-1,-1} {72,72,72,-1,-1} {71,71,71,-1,-1}
				q {52,52,52,-1,-1} {53,53,53,-1,-1} {73,73,73,-1,-1} {72,72,72,-1,-1}
				q {53,53,53,-1,-1} {54,54,54,-1,-1} {74,74,74,-1,-1} {73,73,73,-1,-1}
				q {54,54,54,-1,-1} {55,55,55,-1,-1} {75,75,75,-1,-1} {74,74,74,-1,-1}
				q {55,55,55,-1,-1} {56,56,56,-1,-1} {76,76,76,-1,-1} {75,75,75,-1,-1}
				q {56,56,56,-1,-1} {57,57,57,-1,-1} {77,77,77,-1,-1} {76,76,76,-1,-1}
				q {57,57,57,-1,-1} {58,58,58,-1,-1} {78,78,78,-1,-1} {77,77,77,-1,-1}
				q {58,58,58,-1,-1} {59,59,59,-1,-1} {79,79,79,-1,-1} {78,78,78,-1,-1}
				q {59,59,59,-1,-1} {60,60,60,-1,-1} {80,80,80,-1,-1} {79,79,79,-1,-1}
				q {60,60,60,-1,-1} {41,41,41,-1,-1} {61,61,61,-1,-1} {80,80,80,-1,-1}
				q {61,61,204,-1,-1} {62,62,62,-1,-1} {82,82,82,-1,-1} {81,81,205,-1,-1}
				q {62,62,62,-1,-1} {63,63,63,-1,-1} {83,83,83,-1,-1} {82,82,82,-1,-1}
				q {63,63,63,-1,-1} {64,64,64,-1,-1} {84,84,84,-1,-1} {83,83,83,-1,-1}
				q {64,64,64,-1,-1} {65,65,65,-1,-1} {85,85,85,-1,-1} {84,84,84,-1,-1}
				q {65,65,65,-1,-1} {66,66,66,-1,-1} {86,86,86,-1,-1} {85,85,85,-1,-1}
				q {66,66,66,-1,-1} {67,67,67,-1,-1} {87,87,87,-1,-1} {86,86,86,-1,-1}
				q {67,67,67,-1,-1} {68,68,68,-1,-1} {88,88,88,-1,-1} {87,87,87,-1,-1}
				q {68,68,68,-1,-1} {69,69,69,-1,-1} {89,89,89,-1,-1} {88,88,88,-1,-1}
				q {69,69,69,-1,-1} {70,70,70,-1,-1} {90,90,90,-1,-1} {89,89,89,-1,-1}
				q {70,70,70,-1,-1} {71,71,71,-1,-1} {91,91,91,-1,-1} {90,90,90,-1,-1}
				q {71,71,71,-1,-1} {72,72,72,-1,-1} {92,92,92,-1,-1} {91,91,91,-1,-1}
				q {72,72,72,-1,-1} {73,73,73,-1,-1} {93,93,93,-1,-1} {92,92,92,-1,-1}
				q {73,73,73,-1,-1} {74,74,74,-1,-1} {94,94,94,-1,-1} {93,93,93,-1,-1}
				q {74,74,74,-1,-1} {75,75,75,-1,-1} {95,95,95,-1,-1} {94,94,94,-1,-1}
				q {75,75,75,-1,-1} {76,76,76,-1,-1} {96,96,96,-1,-1} {95,95,95,-1,-1}
				q {76,76,76,-1,-1} {77,77,77,-1,-1} {97,97,97,-1,-1} {96,96,96,-1,-1}
				q {77,77,77,-1,-1} {78,78,78,-1,-1} {98,98,98,-1,-1} {97,97,97,-1,-1}
				q {78,78,78,-1,-1} {79,79,79,-1,-1} {99,99,99,-1,-1} {98,98,98,-1,-1}
				q {79,79,79,-1,-1} {80,80,80,-1,-1} {100,100,100,-1,-1} {99,99,99,-1,-1}
				q {80,80,80,-1,-1} {61,61,61,-1,-1} {81,81,81,-1,-1} {100,100,100,-1,-1}
				q {81,81,205,-1,-1} {82,82,82,-1,-1} {102,102,102,-1,-1} {101,101,206,-1,-1}
				q {82,82,82,-1,-1} {83,83,83,-1,-1} {103,103,103,-1,-1} {102,102,102,-1,-1}
				q {83,83,83,-1,-1} {84,84,84,-1,-1} {104,104,104,-1,-1} {103,103,103,-1,-1}
				q {84,84,84,-1,-1} {85,85,85,-1,-1} {105,105,105,-1,-1} {104,104,104,-1,-1}
				q {85,85,85,-1,-1} {86,86,86,-1,-1} {106,106,106,-1,-1} {105,105,105,-1,-1}
				q {86,86,86,-1,-1} {87,87,87,-1,-1} {107,107,107,-1,-1} {106,106,106,-1,-1}
				q {87,87,87,-1,-1} {88,88,88,-1,-1} {108,108,108,-1,-1} {107,107,107,-1,-1}
				q {88,88,88,-1,-1} {89,89,89,-1,-1} {109,109,109,-1,-1} {108,108,108,-1,-1}
				q {89,89,89,-1,-1} {90,90,90,-1,-1} {110,110,110,-1,-1} {109,109,109,-1,-1}
				q {90,90,90,-1,-1} {91,91,91,-1,-1} {111,111,111,-1,-1} {110,110,110,-1,-1}
				q {91,91,91,-1,-1} {92,92,92,-1,-1} {112,112,112,-1,-1} {111,111,111,-1,-1}
				q {92,92,92,-1,-1} {93,93,93,-1,-1} {113,113,113,-1,-1} {112,112,112,-1,-1}
				q {93,93,93,-1,-1} {94,94,94,-1,-1} {114,114,114,-1,-1} {113,113,113,-1,-1}
				q {94,94,94,-1,-1} {95,95,95,-1,-1} {115,115,115,-1,-1} {114,114,114,-1,-1}
				q {95,95,95,-1,-1} {96,96,96,-1,-1} {116,116,116,-1,-1} {115,115,115,-1,-1}
				q {96,96,96,-1,-1} {97,97,97,-1,-1} {117,117,117,-1,-1} {116,116,116,-1,-1}
				q {97,97,97,-1,-1} {98,98,98,-1,-1} {118,118,118,-1,-1} {117,117,117,-1,-1}
				q {98,98,98,-1,-1} {99,99,99,-1,-1} {119,119,119,-1,-1} {118,118,118,-1,-1}
				q {99,99,99,-1,-1} {100,100,100,-1,-1} {120,120,120,-1,-1} {119,119,119,-1,-1}
				q {100,100,100,-1,-1} {81,81,81,-1,-1} {101,101,101,-1,-1} {120,120,120,-1,-1}
				q {101,101,206,-1,-1} {102,102,102,-1,-1} {122,122,122,-1,-1} {121,121,207,-1,-1}
				q {102,102,102,-1,-1} {103,103,103,-1,-1} {123,123,123,-1,-1} {122,122,122,-1,-1}
				q {103,103,103,-1,-1} {104,104,104,-1,-1} {124,124,124,-1,-1} {123,123,123,-1,-1}
				q {104,104,104,-1,-1} {105,105,105,-1,-1} {125,125,125,-1,-1} {124,124,124,-1,-1}
				q {105,105,105,-1,-1} {106,106,106,-1,-1} {126,126,126,-1,-1} {125,125,125,-1,-1}
				q {106,106,106,-1,-1} {107,107,107,-1,-1} {127,127,127,-1,-1} {126,126,126,-1,-1}
				q {107,107,107,-1,-1} {108,108,108,-1,-1} {128,128,128,-1,-1} {127,127,127,-1,-1}
				q {108,108,108,-1,-1} {109,109,109,-1,-1} {129,129,129,-1,-1} {128,128,128,-1,-1}
				q {109,109,109,-1,-1} {110,110,110,-1,-1} {130,130,130,-1,-1} {129,129,129,-1,-1}
				q {110,110,110,-1,-1} {111,111,111,-1,-1} {131,131,131,-1,-1} {130,130,130,-1,-1}
				q {111,111,111,-1,-1} {112,112,112,-1,-1} {132,132,132,-1,-1} {131,131,131,-1,-1}
				q {112,112,112,-1,-1} {113,113,113,-1,-1} {133,133,133,-1,-1} {132,132,132,-1,-1}
				q {113,113,113,-1,-1} {114,114,114,-1,-1} {134,134,134,-1,-1} {133,133,133,-1,-1}
				q {114,114,114,-1,-1} {115,115,115,-1,-1} {135,135,135,-1,-1} {134,134,134,-1,-1}
				q {115,115,115,-1,-1} {116,116,116,-1,-1} {136,136,136,-1,-1} {135,135,135,-1,-1}
				q {116,116,116,-1,-1} {117,117,117,-1,-1} {137,137,137,-1,-1} {136,136,136,-1,-1}
				q {117,117,117,-1,-1} {118,118,118,-1,-1} {138,138,138,-1,-1} {137,137,137,-1,-1}
				q {118,118,118,-1,-1} {119,119,119,-1,-1} {139,139,139,-1,-1} {138,138,138,-1,-1}
				q {119,119,119,-1,-1} {120,120,120,-1,-1} {140,140,140,-1,-1} {139,139,139,-1,-1}
				q {120,120,120,-1,-1} {101,101,101,-1,-1} {121,121,121,-1,-1} {140,140,140,-1,-1}
				q {121,121,207,-1,-1} {122,122,122,-1,-1} {142,142,142,-1,-1} {141,141,208,-1,-1}
				q {122,122,122,-1,-1} {123,123,123,-1,-1} {143,143,143,-1,-1} {142,142,142,-1,-1}
				q {123,123,123,-1,-1} {124,124,124,-1,-1} {144,144,144,-1,-1} {143,143,143,-1,-1}
				q {124,124,124,-1,-1} {125,125,125,-1,-1} {145,145,145,-1,-1} {144,144,144,-1,-1}
				q {125,125,125,-1,-1} {126,126,126,-1,-1} {146,146,146,-1,-1} {145,145,145,-1,-1}
				q {126,126,126,-1,-1} {127,127,127,-1,-1} {147,147,147,-1,-1} {146,146,146,-1,-1}
				q {127,127,127,-1,-1} {128,128,128,-1,-1} {148,148,148,-1,-1} {147,147,147,-1,-1}
				q {128,128,128,-1,-1} {129,129,129,-1,-1} {149,149,149,-1,-1} {148,148,148,-1,-1}
				q {129,129,129,-1,-1} {130,130,130,-1,-1} {150,150,150,-1,-1} {149,149,149,-1,-1}
				q {130,130,130,-1,-1} {131,131,131,-1,-1} {151,151,151,-1,-1} {150,150,150,-1,-1}
				q {131,131,131,-1,-1} {132,132,132,-1,-1} {152,152,152,-1,-1} {151,151,151,-1,-1}
				q {132,132,132,-1,-1} {133,133,133,-1,-1} {153,153,153,-1,-1} {152,152,152,-1,-1}
				q {133,133,133,-1,-1} {134,134,134,-1,-1} {154,154,154,-1,-1} {153,153,153,-1,-1}
				q {134,134,134,-1,-1} {135,135,135,-1,-1} {155,155,155,-1,-1} {154,154,154,-1,-1}
				q {135,135,135,-1,-1} {136,136,136,-1,-1} {156,156,156,-1,-1} {155,155,155,-1,-1}
				q {136,136,136,-1,-1} {137,137,137,-1,-1} {157,157,157,-1,-1} {156,156,156,-1,-1}
				q {137,137,137,-1,-1} {138,138,138,-1,-1} {158,158,158,-1,-1} {157,157,157,-1,-1}
				q {138,138,138,-1,-1} {139,139,139,-1,-1} {159,159,159,-1,-1} {158,158,158,-1,-1}
				q {139,139,139,-1,-1} {140,140,140,-1,-1} {160,160,160,-1,-1} {159,159,159,-1,-1}
				q {140,140,140,-1,-1} {121,121,121,-1,-1} {141,141,141,-1,-1} {160,160,160,-1,-1}
				q {141,141,208,-1,-1} {142,142,142,-1,-1} {162,162,162,-1,-1} {161,161,209,-1,-1}
				q {142,142,142,-1,-1} {143,143,143,-1,-1} {163,163,163,-1,-1} {162,162,162,-1,-1}
				q {143,143,143,-1,-1} {144,144,144,-1,-1} {164,164,164,-1,-1} {163,163,163,-1,-1}
				q {144,144,144,-1,-1} {145,145,145,-1,-1} {165,165,165,-1,-1} {164,164,164,-1,-1}
				q {145,145,145,-1,-1} {146,146,146,-1,-1} {166,166,166,-1,-1} {165,165,165,-1,-1}
				q {146,146,146,-1,-1} {147,147,147,-1,-1} {167,167,167,-1,-1} {166,166,166,-1,-1}
				q {147,147,147,-1,-1} {148,148,148,-1,-1} {168,168,168,-1,-1} {167,167,167,-1,-1}
				q {148,148,148,-1,-1} {149,149,149,-1,-1} {169,169,169,-1,-1} {168,168,168,-1,-1}
				q {149,149,149,-1,-1} {150,150,150,-1,-1} {170,170,170,-1,-1} {169,169,169,-1,-1}
				q {150,150,150,-1,-1} {151,151,151,-1,-1} {171,171,171,-1,-1} {170,170,170,-1,-1}
				q {151,151,151,-1,-1} {152,152,152,-1,-1} {172,172,172,-1,-1} {171,171,171,-1,-1}
				q {152,152,152,-1,-1} {153,153,153,-1,-1} {173,173,173,-1,-1} {172,172,172,-1,-1}
				q {153,153,153,-1,-1} {154,154,154,-1,-1} {174,174,174,-1,-1} {173,173,173,-1,-1}
				q {154,154,154,-1,-1} {155,155,155,-1,-1} {175,175,175,-1,-1} {174,174,174,-1,-1}
				q {155,155,155,-1,-1} {156,156,156,-1,-1} {176,176,176,-1,-1} {175,175,175,-1,-1}
				q {156,156,156,-1,-1} {157,157,157,-1,-1} {177,177,177,-1,-1} {176,176,176,-1,-1}
				q {157,157,157,-1,-1} {158,158,158,-1,-1} {178,178,178,-1,-1} {177,177,177,-1,-1}
				q {158,158,158,-1,-1} {159,159,159,-1,-1} {179,179,179,-1,-1} {178,178,178,-1,-1}
				q {159,159,159,-1,-1} {160,160,160,-1,-1} {180,180,180,-1,-1} {179,179,179,-1,-1}
				q {160,160,160,-1,-1} {141,141,141,-1,-1} {161,161,161,-1,-1} {180,180,180,-1,-1}
			}
			CTris
			{
				numTris 40
				t {2,2,2,-1,-1} {1,1,183,-1,-1} {0,0,182,-1,-1}
				t {3,3,3,-1,-1} {2,2,2,-1,-1} {0,0,184,-1,-1}
				t {4,4,4,-1,-1} {3,3,3,-1,-1} {0,0,185,-1,-1}
				t {5,5,5,-1,-1} {4,4,4,-1,-1} {0,0,186,-1,-1}
				t {6,6,6,-1,-1} {5,5,5,-1,-1} {0,0,187,-1,-1}
				t {7,7,7,-1,-1} {6,6,6,-1,-1} {0,0,188,-1,-1}
				t {8,8,8,-1,-1} {7,7,7,-1,-1} {0,0,189,-1,-1}
				t {9,9,9,-1,-1} {8,8,8,-1,-1} {0,0,190,-1,-1}
				t {10,10,10,-1,-1} {9,9,9,-1,-1} {0,0,191,-1,-1}
				t {11,11,11,-1,-1} {10,10,10,-1,-1} {0,0,192,-1,-1}
				t {12,12,12,-1,-1} {11,11,11,-1,-1} {0,0,193,-1,-1}
				t {13,13,13,-1,-1} {12,12,12,-1,-1} {0,0,194,-1,-1}
				t {14,14,14,-1,-1} {13,13,13,-1,-1} {0,0,195,-1,-1}
				t {15,15,15,-1,-1} {14,14,14,-1,-1} {0,0,196,-1,-1}
				t {16,16,16,-1,-1} {15,15,15,-1,-1} {0,0,197,-1,-1}
				t {17,17,17,-1,-1} {16,16,16,-1,-1} {0,0,198,-1,-1}
				t {18,18,18,-1,-1} {17,17,17,-1,-1} {0,0,199,-1,-1}
				t {19,19,19,-1,-1} {18,18,18,-1,-1} {0,0,200,-1,-1}
				t {20,20,20,-1,-1} {19,19,19,-1,-1} {0,0,201,-1,-1}
				t {1,1,1,-1,-1} {20,20,20,-1,-1} {0,0,0,-1,-1}
				t {161,161,209,-1,-1} {162,162,162,-1,-1} {181,181,210,-1,-1}
				t {162,162,162,-1,-1} {163,163,163,-1,-1} {181,181,211,-1,-1}
				t {163,163,163,-1,-1} {164,164,164,-1,-1} {181,181,212,-1,-1}
				t {164,164,164,-1,-1} {165,165,165,-1,-1} {181,181,213,-1,-1}
				t {165,165,165,-1,-1} {166,166,166,-1,-1} {181,181,214,-1,-1}
				t {166,166,166,-1,-1} {167,167,167,-1,-1} {181,181,215,-1,-1}
				t {167,167,167,-1,-1} {168,168,168,-1,-1} {181,181,216,-1,-1}
				t {168,168,168,-1,-1} {169,169,169,-1,-1} {181,181,217,-1,-1}
				t {169,169,169,-1,-1} {170,170,170,-1,-1} {181,181,218,-1,-1}
				t {170,170,170,-1,-1} {171,171,171,-1,-1} {181,181,219,-1,-1}
				t {171,171,171,-1,-1} {172,172,172,-1,-1} {181,181,220,-1,-1}
				t {172,172,172,-1,-1} {173,173,173,-1,-1} {181,181,221,-1,-1}
				t {173,173,173,-1,-1} {174,174,174,-1,-1} {181,181,222,-1,-1}
				t {174,174,174,-1,-1} {175,175,175,-1,-1} {181,181,223,-1,-1}
				t {175,175,175,-1,-1} {176,176,176,-1,-1} {181,181,224,-1,-1}
				t {176,176,176,-1,-1} {177,177,177,-1,-1} {181,181,225,-1,-1}
				t {177,177,177,-1,-1} {178,178,178,-1,-1} {181,181,226,-1,-1}
				t {178,178,178,-1,-1} {179,179,179,-1,-1} {181,181,227,-1,-1}
				t {179,179,179,-1,-1} {180,180,180,-1,-1} {181,181,228,-1,-1}
				t {180,180,180,-1,-1} {161,161,161,-1,-1} {181,181,181,-1,-1}
			}
		}
	}
}
