// Source file: exportersexample.max
CIwModel
{
	name "Torus01"
	CMesh
	{
		name "Torus01"
		baseName ""
		scale 1.0
		CVerts
		{
			numVerts 216
			v {52.17650,9.21455,-22.11965}
			v {52.17650,13.66001,-20.92850}
			v {52.17650,16.91430,-17.67420}
			v {52.17650,18.10546,-13.22875}
			v {52.17650,16.91430,-8.78330}
			v {52.17650,13.66001,-5.52900}
			v {52.17650,9.21455,-4.33784}
			v {52.17650,4.76910,-5.52900}
			v {52.17650,1.51481,-8.78330}
			v {52.17650,0.32365,-13.22875}
			v {52.17650,1.51481,-17.67420}
			v {52.17650,4.76910,-20.92850}
			v {63.81789,9.21455,-20.06696}
			v {63.41048,13.66001,-18.94764}
			v {62.29745,16.91430,-15.88960}
			v {60.77702,18.10546,-11.71224}
			v {59.25658,16.91430,-7.53489}
			v {58.14355,13.66001,-4.47685}
			v {57.73615,9.21455,-3.35753}
			v {58.14355,4.76910,-4.47685}
			v {59.25658,1.51481,-7.53489}
			v {60.77702,0.32365,-11.71225}
			v {62.29745,1.51481,-15.88960}
			v {63.41049,4.76910,-18.94764}
			v {74.05515,9.21455,-14.15648}
			v {73.28949,13.66001,-13.24400}
			v {71.19767,16.91430,-10.75106}
			v {68.34019,18.10546,-7.34565}
			v {65.48270,16.91430,-3.94023}
			v {63.39088,13.66001,-1.44730}
			v {62.62523,9.21455,-0.53482}
			v {63.39088,4.76910,-1.44730}
			v {65.48270,1.51481,-3.94023}
			v {68.34019,0.32365,-7.34565}
			v {71.19767,1.51481,-10.75106}
			v {73.28949,4.76910,-13.24400}
			v {81.65353,9.21455,-5.10108}
			v {80.62196,13.66001,-4.50550}
			v {77.80365,16.91430,-2.87836}
			v {73.95378,18.10546,-0.65563}
			v {70.10390,16.91430,1.56710}
			v {67.28560,13.66001,3.19424}
			v {66.25403,9.21455,3.78982}
			v {67.28560,4.76910,3.19424}
			v {70.10390,1.51481,1.56710}
			v {73.95378,0.32365,-0.65563}
			v {77.80365,1.51481,-2.87836}
			v {80.62196,4.76910,-4.50550}
			v {85.69653,9.21455,6.00700}
			v {84.52348,13.66001,6.21384}
			v {81.31862,16.91430,6.77895}
			v {76.94070,18.10546,7.55089}
			v {72.56279,16.91430,8.32283}
			v {69.35793,13.66001,8.88794}
			v {68.18488,9.21455,9.09478}
			v {69.35793,4.76910,8.88794}
			v {72.56279,1.51481,8.32283}
			v {76.94070,0.32365,7.55089}
			v {81.31862,1.51481,6.77895}
			v {84.52348,4.76910,6.21384}
			v {85.69653,9.21455,17.82798}
			v {84.52348,13.66001,17.62114}
			v {81.31862,16.91430,17.05603}
			v {76.94070,18.10546,16.28409}
			v {72.56279,16.91430,15.51214}
			v {69.35793,13.66001,14.94704}
			v {68.18488,9.21455,14.74020}
			v {69.35793,4.76910,14.94704}
			v {72.56279,1.51481,15.51214}
			v {76.94070,0.32365,16.28409}
			v {81.31862,1.51481,17.05603}
			v {84.52348,4.76910,17.62114}
			v {81.65353,9.21455,28.93606}
			v {80.62196,13.66001,28.34048}
			v {77.80365,16.91430,26.71333}
			v {73.95378,18.10546,24.49061}
			v {70.10390,16.91430,22.26788}
			v {67.28560,13.66001,20.64073}
			v {66.25403,9.21455,20.04515}
			v {67.28560,4.76910,20.64073}
			v {70.10390,1.51481,22.26788}
			v {73.95378,0.32365,24.49061}
			v {77.80365,1.51481,26.71334}
			v {80.62196,4.76910,28.34048}
			v {74.05515,9.21455,37.99146}
			v {73.28949,13.66001,37.07897}
			v {71.19766,16.91430,34.58604}
			v {68.34019,18.10546,31.18062}
			v {65.48270,16.91430,27.77521}
			v {63.39088,13.66001,25.28227}
			v {62.62522,9.21455,24.36980}
			v {63.39088,4.76910,25.28227}
			v {65.48270,1.51481,27.77521}
			v {68.34019,0.32365,31.18063}
			v {71.19767,1.51481,34.58604}
			v {73.28949,4.76910,37.07898}
			v {63.81788,9.21455,43.90194}
			v {63.41048,13.66001,42.78262}
			v {62.29745,16.91430,39.72458}
			v {60.77702,18.10546,35.54722}
			v {59.25658,16.91430,31.36986}
			v {58.14355,13.66001,28.31182}
			v {57.73615,9.21455,27.19250}
			v {58.14355,4.76910,28.31182}
			v {59.25658,1.51481,31.36986}
			v {60.77702,0.32365,35.54723}
			v {62.29745,1.51481,39.72458}
			v {63.41048,4.76910,42.78262}
			v {52.17649,9.21455,45.95463}
			v {52.17649,13.66001,44.76347}
			v {52.17649,16.91430,41.50918}
			v {52.17649,18.10546,37.06372}
			v {52.17649,16.91430,32.61827}
			v {52.17649,13.66001,29.36398}
			v {52.17649,9.21455,28.17282}
			v {52.17649,4.76910,29.36398}
			v {52.17649,1.51481,32.61827}
			v {52.17649,0.32365,37.06373}
			v {52.17649,1.51481,41.50918}
			v {52.17649,4.76910,44.76347}
			v {40.53511,9.21455,43.90194}
			v {40.94250,13.66001,42.78262}
			v {42.05554,16.91430,39.72458}
			v {43.57598,18.10546,35.54722}
			v {45.09641,16.91430,31.36986}
			v {46.20945,13.66001,28.31182}
			v {46.61684,9.21455,27.19250}
			v {46.20945,4.76910,28.31182}
			v {45.09641,1.51481,31.36986}
			v {43.57597,0.32365,35.54722}
			v {42.05554,1.51481,39.72458}
			v {40.94250,4.76910,42.78262}
			v {30.29784,9.21455,37.99145}
			v {31.06350,13.66001,37.07897}
			v {33.15532,16.91430,34.58603}
			v {36.01281,18.10546,31.18062}
			v {38.87029,16.91430,27.77521}
			v {40.96211,13.66001,25.28227}
			v {41.72777,9.21455,24.36979}
			v {40.96211,4.76910,25.28227}
			v {38.87029,1.51481,27.77521}
			v {36.01280,0.32365,31.18062}
			v {33.15532,1.51481,34.58604}
			v {31.06350,4.76910,37.07897}
			v {22.69947,9.21455,28.93605}
			v {23.73104,13.66001,28.34048}
			v {26.54934,16.91430,26.71333}
			v {30.39922,18.10546,24.49060}
			v {34.24909,16.91430,22.26788}
			v {37.06739,13.66001,20.64073}
			v {38.09897,9.21455,20.04515}
			v {37.06739,4.76910,20.64073}
			v {34.24909,1.51481,22.26788}
			v {30.39922,0.32365,24.49060}
			v {26.54934,1.51481,26.71333}
			v {23.73104,4.76910,28.34048}
			v {18.65646,9.21455,17.82797}
			v {19.82952,13.66001,17.62113}
			v {23.03437,16.91430,17.05602}
			v {27.41229,18.10546,16.28408}
			v {31.79021,16.91430,15.51214}
			v {34.99506,13.66001,14.94703}
			v {36.16812,9.21455,14.74019}
			v {34.99506,4.76910,14.94703}
			v {31.79020,1.51481,15.51214}
			v {27.41229,0.32365,16.28408}
			v {23.03437,1.51481,17.05602}
			v {19.82951,4.76910,17.62113}
			v {18.65646,9.21455,6.00699}
			v {19.82952,13.66001,6.21384}
			v {23.03437,16.91430,6.77894}
			v {27.41229,18.10546,7.55088}
			v {31.79021,16.91430,8.32283}
			v {34.99506,13.66001,8.88793}
			v {36.16812,9.21455,9.09478}
			v {34.99506,4.76910,8.88793}
			v {31.79021,1.51481,8.32283}
			v {27.41229,0.32365,7.55088}
			v {23.03437,1.51481,6.77894}
			v {19.82952,4.76910,6.21384}
			v {22.69947,9.21455,-5.10109}
			v {23.73104,13.66001,-4.50551}
			v {26.54935,16.91430,-2.87836}
			v {30.39922,18.10546,-0.65564}
			v {34.24910,16.91430,1.56709}
			v {37.06740,13.66001,3.19424}
			v {38.09897,9.21455,3.78982}
			v {37.06740,4.76910,3.19424}
			v {34.24910,1.51481,1.56709}
			v {30.39922,0.32365,-0.65564}
			v {26.54935,1.51481,-2.87836}
			v {23.73104,4.76910,-4.50551}
			v {30.29785,9.21455,-14.15648}
			v {31.06351,13.66001,-13.24400}
			v {33.15533,16.91430,-10.75107}
			v {36.01282,18.10546,-7.34565}
			v {38.87030,16.91430,-3.94024}
			v {40.96212,13.66001,-1.44730}
			v {41.72778,9.21455,-0.53482}
			v {40.96212,4.76910,-1.44730}
			v {38.87029,1.51481,-3.94024}
			v {36.01281,0.32365,-7.34565}
			v {33.15533,1.51481,-10.75107}
			v {31.06351,4.76910,-13.24400}
			v {40.53512,9.21455,-20.06697}
			v {40.94252,13.66001,-18.94765}
			v {42.05555,16.91430,-15.88961}
			v {43.57599,18.10546,-11.71225}
			v {45.09642,16.91430,-7.53489}
			v {46.20945,13.66001,-4.47685}
			v {46.61685,9.21455,-3.35753}
			v {46.20945,4.76910,-4.47685}
			v {45.09642,1.51481,-7.53489}
			v {43.57598,0.32365,-11.71225}
			v {42.05555,1.51481,-15.88961}
			v {40.94252,4.76910,-18.94765}
		}
		CVertNorms
		{
			numVertNorms 198
			vn {0.00000,-0.00000,-1}
			vn {0.29853,0.48799,-0.82021}
			vn {0.34202,0.00000,-0.93969}
			vn {0.00000,0.48799,-0.87285}
			vn {0.17817,0.85360,-0.48952}
			vn {0.00000,0.85360,-0.52093}
			vn {0.00983,0.99959,-0.02700}
			vn {0.00000,0.99959,-0.02874}
			vn {-0.16343,0.87844,0.44903}
			vn {-0.00000,0.87844,0.47784}
			vn {-0.29362,0.51282,0.80672}
			vn {-0.00000,0.51282,0.85850}
			vn {-0.34202,-0.00000,0.93969}
			vn {-0.00000,-0.00000,1}
			vn {-0.29362,-0.51282,0.80672}
			vn {-0.00000,-0.51282,0.85850}
			vn {-0.16343,-0.87844,0.44903}
			vn {-0.00000,-0.87844,0.47784}
			vn {0.00983,-0.99959,-0.02700}
			vn {-0.00000,-0.99959,-0.02874}
			vn {0.17817,-0.85360,-0.48952}
			vn {0.00000,-0.85360,-0.52093}
			vn {0.29853,-0.48799,-0.82021}
			vn {0.00000,-0.48799,-0.87285}
			vn {0.56106,0.48799,-0.66864}
			vn {0.64279,0.00000,-0.76604}
			vn {0.33485,0.85360,-0.39906}
			vn {0.01847,0.99959,-0.02201}
			vn {-0.30715,0.87844,0.36605}
			vn {-0.55183,0.51282,0.65765}
			vn {-0.64279,-0.00000,0.76604}
			vn {-0.55183,-0.51282,0.65765}
			vn {-0.30715,-0.87844,0.36605}
			vn {0.01847,-0.99959,-0.02201}
			vn {0.33485,-0.85360,-0.39906}
			vn {0.56106,-0.48799,-0.66864}
			vn {0.75591,0.48799,-0.43643}
			vn {0.86603,-0.00000,-0.50000}
			vn {0.45114,0.85360,-0.26047}
			vn {0.02489,0.99959,-0.01437}
			vn {-0.41383,0.87844,0.23892}
			vn {-0.74348,0.51282,0.42925}
			vn {-0.86603,-0.00000,0.50000}
			vn {-0.74348,-0.51282,0.42925}
			vn {-0.41383,-0.87844,0.23892}
			vn {0.02489,-0.99959,-0.01437}
			vn {0.45114,-0.85360,-0.26047}
			vn {0.75591,-0.48799,-0.43643}
			vn {0.85959,0.48799,-0.15157}
			vn {0.98481,-0.00000,-0.17365}
			vn {0.51302,0.85360,-0.09046}
			vn {0.02830,0.99959,-0.00499}
			vn {-0.47059,0.87844,0.08298}
			vn {-0.84546,0.51282,0.14908}
			vn {-0.98481,-0.00000,0.17365}
			vn {-0.84546,-0.51282,0.14908}
			vn {-0.47059,-0.87844,0.08298}
			vn {0.02830,-0.99959,-0.00499}
			vn {0.51302,-0.85360,-0.09046}
			vn {0.85959,-0.48799,-0.15157}
			vn {0.85959,0.48799,0.15157}
			vn {0.98481,-0.00000,0.17365}
			vn {0.51302,0.85360,0.09046}
			vn {0.02830,0.99959,0.00499}
			vn {-0.47059,0.87844,-0.08298}
			vn {-0.84546,0.51282,-0.14908}
			vn {-0.98481,-0.00000,-0.17365}
			vn {-0.84546,-0.51282,-0.14908}
			vn {-0.47059,-0.87844,-0.08298}
			vn {0.02830,-0.99959,0.00499}
			vn {0.51302,-0.85360,0.09046}
			vn {0.85959,-0.48799,0.15157}
			vn {0.75591,0.48799,0.43643}
			vn {0.86603,-0.00000,0.50000}
			vn {0.45114,0.85360,0.26047}
			vn {0.02489,0.99959,0.01437}
			vn {-0.41383,0.87844,-0.23892}
			vn {-0.74348,0.51282,-0.42925}
			vn {-0.86603,-0.00000,-0.50000}
			vn {-0.74348,-0.51282,-0.42925}
			vn {-0.41383,-0.87844,-0.23892}
			vn {0.02489,-0.99959,0.01437}
			vn {0.45114,-0.85360,0.26047}
			vn {0.75591,-0.48799,0.43643}
			vn {0.56106,0.48799,0.66864}
			vn {0.64279,0.00000,0.76604}
			vn {0.33485,0.85360,0.39906}
			vn {0.01847,0.99959,0.02201}
			vn {-0.30715,0.87844,-0.36605}
			vn {-0.55183,0.51282,-0.65765}
			vn {-0.64279,-0.00000,-0.76604}
			vn {-0.55183,-0.51282,-0.65765}
			vn {-0.30715,-0.87844,-0.36605}
			vn {0.01847,-0.99959,0.02201}
			vn {0.33485,-0.85360,0.39906}
			vn {0.56106,-0.48799,0.66864}
			vn {0.29853,0.48799,0.82021}
			vn {0.34202,0.00000,0.93969}
			vn {0.17817,0.85360,0.48952}
			vn {0.00983,0.99959,0.02700}
			vn {-0.16343,0.87844,-0.44903}
			vn {-0.29362,0.51282,-0.80672}
			vn {-0.34202,-0.00000,-0.93969}
			vn {-0.29362,-0.51282,-0.80672}
			vn {-0.16343,-0.87844,-0.44903}
			vn {0.00983,-0.99959,0.02700}
			vn {0.17817,-0.85360,0.48952}
			vn {0.29853,-0.48799,0.82021}
			vn {-0.00000,0.48799,0.87285}
			vn {-0.00000,0.85360,0.52093}
			vn {-0.00000,0.99959,0.02874}
			vn {0.00000,0.87844,-0.47784}
			vn {0.00000,0.51282,-0.85850}
			vn {0.00000,-0.51282,-0.85850}
			vn {0.00000,-0.87844,-0.47784}
			vn {-0.00000,-0.99959,0.02874}
			vn {-0.00000,-0.85360,0.52093}
			vn {-0.00000,-0.48799,0.87285}
			vn {-0.29853,0.48799,0.82021}
			vn {-0.17817,0.85360,0.48952}
			vn {-0.00983,0.99959,0.02700}
			vn {0.16343,0.87844,-0.44903}
			vn {0.29362,0.51282,-0.80672}
			vn {0.29362,-0.51282,-0.80672}
			vn {0.16343,-0.87844,-0.44903}
			vn {-0.00983,-0.99959,0.02700}
			vn {-0.17817,-0.85360,0.48952}
			vn {-0.29853,-0.48799,0.82021}
			vn {-0.56106,0.48799,0.66864}
			vn {-0.33485,0.85360,0.39906}
			vn {-0.01847,0.99959,0.02201}
			vn {0.30715,0.87844,-0.36605}
			vn {0.55183,0.51282,-0.65765}
			vn {0.55183,-0.51282,-0.65765}
			vn {0.30715,-0.87844,-0.36605}
			vn {-0.01847,-0.99959,0.02201}
			vn {-0.33485,-0.85360,0.39906}
			vn {-0.56106,-0.48799,0.66864}
			vn {-0.75591,0.48799,0.43643}
			vn {-0.45114,0.85360,0.26047}
			vn {-0.02489,0.99959,0.01437}
			vn {0.41383,0.87844,-0.23892}
			vn {0.74348,0.51282,-0.42925}
			vn {0.74348,-0.51282,-0.42925}
			vn {0.41383,-0.87844,-0.23892}
			vn {-0.02489,-0.99959,0.01437}
			vn {-0.45114,-0.85360,0.26047}
			vn {-0.75591,-0.48799,0.43643}
			vn {-0.85959,0.48799,0.15157}
			vn {-0.51302,0.85360,0.09046}
			vn {-0.02830,0.99959,0.00499}
			vn {0.47059,0.87844,-0.08298}
			vn {0.84546,0.51282,-0.14908}
			vn {0.84546,-0.51282,-0.14908}
			vn {0.47059,-0.87844,-0.08298}
			vn {-0.02830,-0.99959,0.00499}
			vn {-0.51302,-0.85360,0.09046}
			vn {-0.85959,-0.48799,0.15157}
			vn {-0.85959,0.48799,-0.15157}
			vn {-0.51302,0.85360,-0.09046}
			vn {-0.02830,0.99959,-0.00499}
			vn {0.47059,0.87844,0.08298}
			vn {0.84546,0.51282,0.14908}
			vn {0.84546,-0.51282,0.14908}
			vn {0.47058,-0.87844,0.08298}
			vn {-0.02830,-0.99959,-0.00499}
			vn {-0.51302,-0.85360,-0.09046}
			vn {-0.85959,-0.48799,-0.15157}
			vn {-0.75591,0.48799,-0.43643}
			vn {-0.45114,0.85360,-0.26047}
			vn {-0.02489,0.99959,-0.01437}
			vn {0.41383,0.87844,0.23892}
			vn {0.74348,0.51282,0.42925}
			vn {0.74348,-0.51282,0.42925}
			vn {0.41383,-0.87844,0.23892}
			vn {-0.02489,-0.99959,-0.01437}
			vn {-0.45114,-0.85360,-0.26047}
			vn {-0.75591,-0.48799,-0.43643}
			vn {-0.56106,0.48799,-0.66864}
			vn {-0.33485,0.85360,-0.39906}
			vn {-0.01847,0.99959,-0.02201}
			vn {0.30715,0.87844,0.36605}
			vn {0.55183,0.51282,0.65765}
			vn {0.55183,-0.51282,0.65765}
			vn {0.30715,-0.87844,0.36605}
			vn {-0.01847,-0.99959,-0.02201}
			vn {-0.33485,-0.85360,-0.39906}
			vn {-0.56106,-0.48799,-0.66864}
			vn {-0.29853,0.48799,-0.82021}
			vn {-0.17817,0.85360,-0.48952}
			vn {-0.00983,0.99959,-0.02700}
			vn {0.16343,0.87844,0.44903}
			vn {0.29362,0.51282,0.80672}
			vn {0.29362,-0.51282,0.80672}
			vn {0.16343,-0.87844,0.44903}
			vn {-0.00983,-0.99959,-0.02700}
			vn {-0.17817,-0.85360,-0.48952}
			vn {-0.29853,-0.48799,-0.82021}
		}
		CUVs
		{
			setID 0
			numUVs 247
			uv {0,1}
			uv {0.08333,1}
			uv {0.16667,1}
			uv {0.25000,1}
			uv {0.33333,1}
			uv {0.41667,1}
			uv {0.50000,1}
			uv {0.58333,1}
			uv {0.66667,1}
			uv {0.75000,1}
			uv {0.83333,1}
			uv {0.91667,1}
			uv {1,1}
			uv {0,0.94444}
			uv {0.08333,0.94444}
			uv {0.16667,0.94444}
			uv {0.25000,0.94444}
			uv {0.33333,0.94444}
			uv {0.41667,0.94444}
			uv {0.50000,0.94444}
			uv {0.58333,0.94444}
			uv {0.66667,0.94444}
			uv {0.75000,0.94444}
			uv {0.83333,0.94444}
			uv {0.91667,0.94444}
			uv {1,0.94444}
			uv {0,0.88889}
			uv {0.08333,0.88889}
			uv {0.16667,0.88889}
			uv {0.25000,0.88889}
			uv {0.33333,0.88889}
			uv {0.41667,0.88889}
			uv {0.50000,0.88889}
			uv {0.58333,0.88889}
			uv {0.66667,0.88889}
			uv {0.75000,0.88889}
			uv {0.83333,0.88889}
			uv {0.91667,0.88889}
			uv {1,0.88889}
			uv {0,0.83333}
			uv {0.08333,0.83333}
			uv {0.16667,0.83333}
			uv {0.25000,0.83333}
			uv {0.33333,0.83333}
			uv {0.41667,0.83333}
			uv {0.50000,0.83333}
			uv {0.58333,0.83333}
			uv {0.66667,0.83333}
			uv {0.75000,0.83333}
			uv {0.83333,0.83333}
			uv {0.91667,0.83333}
			uv {1,0.83333}
			uv {0,0.77778}
			uv {0.08333,0.77778}
			uv {0.16667,0.77778}
			uv {0.25000,0.77778}
			uv {0.33333,0.77778}
			uv {0.41667,0.77778}
			uv {0.50000,0.77778}
			uv {0.58333,0.77778}
			uv {0.66667,0.77778}
			uv {0.75000,0.77778}
			uv {0.83333,0.77778}
			uv {0.91667,0.77778}
			uv {1,0.77778}
			uv {0,0.72222}
			uv {0.08333,0.72222}
			uv {0.16667,0.72222}
			uv {0.25000,0.72222}
			uv {0.33333,0.72222}
			uv {0.41667,0.72222}
			uv {0.50000,0.72222}
			uv {0.58333,0.72222}
			uv {0.66667,0.72222}
			uv {0.75000,0.72222}
			uv {0.83333,0.72222}
			uv {0.91667,0.72222}
			uv {1,0.72222}
			uv {0,0.66667}
			uv {0.08333,0.66667}
			uv {0.16667,0.66667}
			uv {0.25000,0.66667}
			uv {0.33333,0.66667}
			uv {0.41667,0.66667}
			uv {0.50000,0.66667}
			uv {0.58333,0.66667}
			uv {0.66667,0.66667}
			uv {0.75000,0.66667}
			uv {0.83333,0.66667}
			uv {0.91667,0.66667}
			uv {1,0.66667}
			uv {0,0.61111}
			uv {0.08333,0.61111}
			uv {0.16667,0.61111}
			uv {0.25000,0.61111}
			uv {0.33333,0.61111}
			uv {0.41667,0.61111}
			uv {0.50000,0.61111}
			uv {0.58333,0.61111}
			uv {0.66667,0.61111}
			uv {0.75000,0.61111}
			uv {0.83333,0.61111}
			uv {0.91667,0.61111}
			uv {1,0.61111}
			uv {0,0.55556}
			uv {0.08333,0.55556}
			uv {0.16667,0.55556}
			uv {0.25000,0.55556}
			uv {0.33333,0.55556}
			uv {0.41667,0.55556}
			uv {0.50000,0.55556}
			uv {0.58333,0.55556}
			uv {0.66667,0.55556}
			uv {0.75000,0.55556}
			uv {0.83333,0.55556}
			uv {0.91667,0.55556}
			uv {1,0.55556}
			uv {0,0.50000}
			uv {0.08333,0.50000}
			uv {0.16667,0.50000}
			uv {0.25000,0.50000}
			uv {0.33333,0.50000}
			uv {0.41667,0.50000}
			uv {0.50000,0.50000}
			uv {0.58333,0.50000}
			uv {0.66667,0.50000}
			uv {0.75000,0.50000}
			uv {0.83333,0.50000}
			uv {0.91667,0.50000}
			uv {1,0.50000}
			uv {0,0.44444}
			uv {0.08333,0.44444}
			uv {0.16667,0.44444}
			uv {0.25000,0.44444}
			uv {0.33333,0.44444}
			uv {0.41667,0.44444}
			uv {0.50000,0.44444}
			uv {0.58333,0.44444}
			uv {0.66667,0.44444}
			uv {0.75000,0.44444}
			uv {0.83333,0.44444}
			uv {0.91667,0.44444}
			uv {1,0.44444}
			uv {0,0.38889}
			uv {0.08333,0.38889}
			uv {0.16667,0.38889}
			uv {0.25000,0.38889}
			uv {0.33333,0.38889}
			uv {0.41667,0.38889}
			uv {0.50000,0.38889}
			uv {0.58333,0.38889}
			uv {0.66667,0.38889}
			uv {0.75000,0.38889}
			uv {0.83333,0.38889}
			uv {0.91667,0.38889}
			uv {1,0.38889}
			uv {0,0.33333}
			uv {0.08333,0.33333}
			uv {0.16667,0.33333}
			uv {0.25000,0.33333}
			uv {0.33333,0.33333}
			uv {0.41667,0.33333}
			uv {0.50000,0.33333}
			uv {0.58333,0.33333}
			uv {0.66667,0.33333}
			uv {0.75000,0.33333}
			uv {0.83333,0.33333}
			uv {0.91667,0.33333}
			uv {1,0.33333}
			uv {0,0.27778}
			uv {0.08333,0.27778}
			uv {0.16667,0.27778}
			uv {0.25000,0.27778}
			uv {0.33333,0.27778}
			uv {0.41667,0.27778}
			uv {0.50000,0.27778}
			uv {0.58333,0.27778}
			uv {0.66667,0.27778}
			uv {0.75000,0.27778}
			uv {0.83333,0.27778}
			uv {0.91667,0.27778}
			uv {1,0.27778}
			uv {0,0.22222}
			uv {0.08333,0.22222}
			uv {0.16667,0.22222}
			uv {0.25000,0.22222}
			uv {0.33333,0.22222}
			uv {0.41667,0.22222}
			uv {0.50000,0.22222}
			uv {0.58333,0.22222}
			uv {0.66667,0.22222}
			uv {0.75000,0.22222}
			uv {0.83333,0.22222}
			uv {0.91667,0.22222}
			uv {1,0.22222}
			uv {0,0.16667}
			uv {0.08333,0.16667}
			uv {0.16667,0.16667}
			uv {0.25000,0.16667}
			uv {0.33333,0.16667}
			uv {0.41667,0.16667}
			uv {0.50000,0.16667}
			uv {0.58333,0.16667}
			uv {0.66667,0.16667}
			uv {0.75000,0.16667}
			uv {0.83333,0.16667}
			uv {0.91667,0.16667}
			uv {1,0.16667}
			uv {0,0.11111}
			uv {0.08333,0.11111}
			uv {0.16667,0.11111}
			uv {0.25000,0.11111}
			uv {0.33333,0.11111}
			uv {0.41667,0.11111}
			uv {0.50000,0.11111}
			uv {0.58333,0.11111}
			uv {0.66667,0.11111}
			uv {0.75000,0.11111}
			uv {0.83333,0.11111}
			uv {0.91667,0.11111}
			uv {1,0.11111}
			uv {0,0.05556}
			uv {0.08333,0.05556}
			uv {0.16667,0.05556}
			uv {0.25000,0.05556}
			uv {0.33333,0.05556}
			uv {0.41667,0.05556}
			uv {0.50000,0.05556}
			uv {0.58333,0.05556}
			uv {0.66667,0.05556}
			uv {0.75000,0.05556}
			uv {0.83333,0.05556}
			uv {0.91667,0.05556}
			uv {1,0.05556}
			uv {0,0}
			uv {0.08333,0}
			uv {0.16667,0}
			uv {0.25000,0}
			uv {0.33333,0}
			uv {0.41667,0}
			uv {0.50000,0}
			uv {0.58333,0}
			uv {0.66667,0}
			uv {0.75000,0}
			uv {0.83333,0}
			uv {0.91667,0}
			uv {1,0}
		}
		CSurface
		{
			material "DefaultMaterial00"
			CQuads
			{
				numQuads 216
				q {13,1,14,-1,-1} {1,3,1,-1,-1} {0,0,0,-1,-1} {12,2,13,-1,-1}
				q {14,4,15,-1,-1} {2,5,2,-1,-1} {1,3,1,-1,-1} {13,1,14,-1,-1}
				q {15,6,16,-1,-1} {3,7,3,-1,-1} {2,5,2,-1,-1} {14,4,15,-1,-1}
				q {16,8,17,-1,-1} {4,9,4,-1,-1} {3,7,3,-1,-1} {15,6,16,-1,-1}
				q {17,10,18,-1,-1} {5,11,5,-1,-1} {4,9,4,-1,-1} {16,8,17,-1,-1}
				q {18,12,19,-1,-1} {6,13,6,-1,-1} {5,11,5,-1,-1} {17,10,18,-1,-1}
				q {19,14,20,-1,-1} {7,15,7,-1,-1} {6,13,6,-1,-1} {18,12,19,-1,-1}
				q {20,16,21,-1,-1} {8,17,8,-1,-1} {7,15,7,-1,-1} {19,14,20,-1,-1}
				q {21,18,22,-1,-1} {9,19,9,-1,-1} {8,17,8,-1,-1} {20,16,21,-1,-1}
				q {22,20,23,-1,-1} {10,21,10,-1,-1} {9,19,9,-1,-1} {21,18,22,-1,-1}
				q {23,22,24,-1,-1} {11,23,11,-1,-1} {10,21,10,-1,-1} {22,20,23,-1,-1}
				q {12,2,25,-1,-1} {0,0,12,-1,-1} {11,23,11,-1,-1} {23,22,24,-1,-1}
				q {25,24,27,-1,-1} {13,1,14,-1,-1} {12,2,13,-1,-1} {24,25,26,-1,-1}
				q {26,26,28,-1,-1} {14,4,15,-1,-1} {13,1,14,-1,-1} {25,24,27,-1,-1}
				q {27,27,29,-1,-1} {15,6,16,-1,-1} {14,4,15,-1,-1} {26,26,28,-1,-1}
				q {28,28,30,-1,-1} {16,8,17,-1,-1} {15,6,16,-1,-1} {27,27,29,-1,-1}
				q {29,29,31,-1,-1} {17,10,18,-1,-1} {16,8,17,-1,-1} {28,28,30,-1,-1}
				q {30,30,32,-1,-1} {18,12,19,-1,-1} {17,10,18,-1,-1} {29,29,31,-1,-1}
				q {31,31,33,-1,-1} {19,14,20,-1,-1} {18,12,19,-1,-1} {30,30,32,-1,-1}
				q {32,32,34,-1,-1} {20,16,21,-1,-1} {19,14,20,-1,-1} {31,31,33,-1,-1}
				q {33,33,35,-1,-1} {21,18,22,-1,-1} {20,16,21,-1,-1} {32,32,34,-1,-1}
				q {34,34,36,-1,-1} {22,20,23,-1,-1} {21,18,22,-1,-1} {33,33,35,-1,-1}
				q {35,35,37,-1,-1} {23,22,24,-1,-1} {22,20,23,-1,-1} {34,34,36,-1,-1}
				q {24,25,38,-1,-1} {12,2,25,-1,-1} {23,22,24,-1,-1} {35,35,37,-1,-1}
				q {37,36,40,-1,-1} {25,24,27,-1,-1} {24,25,26,-1,-1} {36,37,39,-1,-1}
				q {38,38,41,-1,-1} {26,26,28,-1,-1} {25,24,27,-1,-1} {37,36,40,-1,-1}
				q {39,39,42,-1,-1} {27,27,29,-1,-1} {26,26,28,-1,-1} {38,38,41,-1,-1}
				q {40,40,43,-1,-1} {28,28,30,-1,-1} {27,27,29,-1,-1} {39,39,42,-1,-1}
				q {41,41,44,-1,-1} {29,29,31,-1,-1} {28,28,30,-1,-1} {40,40,43,-1,-1}
				q {42,42,45,-1,-1} {30,30,32,-1,-1} {29,29,31,-1,-1} {41,41,44,-1,-1}
				q {43,43,46,-1,-1} {31,31,33,-1,-1} {30,30,32,-1,-1} {42,42,45,-1,-1}
				q {44,44,47,-1,-1} {32,32,34,-1,-1} {31,31,33,-1,-1} {43,43,46,-1,-1}
				q {45,45,48,-1,-1} {33,33,35,-1,-1} {32,32,34,-1,-1} {44,44,47,-1,-1}
				q {46,46,49,-1,-1} {34,34,36,-1,-1} {33,33,35,-1,-1} {45,45,48,-1,-1}
				q {47,47,50,-1,-1} {35,35,37,-1,-1} {34,34,36,-1,-1} {46,46,49,-1,-1}
				q {36,37,51,-1,-1} {24,25,38,-1,-1} {35,35,37,-1,-1} {47,47,50,-1,-1}
				q {49,48,53,-1,-1} {37,36,40,-1,-1} {36,37,39,-1,-1} {48,49,52,-1,-1}
				q {50,50,54,-1,-1} {38,38,41,-1,-1} {37,36,40,-1,-1} {49,48,53,-1,-1}
				q {51,51,55,-1,-1} {39,39,42,-1,-1} {38,38,41,-1,-1} {50,50,54,-1,-1}
				q {52,52,56,-1,-1} {40,40,43,-1,-1} {39,39,42,-1,-1} {51,51,55,-1,-1}
				q {53,53,57,-1,-1} {41,41,44,-1,-1} {40,40,43,-1,-1} {52,52,56,-1,-1}
				q {54,54,58,-1,-1} {42,42,45,-1,-1} {41,41,44,-1,-1} {53,53,57,-1,-1}
				q {55,55,59,-1,-1} {43,43,46,-1,-1} {42,42,45,-1,-1} {54,54,58,-1,-1}
				q {56,56,60,-1,-1} {44,44,47,-1,-1} {43,43,46,-1,-1} {55,55,59,-1,-1}
				q {57,57,61,-1,-1} {45,45,48,-1,-1} {44,44,47,-1,-1} {56,56,60,-1,-1}
				q {58,58,62,-1,-1} {46,46,49,-1,-1} {45,45,48,-1,-1} {57,57,61,-1,-1}
				q {59,59,63,-1,-1} {47,47,50,-1,-1} {46,46,49,-1,-1} {58,58,62,-1,-1}
				q {48,49,64,-1,-1} {36,37,51,-1,-1} {47,47,50,-1,-1} {59,59,63,-1,-1}
				q {61,60,66,-1,-1} {49,48,53,-1,-1} {48,49,52,-1,-1} {60,61,65,-1,-1}
				q {62,62,67,-1,-1} {50,50,54,-1,-1} {49,48,53,-1,-1} {61,60,66,-1,-1}
				q {63,63,68,-1,-1} {51,51,55,-1,-1} {50,50,54,-1,-1} {62,62,67,-1,-1}
				q {64,64,69,-1,-1} {52,52,56,-1,-1} {51,51,55,-1,-1} {63,63,68,-1,-1}
				q {65,65,70,-1,-1} {53,53,57,-1,-1} {52,52,56,-1,-1} {64,64,69,-1,-1}
				q {66,66,71,-1,-1} {54,54,58,-1,-1} {53,53,57,-1,-1} {65,65,70,-1,-1}
				q {67,67,72,-1,-1} {55,55,59,-1,-1} {54,54,58,-1,-1} {66,66,71,-1,-1}
				q {68,68,73,-1,-1} {56,56,60,-1,-1} {55,55,59,-1,-1} {67,67,72,-1,-1}
				q {69,69,74,-1,-1} {57,57,61,-1,-1} {56,56,60,-1,-1} {68,68,73,-1,-1}
				q {70,70,75,-1,-1} {58,58,62,-1,-1} {57,57,61,-1,-1} {69,69,74,-1,-1}
				q {71,71,76,-1,-1} {59,59,63,-1,-1} {58,58,62,-1,-1} {70,70,75,-1,-1}
				q {60,61,77,-1,-1} {48,49,64,-1,-1} {59,59,63,-1,-1} {71,71,76,-1,-1}
				q {73,72,79,-1,-1} {61,60,66,-1,-1} {60,61,65,-1,-1} {72,73,78,-1,-1}
				q {74,74,80,-1,-1} {62,62,67,-1,-1} {61,60,66,-1,-1} {73,72,79,-1,-1}
				q {75,75,81,-1,-1} {63,63,68,-1,-1} {62,62,67,-1,-1} {74,74,80,-1,-1}
				q {76,76,82,-1,-1} {64,64,69,-1,-1} {63,63,68,-1,-1} {75,75,81,-1,-1}
				q {77,77,83,-1,-1} {65,65,70,-1,-1} {64,64,69,-1,-1} {76,76,82,-1,-1}
				q {78,78,84,-1,-1} {66,66,71,-1,-1} {65,65,70,-1,-1} {77,77,83,-1,-1}
				q {79,79,85,-1,-1} {67,67,72,-1,-1} {66,66,71,-1,-1} {78,78,84,-1,-1}
				q {80,80,86,-1,-1} {68,68,73,-1,-1} {67,67,72,-1,-1} {79,79,85,-1,-1}
				q {81,81,87,-1,-1} {69,69,74,-1,-1} {68,68,73,-1,-1} {80,80,86,-1,-1}
				q {82,82,88,-1,-1} {70,70,75,-1,-1} {69,69,74,-1,-1} {81,81,87,-1,-1}
				q {83,83,89,-1,-1} {71,71,76,-1,-1} {70,70,75,-1,-1} {82,82,88,-1,-1}
				q {72,73,90,-1,-1} {60,61,77,-1,-1} {71,71,76,-1,-1} {83,83,89,-1,-1}
				q {85,84,92,-1,-1} {73,72,79,-1,-1} {72,73,78,-1,-1} {84,85,91,-1,-1}
				q {86,86,93,-1,-1} {74,74,80,-1,-1} {73,72,79,-1,-1} {85,84,92,-1,-1}
				q {87,87,94,-1,-1} {75,75,81,-1,-1} {74,74,80,-1,-1} {86,86,93,-1,-1}
				q {88,88,95,-1,-1} {76,76,82,-1,-1} {75,75,81,-1,-1} {87,87,94,-1,-1}
				q {89,89,96,-1,-1} {77,77,83,-1,-1} {76,76,82,-1,-1} {88,88,95,-1,-1}
				q {90,90,97,-1,-1} {78,78,84,-1,-1} {77,77,83,-1,-1} {89,89,96,-1,-1}
				q {91,91,98,-1,-1} {79,79,85,-1,-1} {78,78,84,-1,-1} {90,90,97,-1,-1}
				q {92,92,99,-1,-1} {80,80,86,-1,-1} {79,79,85,-1,-1} {91,91,98,-1,-1}
				q {93,93,100,-1,-1} {81,81,87,-1,-1} {80,80,86,-1,-1} {92,92,99,-1,-1}
				q {94,94,101,-1,-1} {82,82,88,-1,-1} {81,81,87,-1,-1} {93,93,100,-1,-1}
				q {95,95,102,-1,-1} {83,83,89,-1,-1} {82,82,88,-1,-1} {94,94,101,-1,-1}
				q {84,85,103,-1,-1} {72,73,90,-1,-1} {83,83,89,-1,-1} {95,95,102,-1,-1}
				q {97,96,105,-1,-1} {85,84,92,-1,-1} {84,85,91,-1,-1} {96,97,104,-1,-1}
				q {98,98,106,-1,-1} {86,86,93,-1,-1} {85,84,92,-1,-1} {97,96,105,-1,-1}
				q {99,99,107,-1,-1} {87,87,94,-1,-1} {86,86,93,-1,-1} {98,98,106,-1,-1}
				q {100,100,108,-1,-1} {88,88,95,-1,-1} {87,87,94,-1,-1} {99,99,107,-1,-1}
				q {101,101,109,-1,-1} {89,89,96,-1,-1} {88,88,95,-1,-1} {100,100,108,-1,-1}
				q {102,102,110,-1,-1} {90,90,97,-1,-1} {89,89,96,-1,-1} {101,101,109,-1,-1}
				q {103,103,111,-1,-1} {91,91,98,-1,-1} {90,90,97,-1,-1} {102,102,110,-1,-1}
				q {104,104,112,-1,-1} {92,92,99,-1,-1} {91,91,98,-1,-1} {103,103,111,-1,-1}
				q {105,105,113,-1,-1} {93,93,100,-1,-1} {92,92,99,-1,-1} {104,104,112,-1,-1}
				q {106,106,114,-1,-1} {94,94,101,-1,-1} {93,93,100,-1,-1} {105,105,113,-1,-1}
				q {107,107,115,-1,-1} {95,95,102,-1,-1} {94,94,101,-1,-1} {106,106,114,-1,-1}
				q {96,97,116,-1,-1} {84,85,103,-1,-1} {95,95,102,-1,-1} {107,107,115,-1,-1}
				q {109,108,118,-1,-1} {97,96,105,-1,-1} {96,97,104,-1,-1} {108,13,117,-1,-1}
				q {110,109,119,-1,-1} {98,98,106,-1,-1} {97,96,105,-1,-1} {109,108,118,-1,-1}
				q {111,110,120,-1,-1} {99,99,107,-1,-1} {98,98,106,-1,-1} {110,109,119,-1,-1}
				q {112,111,121,-1,-1} {100,100,108,-1,-1} {99,99,107,-1,-1} {111,110,120,-1,-1}
				q {113,112,122,-1,-1} {101,101,109,-1,-1} {100,100,108,-1,-1} {112,111,121,-1,-1}
				q {114,0,123,-1,-1} {102,102,110,-1,-1} {101,101,109,-1,-1} {113,112,122,-1,-1}
				q {115,113,124,-1,-1} {103,103,111,-1,-1} {102,102,110,-1,-1} {114,0,123,-1,-1}
				q {116,114,125,-1,-1} {104,104,112,-1,-1} {103,103,111,-1,-1} {115,113,124,-1,-1}
				q {117,115,126,-1,-1} {105,105,113,-1,-1} {104,104,112,-1,-1} {116,114,125,-1,-1}
				q {118,116,127,-1,-1} {106,106,114,-1,-1} {105,105,113,-1,-1} {117,115,126,-1,-1}
				q {119,117,128,-1,-1} {107,107,115,-1,-1} {106,106,114,-1,-1} {118,116,127,-1,-1}
				q {108,13,129,-1,-1} {96,97,116,-1,-1} {107,107,115,-1,-1} {119,117,128,-1,-1}
				q {121,118,131,-1,-1} {109,108,118,-1,-1} {108,13,117,-1,-1} {120,12,130,-1,-1}
				q {122,119,132,-1,-1} {110,109,119,-1,-1} {109,108,118,-1,-1} {121,118,131,-1,-1}
				q {123,120,133,-1,-1} {111,110,120,-1,-1} {110,109,119,-1,-1} {122,119,132,-1,-1}
				q {124,121,134,-1,-1} {112,111,121,-1,-1} {111,110,120,-1,-1} {123,120,133,-1,-1}
				q {125,122,135,-1,-1} {113,112,122,-1,-1} {112,111,121,-1,-1} {124,121,134,-1,-1}
				q {126,2,136,-1,-1} {114,0,123,-1,-1} {113,112,122,-1,-1} {125,122,135,-1,-1}
				q {127,123,137,-1,-1} {115,113,124,-1,-1} {114,0,123,-1,-1} {126,2,136,-1,-1}
				q {128,124,138,-1,-1} {116,114,125,-1,-1} {115,113,124,-1,-1} {127,123,137,-1,-1}
				q {129,125,139,-1,-1} {117,115,126,-1,-1} {116,114,125,-1,-1} {128,124,138,-1,-1}
				q {130,126,140,-1,-1} {118,116,127,-1,-1} {117,115,126,-1,-1} {129,125,139,-1,-1}
				q {131,127,141,-1,-1} {119,117,128,-1,-1} {118,116,127,-1,-1} {130,126,140,-1,-1}
				q {120,12,142,-1,-1} {108,13,129,-1,-1} {119,117,128,-1,-1} {131,127,141,-1,-1}
				q {133,128,144,-1,-1} {121,118,131,-1,-1} {120,12,130,-1,-1} {132,30,143,-1,-1}
				q {134,129,145,-1,-1} {122,119,132,-1,-1} {121,118,131,-1,-1} {133,128,144,-1,-1}
				q {135,130,146,-1,-1} {123,120,133,-1,-1} {122,119,132,-1,-1} {134,129,145,-1,-1}
				q {136,131,147,-1,-1} {124,121,134,-1,-1} {123,120,133,-1,-1} {135,130,146,-1,-1}
				q {137,132,148,-1,-1} {125,122,135,-1,-1} {124,121,134,-1,-1} {136,131,147,-1,-1}
				q {138,25,149,-1,-1} {126,2,136,-1,-1} {125,122,135,-1,-1} {137,132,148,-1,-1}
				q {139,133,150,-1,-1} {127,123,137,-1,-1} {126,2,136,-1,-1} {138,25,149,-1,-1}
				q {140,134,151,-1,-1} {128,124,138,-1,-1} {127,123,137,-1,-1} {139,133,150,-1,-1}
				q {141,135,152,-1,-1} {129,125,139,-1,-1} {128,124,138,-1,-1} {140,134,151,-1,-1}
				q {142,136,153,-1,-1} {130,126,140,-1,-1} {129,125,139,-1,-1} {141,135,152,-1,-1}
				q {143,137,154,-1,-1} {131,127,141,-1,-1} {130,126,140,-1,-1} {142,136,153,-1,-1}
				q {132,30,155,-1,-1} {120,12,142,-1,-1} {131,127,141,-1,-1} {143,137,154,-1,-1}
				q {145,138,157,-1,-1} {133,128,144,-1,-1} {132,30,143,-1,-1} {144,42,156,-1,-1}
				q {146,139,158,-1,-1} {134,129,145,-1,-1} {133,128,144,-1,-1} {145,138,157,-1,-1}
				q {147,140,159,-1,-1} {135,130,146,-1,-1} {134,129,145,-1,-1} {146,139,158,-1,-1}
				q {148,141,160,-1,-1} {136,131,147,-1,-1} {135,130,146,-1,-1} {147,140,159,-1,-1}
				q {149,142,161,-1,-1} {137,132,148,-1,-1} {136,131,147,-1,-1} {148,141,160,-1,-1}
				q {150,37,162,-1,-1} {138,25,149,-1,-1} {137,132,148,-1,-1} {149,142,161,-1,-1}
				q {151,143,163,-1,-1} {139,133,150,-1,-1} {138,25,149,-1,-1} {150,37,162,-1,-1}
				q {152,144,164,-1,-1} {140,134,151,-1,-1} {139,133,150,-1,-1} {151,143,163,-1,-1}
				q {153,145,165,-1,-1} {141,135,152,-1,-1} {140,134,151,-1,-1} {152,144,164,-1,-1}
				q {154,146,166,-1,-1} {142,136,153,-1,-1} {141,135,152,-1,-1} {153,145,165,-1,-1}
				q {155,147,167,-1,-1} {143,137,154,-1,-1} {142,136,153,-1,-1} {154,146,166,-1,-1}
				q {144,42,168,-1,-1} {132,30,155,-1,-1} {143,137,154,-1,-1} {155,147,167,-1,-1}
				q {157,148,170,-1,-1} {145,138,157,-1,-1} {144,42,156,-1,-1} {156,54,169,-1,-1}
				q {158,149,171,-1,-1} {146,139,158,-1,-1} {145,138,157,-1,-1} {157,148,170,-1,-1}
				q {159,150,172,-1,-1} {147,140,159,-1,-1} {146,139,158,-1,-1} {158,149,171,-1,-1}
				q {160,151,173,-1,-1} {148,141,160,-1,-1} {147,140,159,-1,-1} {159,150,172,-1,-1}
				q {161,152,174,-1,-1} {149,142,161,-1,-1} {148,141,160,-1,-1} {160,151,173,-1,-1}
				q {162,49,175,-1,-1} {150,37,162,-1,-1} {149,142,161,-1,-1} {161,152,174,-1,-1}
				q {163,153,176,-1,-1} {151,143,163,-1,-1} {150,37,162,-1,-1} {162,49,175,-1,-1}
				q {164,154,177,-1,-1} {152,144,164,-1,-1} {151,143,163,-1,-1} {163,153,176,-1,-1}
				q {165,155,178,-1,-1} {153,145,165,-1,-1} {152,144,164,-1,-1} {164,154,177,-1,-1}
				q {166,156,179,-1,-1} {154,146,166,-1,-1} {153,145,165,-1,-1} {165,155,178,-1,-1}
				q {167,157,180,-1,-1} {155,147,167,-1,-1} {154,146,166,-1,-1} {166,156,179,-1,-1}
				q {156,54,181,-1,-1} {144,42,168,-1,-1} {155,147,167,-1,-1} {167,157,180,-1,-1}
				q {169,158,183,-1,-1} {157,148,170,-1,-1} {156,54,169,-1,-1} {168,66,182,-1,-1}
				q {170,159,184,-1,-1} {158,149,171,-1,-1} {157,148,170,-1,-1} {169,158,183,-1,-1}
				q {171,160,185,-1,-1} {159,150,172,-1,-1} {158,149,171,-1,-1} {170,159,184,-1,-1}
				q {172,161,186,-1,-1} {160,151,173,-1,-1} {159,150,172,-1,-1} {171,160,185,-1,-1}
				q {173,162,187,-1,-1} {161,152,174,-1,-1} {160,151,173,-1,-1} {172,161,186,-1,-1}
				q {174,61,188,-1,-1} {162,49,175,-1,-1} {161,152,174,-1,-1} {173,162,187,-1,-1}
				q {175,163,189,-1,-1} {163,153,176,-1,-1} {162,49,175,-1,-1} {174,61,188,-1,-1}
				q {176,164,190,-1,-1} {164,154,177,-1,-1} {163,153,176,-1,-1} {175,163,189,-1,-1}
				q {177,165,191,-1,-1} {165,155,178,-1,-1} {164,154,177,-1,-1} {176,164,190,-1,-1}
				q {178,166,192,-1,-1} {166,156,179,-1,-1} {165,155,178,-1,-1} {177,165,191,-1,-1}
				q {179,167,193,-1,-1} {167,157,180,-1,-1} {166,156,179,-1,-1} {178,166,192,-1,-1}
				q {168,66,194,-1,-1} {156,54,181,-1,-1} {167,157,180,-1,-1} {179,167,193,-1,-1}
				q {181,168,196,-1,-1} {169,158,183,-1,-1} {168,66,182,-1,-1} {180,78,195,-1,-1}
				q {182,169,197,-1,-1} {170,159,184,-1,-1} {169,158,183,-1,-1} {181,168,196,-1,-1}
				q {183,170,198,-1,-1} {171,160,185,-1,-1} {170,159,184,-1,-1} {182,169,197,-1,-1}
				q {184,171,199,-1,-1} {172,161,186,-1,-1} {171,160,185,-1,-1} {183,170,198,-1,-1}
				q {185,172,200,-1,-1} {173,162,187,-1,-1} {172,161,186,-1,-1} {184,171,199,-1,-1}
				q {186,73,201,-1,-1} {174,61,188,-1,-1} {173,162,187,-1,-1} {185,172,200,-1,-1}
				q {187,173,202,-1,-1} {175,163,189,-1,-1} {174,61,188,-1,-1} {186,73,201,-1,-1}
				q {188,174,203,-1,-1} {176,164,190,-1,-1} {175,163,189,-1,-1} {187,173,202,-1,-1}
				q {189,175,204,-1,-1} {177,165,191,-1,-1} {176,164,190,-1,-1} {188,174,203,-1,-1}
				q {190,176,205,-1,-1} {178,166,192,-1,-1} {177,165,191,-1,-1} {189,175,204,-1,-1}
				q {191,177,206,-1,-1} {179,167,193,-1,-1} {178,166,192,-1,-1} {190,176,205,-1,-1}
				q {180,78,207,-1,-1} {168,66,194,-1,-1} {179,167,193,-1,-1} {191,177,206,-1,-1}
				q {193,178,209,-1,-1} {181,168,196,-1,-1} {180,78,195,-1,-1} {192,90,208,-1,-1}
				q {194,179,210,-1,-1} {182,169,197,-1,-1} {181,168,196,-1,-1} {193,178,209,-1,-1}
				q {195,180,211,-1,-1} {183,170,198,-1,-1} {182,169,197,-1,-1} {194,179,210,-1,-1}
				q {196,181,212,-1,-1} {184,171,199,-1,-1} {183,170,198,-1,-1} {195,180,211,-1,-1}
				q {197,182,213,-1,-1} {185,172,200,-1,-1} {184,171,199,-1,-1} {196,181,212,-1,-1}
				q {198,85,214,-1,-1} {186,73,201,-1,-1} {185,172,200,-1,-1} {197,182,213,-1,-1}
				q {199,183,215,-1,-1} {187,173,202,-1,-1} {186,73,201,-1,-1} {198,85,214,-1,-1}
				q {200,184,216,-1,-1} {188,174,203,-1,-1} {187,173,202,-1,-1} {199,183,215,-1,-1}
				q {201,185,217,-1,-1} {189,175,204,-1,-1} {188,174,203,-1,-1} {200,184,216,-1,-1}
				q {202,186,218,-1,-1} {190,176,205,-1,-1} {189,175,204,-1,-1} {201,185,217,-1,-1}
				q {203,187,219,-1,-1} {191,177,206,-1,-1} {190,176,205,-1,-1} {202,186,218,-1,-1}
				q {192,90,220,-1,-1} {180,78,207,-1,-1} {191,177,206,-1,-1} {203,187,219,-1,-1}
				q {205,188,222,-1,-1} {193,178,209,-1,-1} {192,90,208,-1,-1} {204,102,221,-1,-1}
				q {206,189,223,-1,-1} {194,179,210,-1,-1} {193,178,209,-1,-1} {205,188,222,-1,-1}
				q {207,190,224,-1,-1} {195,180,211,-1,-1} {194,179,210,-1,-1} {206,189,223,-1,-1}
				q {208,191,225,-1,-1} {196,181,212,-1,-1} {195,180,211,-1,-1} {207,190,224,-1,-1}
				q {209,192,226,-1,-1} {197,182,213,-1,-1} {196,181,212,-1,-1} {208,191,225,-1,-1}
				q {210,97,227,-1,-1} {198,85,214,-1,-1} {197,182,213,-1,-1} {209,192,226,-1,-1}
				q {211,193,228,-1,-1} {199,183,215,-1,-1} {198,85,214,-1,-1} {210,97,227,-1,-1}
				q {212,194,229,-1,-1} {200,184,216,-1,-1} {199,183,215,-1,-1} {211,193,228,-1,-1}
				q {213,195,230,-1,-1} {201,185,217,-1,-1} {200,184,216,-1,-1} {212,194,229,-1,-1}
				q {214,196,231,-1,-1} {202,186,218,-1,-1} {201,185,217,-1,-1} {213,195,230,-1,-1}
				q {215,197,232,-1,-1} {203,187,219,-1,-1} {202,186,218,-1,-1} {214,196,231,-1,-1}
				q {204,102,233,-1,-1} {192,90,220,-1,-1} {203,187,219,-1,-1} {215,197,232,-1,-1}
				q {1,3,235,-1,-1} {205,188,222,-1,-1} {204,102,221,-1,-1} {0,0,234,-1,-1}
				q {2,5,236,-1,-1} {206,189,223,-1,-1} {205,188,222,-1,-1} {1,3,235,-1,-1}
				q {3,7,237,-1,-1} {207,190,224,-1,-1} {206,189,223,-1,-1} {2,5,236,-1,-1}
				q {4,9,238,-1,-1} {208,191,225,-1,-1} {207,190,224,-1,-1} {3,7,237,-1,-1}
				q {5,11,239,-1,-1} {209,192,226,-1,-1} {208,191,225,-1,-1} {4,9,238,-1,-1}
				q {6,13,240,-1,-1} {210,97,227,-1,-1} {209,192,226,-1,-1} {5,11,239,-1,-1}
				q {7,15,241,-1,-1} {211,193,228,-1,-1} {210,97,227,-1,-1} {6,13,240,-1,-1}
				q {8,17,242,-1,-1} {212,194,229,-1,-1} {211,193,228,-1,-1} {7,15,241,-1,-1}
				q {9,19,243,-1,-1} {213,195,230,-1,-1} {212,194,229,-1,-1} {8,17,242,-1,-1}
				q {10,21,244,-1,-1} {214,196,231,-1,-1} {213,195,230,-1,-1} {9,19,243,-1,-1}
				q {11,23,245,-1,-1} {215,197,232,-1,-1} {214,196,231,-1,-1} {10,21,244,-1,-1}
				q {0,0,246,-1,-1} {204,102,233,-1,-1} {215,197,232,-1,-1} {11,23,245,-1,-1}
			}
		}
	}
}
