// Source file: C:/dev/generalWork/singleBoneAnimExample/singleBoneAnimExample_A.mb
CIwModel
{
	name "ball_01"
	CMesh
	{
		name "ball_01"
		scale 4
		CVerts
		{
			numVerts 32
			v {27.11502,-93.92920,-46.96457}
			v {-27.11500,-93.92920,-46.96458}
			v {-54.23003,-93.92920,-0.00001}
			v {-27.11502,-93.92920,46.96457}
			v {27.11501,-93.92920,46.96458}
			v {54.23001,-93.92920,0}
			v {46.96460,-54.22998,-81.34502}
			v {-46.96456,-54.22998,-81.34504}
			v {-93.92915,-54.22998,-0.00001}
			v {-46.96458,-54.22998,81.34502}
			v {46.96457,-54.22998,81.34502}
			v {93.92915,-54.22998,0}
			v {54.23005,0,-93.92915}
			v {-54.23000,0,-93.92917}
			v {-108.46005,0,-0.00002}
			v {-54.23003,0,93.92915}
			v {54.23001,0,93.92915}
			v {108.46003,0,0}
			v {46.96460,54.22998,-81.34502}
			v {-46.96456,54.22998,-81.34504}
			v {-93.92915,54.22998,-0.00001}
			v {-46.96458,54.22998,81.34502}
			v {46.96457,54.22998,81.34502}
			v {93.92915,54.22998,0}
			v {27.11502,93.92920,-46.96457}
			v {-27.11500,93.92920,-46.96458}
			v {-54.23003,93.92920,-0.00001}
			v {-27.11502,93.92920,46.96457}
			v {27.11501,93.92920,46.96458}
			v {54.23001,93.92920,0}
			v {0,-108.45996,0}
			v {0,108.45996,0}
		}
		CVertNorms
		{
			numVertNorms 32
			vn {0.24616,-0.87041,-0.42636}
			vn {-0.24616,-0.87041,-0.42636}
			vn {-0.43105,-0.50675,-0.74660}
			vn {0.43105,-0.50675,-0.74659}
			vn {-0.49232,-0.87041,-0.00000}
			vn {-0.86209,-0.50675,-0.00000}
			vn {-0.24616,-0.87041,0.42636}
			vn {-0.43105,-0.50675,0.74659}
			vn {0.24616,-0.87041,0.42636}
			vn {0.43105,-0.50675,0.74660}
			vn {0.49232,-0.87041,0.00000}
			vn {0.86209,-0.50675,0.00000}
			vn {-0.50000,-0.00000,-0.86603}
			vn {0.50000,-0.00000,-0.86603}
			vn {-1,0.00000,-0.00000}
			vn {-0.50000,0.00000,0.86603}
			vn {0.50000,-0.00000,0.86603}
			vn {1,-0.00000,0.00000}
			vn {-0.43105,0.50675,-0.74660}
			vn {0.43105,0.50675,-0.74659}
			vn {-0.86209,0.50675,-0.00000}
			vn {-0.43105,0.50675,0.74659}
			vn {0.43105,0.50675,0.74660}
			vn {0.86209,0.50675,0.00000}
			vn {-0.24616,0.87041,-0.42636}
			vn {0.24616,0.87041,-0.42636}
			vn {-0.49232,0.87041,-0.00000}
			vn {-0.24616,0.87041,0.42636}
			vn {0.24616,0.87041,0.42636}
			vn {0.49232,0.87041,0.00000}
			vn {0.00000,-1,-0.00000}
			vn {0.00000,1,0.00000}
		}
		CUVs
		{
			setID 0
			numUVs 47
			uv {0,0.83333}
			uv {0.16667,0.83333}
			uv {0.33333,0.83333}
			uv {0.50000,0.83333}
			uv {0.66667,0.83333}
			uv {0.83333,0.83333}
			uv {1,0.83333}
			uv {0,0.66667}
			uv {0.16667,0.66667}
			uv {0.33333,0.66667}
			uv {0.50000,0.66667}
			uv {0.66667,0.66667}
			uv {0.83333,0.66667}
			uv {1,0.66667}
			uv {0,0.50000}
			uv {0.16667,0.50000}
			uv {0.33333,0.50000}
			uv {0.50000,0.50000}
			uv {0.66667,0.50000}
			uv {0.83333,0.50000}
			uv {1,0.50000}
			uv {0,0.33333}
			uv {0.16667,0.33333}
			uv {0.33333,0.33333}
			uv {0.50000,0.33333}
			uv {0.66667,0.33333}
			uv {0.83333,0.33333}
			uv {1,0.33333}
			uv {0,0.16667}
			uv {0.16667,0.16667}
			uv {0.33333,0.16667}
			uv {0.50000,0.16667}
			uv {0.66667,0.16667}
			uv {0.83333,0.16667}
			uv {1,0.16667}
			uv {0.08333,1}
			uv {0.25000,1}
			uv {0.41667,1}
			uv {0.58333,1}
			uv {0.75000,1}
			uv {0.91667,1}
			uv {0.08333,0}
			uv {0.25000,0}
			uv {0.41667,0}
			uv {0.58333,0}
			uv {0.75000,0}
			uv {0.91667,0}
		}
		CSurface
		{
			material "lambert2"
			CQuads
			{
				numQuads 24
				q {1,1,1,-1,-1} {0,0,0,-1,-1} {6,3,7,-1,-1} {7,2,8,-1,-1}
				q {2,4,2,-1,-1} {1,1,1,-1,-1} {7,2,8,-1,-1} {8,5,9,-1,-1}
				q {3,6,3,-1,-1} {2,4,2,-1,-1} {8,5,9,-1,-1} {9,7,10,-1,-1}
				q {4,8,4,-1,-1} {3,6,3,-1,-1} {9,7,10,-1,-1} {10,9,11,-1,-1}
				q {5,10,5,-1,-1} {4,8,4,-1,-1} {10,9,11,-1,-1} {11,11,12,-1,-1}
				q {0,0,6,-1,-1} {5,10,5,-1,-1} {11,11,12,-1,-1} {6,3,13,-1,-1}
				q {7,2,8,-1,-1} {6,3,7,-1,-1} {12,13,14,-1,-1} {13,12,15,-1,-1}
				q {8,5,9,-1,-1} {7,2,8,-1,-1} {13,12,15,-1,-1} {14,14,16,-1,-1}
				q {9,7,10,-1,-1} {8,5,9,-1,-1} {14,14,16,-1,-1} {15,15,17,-1,-1}
				q {10,9,11,-1,-1} {9,7,10,-1,-1} {15,15,17,-1,-1} {16,16,18,-1,-1}
				q {11,11,12,-1,-1} {10,9,11,-1,-1} {16,16,18,-1,-1} {17,17,19,-1,-1}
				q {6,3,13,-1,-1} {11,11,12,-1,-1} {17,17,19,-1,-1} {12,13,20,-1,-1}
				q {18,19,21,-1,-1} {19,18,22,-1,-1} {13,12,15,-1,-1} {12,13,14,-1,-1}
				q {19,18,22,-1,-1} {20,20,23,-1,-1} {14,14,16,-1,-1} {13,12,15,-1,-1}
				q {20,20,23,-1,-1} {21,21,24,-1,-1} {15,15,17,-1,-1} {14,14,16,-1,-1}
				q {21,21,24,-1,-1} {22,22,25,-1,-1} {16,16,18,-1,-1} {15,15,17,-1,-1}
				q {22,22,25,-1,-1} {23,23,26,-1,-1} {17,17,19,-1,-1} {16,16,18,-1,-1}
				q {23,23,26,-1,-1} {18,19,27,-1,-1} {12,13,20,-1,-1} {17,17,19,-1,-1}
				q {24,25,28,-1,-1} {25,24,29,-1,-1} {19,18,22,-1,-1} {18,19,21,-1,-1}
				q {25,24,29,-1,-1} {26,26,30,-1,-1} {20,20,23,-1,-1} {19,18,22,-1,-1}
				q {26,26,30,-1,-1} {27,27,31,-1,-1} {21,21,24,-1,-1} {20,20,23,-1,-1}
				q {27,27,31,-1,-1} {28,28,32,-1,-1} {22,22,25,-1,-1} {21,21,24,-1,-1}
				q {28,28,32,-1,-1} {29,29,33,-1,-1} {23,23,26,-1,-1} {22,22,25,-1,-1}
				q {29,29,33,-1,-1} {24,25,34,-1,-1} {18,19,27,-1,-1} {23,23,26,-1,-1}
			}
			CTris
			{
				numTris 12
				t {30,30,35,-1,-1} {0,0,0,-1,-1} {1,1,1,-1,-1}
				t {30,30,36,-1,-1} {1,1,1,-1,-1} {2,4,2,-1,-1}
				t {30,30,37,-1,-1} {2,4,2,-1,-1} {3,6,3,-1,-1}
				t {30,30,38,-1,-1} {3,6,3,-1,-1} {4,8,4,-1,-1}
				t {30,30,39,-1,-1} {4,8,4,-1,-1} {5,10,5,-1,-1}
				t {30,30,40,-1,-1} {5,10,5,-1,-1} {0,0,6,-1,-1}
				t {31,31,41,-1,-1} {25,24,29,-1,-1} {24,25,28,-1,-1}
				t {31,31,42,-1,-1} {26,26,30,-1,-1} {25,24,29,-1,-1}
				t {31,31,43,-1,-1} {27,27,31,-1,-1} {26,26,30,-1,-1}
				t {31,31,44,-1,-1} {28,28,32,-1,-1} {27,27,31,-1,-1}
				t {31,31,45,-1,-1} {29,29,33,-1,-1} {28,28,32,-1,-1}
				t {31,31,46,-1,-1} {24,25,34,-1,-1} {29,29,33,-1,-1}
			}
		}
	}
}
