// Source maya file: C:/dev/dev/main/gamedemo1/Art/Characters/combatEva/Animation/test_combatEva_LfBkShuffle.mb
// Maya geometry export, written by IwEngineExporter.mll

// Animation data
CIwAnim
{
	skeleton 	"combatEva_rig"
	
	// Keyframe# 1
	CIwAnimKeyFrame
	{
		time 	0.
		
		bone 	"Bake_Root"
		pos			{-1.54198 155.853 -24.6316}
		rot			{0.922321 0.114089 -0.369135 -6.89972e-003}
		
		bone 	"Bake_LHipJoint"
		pos			{10.2572 -0.750527 -4.7124e-002}
		rot			{0.760273 -0.12191 -0.474842 0.426201}
		
		bone 	"Bake_LowerChestJoint"
		pos			{0.950914 18.3459 3.38756}
		rot			{0.992755 7.34961e-002 -9.1013e-002 2.74271e-002}
		
		bone 	"Bake_RHipJoint"
		pos			{-9.27856 -0.750547 -4.71226e-002}
		rot			{5.24402e-002 0.655128 -0.210955 -0.723572}
		
		bone 	"Bake_RkneeJoint"
		pos			{0.14961 67.5664 1.8204}
		rot			{0.73598 0.181986 0.626582 -0.180583}
		
		bone 	"Bake_LkneeJoint"
		pos			{-0.149599 -67.5665 -1.82043}
		rot			{0.734223 0.181873 0.628578 -0.180908}
		
		bone 	"Bake_UpperChestJoint"
		pos			{1.90958e-014 24.7866 -7.5982}
		rot			{0.988457 -2.43221e-002 -0.147898 -2.20786e-002}
		
		bone 	"Bake_NeckJoint"
		pos			{1.04361e-014 31.5911 -5.27135}
		rot			{0.993018 4.64312e-002 -3.68712e-002 0.101979}
		
		bone 	"Bake_LFootJoint"
		pos			{-1.01281 -88.9406 -17.4875}
		rot			{0.98255 4.01902e-002 -7.11251e-002 -0.167097}
		
		bone 	"Bake_RFootJoint"
		pos			{1.01277 88.9408 17.4875}
		rot			{0.977745 -4.56909e-002 5.42828e-002 -0.197435}
		
		bone 	"Bake_RArmJoint"
		pos			{-19.6696 -7.15149 -2.14289}
		rot			{0.1564 -0.858968 -0.48737 -1.35295e-002}
		
		bone 	"Bake_LArmJoint"
		pos			{19.4833 -7.55507 -2.14288}
		rot			{0.752611 -7.37435e-002 0.31004 -0.576206}
		
		bone 	"Bake_RToeJoint"
		pos			{-3.56224 13.9947 -19.4816}
		rot			{0.992621 -0.121258 0. 0.}
		
		bone 	"Bake_HeadJoint"
		pos			{-0.447655 10.0592 -0.213579}
		rot			{0.828619 -0.119267 0.533044 -0.122596}
		
		bone 	"Bake_LToeJoint"
		pos			{3.56225 -13.9948 19.4816}
		rot			{1. 0. 0. 0.}
		
		bone 	"Bake_LElbowJoint"
		pos			{42.3171 0.912694 -3.2219}
		rot			{0.558826 -6.81445e-002 -0.824884 -5.13524e-002}
		
		bone 	"Bake_RElbowJoint"
		pos			{-42.2763 -0.990979 6.52934}
		rot			{0.669531 -8.09627e-002 -0.734376 -7.65862e-002}
		
		bone 	"Bake_RWristJoint"
		pos			{-50.1445 0.692473 2.14966}
		rot			{0.766144 0.640385 5.1725e-003 5.3889e-002}
		
		bone 	"Bake_LWristJoint"
		pos			{45.8286 -0.158446 -0.641449}
		rot			{0.820881 0.570825 -1.51317e-002 -9.16429e-003}
		
		bone 	"Bake_RHandJoint"
		pos			{-17.4849 -0.540389 -3.5306}
		rot			{0.992484 0. 0. -0.122375}
		
		bone 	"Bake_LHandJoint"
		pos			{17.2019 0.366814 1.97759}
		rot			{0.947436 -3.64948e-004 4.10124e-002 -0.317307}
		
		bone 	"Bake_LIndexJoint1"
		pos			{12.2418 -1.31958 7.40454}
		rot			{0.971938 -2.27508e-002 -0.208823 -0.10589}
		
		bone 	"Bake_RIndexJoint1"
		pos			{-9.08339 1.40164 -8.94563}
		rot			{0.959538 0. -0.28158 0.}
		
		bone 	"Bake_LIndex2"
		pos			{6.17497 -0.574751 0.664665}
		rot			{0.977689 1.25744e-004 0.210058 5.85257e-004}
		
		bone 	"Bake_RIndexJoint2"
		pos			{-3.15429 1.28809 -5.86307e-002}
		rot			{1. 0. 0. 0.}
	}
	
	// Keyframe# 2
	CIwAnimKeyFrame
	{
		time 	3.33333e-002
		
		bone 	"Bake_Root"
		pos			{-2.20993 156.64 -24.6316}
		rot			{0.918708 0.114893 -0.377795 -6.76553e-003}
		
		bone 	"Bake_LHipJoint"
		pos			{10.2572 -0.750527 -4.7124e-002}
		rot			{0.749962 -0.139952 -0.460844 0.453424}
		
		bone 	"Bake_LowerChestJoint"
		pos			{0.950914 18.3459 3.38756}
		rot			{0.993358 6.3942e-002 -9.1993e-002 2.62508e-002}
		
		bone 	"Bake_RHipJoint"
		pos			{-9.27856 -0.750547 -4.71226e-002}
		rot			{3.19157e-002 0.647435 -0.202362 -0.73407}
		
		bone 	"Bake_RkneeJoint"
		pos			{0.14961 67.5664 1.8204}
		rot			{0.724575 0.218821 0.616284 -0.217492}
		
		bone 	"Bake_LkneeJoint"
		pos			{-0.149599 -67.5665 -1.82043}
		rot			{0.711454 0.249791 0.607835 -0.248947}
		
		bone 	"Bake_UpperChestJoint"
		pos			{5.32907e-015 24.7866 -7.5982}
		rot			{0.989858 -2.2249e-002 -0.138636 -2.15915e-002}
		
		bone 	"Bake_NeckJoint"
		pos			{1.04361e-014 31.5911 -5.27135}
		rot			{0.992995 4.93271e-002 -3.79203e-002 0.100445}
		
		bone 	"Bake_LFootJoint"
		pos			{-1.01281 -88.9406 -17.4875}
		rot			{0.984065 -2.17402e-002 -8.3363e-002 -0.155542}
		
		bone 	"Bake_RFootJoint"
		pos			{1.01277 88.9408 17.4875}
		rot			{0.986159 -7.91667e-002 4.42672e-003 -0.145612}
		
		bone 	"Bake_RArmJoint"
		pos			{-19.6696 -7.15149 -2.14289}
		rot			{0.143932 -0.854973 -0.498259 -6.60058e-003}
		
		bone 	"Bake_LArmJoint"
		pos			{19.4833 -7.55507 -2.14288}
		rot			{0.749552 -7.17313e-002 0.323698 -0.572927}
		
		bone 	"Bake_RToeJoint"
		pos			{-3.56224 13.9947 -19.4816}
		rot			{0.997787 -6.64874e-002 0. 0.}
		
		bone 	"Bake_HeadJoint"
		pos			{-0.447655 10.0592 -0.213579}
		rot			{0.830897 -0.113021 0.530728 -0.12314}
		
		bone 	"Bake_LToeJoint"
		pos			{3.56225 -13.9948 19.4816}
		rot			{1. 0. 0. 0.}
		
		bone 	"Bake_LElbowJoint"
		pos			{42.3171 0.912694 -3.2219}
		rot			{0.572203 -6.64231e-002 -0.815802 -5.13724e-002}
		
		bone 	"Bake_RElbowJoint"
		pos			{-42.2763 -0.990979 6.52934}
		rot			{0.687575 -7.7397e-002 -0.718026 -7.54185e-002}
		
		bone 	"Bake_RWristJoint"
		pos			{-50.1445 0.692473 2.14966}
		rot			{0.760627 0.64696 -4.5393e-003 5.35669e-002}
		
		bone 	"Bake_LWristJoint"
		pos			{45.8286 -0.158446 -0.641449}
		rot			{0.824653 0.564319 -3.85685e-002 -2.05595e-003}
		
		bone 	"Bake_RHandJoint"
		pos			{-17.4849 -0.540389 -3.5306}
		rot			{0.992484 0. 0. -0.122375}
		
		bone 	"Bake_LHandJoint"
		pos			{17.2019 0.366814 1.97759}
		rot			{0.947436 -3.64948e-004 4.10124e-002 -0.317307}
		
		bone 	"Bake_LIndexJoint1"
		pos			{12.2418 -1.31958 7.40454}
		rot			{0.971938 -2.27508e-002 -0.208823 -0.10589}
		
		bone 	"Bake_RIndexJoint1"
		pos			{-9.08339 1.40164 -8.94563}
		rot			{0.959538 0. -0.28158 0.}
		
		bone 	"Bake_LIndex2"
		pos			{6.17497 -0.574751 0.664665}
		rot			{0.977689 1.25744e-004 0.210058 5.85257e-004}
		
		bone 	"Bake_RIndexJoint2"
		pos			{-3.15429 1.28809 -5.86307e-002}
		rot			{1. 0. 0. 0.}
	}
	
	// Keyframe# 3
	CIwAnimKeyFrame
	{
		time 	6.66667e-002
		
		bone 	"Bake_Root"
		pos			{-3.8798 158.102 -24.6316}
		rot			{0.911813 0.116178 -0.393777 -6.32243e-003}
		
		bone 	"Bake_LHipJoint"
		pos			{10.2572 -0.750527 -4.7124e-002}
		rot			{0.748469 -0.152048 -0.435967 0.476034}
		
		bone 	"Bake_LowerChestJoint"
		pos			{0.950914 18.3459 3.38756}
		rot			{0.994358 4.29054e-002 -9.40983e-002 2.36062e-002}
		
		bone 	"Bake_RHipJoint"
		pos			{-9.27856 -0.750547 -4.71226e-002}
		rot			{9.24477e-003 -0.638651 0.173097 0.749717}
		
		bone 	"Bake_RkneeJoint"
		pos			{0.14961 67.5664 1.8204}
		rot			{0.723738 0.22127 0.615521 -0.219947}
		
		bone 	"Bake_LkneeJoint"
		pos			{-0.149599 -67.5665 -1.82043}
		rot			{0.668993 0.339186 0.56817 -0.338502}
		
		bone 	"Bake_UpperChestJoint"
		pos			{-1.42109e-014 24.7866 -7.5982}
		rot			{0.992958 -1.72624e-002 -0.115408 -2.04407e-002}
		
		bone 	"Bake_NeckJoint"
		pos			{6.66134e-016 31.5911 -5.27135}
		rot			{0.992883 5.65475e-002 -4.05834e-002 9.66403e-002}
		
		bone 	"Bake_LFootJoint"
		pos			{-1.01281 -88.9406 -17.4875}
		rot			{0.977388 -0.127244 -0.104701 -0.132513}
		
		bone 	"Bake_RFootJoint"
		pos			{1.01277 88.9408 17.4875}
		rot			{0.991729 -0.100475 -1.92373e-002 -7.75092e-002}
		
		bone 	"Bake_RArmJoint"
		pos			{-19.6696 -7.15149 -2.14289}
		rot			{0.123222 -0.848706 -0.514308 -1.05498e-003}
		
		bone 	"Bake_LArmJoint"
		pos			{19.4833 -7.55507 -2.14288}
		rot			{0.747602 -6.75918e-002 0.344369 -0.563856}
		
		bone 	"Bake_RToeJoint"
		pos			{-3.56224 13.9947 -19.4816}
		rot			{1. 0. 0. 0.}
		
		bone 	"Bake_HeadJoint"
		pos			{-0.447655 10.0592 -0.213579}
		rot			{0.836126 -0.100028 0.524922 -0.123875}
		
		bone 	"Bake_LToeJoint"
		pos			{3.56225 -13.9948 19.4816}
		rot			{1. 0. 0. 0.}
		
		bone 	"Bake_LElbowJoint"
		pos			{42.3171 0.912694 -3.2219}
		rot			{0.601303 -6.26341e-002 -0.794912 -5.12422e-002}
		
		bone 	"Bake_RElbowJoint"
		pos			{-42.2763 -0.990979 6.52934}
		rot			{0.712143 -7.2468e-002 -0.694399 -7.35584e-002}
		
		bone 	"Bake_RWristJoint"
		pos			{-50.1445 0.692473 2.14966}
		rot			{0.752013 0.65684 -1.74442e-002 5.22752e-002}
		
		bone 	"Bake_LWristJoint"
		pos			{45.8286 -0.158446 -0.641449}
		rot			{0.831133 0.549289 -8.57797e-002 1.19177e-002}
		
		bone 	"Bake_RHandJoint"
		pos			{-17.4849 -0.540389 -3.5306}
		rot			{0.992484 0. 0. -0.122375}
		
		bone 	"Bake_LHandJoint"
		pos			{17.2019 0.366814 1.97759}
		rot			{0.947436 -3.64948e-004 4.10124e-002 -0.317307}
		
		bone 	"Bake_LIndexJoint1"
		pos			{12.2418 -1.31958 7.40454}
		rot			{0.971938 -2.27508e-002 -0.208823 -0.10589}
		
		bone 	"Bake_RIndexJoint1"
		pos			{-9.08339 1.40164 -8.94563}
		rot			{0.959538 0. -0.28158 0.}
		
		bone 	"Bake_LIndex2"
		pos			{6.17497 -0.574751 0.664665}
		rot			{0.977689 1.25744e-004 0.210058 5.85257e-004}
		
		bone 	"Bake_RIndexJoint2"
		pos			{-3.15429 1.28809 -5.86307e-002}
		rot			{1. 0. 0. 0.}
	}
	
	// Keyframe# 4
	CIwAnimKeyFrame
	{
		time 	1.e-001
		
		bone 	"Bake_Root"
		pos			{-6.05064 158.889 -24.6316}
		rot			{0.908001 0.116757 -0.402326 -5.97924e-003}
		
		bone 	"Bake_LHipJoint"
		pos			{10.2572 -0.750527 -4.7124e-002}
		rot			{0.766741 -0.14074 -0.421365 0.463414}
		
		bone 	"Bake_LowerChestJoint"
		pos			{0.950914 18.3459 3.38756}
		rot			{0.99491 2.18527e-002 -9.6132e-002 2.08849e-002}
		
		bone 	"Bake_RHipJoint"
		pos			{-9.27856 -0.750547 -4.71226e-002}
		rot			{1.20985e-003 -0.637213 0.151345 0.75568}
		
		bone 	"Bake_RkneeJoint"
		pos			{0.14961 67.5664 1.8204}
		rot			{0.734999 0.185454 0.625705 -0.184058}
		
		bone 	"Bake_LkneeJoint"
		pos			{-0.149599 -67.5665 -1.82043}
		rot			{0.647875 0.374294 0.548207 -0.373673}
		
		bone 	"Bake_UpperChestJoint"
		pos			{7.54952e-015 24.7866 -7.5982}
		rot			{0.996129 -1.12083e-002 -8.50735e-002 -1.90983e-002}
		
		bone 	"Bake_NeckJoint"
		pos			{2.35367e-014 31.5911 -5.27135}
		rot			{0.992619 6.58915e-002 -4.41309e-002 9.17556e-002}
		
		bone 	"Bake_LFootJoint"
		pos			{-1.01281 -88.9406 -17.4875}
		rot			{0.96551 -0.199673 -0.122598 -0.113535}
		
		bone 	"Bake_RFootJoint"
		pos			{1.01277 88.9408 17.4875}
		rot			{0.986524 -0.135258 -9.70853e-004 -9.2061e-002}
		
		bone 	"Bake_RArmJoint"
		pos			{-19.6696 -7.15149 -2.14289}
		rot			{0.104993 -0.843166 -0.527117 -1.39919e-002}
		
		bone 	"Bake_LArmJoint"
		pos			{19.4833 -7.55507 -2.14288}
		rot			{0.756256 -6.17273e-002 0.348065 -0.550561}
		
		bone 	"Bake_RToeJoint"
		pos			{-3.56224 13.9947 -19.4816}
		rot			{1. 0. 0. 0.}
		
		bone 	"Bake_HeadJoint"
		pos			{-0.447655 10.0592 -0.213579}
		rot			{0.84192 -8.88815e-002 0.517558 -0.124116}
		
		bone 	"Bake_LToeJoint"
		pos			{3.56225 -13.9948 19.4816}
		rot			{1. 0. 0. 0.}
		
		bone 	"Bake_LElbowJoint"
		pos			{42.3171 0.912694 -3.2219}
		rot			{0.627192 -5.92132e-002 -0.77494 -5.09167e-002}
		
		bone 	"Bake_RElbowJoint"
		pos			{-42.2763 -0.990979 6.52934}
		rot			{0.718925 -7.10922e-002 -0.68758 -7.29873e-002}
		
		bone 	"Bake_RWristJoint"
		pos			{-50.1445 0.692473 2.14966}
		rot			{0.745755 0.664085 -2.18802e-002 4.86019e-002}
		
		bone 	"Bake_LWristJoint"
		pos			{45.8286 -0.158446 -0.641449}
		rot			{0.837017 0.532146 -0.125353 2.25823e-002}
		
		bone 	"Bake_RHandJoint"
		pos			{-17.4849 -0.540389 -3.5306}
		rot			{0.992484 0. 0. -0.122375}
		
		bone 	"Bake_LHandJoint"
		pos			{17.2019 0.366814 1.97759}
		rot			{0.947436 -3.64948e-004 4.10124e-002 -0.317307}
		
		bone 	"Bake_LIndexJoint1"
		pos			{12.2418 -1.31958 7.40454}
		rot			{0.971938 -2.27508e-002 -0.208823 -0.10589}
		
		bone 	"Bake_RIndexJoint1"
		pos			{-9.08339 1.40164 -8.94563}
		rot			{0.959538 0. -0.28158 0.}
		
		bone 	"Bake_LIndex2"
		pos			{6.17497 -0.574751 0.664665}
		rot			{0.977689 1.25744e-004 0.210058 5.85257e-004}
		
		bone 	"Bake_RIndexJoint2"
		pos			{-3.15429 1.28809 -5.86307e-002}
		rot			{1. 0. 0. 0.}
	}
	
	// Keyframe# 5
	CIwAnimKeyFrame
	{
		time 	0.133333
		
		bone 	"Bake_Root"
		pos			{-8.22147 157.895 -24.6316}
		rot			{0.908346 0.116709 -0.40156 -6.01307e-003}
		
		bone 	"Bake_LHipJoint"
		pos			{10.2572 -0.750527 -4.7124e-002}
		rot			{0.813818 -0.100677 -0.417634 0.391339}
		
		bone 	"Bake_LowerChestJoint"
		pos			{0.950914 18.3459 3.38756}
		rot			{0.995012 1.22805e-002 -9.70321e-002 1.96231e-002}
		
		bone 	"Bake_RHipJoint"
		pos			{-9.27856 -0.750547 -4.71226e-002}
		rot			{1.07056e-002 0.647692 -0.122839 -0.751858}
		
		bone 	"Bake_RkneeJoint"
		pos			{0.14961 67.5664 1.8204}
		rot			{0.748152 0.131452 0.637262 -0.129946}
		
		bone 	"Bake_LkneeJoint"
		pos			{-0.149599 -67.5665 -1.82043}
		rot			{0.683944 0.311201 0.582225 -0.310466}
		
		bone 	"Bake_UpperChestJoint"
		pos			{8.88178e-016 24.7866 -7.5982}
		rot			{0.99833 -5.65225e-003 -5.46188e-002 -1.79444e-002}
		
		bone 	"Bake_NeckJoint"
		pos			{1.19904e-014 31.5911 -5.27135}
		rot			{0.992223 7.51854e-002 -4.77734e-002 8.69425e-002}
		
		bone 	"Bake_LFootJoint"
		pos			{-1.01281 -88.9406 -17.4875}
		rot			{0.967114 -0.188117 -0.135123 -0.105094}
		
		bone 	"Bake_RFootJoint"
		pos			{1.01277 88.9408 17.4875}
		rot			{0.977429 -0.170109 4.57572e-002 -0.116625}
		
		bone 	"Bake_RArmJoint"
		pos			{-19.6696 -7.15149 -2.14289}
		rot			{8.88104e-002 -0.83715 -0.537975 -4.33099e-002}
		
		bone 	"Bake_LArmJoint"
		pos			{19.4833 -7.55507 -2.14288}
		rot			{0.772438 -5.37797e-002 0.33669 -0.535805}
		
		bone 	"Bake_RToeJoint"
		pos			{-3.56224 13.9947 -19.4816}
		rot			{1. 0. 0. 0.}
		
		bone 	"Bake_HeadJoint"
		pos			{-0.447655 10.0592 -0.213579}
		rot			{0.84586 -8.79202e-002 0.5108 -0.125993}
		
		bone 	"Bake_LToeJoint"
		pos			{3.56225 -13.9948 19.4816}
		rot			{1. 0. 0. 0.}
		
		bone 	"Bake_LElbowJoint"
		pos			{42.3171 0.912694 -3.2219}
		rot			{0.629942 -5.8847e-002 -0.772736 -5.08701e-002}
		
		bone 	"Bake_RElbowJoint"
		pos			{-42.2763 -0.990979 6.52934}
		rot			{0.70769 -7.33677e-002 -0.698804 -7.39195e-002}
		
		bone 	"Bake_RWristJoint"
		pos			{-50.1445 0.692473 2.14966}
		rot			{0.74161 0.669022 -2.29884e-002 4.35369e-002}
		
		bone 	"Bake_LWristJoint"
		pos			{45.8286 -0.158446 -0.641449}
		rot			{0.844572 0.516355 -0.139476 2.49359e-002}
		
		bone 	"Bake_RHandJoint"
		pos			{-17.4849 -0.540389 -3.5306}
		rot			{0.992484 0. 0. -0.122375}
		
		bone 	"Bake_LHandJoint"
		pos			{17.2019 0.366814 1.97759}
		rot			{0.947436 -3.64948e-004 4.10124e-002 -0.317307}
		
		bone 	"Bake_LIndexJoint1"
		pos			{12.2418 -1.31958 7.40454}
		rot			{0.971938 -2.27508e-002 -0.208823 -0.10589}
		
		bone 	"Bake_RIndexJoint1"
		pos			{-9.08339 1.40164 -8.94563}
		rot			{0.959538 0. -0.28158 0.}
		
		bone 	"Bake_LIndex2"
		pos			{6.17497 -0.574751 0.664665}
		rot			{0.977689 1.25744e-004 0.210058 5.85257e-004}
		
		bone 	"Bake_RIndexJoint2"
		pos			{-3.15429 1.28809 -5.86307e-002}
		rot			{1. 0. 0. 0.}
	}
	
	// Keyframe# 6
	CIwAnimKeyFrame
	{
		time 	0.166667
		
		bone 	"Bake_Root"
		pos			{-9.89135 155.409 -24.6316}
		rot			{0.90929 0.116571 -0.399457 -6.10278e-003}
		
		bone 	"Bake_LHipJoint"
		pos			{10.2572 -0.750527 -4.7124e-002}
		rot			{0.84215 -6.92014e-002 -0.414648 0.33773}
		
		bone 	"Bake_LowerChestJoint"
		pos			{0.950914 18.3459 3.38756}
		rot			{0.995 1.39959e-002 -9.6872e-002 1.98503e-002}
		
		bone 	"Bake_RHipJoint"
		pos			{-9.27856 -0.750547 -4.71226e-002}
		rot			{2.4563e-002 0.652474 -0.11611 -0.74846}
		
		bone 	"Bake_RkneeJoint"
		pos			{0.14961 67.5664 1.8204}
		rot			{0.750532 0.11913 0.639281 -0.117599}
		
		bone 	"Bake_LkneeJoint"
		pos			{-0.149599 -67.5665 -1.82043}
		rot			{0.71353 0.244436 0.609749 -0.243583}
		
		bone 	"Bake_UpperChestJoint"
		pos			{-4.44089e-015 24.7866 -7.5982}
		rot			{0.999366 -1.72613e-003 -3.11343e-002 -1.71949e-002}
		
		bone 	"Bake_NeckJoint"
		pos			{1.24345e-014 31.5911 -5.27135}
		rot			{0.991829 8.22993e-002 -5.06392e-002 8.329e-002}
		
		bone 	"Bake_LFootJoint"
		pos			{-1.01281 -88.9406 -17.4875}
		rot			{0.971869 -0.153048 -0.14176 -0.109325}
		
		bone 	"Bake_RFootJoint"
		pos			{1.01277 88.9408 17.4875}
		rot			{0.970173 -0.193966 7.71492e-002 -0.123243}
		
		bone 	"Bake_RArmJoint"
		pos			{-19.6696 -7.15149 -2.14289}
		rot			{8.15152e-002 -0.834702 -0.539764 -7.26737e-002}
		
		bone 	"Bake_LArmJoint"
		pos			{19.4833 -7.55507 -2.14288}
		rot			{0.786111 -4.51628e-002 0.323763 -0.524564}
		
		bone 	"Bake_RToeJoint"
		pos			{-3.56224 13.9947 -19.4816}
		rot			{1. 0. 0. 0.}
		
		bone 	"Bake_HeadJoint"
		pos			{-0.447655 10.0592 -0.213579}
		rot			{0.846625 -9.4161e-002 0.507381 -0.130094}
		
		bone 	"Bake_LToeJoint"
		pos			{3.56225 -13.9948 19.4816}
		rot			{1. 0. 0. 0.}
		
		bone 	"Bake_LElbowJoint"
		pos			{42.3171 0.912694 -3.2219}
		rot			{0.613737 -6.09969e-002 -0.785489 -5.11112e-002}
		
		bone 	"Bake_RElbowJoint"
		pos			{-42.2763 -0.990979 6.52934}
		rot			{0.683647 -7.81772e-002 -0.721655 -7.56866e-002}
		
		bone 	"Bake_RWristJoint"
		pos			{-50.1445 0.692473 2.14966}
		rot			{0.743064 0.667868 -1.99206e-002 3.7573e-002}
		
		bone 	"Bake_LWristJoint"
		pos			{45.8286 -0.158446 -0.641449}
		rot			{0.852287 0.505262 -0.133118 2.44132e-002}
		
		bone 	"Bake_RHandJoint"
		pos			{-17.4849 -0.540389 -3.5306}
		rot			{0.992484 0. 0. -0.122375}
		
		bone 	"Bake_LHandJoint"
		pos			{17.2019 0.366814 1.97759}
		rot			{0.947436 -3.64948e-004 4.10124e-002 -0.317307}
		
		bone 	"Bake_LIndexJoint1"
		pos			{12.2418 -1.31958 7.40454}
		rot			{0.971938 -2.27508e-002 -0.208823 -0.10589}
		
		bone 	"Bake_RIndexJoint1"
		pos			{-9.08339 1.40164 -8.94563}
		rot			{0.959538 0. -0.28158 0.}
		
		bone 	"Bake_LIndex2"
		pos			{6.17497 -0.574751 0.664665}
		rot			{0.977689 1.25744e-004 0.210058 5.85257e-004}
		
		bone 	"Bake_RIndexJoint2"
		pos			{-3.15429 1.28809 -5.86307e-002}
		rot			{1. 0. 0. 0.}
	}
	
	// Keyframe# 7
	CIwAnimKeyFrame
	{
		time 	0.2
		
		bone 	"Bake_Root"
		pos			{-10.5593 152.178 -24.6316}
		rot			{0.910692 0.116357 -0.39631 -6.22855e-003}
		
		bone 	"Bake_LHipJoint"
		pos			{10.2572 -0.750527 -4.7124e-002}
		rot			{0.823926 -8.26949e-002 -0.413999 0.378037}
		
		bone 	"Bake_LowerChestJoint"
		pos			{0.950914 18.3459 3.38756}
		rot			{0.994954 1.86519e-002 -9.64347e-002 2.04646e-002}
		
		bone 	"Bake_RHipJoint"
		pos			{-9.27856 -0.750547 -4.71226e-002}
		rot			{4.96102e-002 0.650169 -0.140386 -0.745057}
		
		bone 	"Bake_RkneeJoint"
		pos			{0.14961 67.5664 1.8204}
		rot			{0.740704 0.164233 0.630779 -0.162794}
		
		bone 	"Bake_LkneeJoint"
		pos			{-0.149599 -67.5665 -1.82043}
		rot			{0.702267 0.272087 0.599329 -0.271283}
		
		bone 	"Bake_UpperChestJoint"
		pos			{0. 24.7866 -7.5982}
		rot			{0.99962 -2.4186e-004 -2.17309e-002 -1.69305e-002}
		
		bone 	"Bake_NeckJoint"
		pos			{-1.77636e-015 31.5911 -5.27135}
		rot			{0.99165 8.5136e-002 -5.18008e-002 8.18413e-002}
		
		bone 	"Bake_LFootJoint"
		pos			{-1.01281 -88.9406 -17.4875}
		rot			{0.970509 -0.152027 -0.144325 -0.119039}
		
		bone 	"Bake_RFootJoint"
		pos			{1.01277 88.9408 17.4875}
		rot			{0.963778 -0.222556 7.26267e-002 -0.127776}
		
		bone 	"Bake_RArmJoint"
		pos			{-19.6696 -7.15149 -2.14289}
		rot			{8.52317e-002 -0.840978 -0.52656 -9.07014e-002}
		
		bone 	"Bake_LArmJoint"
		pos			{19.4833 -7.55507 -2.14288}
		rot			{0.794099 -3.40353e-002 0.314129 -0.519203}
		
		bone 	"Bake_RToeJoint"
		pos			{-3.56224 13.9947 -19.4816}
		rot			{1. 0. 0. 0.}
		
		bone 	"Bake_HeadJoint"
		pos			{-0.447655 10.0592 -0.213579}
		rot			{0.843754 -9.74495e-002 0.510612 -0.133634}
		
		bone 	"Bake_LToeJoint"
		pos			{3.56225 -13.9948 19.4816}
		rot			{1. 0. 0. 0.}
		
		bone 	"Bake_LElbowJoint"
		pos			{42.3171 0.912694 -3.2219}
		rot			{0.590894 -6.39964e-002 -0.802568 -5.13167e-002}
		
		bone 	"Bake_RElbowJoint"
		pos			{-42.2763 -0.990979 6.52934}
		rot			{0.656069 -8.35929e-002 -0.746058 -7.73536e-002}
		
		bone 	"Bake_RWristJoint"
		pos			{-50.1445 0.692473 2.14966}
		rot			{0.753212 0.65703 -7.67934e-003 3.04005e-002}
		
		bone 	"Bake_LWristJoint"
		pos			{45.8286 -0.158446 -0.641449}
		rot			{0.857197 0.50171 -0.113642 2.41765e-002}
		
		bone 	"Bake_RHandJoint"
		pos			{-17.4849 -0.540389 -3.5306}
		rot			{0.992484 0. 0. -0.122375}
		
		bone 	"Bake_LHandJoint"
		pos			{17.2019 0.366814 1.97759}
		rot			{0.947436 -3.64948e-004 4.10124e-002 -0.317307}
		
		bone 	"Bake_LIndexJoint1"
		pos			{12.2418 -1.31958 7.40454}
		rot			{0.971938 -2.27508e-002 -0.208823 -0.10589}
		
		bone 	"Bake_RIndexJoint1"
		pos			{-9.08339 1.40164 -8.94563}
		rot			{0.959538 0. -0.28158 0.}
		
		bone 	"Bake_LIndex2"
		pos			{6.17497 -0.574751 0.664665}
		rot			{0.977689 1.25744e-004 0.210058 5.85257e-004}
		
		bone 	"Bake_RIndexJoint2"
		pos			{-3.15429 1.28809 -5.86307e-002}
		rot			{1. 0. 0. 0.}
	}
	
	// Keyframe# 8
	CIwAnimKeyFrame
	{
		time 	0.233333
		
		bone 	"Bake_Root"
		pos			{-10.1718 148.947 -24.6316}
		rot			{0.912413 0.116078 -0.392413 -6.3703e-003}
		
		bone 	"Bake_LHipJoint"
		pos			{10.2572 -0.750527 -4.7124e-002}
		rot			{0.79744 -0.10256 -0.415976 0.424894}
		
		bone 	"Bake_LowerChestJoint"
		pos			{0.950914 18.3459 3.38756}
		rot			{0.994846 2.55128e-002 -9.57838e-002 2.13633e-002}
		
		bone 	"Bake_RHipJoint"
		pos			{-9.27856 -0.750547 -4.71226e-002}
		rot			{6.88434e-002 0.649092 -0.165842 -0.739213}
		
		bone 	"Bake_RkneeJoint"
		pos			{0.14961 67.5664 1.8204}
		rot			{0.730288 0.201252 0.621467 -0.199888}
		
		bone 	"Bake_LkneeJoint"
		pos			{-0.149599 -67.5665 -1.82043}
		rot			{0.691782 0.295216 0.589561 -0.294452}
		
		bone 	"Bake_UpperChestJoint"
		pos			{-6.21725e-015 24.7866 -7.5982}
		rot			{0.999484 -1.09681e-003 -2.71861e-002 -1.70813e-002}
		
		bone 	"Bake_NeckJoint"
		pos			{2.04281e-014 31.5911 -5.27135}
		rot			{0.991756 8.34911e-002 -5.11259e-002 8.26808e-002}
		
		bone 	"Bake_LFootJoint"
		pos			{-1.01281 -88.9406 -17.4875}
		rot			{0.971781 -0.13487 -0.141209 -0.132332}
		
		bone 	"Bake_RFootJoint"
		pos			{1.01277 88.9408 17.4875}
		rot			{0.957952 -0.243633 6.66315e-002 -0.136132}
		
		bone 	"Bake_RArmJoint"
		pos			{-19.6696 -7.15149 -2.14289}
		rot			{9.60137e-002 -0.85583 -0.499437 -9.43315e-002}
		
		bone 	"Bake_LArmJoint"
		pos			{19.4833 -7.55507 -2.14288}
		rot			{0.794845 -2.25835e-002 0.307905 -0.522403}
		
		bone 	"Bake_RToeJoint"
		pos			{-3.56224 13.9947 -19.4816}
		rot			{1. 0. 0. 0.}
		
		bone 	"Bake_HeadJoint"
		pos			{-0.447655 10.0592 -0.213579}
		rot			{0.838436 -9.83982e-002 0.51846 -0.136171}
		
		bone 	"Bake_LToeJoint"
		pos			{3.56225 -13.9948 19.4816}
		rot			{1. 0. 0. 0.}
		
		bone 	"Bake_LElbowJoint"
		pos			{42.3171 0.912694 -3.2219}
		rot			{0.565483 -6.72895e-002 -0.820404 -5.13685e-002}
		
		bone 	"Bake_RElbowJoint"
		pos			{-42.2763 -0.990979 6.52934}
		rot			{0.632193 -8.8195e-002 -0.765761 -7.85066e-002}
		
		bone 	"Bake_RWristJoint"
		pos			{-50.1445 0.692473 2.14966}
		rot			{0.770216 0.637214 1.03951e-002 2.48663e-002}
		
		bone 	"Bake_LWristJoint"
		pos			{45.8286 -0.158446 -0.641449}
		rot			{0.857102 0.507525 -8.51283e-002 2.34057e-002}
		
		bone 	"Bake_RHandJoint"
		pos			{-17.4849 -0.540389 -3.5306}
		rot			{0.992484 0. 0. -0.122375}
		
		bone 	"Bake_LHandJoint"
		pos			{17.2019 0.366814 1.97759}
		rot			{0.947436 -3.64948e-004 4.10124e-002 -0.317307}
		
		bone 	"Bake_LIndexJoint1"
		pos			{12.2418 -1.31958 7.40454}
		rot			{0.971938 -2.27508e-002 -0.208823 -0.10589}
		
		bone 	"Bake_RIndexJoint1"
		pos			{-9.08339 1.40164 -8.94563}
		rot			{0.959538 0. -0.28158 0.}
		
		bone 	"Bake_LIndex2"
		pos			{6.17497 -0.574751 0.664665}
		rot			{0.977689 1.25744e-004 0.210058 5.85257e-004}
		
		bone 	"Bake_RIndexJoint2"
		pos			{-3.15429 1.28809 -5.86307e-002}
		rot			{1. 0. 0. 0.}
	}
	
	// Keyframe# 9
	CIwAnimKeyFrame
	{
		time 	0.266667
		
		bone 	"Bake_Root"
		pos			{-9.15034 146.461 -24.6316}
		rot			{0.914314 0.115748 -0.388059 -6.51044e-003}
		
		bone 	"Bake_LHipJoint"
		pos			{10.2572 -0.750527 -4.7124e-002}
		rot			{0.772759 -0.120599 -0.419984 0.46034}
		
		bone 	"Bake_LowerChestJoint"
		pos			{0.950914 18.3459 3.38756}
		rot			{0.99465 3.38426e-002 -9.49828e-002 2.24439e-002}
		
		bone 	"Bake_RHipJoint"
		pos			{-9.27856 -0.750547 -4.71226e-002}
		rot			{8.02537e-002 0.648959 -0.188164 -0.732807}
		
		bone 	"Bake_RkneeJoint"
		pos			{0.14961 67.5664 1.8204}
		rot			{0.722202 0.225691 0.61412 -0.224376}
		
		bone 	"Bake_LkneeJoint"
		pos			{-0.149599 -67.5665 -1.82043}
		rot			{0.685588 0.307929 0.583766 -0.307189}
		
		bone 	"Bake_UpperChestJoint"
		pos			{-3.55271e-015 24.7866 -7.5982}
		rot			{0.998977 -3.43056e-003 -4.15604e-002 -1.75121e-002}
		
		bone 	"Bake_NeckJoint"
		pos			{1.06581e-014 31.5911 -5.27135}
		rot			{0.992013 7.91464e-002 -4.93607e-002 8.49053e-002}
		
		bone 	"Bake_LFootJoint"
		pos			{-1.01281 -88.9406 -17.4875}
		rot			{0.973869 -0.112498 -0.134919 -0.143948}
		
		bone 	"Bake_RFootJoint"
		pos			{1.01277 88.9408 17.4875}
		rot			{0.953925 -0.254781 6.10992e-002 -0.146218}
		
		bone 	"Bake_RArmJoint"
		pos			{-19.6696 -7.15149 -2.14289}
		rot			{0.107968 -0.871623 -0.469759 -8.91205e-002}
		
		bone 	"Bake_LArmJoint"
		pos			{19.4833 -7.55507 -2.14288}
		rot			{0.790151 -1.49652e-002 0.301099 -0.533645}
		
		bone 	"Bake_RToeJoint"
		pos			{-3.56224 13.9947 -19.4816}
		rot			{1. 0. 0. 0.}
		
		bone 	"Bake_HeadJoint"
		pos			{-0.447655 10.0592 -0.213579}
		rot			{0.834112 -0.100599 0.524669 -0.137326}
		
		bone 	"Bake_LToeJoint"
		pos			{3.56225 -13.9948 19.4816}
		rot			{1. 0. 0. 0.}
		
		bone 	"Bake_LElbowJoint"
		pos			{42.3171 0.912694 -3.2219}
		rot			{0.544626 -6.99573e-002 -0.834182 -5.12779e-002}
		
		bone 	"Bake_RElbowJoint"
		pos			{-42.2763 -0.990979 6.52934}
		rot			{0.616091 -9.12535e-002 -0.778358 -7.91402e-002}
		
		bone 	"Bake_RWristJoint"
		pos			{-50.1445 0.692473 2.14966}
		rot			{0.786799 0.616236 2.64916e-002 2.23431e-002}
		
		bone 	"Bake_LWristJoint"
		pos			{45.8286 -0.158446 -0.641449}
		rot			{0.851232 0.52136 -5.57244e-002 2.19725e-002}
		
		bone 	"Bake_RHandJoint"
		pos			{-17.4849 -0.540389 -3.5306}
		rot			{0.992484 0. 0. -0.122375}
		
		bone 	"Bake_LHandJoint"
		pos			{17.2019 0.366814 1.97759}
		rot			{0.947436 -3.64948e-004 4.10124e-002 -0.317307}
		
		bone 	"Bake_LIndexJoint1"
		pos			{12.2418 -1.31958 7.40454}
		rot			{0.971938 -2.27508e-002 -0.208823 -0.10589}
		
		bone 	"Bake_RIndexJoint1"
		pos			{-9.08339 1.40164 -8.94563}
		rot			{0.959538 0. -0.28158 0.}
		
		bone 	"Bake_LIndex2"
		pos			{6.17497 -0.574751 0.664665}
		rot			{0.977689 1.25744e-004 0.210058 5.85257e-004}
		
		bone 	"Bake_RIndexJoint2"
		pos			{-3.15429 1.28809 -5.86307e-002}
		rot			{1. 0. 0. 0.}
	}
	
	// Keyframe# 10
	CIwAnimKeyFrame
	{
		time 	0.3
		
		bone 	"Bake_Root"
		pos			{-7.70616 145.467 -24.6316}
		rot			{0.916262 0.115385 -0.383545 -6.63558e-003}
		
		bone 	"Bake_LHipJoint"
		pos			{10.2572 -0.750527 -4.7124e-002}
		rot			{0.754102 -0.134196 -0.426836 0.480762}
		
		bone 	"Bake_LowerChestJoint"
		pos			{0.950914 18.3459 3.38756}
		rot			{0.994358 4.29054e-002 -9.40983e-002 2.36062e-002}
		
		bone 	"Bake_RHipJoint"
		pos			{-9.27856 -0.750547 -4.71226e-002}
		rot			{8.51365e-002 0.649204 -0.205869 -0.727258}
		
		bone 	"Bake_RkneeJoint"
		pos			{0.14961 67.5664 1.8204}
		rot			{0.717694 0.238158 0.609992 -0.236869}
		
		bone 	"Bake_LkneeJoint"
		pos			{-0.149599 -67.5665 -1.82043}
		rot			{0.685978 0.307147 0.584132 -0.306405}
		
		bone 	"Bake_UpperChestJoint"
		pos			{3.55271e-015 24.7866 -7.5982}
		rot			{0.997895 -6.92529e-003 -6.1857e-002 -1.82004e-002}
		
		bone 	"Bake_NeckJoint"
		pos			{3.10862e-015 31.5911 -5.27135}
		rot			{0.992329 7.29839e-002 -4.69002e-002 8.80784e-002}
		
		bone 	"Bake_LFootJoint"
		pos			{-1.01281 -88.9406 -17.4875}
		rot			{0.976486 -8.5271e-002 -0.125182 -0.153407}
		
		bone 	"Bake_RFootJoint"
		pos			{1.01277 88.9408 17.4875}
		rot			{0.95476 -0.245836 5.6118e-002 -0.157637}
		
		bone 	"Bake_RArmJoint"
		pos			{-19.6696 -7.15149 -2.14289}
		rot			{0.120511 -0.88128 -0.45015 -7.86605e-002}
		
		bone 	"Bake_LArmJoint"
		pos			{19.4833 -7.55507 -2.14288}
		rot			{0.779419 -1.49757e-002 0.294006 -0.55303}
		
		bone 	"Bake_RToeJoint"
		pos			{-3.56224 13.9947 -19.4816}
		rot			{0.999973 -7.37666e-003 0. 0.}
		
		bone 	"Bake_HeadJoint"
		pos			{-0.447655 10.0592 -0.213579}
		rot			{0.83114 -0.104013 0.528856 -0.136743}
		
		bone 	"Bake_LToeJoint"
		pos			{3.56225 -13.9948 19.4816}
		rot			{1. 0. 0. 0.}
		
		bone 	"Bake_LElbowJoint"
		pos			{42.3171 0.912694 -3.2219}
		rot			{0.534596 -7.12288e-002 -0.840543 -5.11929e-002}
		
		bone 	"Bake_RElbowJoint"
		pos			{-42.2763 -0.990979 6.52934}
		rot			{0.608786 -9.26291e-002 -0.783898 -7.93907e-002}
		
		bone 	"Bake_RWristJoint"
		pos			{-50.1445 0.692473 2.14966}
		rot			{0.795607 0.604316 3.60595e-002 2.26068e-002}
		
		bone 	"Bake_LWristJoint"
		pos			{45.8286 -0.158446 -0.641449}
		rot			{0.839187 0.542444 -3.38152e-002 1.941e-002}
		
		bone 	"Bake_RHandJoint"
		pos			{-17.4849 -0.540389 -3.5306}
		rot			{0.992484 0. 0. -0.122375}
		
		bone 	"Bake_LHandJoint"
		pos			{17.2019 0.366814 1.97759}
		rot			{0.947436 -3.64948e-004 4.10124e-002 -0.317307}
		
		bone 	"Bake_LIndexJoint1"
		pos			{12.2418 -1.31958 7.40454}
		rot			{0.971938 -2.27508e-002 -0.208823 -0.10589}
		
		bone 	"Bake_RIndexJoint1"
		pos			{-9.08339 1.40164 -8.94563}
		rot			{0.959538 0. -0.28158 0.}
		
		bone 	"Bake_LIndex2"
		pos			{6.17497 -0.574751 0.664665}
		rot			{0.977689 1.25744e-004 0.210058 5.85257e-004}
		
		bone 	"Bake_RIndexJoint2"
		pos			{-3.15429 1.28809 -5.86307e-002}
		rot			{1. 0. 0. 0.}
	}
	
	// Keyframe# 11
	CIwAnimKeyFrame
	{
		time 	0.333333
		
		bone 	"Bake_Root"
		pos			{-6.05064 146.547 -24.6316}
		rot			{0.918127 0.115013 -0.37917 -6.73744e-003}
		
		bone 	"Bake_LHipJoint"
		pos			{10.2572 -0.750527 -4.7124e-002}
		rot			{0.743524 -0.140351 -0.437943 0.485468}
		
		bone 	"Bake_LowerChestJoint"
		pos			{0.950914 18.3459 3.38756}
		rot			{0.993982 5.19651e-002 -9.32005e-002 2.47544e-002}
		
		bone 	"Bake_RHipJoint"
		pos			{-9.27856 -0.750547 -4.71226e-002}
		rot			{8.34351e-002 0.649794 -0.216284 -0.723897}
		
		bone 	"Bake_RkneeJoint"
		pos			{0.14961 67.5664 1.8204}
		rot			{0.718056 0.237181 0.610324 -0.23589}
		
		bone 	"Bake_LkneeJoint"
		pos			{-0.149599 -67.5665 -1.82043}
		rot			{0.695867 0.286464 0.593373 -0.285685}
		
		bone 	"Bake_UpperChestJoint"
		pos			{-6.21725e-015 24.7866 -7.5982}
		rot			{0.996129 -1.12083e-002 -8.50735e-002 -1.90983e-002}
		
		bone 	"Bake_NeckJoint"
		pos			{8.43769e-015 31.5911 -5.27135}
		rot			{0.992619 6.58915e-002 -4.41309e-002 9.17556e-002}
		
		bone 	"Bake_LFootJoint"
		pos			{-1.01281 -88.9406 -17.4875}
		rot			{0.979293 -4.67521e-002 -0.110306 -0.163196}
		
		bone 	"Bake_RFootJoint"
		pos			{1.01277 88.9408 17.4875}
		rot			{0.961296 -0.210843 5.25945e-002 -0.169376}
		
		bone 	"Bake_RArmJoint"
		pos			{-19.6696 -7.15149 -2.14289}
		rot			{0.131978 -0.881996 -0.447873 -6.38374e-002}
		
		bone 	"Bake_LArmJoint"
		pos			{19.4833 -7.55507 -2.14288}
		rot			{0.762685 -2.46673e-002 0.289586 -0.577792}
		
		bone 	"Bake_RToeJoint"
		pos			{-3.56224 13.9947 -19.4816}
		rot			{0.999658 -2.61429e-002 0. 0.}
		
		bone 	"Bake_HeadJoint"
		pos			{-0.447655 10.0592 -0.213579}
		rot			{0.829341 -0.108078 0.531442 -0.134472}
		
		bone 	"Bake_LToeJoint"
		pos			{3.56225 -13.9948 19.4816}
		rot			{1. 0. 0. 0.}
		
		bone 	"Bake_LElbowJoint"
		pos			{42.3171 0.912694 -3.2219}
		rot			{0.539752 -7.0576e-002 -0.837294 -5.12399e-002}
		
		bone 	"Bake_RElbowJoint"
		pos			{-42.2763 -0.990979 6.52934}
		rot			{0.613267 -9.17862e-002 -0.780513 -7.92398e-002}
		
		bone 	"Bake_RWristJoint"
		pos			{-50.1445 0.692473 2.14966}
		rot			{0.794011 0.606259 3.62822e-002 2.6091e-002}
		
		bone 	"Bake_LWristJoint"
		pos			{45.8286 -0.158446 -0.641449}
		rot			{0.822758 0.567482 -2.74958e-002 1.66542e-002}
		
		bone 	"Bake_RHandJoint"
		pos			{-17.4849 -0.540389 -3.5306}
		rot			{0.992484 0. 0. -0.122375}
		
		bone 	"Bake_LHandJoint"
		pos			{17.2019 0.366814 1.97759}
		rot			{0.947436 -3.64948e-004 4.10124e-002 -0.317307}
		
		bone 	"Bake_LIndexJoint1"
		pos			{12.2418 -1.31958 7.40454}
		rot			{0.971938 -2.27508e-002 -0.208823 -0.10589}
		
		bone 	"Bake_RIndexJoint1"
		pos			{-9.08339 1.40164 -8.94563}
		rot			{0.959538 0. -0.28158 0.}
		
		bone 	"Bake_LIndex2"
		pos			{6.17497 -0.574751 0.664665}
		rot			{0.977689 1.25744e-004 0.210058 5.85257e-004}
		
		bone 	"Bake_RIndexJoint2"
		pos			{-3.15429 1.28809 -5.86307e-002}
		rot			{1. 0. 0. 0.}
	}
	
	// Keyframe# 12
	CIwAnimKeyFrame
	{
		time 	0.366667
		
		bone 	"Bake_Root"
		pos			{-4.39511 149.123 -24.6316}
		rot			{0.919784 0.114663 -0.375237 -6.81283e-003}
		
		bone 	"Bake_LHipJoint"
		pos			{10.2572 -0.750527 -4.7124e-002}
		rot			{0.742682 -0.138303 -0.451459 0.474848}
		
		bone 	"Bake_LowerChestJoint"
		pos			{0.950914 18.3459 3.38756}
		rot			{0.993564 6.0287e-002 -9.2364e-002 2.57968e-002}
		
		bone 	"Bake_RHipJoint"
		pos			{-9.27856 -0.750547 -4.71226e-002}
		rot			{7.62455e-002 0.651013 -0.219371 -0.722665}
		
		bone 	"Bake_RkneeJoint"
		pos			{0.14961 67.5664 1.8204}
		rot			{0.722456 0.224966 0.614352 -0.22365}
		
		bone 	"Bake_LkneeJoint"
		pos			{-0.149599 -67.5665 -1.82043}
		rot			{0.710505 0.252196 0.606959 -0.251357}
		
		bone 	"Bake_UpperChestJoint"
		pos			{1.11022e-014 24.7866 -7.5982}
		rot			{0.993798 -1.57809e-002 -0.10822 -2.01058e-002}
		
		bone 	"Bake_NeckJoint"
		pos			{4.44089e-016 31.5911 -5.27135}
		rot			{0.992832 5.877e-002 -4.14168e-002 9.54744e-002}
		
		bone 	"Bake_LFootJoint"
		pos			{-1.01281 -88.9406 -17.4875}
		rot			{0.980927 -7.52003e-003 -9.38835e-002 -0.170033}
		
		bone 	"Bake_RFootJoint"
		pos			{1.01277 88.9408 17.4875}
		rot			{0.969168 -0.160104 5.13722e-002 -0.180116}
		
		bone 	"Bake_RArmJoint"
		pos			{-19.6696 -7.15149 -2.14289}
		rot			{0.141473 -0.87648 -0.4578 -4.67707e-002}
		
		bone 	"Bake_LArmJoint"
		pos			{19.4833 -7.55507 -2.14288}
		rot			{0.750723 -3.99989e-002 0.2923 -0.591079}
		
		bone 	"Bake_RToeJoint"
		pos			{-3.56224 13.9947 -19.4816}
		rot			{0.998696 -5.10585e-002 0. 0.}
		
		bone 	"Bake_HeadJoint"
		pos			{-0.447655 10.0592 -0.213579}
		rot			{0.828494 -0.112201 0.532782 -0.130967}
		
		bone 	"Bake_LToeJoint"
		pos			{3.56225 -13.9948 19.4816}
		rot			{1. 0. 0. 0.}
		
		bone 	"Bake_LElbowJoint"
		pos			{42.3171 0.912694 -3.2219}
		rot			{0.548992 -6.94016e-002 -0.83136 -5.13065e-002}
		
		bone 	"Bake_RElbowJoint"
		pos			{-42.2763 -0.990979 6.52934}
		rot			{0.627597 -8.90718e-002 -0.769412 -7.86991e-002}
		
		bone 	"Bake_RWristJoint"
		pos			{-50.1445 0.692473 2.14966}
		rot			{0.785983 0.616703 2.90919e-002 3.2596e-002}
		
		bone 	"Bake_LWristJoint"
		pos			{45.8286 -0.158446 -0.641449}
		rot			{0.813212 0.581248 -2.65211e-002 1.15035e-002}
		
		bone 	"Bake_RHandJoint"
		pos			{-17.4849 -0.540389 -3.5306}
		rot			{0.992484 0. 0. -0.122375}
		
		bone 	"Bake_LHandJoint"
		pos			{17.2019 0.366814 1.97759}
		rot			{0.947436 -3.64948e-004 4.10124e-002 -0.317307}
		
		bone 	"Bake_LIndexJoint1"
		pos			{12.2418 -1.31958 7.40454}
		rot			{0.971938 -2.27508e-002 -0.208823 -0.10589}
		
		bone 	"Bake_RIndexJoint1"
		pos			{-9.08339 1.40164 -8.94563}
		rot			{0.959538 0. -0.28158 0.}
		
		bone 	"Bake_LIndex2"
		pos			{6.17497 -0.574751 0.664665}
		rot			{0.977689 1.25744e-004 0.210058 5.85257e-004}
		
		bone 	"Bake_RIndexJoint2"
		pos			{-3.15429 1.28809 -5.86307e-002}
		rot			{1. 0. 0. 0.}
	}
	
	// Keyframe# 13
	CIwAnimKeyFrame
	{
		time 	0.4
		
		bone 	"Bake_Root"
		pos			{-2.95093 152.197 -24.6316}
		rot			{0.921114 0.114368 -0.37205 -6.86275e-003}
		
		bone 	"Bake_LHipJoint"
		pos			{10.2572 -0.750527 -4.7124e-002}
		rot			{0.749015 -0.13187 -0.463488 0.454716}
		
		bone 	"Bake_LowerChestJoint"
		pos			{0.950914 18.3459 3.38756}
		rot			{0.993167 6.71375e-002 -9.16669e-002 2.6646e-002}
		
		bone 	"Bake_RHipJoint"
		pos			{-9.27856 -0.750547 -4.71226e-002}
		rot			{6.62159e-002 0.652704 -0.217375 -0.722732}
		
		bone 	"Bake_RkneeJoint"
		pos			{0.14961 67.5664 1.8204}
		rot			{0.728485 0.206967 0.619836 -0.205614}
		
		bone 	"Bake_LkneeJoint"
		pos			{-0.149599 -67.5665 -1.82043}
		rot			{0.72295 0.21833 0.618385 -0.21743}
		
		bone 	"Bake_UpperChestJoint"
		pos			{-4.88498e-015 24.7866 -7.5982}
		rot			{0.991304 -2.00014e-002 -0.128341 -2.10687e-002}
		
		bone 	"Bake_NeckJoint"
		pos			{2.35367e-014 31.5911 -5.27135}
		rot			{0.992955 5.25346e-002 -3.9095e-002 9.87518e-002}
		
		bone 	"Bake_LFootJoint"
		pos			{-1.01281 -88.9406 -17.4875}
		rot			{0.981768 1.9355e-002 -8.13104e-002 -0.170721}
		
		bone 	"Bake_RFootJoint"
		pos			{1.01277 88.9408 17.4875}
		rot			{0.974806 -0.106407 5.19877e-002 -0.189019}
		
		bone 	"Bake_RArmJoint"
		pos			{-19.6696 -7.15149 -2.14289}
		rot			{0.149177 -0.868612 -0.471509 -3.06404e-002}
		
		bone 	"Bake_LArmJoint"
		pos			{19.4833 -7.55507 -2.14288}
		rot			{0.748573 -5.59197e-002 0.299476 -0.588919}
		
		bone 	"Bake_RToeJoint"
		pos			{-3.56224 13.9947 -19.4816}
		rot			{0.996997 -7.74414e-002 0. 0.}
		
		bone 	"Bake_HeadJoint"
		pos			{-0.447655 10.0592 -0.213579}
		rot			{0.828321 -0.115794 0.533225 -0.127072}
		
		bone 	"Bake_LToeJoint"
		pos			{3.56225 -13.9948 19.4816}
		rot			{1. 0. 0. 0.}
		
		bone 	"Bake_LElbowJoint"
		pos			{42.3171 0.912694 -3.2219}
		rot			{0.554697 -6.86732e-002 -0.827623 -5.13363e-002}
		
		bone 	"Bake_RElbowJoint"
		pos			{-42.2763 -0.990979 6.52934}
		rot			{0.646141 -8.55163e-002 -0.754404 -7.78647e-002}
		
		bone 	"Bake_RWristJoint"
		pos			{-50.1445 0.692473 2.14966}
		rot			{0.77647 0.628514 1.86296e-002 4.14355e-002}
		
		bone 	"Bake_LWristJoint"
		pos			{45.8286 -0.158446 -0.641449}
		rot			{0.813789 0.580734 -2.20244e-002 3.05063e-003}
		
		bone 	"Bake_RHandJoint"
		pos			{-17.4849 -0.540389 -3.5306}
		rot			{0.992484 0. 0. -0.122375}
		
		bone 	"Bake_LHandJoint"
		pos			{17.2019 0.366814 1.97759}
		rot			{0.947436 -3.64948e-004 4.10124e-002 -0.317307}
		
		bone 	"Bake_LIndexJoint1"
		pos			{12.2418 -1.31958 7.40454}
		rot			{0.971938 -2.27508e-002 -0.208823 -0.10589}
		
		bone 	"Bake_RIndexJoint1"
		pos			{-9.08339 1.40164 -8.94563}
		rot			{0.959538 0. -0.28158 0.}
		
		bone 	"Bake_LIndex2"
		pos			{6.17497 -0.574751 0.664665}
		rot			{0.977689 1.25744e-004 0.210058 5.85257e-004}
		
		bone 	"Bake_RIndexJoint2"
		pos			{-3.15429 1.28809 -5.86307e-002}
		rot			{1. 0. 0. 0.}
	}
	
	// Keyframe# 14
	CIwAnimKeyFrame
	{
		time 	0.433333
		
		bone 	"Bake_Root"
		pos			{-1.92944 154.773 -24.6316}
		rot			{0.921999 0.114165 -0.369915 -6.89065e-003}
		
		bone 	"Bake_LHipJoint"
		pos			{10.2572 -0.750527 -4.7124e-002}
		rot			{0.756754 -0.125336 -0.471605 0.434975}
		
		bone 	"Bake_LowerChestJoint"
		pos			{0.950914 18.3459 3.38756}
		rot			{0.99287 7.17845e-002 -9.11897e-002 2.72175e-002}
		
		bone 	"Bake_RHipJoint"
		pos			{-9.27856 -0.750547 -4.71226e-002}
		rot			{5.67367e-002 0.654361 -0.213266 -0.723264}
		
		bone 	"Bake_RkneeJoint"
		pos			{0.14961 67.5664 1.8204}
		rot			{0.733746 0.189788 0.624582 -0.188401}
		
		bone 	"Bake_LkneeJoint"
		pos			{-0.149599 -67.5665 -1.82043}
		rot			{0.730906 0.193346 0.625599 -0.192402}
		
		bone 	"Bake_UpperChestJoint"
		pos			{-6.66134e-015 24.7866 -7.5982}
		rot			{0.989281 -2.31142e-002 -0.142528 -2.17942e-002}
		
		bone 	"Bake_NeckJoint"
		pos			{1.11022e-014 31.5911 -5.27135}
		rot			{0.993006 4.81116e-002 -3.74786e-002 0.101089}
		
		bone 	"Bake_LFootJoint"
		pos			{-1.01281 -88.9406 -17.4875}
		rot			{0.982416 3.36516e-002 -7.40814e-002 -0.168042}
		
		bone 	"Bake_RFootJoint"
		pos			{1.01277 88.9408 17.4875}
		rot			{0.977264 -6.33763e-002 5.34468e-002 -0.195147}
		
		bone 	"Bake_RArmJoint"
		pos			{-19.6696 -7.15149 -2.14289}
		rot			{0.154459 -0.861824 -0.482766 -1.84227e-002}
		
		bone 	"Bake_LArmJoint"
		pos			{19.4833 -7.55507 -2.14288}
		rot			{0.750853 -6.85226e-002 0.306745 -0.580889}
		
		bone 	"Bake_RToeJoint"
		pos			{-3.56224 13.9947 -19.4816}
		rot			{0.994816 -0.101689 0. 0.}
		
		bone 	"Bake_HeadJoint"
		pos			{-0.447655 10.0592 -0.213579}
		rot			{0.828485 -0.118316 0.533165 -0.123891}
		
		bone 	"Bake_LToeJoint"
		pos			{3.56225 -13.9948 19.4816}
		rot			{1. 0. 0. 0.}
		
		bone 	"Bake_LElbowJoint"
		pos			{42.3171 0.912694 -3.2219}
		rot			{0.557794 -6.82768e-002 -0.825571 -5.13488e-002}
		
		bone 	"Bake_RElbowJoint"
		pos			{-42.2763 -0.990979 6.52934}
		rot			{0.662487 -8.23421e-002 -0.740541 -7.69985e-002}
		
		bone 	"Bake_RWristJoint"
		pos			{-50.1445 0.692473 2.14966}
		rot			{0.769079 0.637129 9.23206e-003 4.99944e-002}
		
		bone 	"Bake_LWristJoint"
		pos			{45.8286 -0.158446 -0.641449}
		rot			{0.818229 0.574609 -1.72549e-002 -5.30114e-003}
		
		bone 	"Bake_RHandJoint"
		pos			{-17.4849 -0.540389 -3.5306}
		rot			{0.992484 0. 0. -0.122375}
		
		bone 	"Bake_LHandJoint"
		pos			{17.2019 0.366814 1.97759}
		rot			{0.947436 -3.64948e-004 4.10124e-002 -0.317307}
		
		bone 	"Bake_LIndexJoint1"
		pos			{12.2418 -1.31958 7.40454}
		rot			{0.971938 -2.27508e-002 -0.208823 -0.10589}
		
		bone 	"Bake_RIndexJoint1"
		pos			{-9.08339 1.40164 -8.94563}
		rot			{0.959538 0. -0.28158 0.}
		
		bone 	"Bake_LIndex2"
		pos			{6.17497 -0.574751 0.664665}
		rot			{0.977689 1.25744e-004 0.210058 5.85257e-004}
		
		bone 	"Bake_RIndexJoint2"
		pos			{-3.15429 1.28809 -5.86307e-002}
		rot			{1. 0. 0. 0.}
	}
	
	// Keyframe# 15
	CIwAnimKeyFrame
	{
		time 	0.466667
		
		bone 	"Bake_Root"
		pos			{-1.54198 155.853 -24.6316}
		rot			{0.922321 0.114089 -0.369135 -6.89972e-003}
		
		bone 	"Bake_LHipJoint"
		pos			{10.2572 -0.750527 -4.7124e-002}
		rot			{0.760273 -0.12191 -0.474842 0.426201}
		
		bone 	"Bake_LowerChestJoint"
		pos			{0.950914 18.3459 3.38756}
		rot			{0.992755 7.34961e-002 -9.1013e-002 2.74271e-002}
		
		bone 	"Bake_RHipJoint"
		pos			{-9.27856 -0.750547 -4.71226e-002}
		rot			{5.24402e-002 0.655128 -0.210955 -0.723572}
		
		bone 	"Bake_RkneeJoint"
		pos			{0.14961 67.5664 1.8204}
		rot			{0.73598 0.181986 0.626582 -0.180583}
		
		bone 	"Bake_LkneeJoint"
		pos			{-0.149599 -67.5665 -1.82043}
		rot			{0.734223 0.181873 0.628578 -0.180908}
		
		bone 	"Bake_UpperChestJoint"
		pos			{1.90958e-014 24.7866 -7.5982}
		rot			{0.988457 -2.43221e-002 -0.147898 -2.20786e-002}
		
		bone 	"Bake_NeckJoint"
		pos			{1.04361e-014 31.5911 -5.27135}
		rot			{0.993018 4.64312e-002 -3.68712e-002 0.101979}
		
		bone 	"Bake_LFootJoint"
		pos			{-1.01281 -88.9406 -17.4875}
		rot			{0.98255 4.01902e-002 -7.11251e-002 -0.167097}
		
		bone 	"Bake_RFootJoint"
		pos			{1.01277 88.9408 17.4875}
		rot			{0.977745 -4.56909e-002 5.42828e-002 -0.197435}
		
		bone 	"Bake_RArmJoint"
		pos			{-19.6696 -7.15149 -2.14289}
		rot			{0.1564 -0.858968 -0.48737 -1.35295e-002}
		
		bone 	"Bake_LArmJoint"
		pos			{19.4833 -7.55507 -2.14288}
		rot			{0.752611 -7.37435e-002 0.31004 -0.576206}
		
		bone 	"Bake_RToeJoint"
		pos			{-3.56224 13.9947 -19.4816}
		rot			{0.992621 -0.121258 0. 0.}
		
		bone 	"Bake_HeadJoint"
		pos			{-0.447655 10.0592 -0.213579}
		rot			{0.828619 -0.119267 0.533044 -0.122596}
		
		bone 	"Bake_LToeJoint"
		pos			{3.56225 -13.9948 19.4816}
		rot			{1. 0. 0. 0.}
		
		bone 	"Bake_LElbowJoint"
		pos			{42.3171 0.912694 -3.2219}
		rot			{0.558826 -6.81445e-002 -0.824884 -5.13524e-002}
		
		bone 	"Bake_RElbowJoint"
		pos			{-42.2763 -0.990979 6.52934}
		rot			{0.669531 -8.09627e-002 -0.734376 -7.65862e-002}
		
		bone 	"Bake_RWristJoint"
		pos			{-50.1445 0.692473 2.14966}
		rot			{0.766144 0.640385 5.1725e-003 5.3889e-002}
		
		bone 	"Bake_LWristJoint"
		pos			{45.8286 -0.158446 -0.641449}
		rot			{0.820881 0.570825 -1.51317e-002 -9.16429e-003}
		
		bone 	"Bake_RHandJoint"
		pos			{-17.4849 -0.540389 -3.5306}
		rot			{0.992484 0. 0. -0.122375}
		
		bone 	"Bake_LHandJoint"
		pos			{17.2019 0.366814 1.97759}
		rot			{0.947436 -3.64948e-004 4.10124e-002 -0.317307}
		
		bone 	"Bake_LIndexJoint1"
		pos			{12.2418 -1.31958 7.40454}
		rot			{0.971938 -2.27508e-002 -0.208823 -0.10589}
		
		bone 	"Bake_RIndexJoint1"
		pos			{-9.08339 1.40164 -8.94563}
		rot			{0.959538 0. -0.28158 0.}
		
		bone 	"Bake_LIndex2"
		pos			{6.17497 -0.574751 0.664665}
		rot			{0.977689 1.25744e-004 0.210058 5.85257e-004}
		
		bone 	"Bake_RIndexJoint2"
		pos			{-3.15429 1.28809 -5.86307e-002}
		rot			{1. 0. 0. 0.}
	}
}
