// Source maya file: C:/dev/dev/main/gamedemo1/Art/Characters/combatEva/Animation/combatEva_LfRndHseMd_RtStance.mb
// Maya geometry export, written by IwEngineExporter.mll

// Animation data
CIwAnim
{
	skeleton 	"combatEva_rig"
	
	// Keyframe# 1
	CIwAnimKeyFrame
	{
		time 	0.
		
		bone 	"Bake_Root"
		pos			{47.0613 181.747 46.632}
		rot			{0.556153 -0.560993 0.583077 -0.189743}
		
		bone 	"Bake_LHipJoint"
		pos			{10.2572 -0.750527 -4.7124e-002}
		rot			{0.453957 0.58998 -0.656911 0.119645}
		
		bone 	"Bake_LowerChestJoint"
		pos			{0.950914 18.3459 3.38756}
		rot			{0.883425 0.328485 -1.53944e-002 0.333796}
		
		bone 	"Bake_RHipJoint"
		pos			{-9.27856 -0.750547 -4.71226e-002}
		rot			{0.218454 -0.646849 0.213191 0.698866}
		
		bone 	"Bake_RkneeJoint"
		pos			{0.14961 67.5664 1.8204}
		rot			{0.75391 9.916e-002 0.642077 -9.75886e-002}
		
		bone 	"Bake_LkneeJoint"
		pos			{-0.149599 -67.5665 -1.82043}
		rot			{0.760352 8.84177e-004 0.649511 4.07931e-004}
		
		bone 	"Bake_UpperChestJoint"
		pos			{8.88178e-015 24.7866 -7.5982}
		rot			{0.968607 0.190674 -1.59161e-002 0.158717}
		
		bone 	"Bake_NeckJoint"
		pos			{-5.32907e-015 31.5911 -5.27135}
		rot			{0.991969 4.6712e-002 -3.33942e-002 0.112697}
		
		bone 	"Bake_LFootJoint"
		pos			{-1.01281 -88.9406 -17.4875}
		rot			{0.971301 -3.60482e-003 -0.235491 -3.32424e-002}
		
		bone 	"Bake_RFootJoint"
		pos			{1.01277 88.9408 17.4875}
		rot			{0.907046 0.406 -0.111383 -5.08328e-003}
		
		bone 	"Bake_RArmJoint"
		pos			{-19.6696 -7.15149 -2.14289}
		rot			{0.379204 0.710597 0.514126 0.294841}
		
		bone 	"Bake_LArmJoint"
		pos			{19.4833 -7.55507 -2.14288}
		rot			{0.612716 -7.34894e-002 -0.598191 -0.51122}
		
		bone 	"Bake_RToeJoint"
		pos			{-3.56224 13.9947 -19.4816}
		rot			{0.995888 -9.05919e-002 0. 0.}
		
		bone 	"Bake_HeadJoint"
		pos			{-0.447655 10.0592 -0.213579}
		rot			{0.821637 -0.154853 -0.528868 0.145708}
		
		bone 	"Bake_LToeJoint"
		pos			{3.56225 -13.9948 19.4816}
		rot			{1. 0. 0. 0.}
		
		bone 	"Bake_LElbowJoint"
		pos			{42.3171 0.912694 -3.2219}
		rot			{0.756684 -4.14472e-002 -0.650854 -4.58297e-002}
		
		bone 	"Bake_RElbowJoint"
		pos			{-42.2763 -0.990979 6.52934}
		rot			{0.731465 -6.85307e-002 -0.67461 -7.18622e-002}
		
		bone 	"Bake_RWristJoint"
		pos			{-50.1445 0.692473 2.14966}
		rot			{0.98098 -1.32288e-002 0.167852 9.65888e-002}
		
		bone 	"Bake_LWristJoint"
		pos			{45.8286 -0.158446 -0.641449}
		rot			{0.980027 0.115311 8.59858e-002 -0.137317}
		
		bone 	"Bake_RHandJoint"
		pos			{-17.4849 -0.540389 -3.5306}
		rot			{0.953798 0. 0. -0.300448}
		
		bone 	"Bake_LHandJoint"
		pos			{21.0086 -0.27611 1.42274}
		rot			{0.82984 -1.11945e-002 3.94568e-002 -0.556493}
		
		bone 	"Bake_LIndexJoint1"
		pos			{13.6098 -1.33931 8.14663}
		rot			{0.971938 -2.27508e-002 -0.208823 -0.10589}
		
		bone 	"Bake_RIndexJoint1"
		pos			{-9.08339 1.40164 -8.94563}
		rot			{0.959538 0. -0.28158 0.}
		
		bone 	"Bake_LIndex2"
		pos			{3.61358 -0.801748 -1.08499}
		rot			{0.977689 1.25744e-004 0.210058 5.85257e-004}
		
		bone 	"Bake_RIndexJoint2"
		pos			{-3.15429 1.28809 -5.86307e-002}
		rot			{1. 0. 0. 0.}
	}
	
	// Keyframe# 2
	CIwAnimKeyFrame
	{
		time 	6.66667e-002
		
		bone 	"Bake_RHipJoint"
		pos			{-9.27856 -0.750547 -4.71226e-002}
		rot			{0.147699 0.539175 -0.296224 -0.77442}
		
		bone 	"Bake_RkneeJoint"
		pos			{0.14961 67.5664 1.8204}
		rot			{0.540495 0.506543 0.442067 -0.505823}
		
		bone 	"Bake_RFootJoint"
		pos			{1.01277 88.9408 17.4875}
		rot			{0.945859 0.311833 -1.2243e-002 -8.92254e-002}
		
		bone 	"Bake_RToeJoint"
		pos			{-3.56224 13.9947 -19.4816}
		rot			{0.997586 -6.94472e-002 0. 0.}
	}
	
	// Keyframe# 3
	CIwAnimKeyFrame
	{
		time 	1.e-001
		
		bone 	"Bake_Root"
		pos			{39.4591 167.658 45.1801}
		rot			{0.860009 -0.234837 0.443509 -9.23902e-002}
		
		bone 	"Bake_LHipJoint"
		pos			{10.2572 -0.750527 -4.7124e-002}
		rot			{0.727215 0.131274 -0.653579 0.163582}
		
		bone 	"Bake_RHipJoint"
		pos			{-9.27856 -0.750547 -4.71226e-002}
		rot			{0.131288 0.607831 -0.312553 -0.718064}
		
		bone 	"Bake_RkneeJoint"
		pos			{0.14961 67.5664 1.8204}
		rot			{0.540196 0.506826 0.44178 -0.506108}
		
		bone 	"Bake_LkneeJoint"
		pos			{-0.149599 -67.5665 -1.82043}
		rot			{0.730193 0.195722 0.624957 -0.194782}
		
		bone 	"Bake_RFootJoint"
		pos			{1.01277 88.9408 17.4875}
		rot			{0.952225 0.302255 -2.84326e-002 -3.31794e-002}
		
		bone 	"Bake_RArmJoint"
		pos			{-19.6696 -7.15149 -2.14289}
		rot			{0.195504 0.880281 0.418407 0.108718}
		
		bone 	"Bake_LArmJoint"
		pos			{19.4833 -7.55507 -2.14288}
		rot			{0.738496 -3.22247e-002 8.75518e-002 -0.667773}
		
		bone 	"Bake_RToeJoint"
		pos			{-3.56224 13.9947 -19.4816}
		rot			{0.998827 -4.8413e-002 0. 0.}
		
		bone 	"Bake_HeadJoint"
		pos			{-0.447655 10.0592 -0.213579}
		rot			{0.935556 -1.85749e-002 -0.349018 -5.07646e-002}
		
		bone 	"Bake_LElbowJoint"
		pos			{42.3171 0.912694 -3.2219}
		rot			{0.75409 -4.1813e-002 -0.653823 -4.59976e-002}
		
		bone 	"Bake_RElbowJoint"
		pos			{-42.2763 -0.990979 6.52934}
		rot			{0.652983 -8.41922e-002 -0.748676 -7.75174e-002}
		
		bone 	"Bake_LWristJoint"
		pos			{45.8286 -0.158446 -0.641449}
		rot			{0.959642 0.170895 -0.217912 4.89453e-002}
		
		bone 	"Bake_LHandJoint"
		pos			{21.0086 -0.27611 1.42274}
		rot			{0.83642 -1.07229e-002 3.95875e-002 -0.546552}
	}
	
	// Keyframe# 4
	CIwAnimKeyFrame
	{
		time 	0.2
		
		bone 	"Bake_Root"
		pos			{31.8568 152.862 43.7281}
		rot			{0.911 5.99327e-003 0.412357 -2.11156e-003}
		
		bone 	"Bake_LHipJoint"
		pos			{10.2572 -0.750527 -4.7124e-002}
		rot			{0.677235 -0.220532 -0.674181 0.195443}
		
		bone 	"Bake_LowerChestJoint"
		pos			{0.950914 18.3459 3.38756}
		rot			{0.979347 0.138973 -0.140541 4.2584e-002}
		
		bone 	"Bake_RHipJoint"
		pos			{-9.27856 -0.750547 -4.71226e-002}
		rot			{8.67596e-003 -0.834769 0.15569 0.528059}
		
		bone 	"Bake_RkneeJoint"
		pos			{0.14961 67.5664 1.8204}
		rot			{0.720318 0.230991 0.612397 -0.229687}
		
		bone 	"Bake_LkneeJoint"
		pos			{-0.149599 -67.5665 -1.82043}
		rot			{0.686311 0.306478 0.584444 -0.305735}
		
		bone 	"Bake_UpperChestJoint"
		pos			{0. 24.7866 -7.5982}
		rot			{0.995637 -3.46015e-002 -7.591e-002 4.17943e-002}
		
		bone 	"Bake_NeckJoint"
		pos			{-7.10543e-015 31.5911 -5.27135}
		rot			{0.998773 -2.08155e-002 3.27636e-002 3.07682e-002}
		
		bone 	"Bake_RFootJoint"
		pos			{1.01277 88.9408 17.4875}
		rot			{0.920668 -0.183032 0.302612 -0.165215}
		
		bone 	"Bake_RArmJoint"
		pos			{-19.6696 -7.15149 -2.14289}
		rot			{9.62678e-002 0.891665 0.423169 0.128813}
		
		bone 	"Bake_LArmJoint"
		pos			{19.4833 -7.55507 -2.14288}
		rot			{0.740266 0.102586 0.342761 -0.569207}
		
		bone 	"Bake_RToeJoint"
		pos			{-3.56224 13.9947 -19.4816}
		rot			{1. 0. 0. 0.}
		
		bone 	"Bake_HeadJoint"
		pos			{-0.447655 10.0592 -0.213579}
		rot			{0.951011 -4.89427e-003 -0.307061 -3.55949e-002}
		
		bone 	"Bake_LElbowJoint"
		pos			{42.3171 0.912694 -3.2219}
		rot			{0.650762 -5.60589e-002 -0.755528 -5.04388e-002}
		
		bone 	"Bake_RElbowJoint"
		pos			{-42.2763 -0.990979 6.52934}
		rot			{0.632121 -8.82088e-002 -0.765818 -7.85097e-002}
	}
	
	// Keyframe# 5
	CIwAnimKeyFrame
	{
		time 	0.233333
		
		bone 	"Bake_RArmJoint"
		pos			{-19.6696 -7.15149 -2.14289}
		rot			{9.91763e-002 0.883357 0.426404 0.167402}
		
		bone 	"Bake_LArmJoint"
		pos			{19.4833 -7.55507 -2.14288}
		rot			{0.731231 0.11659 0.341887 -0.578637}
		
		bone 	"Bake_LElbowJoint"
		pos			{42.3171 0.912694 -3.2219}
		rot			{0.656468 -5.52897e-002 -0.750641 -5.0296e-002}
		
		bone 	"Bake_RElbowJoint"
		pos			{-42.2763 -0.990979 6.52934}
		rot			{0.588561 -9.63982e-002 -0.798692 -7.99676e-002}
		
		bone 	"Bake_RWristJoint"
		pos			{-50.1445 0.692473 2.14966}
		rot			{0.993262 -1.59719e-002 8.68345e-002 -7.50621e-002}
		
		bone 	"Bake_LWristJoint"
		pos			{45.8286 -0.158446 -0.641449}
		rot			{0.906552 0.416443 2.80832e-002 6.28498e-002}
		
		bone 	"Bake_RHandJoint"
		pos			{-17.4849 -0.540389 -3.5306}
		rot			{0.842293 0. 0. -0.539021}
		
		bone 	"Bake_LHandJoint"
		pos			{21.0086 -0.27611 1.42274}
		rot			{0.856769 -9.19659e-003 3.99697e-002 -0.514067}
	}
	
	// Keyframe# 6
	CIwAnimKeyFrame
	{
		time 	0.266667
		
		bone 	"Bake_LHipJoint"
		pos			{10.2572 -0.750527 -4.7124e-002}
		rot			{0.640415 -0.30239 -0.683688 0.176068}
		
		bone 	"Bake_LkneeJoint"
		pos			{-0.149599 -67.5665 -1.82043}
		rot			{0.690957 0.296948 0.58879 -0.296188}
		
		bone 	"Bake_LFootJoint"
		pos			{-1.01281 -88.9406 -17.4875}
		rot			{0.993439 -0.113627 1.22178e-002 -4.31803e-003}
		
		bone 	"Bake_LToeJoint"
		pos			{3.56225 -13.9948 19.4816}
		rot			{1. 0. 0. 0.}
	}
	
	// Keyframe# 7
	CIwAnimKeyFrame
	{
		time 	0.4
		
		bone 	"Bake_LHipJoint"
		pos			{10.2572 -0.750527 -4.7124e-002}
		rot			{0.584668 0.101902 -0.797469 0.108733}
		
		bone 	"Bake_LkneeJoint"
		pos			{-0.149599 -67.5665 -1.82043}
		rot			{0.755148 7.74152e-002 0.646484 -7.62635e-002}
		
		bone 	"Bake_LFootJoint"
		pos			{-1.01281 -88.9406 -17.4875}
		rot			{0.982816 8.63653e-003 -7.67099e-002 -0.16767}
		
		bone 	"Bake_LToeJoint"
		pos			{3.56225 -13.9948 19.4816}
		rot			{0.975612 -0.219502 0. 0.}
	}
	
	// Keyframe# 8
	CIwAnimKeyFrame
	{
		time 	0.466667
		
		bone 	"Bake_Root"
		pos			{-0.48976 158.298 -11.0175}
		rot			{0.886165 4.04578e-002 0.461474 1.08086e-002}
		
		bone 	"Bake_LHipJoint"
		pos			{10.2572 -0.750527 -4.7124e-002}
		rot			{0.570823 4.59424e-002 -0.805175 0.154089}
		
		bone 	"Bake_LowerChestJoint"
		pos			{0.950914 18.3459 3.38756}
		rot			{0.979148 0.122148 -0.154896 4.85376e-002}
		
		bone 	"Bake_RHipJoint"
		pos			{-9.27856 -0.750547 -4.71226e-002}
		rot			{0.102487 0.899968 -0.376432 -0.194557}
		
		bone 	"Bake_RkneeJoint"
		pos			{0.14961 67.5664 1.8204}
		rot			{0.724084 0.220262 0.615836 -0.218937}
		
		bone 	"Bake_LkneeJoint"
		pos			{-0.149599 -67.5665 -1.82043}
		rot			{0.746676 0.12993 0.639519 -0.128873}
		
		bone 	"Bake_UpperChestJoint"
		pos			{6.88338e-015 24.7866 -7.5982}
		rot			{0.993124 -4.3982e-002 -0.102698 3.4978e-002}
		
		bone 	"Bake_NeckJoint"
		pos			{-5.4956e-015 31.5911 -5.27135}
		rot			{0.989674 1.7858e-002 0.139444 -2.79453e-002}
		
		bone 	"Bake_LFootJoint"
		pos			{-1.01281 -88.9406 -17.4875}
		rot			{0.982659 9.18058e-003 -7.99316e-002 -0.167057}
		
		bone 	"Bake_RFootJoint"
		pos			{1.01277 88.9408 17.4875}
		rot			{0.996645 4.57616e-002 5.53375e-002 -3.92787e-002}
		
		bone 	"Bake_RArmJoint"
		pos			{-19.6696 -7.15149 -2.14289}
		rot			{8.42791e-002 0.856503 0.508992 -1.50941e-002}
		
		bone 	"Bake_LArmJoint"
		pos			{19.4833 -7.55507 -2.14288}
		rot			{0.680093 0.277481 0.209354 -0.645483}
		
		bone 	"Bake_RToeJoint"
		pos			{-3.56224 13.9947 -19.4816}
		rot			{1. 0. 0. 0.}
		
		bone 	"Bake_HeadJoint"
		pos			{-0.447655 10.0592 -0.213579}
		rot			{0.925146 -0.114815 -0.359313 4.26114e-002}
		
		bone 	"Bake_LToeJoint"
		pos			{3.56225 -13.9948 19.4816}
		rot			{0.975612 -0.219502 0. 0.}
		
		bone 	"Bake_LElbowJoint"
		pos			{42.3171 0.912694 -3.2219}
		rot			{0.446933 -8.20095e-002 -0.889431 -4.93724e-002}
		
		bone 	"Bake_RElbowJoint"
		pos			{-42.2763 -0.990979 6.52934}
		rot			{0.342341 -0.137555 -0.92642 -7.50156e-002}
		
		bone 	"Bake_RWristJoint"
		pos			{-50.1445 0.692473 2.14966}
		rot			{0.949375 -0.282012 6.05448e-002 -0.124463}
		
		bone 	"Bake_LWristJoint"
		pos			{45.8286 -0.158446 -0.641449}
		rot			{0.711902 0.70049 4.37029e-002 2.44731e-002}
		
		bone 	"Bake_RHandJoint"
		pos			{-17.4849 -0.540389 -3.5306}
		rot			{0.672545 0. 0. -0.740056}
		
		bone 	"Bake_LHandJoint"
		pos			{21.0086 -0.27611 1.42274}
		rot			{0.881227 -7.20145e-003 4.03769e-002 -0.47091}
		
		bone 	"Bake_LIndexJoint1"
		pos			{13.6098 -1.33931 8.14663}
		rot			{0.971938 -2.27508e-002 -0.208823 -0.10589}
		
		bone 	"Bake_RIndexJoint1"
		pos			{-9.08339 1.40164 -8.94563}
		rot			{0.959538 0. -0.28158 0.}
		
		bone 	"Bake_LIndex2"
		pos			{3.61358 -0.801748 -1.08499}
		rot			{0.977689 1.25744e-004 0.210058 5.85257e-004}
		
		bone 	"Bake_RIndexJoint2"
		pos			{-3.15429 1.28809 -5.86307e-002}
		rot			{1. 0. 0. 0.}
	}
}
