// Source maya file: C:/dev/dev/main/gamedemo1/Art/Characters/combatEva/Animation/combatEva_LfRvPnch_LfHook.mb
// Maya geometry export, written by IwEngineExporter.mll

// Animation data
CIwAnim
{
	skeleton 	"combatEva_rig"
	
	// Keyframe# 1
	CIwAnimKeyFrame
	{
		time 	0.
		
		bone 	"Bake_Root"
		pos			{-1.72028e-003 133.724 35.9587}
		rot			{0.995637 3.64245e-002 8.32188e-002 -2.13471e-002}
		
		bone 	"Bake_LHipJoint"
		pos			{10.2572 -0.750527 -4.7124e-002}
		rot			{0.45132 -0.285057 -0.800212 0.273338}
		
		bone 	"Bake_LowerChestJoint"
		pos			{0.950914 18.3459 3.38756}
		rot			{0.954814 0.189949 0.226806 2.84296e-002}
		
		bone 	"Bake_RHipJoint"
		pos			{-9.27856 -0.750547 -4.71226e-002}
		rot			{0.210779 -0.857468 -2.50603e-002 0.468715}
		
		bone 	"Bake_RkneeJoint"
		pos			{0.14961 67.5664 1.8204}
		rot			{0.738916 0.171171 0.629197 -0.169746}
		
		bone 	"Bake_LkneeJoint"
		pos			{-0.149599 -67.5665 -1.82043}
		rot			{0.618086 0.417214 0.51989 -0.416673}
		
		bone 	"Bake_UpperChestJoint"
		pos			{-1.17684e-014 24.7866 -7.5982}
		rot			{0.971932 -9.19781e-002 0.202395 -7.69648e-002}
		
		bone 	"Bake_NeckJoint"
		pos			{-1.79856e-014 31.5911 -5.27135}
		rot			{0.993912 2.45455e-002 6.81155e-002 -8.30492e-002}
		
		bone 	"Bake_LFootJoint"
		pos			{-1.01281 -88.9406 -17.4875}
		rot			{0.958594 -0.267974 -7.46035e-002 -6.09999e-002}
		
		bone 	"Bake_RFootJoint"
		pos			{1.01277 88.9408 17.4875}
		rot			{0.942259 0.195958 0.11242 -0.247206}
		
		bone 	"Bake_RArmJoint"
		pos			{-19.6696 -7.15149 -2.14289}
		rot			{0.328472 0.935409 2.12481e-002 -0.129089}
		
		bone 	"Bake_LArmJoint"
		pos			{19.4833 -7.55507 -2.14288}
		rot			{0.956229 0.198131 -8.27813e-002 -0.198791}
		
		bone 	"Bake_RToeJoint"
		pos			{-3.56224 13.9947 -19.4816}
		rot			{0.964176 -0.265263 0. 0.}
		
		bone 	"Bake_HeadJoint"
		pos			{-0.447655 10.0592 -0.213579}
		rot			{0.897786 -5.99375e-002 -0.384792 0.205726}
		
		bone 	"Bake_LToeJoint"
		pos			{3.56225 -13.9948 19.4816}
		rot			{1. 0. 0. 0.}
		
		bone 	"Bake_LElbowJoint"
		pos			{42.3171 0.912694 -3.2219}
		rot			{0.37376 -9.05256e-002 -0.921927 -4.64746e-002}
		
		bone 	"Bake_RElbowJoint"
		pos			{-42.2763 -0.990979 6.52934}
		rot			{0.99662 -7.31683e-003 -8.1806e-002 1.464e-003}
		
		bone 	"Bake_RWristJoint"
		pos			{-50.1445 0.692473 2.14966}
		rot			{0.978245 -0.171699 3.08738e-002 -0.112259}
		
		bone 	"Bake_LWristJoint"
		pos			{45.8286 -0.158446 -0.641449}
		rot			{0.906126 0.412891 1.43511e-002 -9.08294e-002}
		
		bone 	"Bake_RHandJoint"
		pos			{-17.4849 -0.540389 -3.5306}
		rot			{0.92851 0. 0. -0.371306}
		
		bone 	"Bake_LHandJoint"
		pos			{21.0086 -0.27611 1.42274}
		rot			{0.927212 -2.76778e-003 4.09206e-002 -0.372284}
		
		bone 	"Bake_LIndexJoint1"
		pos			{13.6098 -1.33931 8.14663}
		rot			{0.971938 -2.27508e-002 -0.208823 -0.10589}
		
		bone 	"Bake_RIndexJoint1"
		pos			{-9.08339 1.40164 -8.94563}
		rot			{0.959538 0. -0.28158 0.}
		
		bone 	"Bake_LIndex2"
		pos			{3.61358 -0.801748 -1.08499}
		rot			{0.977689 1.25744e-004 0.210058 5.85257e-004}
		
		bone 	"Bake_RIndexJoint2"
		pos			{-3.15429 1.28809 -5.86307e-002}
		rot			{1. 0. 0. 0.}
	}
	
	// Keyframe# 2
	CIwAnimKeyFrame
	{
		time 	3.33333e-002
		
		bone 	"Bake_RArmJoint"
		pos			{-19.6696 -7.15149 -2.14289}
		rot			{0.43395 0.892769 0.100489 -6.74754e-002}
		
		bone 	"Bake_LArmJoint"
		pos			{19.4833 -7.55507 -2.14288}
		rot			{0.95701 0.22696 -7.2345e-002 -0.165491}
		
		bone 	"Bake_LElbowJoint"
		pos			{42.3171 0.912694 -3.2219}
		rot			{0.457082 -8.07928e-002 -0.884353 -4.96783e-002}
		
		bone 	"Bake_RElbowJoint"
		pos			{-42.2763 -0.990979 6.52934}
		rot			{0.987965 -9.88728e-003 -0.154144 -8.13212e-003}
		
		bone 	"Bake_RWristJoint"
		pos			{-50.1445 0.692473 2.14966}
		rot			{0.992437 -4.41621e-002 5.78011e-002 -9.88795e-002}
		
		bone 	"Bake_LWristJoint"
		pos			{45.8286 -0.158446 -0.641449}
		rot			{0.945105 -0.298124 0.133184 -1.26428e-002}
		
		bone 	"Bake_RHandJoint"
		pos			{-17.4849 -0.540389 -3.5306}
		rot			{0.92851 0. 0. -0.371306}
		
		bone 	"Bake_LHandJoint"
		pos			{21.0086 -0.27611 1.42274}
		rot			{0.897773 -5.72808e-003 4.06121e-002 -0.438546}
	}
	
	// Keyframe# 3
	CIwAnimKeyFrame
	{
		time 	6.66667e-002
		
		bone 	"Bake_Root"
		pos			{-1.20686 129.613 23.3047}
		rot			{0.994457 -3.48406e-003 9.64169e-002 -4.17891e-002}
		
		bone 	"Bake_LHipJoint"
		pos			{10.2572 -0.750527 -4.7124e-002}
		rot			{0.430411 -0.298653 -0.793412 0.309919}
		
		bone 	"Bake_LowerChestJoint"
		pos			{0.950914 18.3459 3.38756}
		rot			{0.954814 0.189949 0.226806 2.84296e-002}
		
		bone 	"Bake_RHipJoint"
		pos			{-9.27856 -0.750547 -4.71226e-002}
		rot			{0.177979 -0.860639 -4.30161e-002 0.475156}
		
		bone 	"Bake_RkneeJoint"
		pos			{0.14961 67.5664 1.8204}
		rot			{0.738754 0.171789 0.629053 -0.170365}
		
		bone 	"Bake_LkneeJoint"
		pos			{-0.149599 -67.5665 -1.82043}
		rot			{0.600919 0.439212 0.503508 -0.438712}
		
		bone 	"Bake_UpperChestJoint"
		pos			{-1.93179e-014 24.7866 -7.5982}
		rot			{0.971932 -9.19781e-002 0.202395 -7.69648e-002}
		
		bone 	"Bake_NeckJoint"
		pos			{-9.99201e-015 31.5911 -5.27135}
		rot			{0.993912 2.45455e-002 6.81155e-002 -8.30492e-002}
		
		bone 	"Bake_LFootJoint"
		pos			{-1.01281 -88.9406 -17.4875}
		rot			{0.962645 -0.234938 -0.101032 -8.89428e-002}
		
		bone 	"Bake_RFootJoint"
		pos			{1.01277 88.9408 17.4875}
		rot			{0.914271 -0.339906 9.97796e-002 -0.19651}
		
		bone 	"Bake_RArmJoint"
		pos			{-19.6696 -7.15149 -2.14289}
		rot			{0.518535 0.836936 0.170459 -4.005e-002}
		
		bone 	"Bake_LArmJoint"
		pos			{19.4833 -7.55507 -2.14288}
		rot			{0.940619 0.275774 -0.147435 -0.132089}
		
		bone 	"Bake_RToeJoint"
		pos			{-3.56224 13.9947 -19.4816}
		rot			{1. 0. 0. 0.}
		
		bone 	"Bake_HeadJoint"
		pos			{-0.447655 10.0592 -0.213579}
		rot			{0.897786 -5.99375e-002 -0.384792 0.205726}
		
		bone 	"Bake_LToeJoint"
		pos			{3.56225 -13.9948 19.4816}
		rot			{1. 0. 0. 0.}
		
		bone 	"Bake_LElbowJoint"
		pos			{42.3171 0.912694 -3.2219}
		rot			{0.649084 -5.62847e-002 -0.75695 -5.04788e-002}
		
		bone 	"Bake_RElbowJoint"
		pos			{-42.2763 -0.990979 6.52934}
		rot			{0.993539 -8.278e-003 -0.113158 -2.67969e-003}
		
		bone 	"Bake_RWristJoint"
		pos			{-50.1445 0.692473 2.14966}
		rot			{0.994033 6.23468e-002 4.50264e-003 -8.93915e-002}
		
		bone 	"Bake_LWristJoint"
		pos			{45.8286 -0.158446 -0.641449}
		rot			{0.682705 -0.700047 0.147935 0.1482}
		
		bone 	"Bake_RHandJoint"
		pos			{-17.4849 -0.540389 -3.5306}
		rot			{0.92851 0. 0. -0.371306}
		
		bone 	"Bake_LHandJoint"
		pos			{21.0086 -0.27611 1.42274}
		rot			{0.80491 -1.28961e-002 3.89338e-002 -0.591978}
	}
	
	// Keyframe# 4
	CIwAnimKeyFrame
	{
		time 	1.e-001
		
		bone 	"Bake_LArmJoint"
		pos			{19.4833 -7.55507 -2.14288}
		rot			{0.917312 0.287038 -0.165121 -0.221094}
		
		bone 	"Bake_LElbowJoint"
		pos			{42.3171 0.912694 -3.2219}
		rot			{0.784897 -3.74448e-002 -0.616942 -4.37923e-002}
		
		bone 	"Bake_LWristJoint"
		pos			{45.8286 -0.158446 -0.641449}
		rot			{0.757122 -0.651392 4.28182e-002 -2.49252e-002}
		
		bone 	"Bake_LHandJoint"
		pos			{21.0086 -0.27611 1.42274}
		rot			{0.654257 -2.11781e-002 3.51232e-002 -0.755159}
	}
	
	// Keyframe# 5
	CIwAnimKeyFrame
	{
		time 	0.133333
		
		bone 	"Bake_RArmJoint"
		pos			{-19.6696 -7.15149 -2.14289}
		rot			{3.69184e-002 0.646355 0.750844 0.130749}
		
		bone 	"Bake_LArmJoint"
		pos			{19.4833 -7.55507 -2.14288}
		rot			{0.903123 1.5243e-002 -0.200317 -0.379487}
		
		bone 	"Bake_LElbowJoint"
		pos			{42.3171 0.912694 -3.2219}
		rot			{0.777479 -3.85012e-002 -0.626159 -4.43668e-002}
		
		bone 	"Bake_RElbowJoint"
		pos			{-42.2763 -0.990979 6.52934}
		rot			{0.48623 -0.11458 -0.862543 -8.04498e-002}
		
		bone 	"Bake_RWristJoint"
		pos			{-50.1445 0.692473 2.14966}
		rot			{0.920421 0.352235 0.120303 -0.11951}
		
		bone 	"Bake_LWristJoint"
		pos			{45.8286 -0.158446 -0.641449}
		rot			{0.699141 -0.677789 -0.159658 -0.162212}
		
		bone 	"Bake_RHandJoint"
		pos			{-17.4849 -0.540389 -3.5306}
		rot			{0.938029 0. 0. -0.346556}
		
		bone 	"Bake_LHandJoint"
		pos			{21.0086 -0.27611 1.42274}
		rot			{0.500438 -2.74101e-002 3.05097e-002 -0.8648}
	}
	
	// Keyframe# 6
	CIwAnimKeyFrame
	{
		time 	0.166667
		
		bone 	"Bake_LArmJoint"
		pos			{19.4833 -7.55507 -2.14288}
		rot			{0.710085 -0.393171 -0.58035 -6.62626e-002}
		
		bone 	"Bake_LElbowJoint"
		pos			{42.3171 0.912694 -3.2219}
		rot			{0.961748 -1.17003e-002 -0.273229 -1.57801e-002}
		
		bone 	"Bake_LWristJoint"
		pos			{45.8286 -0.158446 -0.641449}
		rot			{0.634956 -0.708389 -0.17797 -0.25168}
		
		bone 	"Bake_LHandJoint"
		pos			{21.0086 -0.27611 1.42274}
		rot			{0.430436 -2.97384e-002 2.8245e-002 -0.901689}
	}
	
	// Keyframe# 7
	CIwAnimKeyFrame
	{
		time 	0.233333
		
		bone 	"Bake_Root"
		pos			{5.53819 137.403 -10.9429}
		rot			{0.788921 1.00412e-002 -0.613891 -2.53104e-002}
		
		bone 	"Bake_LHipJoint"
		pos			{10.2572 -0.750527 -4.7124e-002}
		rot			{0.811266 -3.35825e-002 -0.377227 0.445444}
		
		bone 	"Bake_LowerChestJoint"
		pos			{0.950914 18.3459 3.38756}
		rot			{0.974113 0.225822 5.7418e-003 -8.64915e-003}
		
		bone 	"Bake_RHipJoint"
		pos			{-9.27856 -0.750547 -4.71226e-002}
		rot			{0.159815 0.489652 -0.298455 -0.803508}
		
		bone 	"Bake_RkneeJoint"
		pos			{0.14961 67.5664 1.8204}
		rot			{0.681897 0.318689 0.576721 -0.317564}
		
		bone 	"Bake_LkneeJoint"
		pos			{-0.149599 -67.5665 -1.82043}
		rot			{0.648362 0.373533 0.548668 -0.372911}
		
		bone 	"Bake_UpperChestJoint"
		pos			{5.92582e-015 24.7866 -7.5982}
		rot			{0.988148 -0.124596 -8.23035e-002 -3.556e-002}
		
		bone 	"Bake_NeckJoint"
		pos			{1.3739e-014 31.5911 -5.27135}
		rot			{0.999578 -4.02285e-003 -1.77235e-002 2.26435e-002}
		
		bone 	"Bake_LFootJoint"
		pos			{-1.01281 -88.9406 -17.4875}
		rot			{0.977869 -0.137462 1.39464e-002 -0.157106}
		
		bone 	"Bake_RFootJoint"
		pos			{1.01277 88.9408 17.4875}
		rot			{0.945796 -0.21159 -0.163427 -0.184369}
		
		bone 	"Bake_RArmJoint"
		pos			{-19.6696 -7.15149 -2.14289}
		rot			{0.315899 -0.881961 -0.346137 5.04051e-002}
		
		bone 	"Bake_LArmJoint"
		pos			{19.4833 -7.55507 -2.14288}
		rot			{0.745395 -0.623489 0.121998 -0.201903}
		
		bone 	"Bake_RToeJoint"
		pos			{-3.56224 13.9947 -19.4816}
		rot			{1. 0. 0. 0.}
		
		bone 	"Bake_HeadJoint"
		pos			{-0.447655 10.0592 -0.213579}
		rot			{0.765839 -0.121303 0.623444 -0.100473}
		
		bone 	"Bake_LToeJoint"
		pos			{3.56225 -13.9948 19.4816}
		rot			{1. 0. 0. 0.}
		
		bone 	"Bake_LElbowJoint"
		pos			{42.3171 0.912694 -3.2219}
		rot			{0.891054 -2.20549e-002 -0.45226 -3.15814e-002}
		
		bone 	"Bake_RElbowJoint"
		pos			{-42.2763 -0.990979 6.52934}
		rot			{0.43023 -0.123891 -0.890669 -7.91347e-002}
		
		bone 	"Bake_RWristJoint"
		pos			{-50.1445 0.692473 2.14966}
		rot			{0.994714 -0.100805 -1.70651e-002 -9.51553e-003}
		
		bone 	"Bake_LWristJoint"
		pos			{45.8286 -0.158446 -0.641449}
		rot			{0.708244 -0.491014 -0.167658 -0.478734}
		
		bone 	"Bake_RHandJoint"
		pos			{-17.4849 -0.540389 -3.5306}
		rot			{0.953798 0. 0. -0.300448}
		
		bone 	"Bake_LHandJoint"
		pos			{21.0086 -0.27611 1.42274}
		rot			{0.430436 -2.97384e-002 2.8245e-002 -0.901689}
		
		bone 	"Bake_LIndexJoint1"
		pos			{13.6098 -1.33931 8.14663}
		rot			{0.971938 -2.27508e-002 -0.208823 -0.10589}
		
		bone 	"Bake_RIndexJoint1"
		pos			{-9.08339 1.40164 -8.94563}
		rot			{0.959538 0. -0.28158 0.}
		
		bone 	"Bake_LIndex2"
		pos			{3.61358 -0.801748 -1.08499}
		rot			{0.977689 1.25744e-004 0.210058 5.85257e-004}
		
		bone 	"Bake_RIndexJoint2"
		pos			{-3.15429 1.28809 -5.86307e-002}
		rot			{1. 0. 0. 0.}
	}
}
