// Source maya file: C:/dev/dev/main/gamedemo1/Art/Characters/combatEva/Animation/combatEva_NtStance_Dth.mb
// Maya geometry export, written by IwEngineExporter.mll

// Animation data
CIwAnim
{
	skeleton 	"combatEva_rig"
	
	// Keyframe# 1
	CIwAnimKeyFrame
	{
		time 	0.
		
		bone 	"Bake_Root"
		pos			{-0.128736 155.496 1.40849}
		rot			{0.954896 0.100387 -0.27617 -4.27246e-002}
		
		bone 	"Bake_LHipJoint"
		pos			{10.2572 -0.750527 -4.7124e-002}
		rot			{0.804177 -0.132137 -0.503193 0.287466}
		
		bone 	"Bake_LowerChestJoint"
		pos			{0.950914 18.3459 3.38756}
		rot			{0.9855 0.144319 7.95474e-002 4.04331e-002}
		
		bone 	"Bake_RHipJoint"
		pos			{-9.27856 -0.750547 -4.71226e-002}
		rot			{0.282094 0.630873 -0.230366 -0.685094}
		
		bone 	"Bake_RkneeJoint"
		pos			{0.14961 67.5664 1.8204}
		rot			{0.708275 0.262127 0.601311 -0.260886}
		
		bone 	"Bake_LkneeJoint"
		pos			{-0.149599 -67.5665 -1.82043}
		rot			{0.699225 0.279027 0.596501 -0.278235}
		
		bone 	"Bake_UpperChestJoint"
		pos			{1.82077e-014 24.7866 -7.5982}
		rot			{0.996072 -6.626e-002 -3.62724e-002 4.61948e-002}
		
		bone 	"Bake_NeckJoint"
		pos			{-1.77636e-015 31.5911 -5.27135}
		rot			{0.999984 1.42512e-004 5.46961e-003 1.15011e-003}
		
		bone 	"Bake_LFootJoint"
		pos			{-1.01281 -88.9406 -17.4875}
		rot			{0.980053 -0.195198 1.38151e-002 -3.46901e-002}
		
		bone 	"Bake_RFootJoint"
		pos			{1.01277 88.9408 17.4875}
		rot			{0.990708 -0.107062 4.14273e-002 -7.29261e-002}
		
		bone 	"Bake_RArmJoint"
		pos			{-19.6696 -7.15149 -2.14289}
		rot			{0.108129 -0.853234 -0.509269 -3.07424e-002}
		
		bone 	"Bake_LArmJoint"
		pos			{19.4833 -7.55507 -2.14288}
		rot			{0.673237 -2.12113e-002 0.305818 -0.672887}
		
		bone 	"Bake_RToeJoint"
		pos			{-3.56224 13.9947 -19.4816}
		rot			{1. 0. 0. 0.}
		
		bone 	"Bake_HeadJoint"
		pos			{-0.447655 10.0592 -0.213579}
		rot			{0.970524 -0.10928 0.208195 -5.28832e-002}
		
		bone 	"Bake_LToeJoint"
		pos			{3.56225 -13.9948 19.4816}
		rot			{1. 0. 0. 0.}
		
		bone 	"Bake_LElbowJoint"
		pos			{42.3171 0.912694 -3.2219}
		rot			{0.630691 -5.87472e-002 -0.772134 -5.0857e-002}
		
		bone 	"Bake_RElbowJoint"
		pos			{-42.2763 -0.990979 6.52934}
		rot			{0.70209 -7.44953e-002 -0.704266 -7.43584e-002}
		
		bone 	"Bake_RWristJoint"
		pos			{-50.1445 0.692473 2.14966}
		rot			{0.817159 0.549915 0.111281 0.132144}
		
		bone 	"Bake_LWristJoint"
		pos			{45.8286 -0.158446 -0.641449}
		rot			{0.723745 0.686417 7.04726e-002 -7.69217e-003}
		
		bone 	"Bake_LHandJoint"
		pos			{21.0086 -0.27611 1.42274}
		rot			{0.947436 -3.64948e-004 4.10124e-002 -0.317307}
		
		bone 	"Bake_LIndexJoint1"
		pos			{13.6098 -1.33931 8.14663}
		rot			{0.971938 -2.27508e-002 -0.208823 -0.10589}
		
		bone 	"Bake_RHandJoint"
		pos			{-17.4849 -0.540389 -3.5306}
		rot			{0.992484 0. 0. -0.122375}
		
		bone 	"Bake_LIndex2"
		pos			{3.61358 -0.801748 -1.08499}
		rot			{0.977689 1.25744e-004 0.210058 5.85257e-004}
		
		bone 	"Bake_RIndexJoint2"
		pos			{-3.15429 1.28809 -5.86307e-002}
		rot			{1. 0. 0. 0.}
	}
	
	// Keyframe# 2
	CIwAnimKeyFrame
	{
		time 	3.33333e-002
		
		bone 	"Bake_Root"
		pos			{-1.11353 167.07 -11.383}
		rot			{0.930067 0.245519 -0.263484 7.26064e-002}
		
		bone 	"Bake_LHipJoint"
		pos			{10.2572 -0.750527 -4.7124e-002}
		rot			{0.604307 -0.345737 -0.527784 0.486542}
		
		bone 	"Bake_LowerChestJoint"
		pos			{0.950914 18.3459 3.38756}
		rot			{0.946407 -0.137263 -0.227345 0.18381}
		
		bone 	"Bake_RHipJoint"
		pos			{-9.27856 -0.750547 -4.71226e-002}
		rot			{0.271863 0.742514 -0.324221 -0.519272}
		
		bone 	"Bake_RkneeJoint"
		pos			{0.14961 67.5664 1.8204}
		rot			{0.746342 0.140118 0.635706 -0.13863}
		
		bone 	"Bake_LkneeJoint"
		pos			{-0.149599 -67.5665 -1.82043}
		rot			{0.702758 0.270947 0.599785 -0.270141}
		
		bone 	"Bake_UpperChestJoint"
		pos			{1.19904e-014 24.7866 -7.5982}
		rot			{0.997118 -5.99614e-002 2.62037e-002 3.83862e-002}
		
		bone 	"Bake_NeckJoint"
		pos			{1.59872e-014 31.5911 -5.27135}
		rot			{0.993314 -3.93905e-002 -9.13411e-002 5.85842e-002}
		
		bone 	"Bake_LFootJoint"
		pos			{-1.01281 -88.9406 -17.4875}
		rot			{0.987467 -1.92333e-002 7.66495e-002 -0.136616}
		
		bone 	"Bake_RFootJoint"
		pos			{1.01277 88.9408 17.4875}
		rot			{0.985602 -2.83815e-002 -0.150746 -7.11192e-002}
		
		bone 	"Bake_RArmJoint"
		pos			{-19.6696 -7.15149 -2.14289}
		rot			{0.362892 -0.874927 -0.136635 0.290072}
		
		bone 	"Bake_LArmJoint"
		pos			{19.4833 -7.55507 -2.14288}
		rot			{0.538157 -0.152622 0.496587 -0.663698}
		
		bone 	"Bake_RToeJoint"
		pos			{-3.56224 13.9947 -19.4816}
		rot			{1. 0. 0. 0.}
		
		bone 	"Bake_HeadJoint"
		pos			{-0.447655 10.0592 -0.213579}
		rot			{0.834884 -0.515722 0.100742 0.163862}
		
		bone 	"Bake_LToeJoint"
		pos			{3.56225 -13.9948 19.4816}
		rot			{1. 0. 0. 0.}
		
		bone 	"Bake_LElbowJoint"
		pos			{42.3171 0.912694 -3.2219}
		rot			{0.858743 -2.67845e-002 -0.51042 -3.62456e-002}
		
		bone 	"Bake_RElbowJoint"
		pos			{-42.2763 -0.990979 6.52934}
		rot			{0.789279 -5.64227e-002 -0.60793 -6.53963e-002}
		
		bone 	"Bake_RWristJoint"
		pos			{-50.1445 0.692473 2.14966}
		rot			{0.885514 0.426042 0.18518 -7.81039e-003}
		
		bone 	"Bake_LWristJoint"
		pos			{45.8286 -0.158446 -0.641449}
		rot			{0.711306 0.668564 -0.216089 1.92808e-002}
		
		bone 	"Bake_LHandJoint"
		pos			{21.0086 -0.27611 1.42274}
		rot			{0.947436 -3.64948e-004 4.10124e-002 -0.317307}
		
		bone 	"Bake_RHandJoint"
		pos			{-17.4849 -0.540389 -3.5306}
		rot			{0.992484 0. 0. -0.122375}
	}
	
	// Keyframe# 3
	CIwAnimKeyFrame
	{
		time 	0.133333
		
		bone 	"Bake_LHipJoint"
		pos			{10.2572 -0.750527 -4.7124e-002}
		rot			{0.709963 -0.278487 -0.516237 0.389739}
		
		bone 	"Bake_LowerChestJoint"
		pos			{0.950914 18.3459 3.38756}
		rot			{0.993123 5.46619e-002 -8.79875e-002 5.45693e-002}
		
		bone 	"Bake_RHipJoint"
		pos			{-9.27856 -0.750547 -4.71226e-002}
		rot			{0.544918 0.774194 -0.220019 -0.235116}
		
		bone 	"Bake_RkneeJoint"
		pos			{0.14961 67.5664 1.8204}
		rot			{0.731072 0.198713 0.622175 -0.197344}
		
		bone 	"Bake_LkneeJoint"
		pos			{-0.149599 -67.5665 -1.82043}
		rot			{0.726956 0.206151 0.622027 -0.20523}
		
		bone 	"Bake_UpperChestJoint"
		pos			{1.95399e-014 24.7866 -7.5982}
		rot			{0.991739 9.16248e-002 -7.76893e-002 4.49883e-002}
		
		bone 	"Bake_NeckJoint"
		pos			{-8.88178e-015 31.5911 -5.27135}
		rot			{0.958748 9.12907e-002 -0.221028 0.15367}
		
		bone 	"Bake_RFootJoint"
		pos			{1.01277 88.9408 17.4875}
		rot			{0.879131 0.426653 -0.189001 -9.68186e-002}
		
		bone 	"Bake_RArmJoint"
		pos			{-19.6696 -7.15149 -2.14289}
		rot			{4.64586e-002 0.878896 0.128567 -0.457006}
		
		bone 	"Bake_LArmJoint"
		pos			{19.4833 -7.55507 -2.14288}
		rot			{0.607586 -0.390155 0.276447 -0.634189}
		
		bone 	"Bake_RToeJoint"
		pos			{-3.56224 13.9947 -19.4816}
		rot			{1. 0. 0. 0.}
		
		bone 	"Bake_HeadJoint"
		pos			{-0.447655 10.0592 -0.213579}
		rot			{0.841144 -0.513204 0.156746 -6.73021e-002}
		
		bone 	"Bake_LElbowJoint"
		pos			{42.3171 0.912694 -3.2219}
		rot			{0.896845 -2.12046e-002 -0.440774 -3.06257e-002}
		
		bone 	"Bake_RElbowJoint"
		pos			{-42.2763 -0.990979 6.52934}
		rot			{0.90812 -2.98274e-002 -0.415459 -4.26905e-002}
		
		bone 	"Bake_RWristJoint"
		pos			{-50.1445 0.692473 2.14966}
		rot			{0.882719 0.364233 0.283309 8.87554e-002}
		
		bone 	"Bake_LWristJoint"
		pos			{45.8286 -0.158446 -0.641449}
		rot			{0.841639 0.536631 -5.61276e-002 -2.28211e-002}
		
		bone 	"Bake_LHandJoint"
		pos			{21.0086 -0.27611 1.42274}
		rot			{0.947436 -3.64948e-004 4.10124e-002 -0.317307}
		
		bone 	"Bake_RHandJoint"
		pos			{-17.4849 -0.540389 -3.5306}
		rot			{0.993532 0. 0. -0.113551}
	}
	
	// Keyframe# 4
	CIwAnimKeyFrame
	{
		time 	0.166667
		
		bone 	"Bake_Root"
		pos			{17.3951 146.602 -104.437}
		rot			{0.944396 -1.84212e-002 -0.316609 8.68021e-002}
		
		bone 	"Bake_LHipJoint"
		pos			{10.2572 -0.750527 -4.7124e-002}
		rot			{0.751195 -0.26235 -0.510309 0.326286}
		
		bone 	"Bake_RHipJoint"
		pos			{-9.27856 -0.750547 -4.71226e-002}
		rot			{0.538212 0.812538 -0.130114 -0.182157}
		
		bone 	"Bake_RkneeJoint"
		pos			{0.14961 67.5664 1.8204}
		rot			{0.746831 0.137831 0.636127 -0.136338}
		
		bone 	"Bake_LkneeJoint"
		pos			{-0.149599 -67.5665 -1.82043}
		rot			{0.736143 0.174879 0.630293 -0.173902}
		
		bone 	"Bake_LFootJoint"
		pos			{-1.01281 -88.9406 -17.4875}
		rot			{0.992027 9.90225e-002 6.67523e-002 -4.02583e-002}
		
		bone 	"Bake_RArmJoint"
		pos			{-19.6696 -7.15149 -2.14289}
		rot			{0.183789 0.870693 0.275174 -0.363862}
		
		bone 	"Bake_LArmJoint"
		pos			{19.4833 -7.55507 -2.14288}
		rot			{0.732812 -0.439197 0.261795 -0.44895}
		
		bone 	"Bake_LToeJoint"
		pos			{3.56225 -13.9948 19.4816}
		rot			{1. 0. 0. 0.}
		
		bone 	"Bake_LElbowJoint"
		pos			{42.3171 0.912694 -3.2219}
		rot			{0.780192 -3.81152e-002 -0.622814 -4.416e-002}
		
		bone 	"Bake_RElbowJoint"
		pos			{-42.2763 -0.990979 6.52934}
		rot			{0.908673 -2.96973e-002 -0.414273 -4.25392e-002}
	}
	
	// Keyframe# 5
	CIwAnimKeyFrame
	{
		time 	0.2
		
		bone 	"Bake_LHipJoint"
		pos			{10.2572 -0.750527 -4.7124e-002}
		rot			{0.798379 -0.254995 -0.500059 0.217967}
		
		bone 	"Bake_LkneeJoint"
		pos			{-0.149599 -67.5665 -1.82043}
		rot			{0.749921 0.112601 0.642265 -0.111513}
		
		bone 	"Bake_LFootJoint"
		pos			{-1.01281 -88.9406 -17.4875}
		rot			{0.991093 0.116913 6.21483e-002 -1.42487e-002}
		
		bone 	"Bake_RArmJoint"
		pos			{-19.6696 -7.15149 -2.14289}
		rot			{0.317456 0.772169 0.474998 -0.278124}
		
		bone 	"Bake_LToeJoint"
		pos			{3.56225 -13.9948 19.4816}
		rot			{1. 0. 0. 0.}
		
		bone 	"Bake_RElbowJoint"
		pos			{-42.2763 -0.990979 6.52934}
		rot			{0.964871 -1.60009e-002 -0.261275 -2.24563e-002}
		
		bone 	"Bake_RWristJoint"
		pos			{-50.1445 0.692473 2.14966}
		rot			{0.897888 0.382521 0.161736 0.145998}
		
		bone 	"Bake_RHandJoint"
		pos			{-17.4849 -0.540389 -3.5306}
		rot			{0.99536 0. 0. -9.62252e-002}
	}
	
	// Keyframe# 6
	CIwAnimKeyFrame
	{
		time 	0.233333
		
		bone 	"Bake_Root"
		pos			{16.4403 132.231 -147.189}
		rot			{0.90524 -0.137678 -0.317437 0.246615}
		
		bone 	"Bake_LHipJoint"
		pos			{10.2572 -0.750527 -4.7124e-002}
		rot			{0.755859 -0.30616 -0.482357 0.319805}
		
		bone 	"Bake_LowerChestJoint"
		pos			{0.950914 18.3459 3.38756}
		rot			{0.903476 0.368227 0.154684 -0.155607}
		
		bone 	"Bake_RHipJoint"
		pos			{-9.27856 -0.750547 -4.71226e-002}
		rot			{0.544944 0.806235 -0.148827 -0.175703}
		
		bone 	"Bake_RkneeJoint"
		pos			{0.14961 67.5664 1.8204}
		rot			{0.745705 0.143044 0.635155 -0.141562}
		
		bone 	"Bake_LkneeJoint"
		pos			{-0.149599 -67.5665 -1.82043}
		rot			{0.747665 0.124893 0.640363 -0.123827}
		
		bone 	"Bake_UpperChestJoint"
		pos			{-1.60427e-014 24.7866 -7.5982}
		rot			{0.962494 0.2117 -0.109593 -0.129531}
		
		bone 	"Bake_NeckJoint"
		pos			{1.5099e-014 31.5911 -5.27135}
		rot			{0.963465 0.137085 -0.21255 8.81251e-002}
		
		bone 	"Bake_LFootJoint"
		pos			{-1.01281 -88.9406 -17.4875}
		rot			{0.979715 0.169679 0.103445 2.58341e-002}
		
		bone 	"Bake_RArmJoint"
		pos			{-19.6696 -7.15149 -2.14289}
		rot			{0.424211 0.700663 0.512928 -0.256946}
		
		bone 	"Bake_LArmJoint"
		pos			{19.4833 -7.55507 -2.14288}
		rot			{0.754296 -0.620191 3.40011e-003 0.215382}
		
		bone 	"Bake_HeadJoint"
		pos			{-0.447655 10.0592 -0.213579}
		rot			{0.962709 0.102178 4.29087e-002 -0.246799}
		
		bone 	"Bake_LToeJoint"
		pos			{3.56225 -13.9948 19.4816}
		rot			{1. 0. 0. 0.}
		
		bone 	"Bake_LElbowJoint"
		pos			{42.3171 0.912694 -3.2219}
		rot			{0.897432 -2.11184e-002 -0.439588 -3.05265e-002}
		
		bone 	"Bake_RElbowJoint"
		pos			{-42.2763 -0.990979 6.52934}
		rot			{0.998279 -5.86189e-003 5.51163e-002 1.91299e-002}
		
		bone 	"Bake_LWristJoint"
		pos			{45.8286 -0.158446 -0.641449}
		rot			{0.954977 0.231806 9.93993e-002 0.156223}
		
		bone 	"Bake_LHandJoint"
		pos			{21.0086 -0.27611 1.42274}
		rot			{0.947436 -3.64948e-004 4.10124e-002 -0.317307}
	}
	
	// Keyframe# 7
	CIwAnimKeyFrame
	{
		time 	0.266667
		
		bone 	"Bake_LHipJoint"
		pos			{10.2572 -0.750527 -4.7124e-002}
		rot			{0.623146 -0.326755 -0.513446 0.491217}
		
		bone 	"Bake_RHipJoint"
		pos			{-9.27856 -0.750547 -4.71226e-002}
		rot			{0.550103 0.779236 -0.202547 -0.221705}
		
		bone 	"Bake_RkneeJoint"
		pos			{0.14961 67.5664 1.8204}
		rot			{0.731561 0.197113 0.622616 -0.195741}
		
		bone 	"Bake_LkneeJoint"
		pos			{-0.149599 -67.5665 -1.82043}
		rot			{0.707633 0.259325 0.604305 -0.258498}
		
		bone 	"Bake_RFootJoint"
		pos			{1.01277 88.9408 17.4875}
		rot			{0.951368 0.247159 -2.75748e-002 -0.181798}
		
		bone 	"Bake_RArmJoint"
		pos			{-19.6696 -7.15149 -2.14289}
		rot			{0.358701 0.784717 0.488415 -0.130401}
		
		bone 	"Bake_RToeJoint"
		pos			{-3.56224 13.9947 -19.4816}
		rot			{1. 0. 0. 0.}
		
		bone 	"Bake_RElbowJoint"
		pos			{-42.2763 -0.990979 6.52934}
		rot			{0.999317 -6.32563e-003 -3.56214e-002 7.51666e-003}
		
		bone 	"Bake_RWristJoint"
		pos			{-50.1445 0.692473 2.14966}
		rot			{0.96347 0.182039 -7.85812e-002 0.180036}
		
		bone 	"Bake_RHandJoint"
		pos			{-17.4849 -0.540389 -3.5306}
		rot			{0.997691 0. 0. -6.7922e-002}
	}
	
	// Keyframe# 8
	CIwAnimKeyFrame
	{
		time 	0.3
		
		bone 	"Bake_LHipJoint"
		pos			{10.2572 -0.750527 -4.7124e-002}
		rot			{0.680492 -0.22741 -0.482086 0.5028}
		
		bone 	"Bake_LkneeJoint"
		pos			{-0.149599 -67.5665 -1.82043}
		rot			{0.720961 0.224115 0.616569 -0.223226}
		
		bone 	"Bake_LFootJoint"
		pos			{-1.01281 -88.9406 -17.4875}
		rot			{0.987931 0.135924 2.94567e-002 6.81854e-002}
		
		bone 	"Bake_LToeJoint"
		pos			{3.56225 -13.9948 19.4816}
		rot			{1. 0. 0. 0.}
	}
	
	// Keyframe# 9
	CIwAnimKeyFrame
	{
		time 	0.333333
		
		bone 	"Bake_RHipJoint"
		pos			{-9.27856 -0.750547 -4.71226e-002}
		rot			{0.461636 0.665685 -0.500146 -0.305955}
		
		bone 	"Bake_RkneeJoint"
		pos			{0.14961 67.5664 1.8204}
		rot			{0.679879 0.322536 0.574827 -0.321418}
		
		bone 	"Bake_RFootJoint"
		pos			{1.01277 88.9408 17.4875}
		rot			{0.869399 0.372642 -0.241304 -0.216922}
		
		bone 	"Bake_RArmJoint"
		pos			{-19.6696 -7.15149 -2.14289}
		rot			{0.140564 0.865496 0.379203 -0.295575}
		
		bone 	"Bake_RToeJoint"
		pos			{-3.56224 13.9947 -19.4816}
		rot			{1. 0. 0. 0.}
		
		bone 	"Bake_RElbowJoint"
		pos			{-42.2763 -0.990979 6.52934}
		rot			{0.998279 -5.86189e-003 5.51163e-002 1.91299e-002}
		
		bone 	"Bake_RWristJoint"
		pos			{-50.1445 0.692473 2.14966}
		rot			{0.855041 0.448672 -0.176317 0.191077}
		
		bone 	"Bake_RHandJoint"
		pos			{-17.4849 -0.540389 -3.5306}
		rot			{0.999751 0. 0. 2.22956e-002}
	}
	
	// Keyframe# 10
	CIwAnimKeyFrame
	{
		time 	0.366667
		
		bone 	"Bake_LowerChestJoint"
		pos			{0.950914 18.3459 3.38756}
		rot			{0.935228 0.178949 -7.02004e-002 -0.297317}
		
		bone 	"Bake_RHipJoint"
		pos			{-9.27856 -0.750547 -4.71226e-002}
		rot			{0.54987 0.532268 -0.380555 -0.519146}
		
		bone 	"Bake_RkneeJoint"
		pos			{0.14961 67.5664 1.8204}
		rot			{0.667961 0.344167 0.563616 -0.343095}
		
		bone 	"Bake_RFootJoint"
		pos			{1.01277 88.9408 17.4875}
		rot			{0.923062 0.321484 -3.09343e-002 -0.208922}
		
		bone 	"Bake_RArmJoint"
		pos			{-19.6696 -7.15149 -2.14289}
		rot			{1.55063e-002 0.892464 0.288919 -0.346112}
		
		bone 	"Bake_LArmJoint"
		pos			{19.4833 -7.55507 -2.14288}
		rot			{0.855432 -0.453835 -0.122283 0.217523}
		
		bone 	"Bake_RToeJoint"
		pos			{-3.56224 13.9947 -19.4816}
		rot			{1. 0. 0. 0.}
		
		bone 	"Bake_LElbowJoint"
		pos			{42.3171 0.912694 -3.2219}
		rot			{0.999415 -7.05038e-003 3.09201e-002 1.28026e-002}
		
		bone 	"Bake_RElbowJoint"
		pos			{-42.2763 -0.990979 6.52934}
		rot			{0.998279 -5.86189e-003 5.51163e-002 1.91299e-002}
		
		bone 	"Bake_RWristJoint"
		pos			{-50.1445 0.692473 2.14966}
		rot			{0.793764 0.339121 -0.334506 0.378209}
		
		bone 	"Bake_RHandJoint"
		pos			{-17.4849 -0.540389 -3.5306}
		rot			{0.998821 0. 0. 4.85542e-002}
	}
	
	// Keyframe# 11
	CIwAnimKeyFrame
	{
		time 	0.433333
		
		bone 	"Bake_Root"
		pos			{6.63533 14.6741 -243.404}
		rot			{0.466146 -0.328207 -0.550478 0.609886}
		
		bone 	"Bake_LHipJoint"
		pos			{10.2572 -0.750527 -4.7124e-002}
		rot			{0.840592 -0.140091 -0.448764 0.269053}
		
		bone 	"Bake_RHipJoint"
		pos			{-9.27856 -0.750547 -4.71226e-002}
		rot			{0.457607 0.51191 -0.230273 -0.689578}
		
		bone 	"Bake_RkneeJoint"
		pos			{0.14961 67.5664 1.8204}
		rot			{0.720568 0.230294 0.612626 -0.228989}
		
		bone 	"Bake_LkneeJoint"
		pos			{-0.149599 -67.5665 -1.82043}
		rot			{0.681837 0.315331 0.580249 -0.314604}
		
		bone 	"Bake_UpperChestJoint"
		pos			{-2.66454e-014 24.7866 -7.5982}
		rot			{0.945105 -0.241906 0.111761 -0.189123}
		
		bone 	"Bake_NeckJoint"
		pos			{-4.57412e-014 31.5911 -5.27135}
		rot			{0.978401 -0.108297 -9.8397e-002 -0.146019}
		
		bone 	"Bake_RArmJoint"
		pos			{-19.6696 -7.15149 -2.14289}
		rot			{0.131978 -0.919606 -7.25118e-002 0.362833}
		
		bone 	"Bake_LArmJoint"
		pos			{19.4833 -7.55507 -2.14288}
		rot			{0.916418 -0.347839 -0.140925 0.139017}
		
		bone 	"Bake_LElbowJoint"
		pos			{42.3171 0.912694 -3.2219}
		rot			{0.999415 -7.05038e-003 3.09201e-002 1.28026e-002}
		
		bone 	"Bake_RElbowJoint"
		pos			{-42.2763 -0.990979 6.52934}
		rot			{0.759499 -6.27216e-002 -0.643791 -6.90039e-002}
		
		bone 	"Bake_RWristJoint"
		pos			{-50.1445 0.692473 2.14966}
		rot			{0.883929 0.420256 0.139125 0.150664}
		
		bone 	"Bake_LWristJoint"
		pos			{45.8286 -0.158446 -0.641449}
		rot			{0.937975 -0.120751 -4.58846e-002 0.32174}
		
		bone 	"Bake_LHandJoint"
		pos			{21.0086 -0.27611 1.42274}
		rot			{0.947436 -3.64948e-004 4.10124e-002 -0.317307}
		
		bone 	"Bake_RHandJoint"
		pos			{-17.4849 -0.540389 -3.5306}
		rot			{0.998821 0. 0. 4.85542e-002}
	}
	
	// Keyframe# 12
	CIwAnimKeyFrame
	{
		time 	0.466667
		
		bone 	"Bake_LHipJoint"
		pos			{10.2572 -0.750527 -4.7124e-002}
		rot			{0.839574 -0.198552 -0.43627 0.255659}
		
		bone 	"Bake_RHipJoint"
		pos			{-9.27856 -0.750547 -4.71226e-002}
		rot			{0.463506 0.489615 -0.26262 -0.690268}
		
		bone 	"Bake_RkneeJoint"
		pos			{0.14961 67.5664 1.8204}
		rot			{0.710758 0.256051 0.603605 -0.254798}
		
		bone 	"Bake_LkneeJoint"
		pos			{-0.149599 -67.5665 -1.82043}
		rot			{0.66076 0.35342 0.560401 -0.352762}
		
		bone 	"Bake_LFootJoint"
		pos			{-1.01281 -88.9406 -17.4875}
		rot			{0.986696 -7.79871e-002 -0.139036 3.19088e-002}
		
		bone 	"Bake_RFootJoint"
		pos			{1.01277 88.9408 17.4875}
		rot			{0.922069 0.356013 4.12547e-003 -0.151743}
		
		bone 	"Bake_RToeJoint"
		pos			{-3.56224 13.9947 -19.4816}
		rot			{1. 0. 0. 0.}
		
		bone 	"Bake_HeadJoint"
		pos			{-0.447655 10.0592 -0.213579}
		rot			{0.902636 -1.65076e-002 0.276386 -0.329525}
		
		bone 	"Bake_LToeJoint"
		pos			{3.56225 -13.9948 19.4816}
		rot			{1. 0. 0. 0.}
	}
	
	// Keyframe# 13
	CIwAnimKeyFrame
	{
		time 	0.5
		
		bone 	"Bake_Root"
		pos			{6.63533 16.1692 -243.404}
		rot			{0.480186 -0.315565 -0.563617 0.593445}
		
		bone 	"Bake_LHipJoint"
		pos			{10.2572 -0.750527 -4.7124e-002}
		rot			{0.834576 -0.204546 -0.444037 0.253918}
		
		bone 	"Bake_LowerChestJoint"
		pos			{0.950914 18.3459 3.38756}
		rot			{0.981568 0.127691 -0.132766 5.0919e-002}
		
		bone 	"Bake_RHipJoint"
		pos			{-9.27856 -0.750547 -4.71226e-002}
		rot			{0.471843 0.49509 -0.250558 -0.685179}
		
		bone 	"Bake_RkneeJoint"
		pos			{0.14961 67.5664 1.8204}
		rot			{0.712032 0.252868 0.604782 -0.251608}
		
		bone 	"Bake_LkneeJoint"
		pos			{-0.149599 -67.5665 -1.82043}
		rot			{0.662027 0.351279 0.561597 -0.350616}
		
		bone 	"Bake_RArmJoint"
		pos			{-19.6696 -7.15149 -2.14289}
		rot			{4.56333e-002 -0.725245 0.190475 0.660043}
		
		bone 	"Bake_LArmJoint"
		pos			{19.4833 -7.55507 -2.14288}
		rot			{0.865767 -0.238935 0.251614 -0.360622}
		
		bone 	"Bake_LElbowJoint"
		pos			{42.3171 0.912694 -3.2219}
		rot			{0.808198 -3.41081e-002 -0.586436 -4.17911e-002}
		
		bone 	"Bake_RElbowJoint"
		pos			{-42.2763 -0.990979 6.52934}
		rot			{0.85203 -4.26939e-002 -0.518797 -5.54346e-002}
	}
	
	// Keyframe# 14
	CIwAnimKeyFrame
	{
		time 	0.533333
		
		bone 	"Bake_LArmJoint"
		pos			{19.4833 -7.55507 -2.14288}
		rot			{0.804372 -0.269477 5.06684e-002 -0.527067}
		
		bone 	"Bake_LElbowJoint"
		pos			{42.3171 0.912694 -3.2219}
		rot			{0.908419 -1.95039e-002 -0.416627 -2.85844e-002}
		
		bone 	"Bake_LWristJoint"
		pos			{45.8286 -0.158446 -0.641449}
		rot			{0.971079 8.65851e-002 -5.24087e-002 0.216244}
		
		bone 	"Bake_LHandJoint"
		pos			{21.0086 -0.27611 1.42274}
		rot			{0.947436 -3.64948e-004 4.10124e-002 -0.317307}
	}
	
	// Keyframe# 15
	CIwAnimKeyFrame
	{
		time 	0.6
		
		bone 	"Bake_LHipJoint"
		pos			{10.2572 -0.750527 -4.7124e-002}
		rot			{0.80835 -0.196478 -0.485015 0.26968}
		
		bone 	"Bake_LkneeJoint"
		pos			{-0.149599 -67.5665 -1.82043}
		rot			{0.657843 0.358289 0.557643 -0.35764}
		
		bone 	"Bake_UpperChestJoint"
		pos			{4.88498e-015 24.7866 -7.5982}
		rot			{0.984841 -0.149892 -6.34029e-002 5.99984e-002}
		
		bone 	"Bake_LFootJoint"
		pos			{-1.01281 -88.9406 -17.4875}
		rot			{0.993665 -8.66578e-002 -2.35801e-002 6.75558e-002}
		
		bone 	"Bake_RArmJoint"
		pos			{-19.6696 -7.15149 -2.14289}
		rot			{6.30347e-002 0.559207 -0.412364 -0.716428}
		
		bone 	"Bake_LArmJoint"
		pos			{19.4833 -7.55507 -2.14288}
		rot			{0.746211 -0.362535 0.110457 -0.5473}
		
		bone 	"Bake_HeadJoint"
		pos			{-0.447655 10.0592 -0.213579}
		rot			{0.90898 7.85491e-002 0.318918 0.256663}
		
		bone 	"Bake_LToeJoint"
		pos			{3.56225 -13.9948 19.4816}
		rot			{1. 0. 0. 0.}
		
		bone 	"Bake_LElbowJoint"
		pos			{42.3171 0.912694 -3.2219}
		rot			{0.901046 -2.05874e-002 -0.432201 -2.99058e-002}
		
		bone 	"Bake_RElbowJoint"
		pos			{-42.2763 -0.990979 6.52934}
		rot			{0.88136 -3.60443e-002 -0.468477 -4.93512e-002}
	}
	
	// Keyframe# 16
	CIwAnimKeyFrame
	{
		time 	0.633333
		
		bone 	"Bake_UpperChestJoint"
		pos			{2.4869e-014 24.7866 -7.5982}
		rot			{0.982305 -0.170151 -7.43901e-002 2.43185e-002}
		
		bone 	"Bake_RArmJoint"
		pos			{-19.6696 -7.15149 -2.14289}
		rot			{6.25324e-002 0.577193 -0.369396 -0.725592}
		
		bone 	"Bake_LArmJoint"
		pos			{19.4833 -7.55507 -2.14288}
		rot			{0.765725 -0.346812 0.119238 -0.528365}
		
		bone 	"Bake_LElbowJoint"
		pos			{42.3171 0.912694 -3.2219}
		rot			{0.893139 -2.17489e-002 -0.448168 -3.12421e-002}
		
		bone 	"Bake_RElbowJoint"
		pos			{-42.2763 -0.990979 6.52934}
		rot			{0.877898 -3.68375e-002 -0.47479 -5.01285e-002}
	}
	
	// Keyframe# 17
	CIwAnimKeyFrame
	{
		time 	0.7
		
		bone 	"Bake_HeadJoint"
		pos			{-0.447655 10.0592 -0.213579}
		rot			{0.935901 5.64446e-002 0.327428 0.117019}
	}
	
	// Keyframe# 18
	CIwAnimKeyFrame
	{
		time 	0.766667
		
		bone 	"Bake_Root"
		pos			{6.63533 14.6741 -243.404}
		rot			{0.466146 -0.328207 -0.550478 0.609886}
		
		bone 	"Bake_LHipJoint"
		pos			{10.2572 -0.750527 -4.7124e-002}
		rot			{0.819554 -0.217261 -0.471375 0.242764}
		
		bone 	"Bake_RHipJoint"
		pos			{-9.27856 -0.750547 -4.71226e-002}
		rot			{0.462438 0.486573 -0.266624 -0.6916}
		
		bone 	"Bake_RkneeJoint"
		pos			{0.14961 67.5664 1.8204}
		rot			{0.710254 0.257295 0.603141 -0.256045}
		
		bone 	"Bake_LkneeJoint"
		pos			{-0.149599 -67.5665 -1.82043}
		rot			{0.661068 0.352902 0.560691 -0.352243}
		
		bone 	"Bake_UpperChestJoint"
		pos			{7.99361e-015 24.7866 -7.5982}
		rot			{0.984841 -0.149892 -6.34029e-002 5.99984e-002}
		
		bone 	"Bake_LFootJoint"
		pos			{-1.01281 -88.9406 -17.4875}
		rot			{0.992017 -8.05674e-002 -9.52946e-002 1.81873e-002}
		
		bone 	"Bake_RArmJoint"
		pos			{-19.6696 -7.15149 -2.14289}
		rot			{7.8006e-002 0.531091 -0.448254 -0.714791}
		
		bone 	"Bake_LArmJoint"
		pos			{19.4833 -7.55507 -2.14288}
		rot			{0.746176 -0.366185 0.124987 -0.541763}
		
		bone 	"Bake_LToeJoint"
		pos			{3.56225 -13.9948 19.4816}
		rot			{1. 0. 0. 0.}
		
		bone 	"Bake_LElbowJoint"
		pos			{42.3171 0.912694 -3.2219}
		rot			{0.89543 -2.14124e-002 -0.443614 -3.0863e-002}
		
		bone 	"Bake_RElbowJoint"
		pos			{-42.2763 -0.990979 6.52934}
		rot			{0.883314 -3.55952e-002 -0.464862 -4.89044e-002}
	}
	
	// Keyframe# 19
	CIwAnimKeyFrame
	{
		time 	0.9
		
		bone 	"Bake_Root"
		pos			{6.63533 14.6741 -243.404}
		rot			{0.466146 -0.328207 -0.550478 0.609886}
		
		bone 	"Bake_LHipJoint"
		pos			{10.2572 -0.750527 -4.7124e-002}
		rot			{0.819554 -0.217261 -0.471375 0.242764}
		
		bone 	"Bake_LowerChestJoint"
		pos			{0.950914 18.3459 3.38756}
		rot			{0.981568 0.127691 -0.132766 5.0919e-002}
		
		bone 	"Bake_RHipJoint"
		pos			{-9.27856 -0.750547 -4.71226e-002}
		rot			{0.462438 0.486573 -0.266624 -0.6916}
		
		bone 	"Bake_RkneeJoint"
		pos			{0.14961 67.5664 1.8204}
		rot			{0.710254 0.257295 0.603141 -0.256045}
		
		bone 	"Bake_LkneeJoint"
		pos			{-0.149599 -67.5665 -1.82043}
		rot			{0.661068 0.352902 0.560691 -0.352243}
		
		bone 	"Bake_UpperChestJoint"
		pos			{7.99361e-015 24.7866 -7.5982}
		rot			{0.984841 -0.149892 -6.34029e-002 5.99984e-002}
		
		bone 	"Bake_NeckJoint"
		pos			{-2.30926e-014 31.5911 -5.27135}
		rot			{0.978401 -0.108297 -9.8397e-002 -0.146019}
		
		bone 	"Bake_LFootJoint"
		pos			{-1.01281 -88.9406 -17.4875}
		rot			{0.992017 -8.05674e-002 -9.52946e-002 1.81873e-002}
		
		bone 	"Bake_RFootJoint"
		pos			{1.01277 88.9408 17.4875}
		rot			{0.922547 0.356223 4.09295e-003 -0.148307}
		
		bone 	"Bake_RArmJoint"
		pos			{-19.6696 -7.15149 -2.14289}
		rot			{7.8006e-002 0.531091 -0.448254 -0.714791}
		
		bone 	"Bake_LArmJoint"
		pos			{19.4833 -7.55507 -2.14288}
		rot			{0.746176 -0.366185 0.124987 -0.541763}
		
		bone 	"Bake_RToeJoint"
		pos			{-3.56224 13.9947 -19.4816}
		rot			{1. 0. 0. 0.}
		
		bone 	"Bake_HeadJoint"
		pos			{-0.447655 10.0592 -0.213579}
		rot			{0.90898 7.85491e-002 0.318918 0.256663}
		
		bone 	"Bake_LToeJoint"
		pos			{3.56225 -13.9948 19.4816}
		rot			{1. 0. 0. 0.}
		
		bone 	"Bake_LElbowJoint"
		pos			{42.3171 0.912694 -3.2219}
		rot			{0.89543 -2.14124e-002 -0.443614 -3.0863e-002}
		
		bone 	"Bake_RElbowJoint"
		pos			{-42.2763 -0.990979 6.52934}
		rot			{0.883314 -3.55952e-002 -0.464862 -4.89044e-002}
		
		bone 	"Bake_RWristJoint"
		pos			{-50.1445 0.692473 2.14966}
		rot			{0.961522 0.243889 0.123051 2.91913e-002}
		
		bone 	"Bake_LWristJoint"
		pos			{45.8286 -0.158446 -0.641449}
		rot			{0.982937 2.88644e-002 -5.74283e-002 0.172351}
		
		bone 	"Bake_LHandJoint"
		pos			{21.0086 -0.27611 1.42274}
		rot			{0.947436 -3.64948e-004 4.10124e-002 -0.317307}
		
		bone 	"Bake_LIndexJoint1"
		pos			{13.6098 -1.33931 8.14663}
		rot			{0.971938 -2.27508e-002 -0.208823 -0.10589}
		
		bone 	"Bake_RHandJoint"
		pos			{-17.4849 -0.540389 -3.5306}
		rot			{0.998821 0. 0. 4.85542e-002}
		
		bone 	"Bake_LIndex2"
		pos			{3.61358 -0.801748 -1.08499}
		rot			{0.977689 1.25744e-004 0.210058 5.85257e-004}
		
		bone 	"Bake_RIndexJoint2"
		pos			{-3.15429 1.28809 -5.86307e-002}
		rot			{1. 0. 0. 0.}
	}
}
