// Source maya file: C:/dev/dev/main/gamedemo1/Art/Characters/combatEva/Animation/test_combatEva_RtSnpKikMd_LfStance.mb
// Maya geometry export, written by IwEngineExporter.mll

// Animation data
CIwAnim
{
	skeleton 	"combatEva_rig"
	
	// Keyframe# 1
	CIwAnimKeyFrame
	{
		time 	0.
		
		bone 	"Bake_Root"
		pos			{-21.6556 178.218 44.3229}
		rot			{0.686941 -0.302166 -0.639644 0.166323}
		
		bone 	"Bake_LHipJoint"
		pos			{10.2572 -0.750527 -4.7124e-002}
		rot			{0.515015 0.295634 -0.680473 0.42932}
		
		bone 	"Bake_LowerChestJoint"
		pos			{0.950914 18.3459 3.38756}
		rot			{0.926839 0.341976 0.108803 -0.110383}
		
		bone 	"Bake_RHipJoint"
		pos			{-9.27856 -0.750547 -4.71226e-002}
		rot			{0.245848 -0.691394 0.246396 0.633105}
		
		bone 	"Bake_RkneeJoint"
		pos			{0.14961 67.5664 1.8204}
		rot			{0.759226 5.5956e-002 0.64614 -5.42957e-002}
		
		bone 	"Bake_LkneeJoint"
		pos			{-0.149599 -67.5665 -1.82043}
		rot			{0.749665 0.114059 0.642051 -0.112973}
		
		bone 	"Bake_UpperChestJoint"
		pos			{1.42109e-014 24.7866 -7.5982}
		rot			{0.986894 -0.117051 -4.43837e-002 -0.101835}
		
		bone 	"Bake_NeckJoint"
		pos			{1.77636e-014 31.5911 -5.27135}
		rot			{0.995311 -5.06351e-003 -9.33453e-002 2.48413e-002}
		
		bone 	"Bake_LFootJoint"
		pos			{-1.01281 -88.9406 -17.4875}
		rot			{0.903172 0.42295 -6.28778e-002 -3.79445e-002}
		
		bone 	"Bake_RFootJoint"
		pos			{1.01277 88.9408 17.4875}
		rot			{0.99007 9.79688e-003 -0.136582 -3.18006e-002}
		
		bone 	"Bake_RArmJoint"
		pos			{-19.6696 -7.15149 -2.14289}
		rot			{2.00051e-003 0.864626 0.403378 -0.299507}
		
		bone 	"Bake_LArmJoint"
		pos			{19.4833 -7.55507 -2.14288}
		rot			{0.862992 -0.265918 9.68606e-002 -0.418509}
		
		bone 	"Bake_RToeJoint"
		pos			{-3.56224 13.9947 -19.4816}
		rot			{1. 0. 0. 0.}
		
		bone 	"Bake_HeadJoint"
		pos			{-0.447655 10.0592 -0.213579}
		rot			{0.885198 -3.84698e-002 0.448497 -0.117448}
		
		bone 	"Bake_LToeJoint"
		pos			{3.56225 -13.9948 19.4816}
		rot			{0.975612 -0.219502 0. 0.}
		
		bone 	"Bake_LElbowJoint"
		pos			{42.3171 0.912694 -3.2219}
		rot			{0.846516 -2.85657e-002 -0.530253 -3.77597e-002}
		
		bone 	"Bake_RElbowJoint"
		pos			{-42.2763 -0.990979 6.52934}
		rot			{0.946245 -2.06627e-002 -0.321351 -3.04418e-002}
		
		bone 	"Bake_RWristJoint"
		pos			{-50.1445 0.692473 2.14966}
		rot			{0.894046 0.442119 3.87914e-002 -6.08888e-002}
		
		bone 	"Bake_LWristJoint"
		pos			{45.8286 -0.158446 -0.641449}
		rot			{0.909361 0.413627 -3.02055e-002 3.25978e-002}
		
		bone 	"Bake_RHandJoint"
		pos			{-17.4849 -0.540389 -3.5306}
		rot			{0.999702 0. 0. -2.43955e-002}
		
		bone 	"Bake_LHandJoint"
		pos			{21.0086 -0.27611 1.42274}
		rot			{0.991245 7.67851e-003 4.02889e-002 -0.125505}
		
		bone 	"Bake_LIndexJoint1"
		pos			{13.6098 -1.33931 8.14663}
		rot			{0.971938 -2.27508e-002 -0.208823 -0.10589}
		
		bone 	"Bake_RIndexJoint1"
		pos			{-9.08339 1.40164 -8.94563}
		rot			{0.959538 0. -0.28158 0.}
		
		bone 	"Bake_LIndex2"
		pos			{3.61358 -0.801748 -1.08499}
		rot			{0.977689 1.25744e-004 0.210058 5.85257e-004}
		
		bone 	"Bake_RIndexJoint2"
		pos			{-3.15429 1.28809 -5.86307e-002}
		rot			{1. 0. 0. 0.}
	}
	
	// Keyframe# 2
	CIwAnimKeyFrame
	{
		time 	6.66667e-002
		
		bone 	"Bake_LHipJoint"
		pos			{10.2572 -0.750527 -4.7124e-002}
		rot			{0.112153 -8.92622e-002 -0.905676 0.399005}
		
		bone 	"Bake_LkneeJoint"
		pos			{-0.149599 -67.5665 -1.82043}
		rot			{0.722839 0.218656 0.618284 -0.217757}
		
		bone 	"Bake_LFootJoint"
		pos			{-1.01281 -88.9406 -17.4875}
		rot			{0.953431 0.274024 -0.119403 -4.02898e-002}
		
		bone 	"Bake_LToeJoint"
		pos			{3.56225 -13.9948 19.4816}
		rot			{0.988611 -0.150493 0. 0.}
	}
	
	// Keyframe# 3
	CIwAnimKeyFrame
	{
		time 	1.e-001
		
		bone 	"Bake_LHipJoint"
		pos			{10.2572 -0.750527 -4.7124e-002}
		rot			{0.298771 -0.448125 -0.734639 0.412584}
		
		bone 	"Bake_RHipJoint"
		pos			{-9.27856 -0.750547 -4.71226e-002}
		rot			{7.09405e-002 0.820867 -0.362883 -0.435271}
		
		bone 	"Bake_RkneeJoint"
		pos			{0.14961 67.5664 1.8204}
		rot			{0.692929 0.296581 0.587045 -0.295411}
		
		bone 	"Bake_LkneeJoint"
		pos			{-0.149599 -67.5665 -1.82043}
		rot			{0.606596 0.432132 0.50893 -0.431619}
		
		bone 	"Bake_LFootJoint"
		pos			{-1.01281 -88.9406 -17.4875}
		rot			{0.892052 0.381838 -0.198558 0.137909}
		
		bone 	"Bake_LToeJoint"
		pos			{3.56225 -13.9948 19.4816}
		rot			{0.99624 -8.66314e-002 0. 0.}
	}
	
	// Keyframe# 4
	CIwAnimKeyFrame
	{
		time 	0.133333
		
		bone 	"Bake_Root"
		pos			{-18.2859 150.87 34.0623}
		rot			{0.900508 3.03534e-002 -0.426513 7.90638e-002}
		
		bone 	"Bake_LHipJoint"
		pos			{10.2572 -0.750527 -4.7124e-002}
		rot			{0.479495 -0.329529 -0.783018 0.219951}
		
		bone 	"Bake_LowerChestJoint"
		pos			{0.950914 18.3459 3.38756}
		rot			{0.9633 0.237776 -0.119342 3.56919e-002}
		
		bone 	"Bake_RHipJoint"
		pos			{-9.27856 -0.750547 -4.71226e-002}
		rot			{0.212411 0.820299 -0.331761 -0.414639}
		
		bone 	"Bake_RkneeJoint"
		pos			{0.14961 67.5664 1.8204}
		rot			{0.675758 0.330217 0.570956 -0.329115}
		
		bone 	"Bake_LkneeJoint"
		pos			{-0.149599 -67.5665 -1.82043}
		rot			{0.636198 0.391924 0.537126 -0.391336}
		
		bone 	"Bake_UpperChestJoint"
		pos			{7.10543e-015 24.7866 -7.5982}
		rot			{0.993461 -6.55579e-002 -9.27575e-002 -1.15189e-002}
		
		bone 	"Bake_LFootJoint"
		pos			{-1.01281 -88.9406 -17.4875}
		rot			{0.950428 0.266532 6.88555e-002 0.144589}
		
		bone 	"Bake_RArmJoint"
		pos			{-19.6696 -7.15149 -2.14289}
		rot			{6.85337e-002 0.858619 0.504671 5.81691e-002}
		
		bone 	"Bake_LArmJoint"
		pos			{19.4833 -7.55507 -2.14288}
		rot			{0.634934 -0.194724 0.335025 -0.668356}
		
		bone 	"Bake_HeadJoint"
		pos			{-0.447655 10.0592 -0.213579}
		rot			{0.836506 -2.5376e-003 0.497267 -0.230167}
		
		bone 	"Bake_LToeJoint"
		pos			{3.56225 -13.9948 19.4816}
		rot			{0.999635 -2.70277e-002 0. 0.}
		
		bone 	"Bake_LElbowJoint"
		pos			{42.3171 0.912694 -3.2219}
		rot			{0.742296 -4.34715e-002 -0.667026 -4.67222e-002}
		
		bone 	"Bake_RElbowJoint"
		pos			{-42.2763 -0.990979 6.52934}
		rot			{0.756778 -6.32904e-002 -0.646899 -6.93031e-002}
		
		bone 	"Bake_RWristJoint"
		pos			{-50.1445 0.692473 2.14966}
		rot			{0.870234 0.486207 -6.97207e-002 3.78774e-002}
		
		bone 	"Bake_LWristJoint"
		pos			{45.8286 -0.158446 -0.641449}
		rot			{0.819978 0.565953 2.30328e-002 8.24821e-002}
		
		bone 	"Bake_RHandJoint"
		pos			{-17.4849 -0.540389 -3.5306}
		rot			{0.997307 0. 0. -7.33425e-002}
		
		bone 	"Bake_LHandJoint"
		pos			{21.0086 -0.27611 1.42274}
		rot			{0.974722 3.79455e-003 4.08381e-002 -0.219626}
	}
	
	// Keyframe# 5
	CIwAnimKeyFrame
	{
		time 	0.166667
		
		bone 	"Bake_LHipJoint"
		pos			{10.2572 -0.750527 -4.7124e-002}
		rot			{0.579171 -0.148627 -0.78067 0.18173}
		
		bone 	"Bake_RHipJoint"
		pos			{-9.27856 -0.750547 -4.71226e-002}
		rot			{0.321445 0.790442 -0.284068 -0.437242}
		
		bone 	"Bake_RkneeJoint"
		pos			{0.14961 67.5664 1.8204}
		rot			{0.680217 0.321895 0.575145 -0.320776}
		
		bone 	"Bake_LkneeJoint"
		pos			{-0.149599 -67.5665 -1.82043}
		rot			{0.70302 0.270337 0.600029 -0.26953}
		
		bone 	"Bake_LFootJoint"
		pos			{-1.01281 -88.9406 -17.4875}
		rot			{0.903135 -0.233298 0.335074 -0.132836}
		
		bone 	"Bake_RFootJoint"
		pos			{1.01277 88.9408 17.4875}
		rot			{0.990457 -0.118816 2.17494e-002 6.63699e-002}
		
		bone 	"Bake_RArmJoint"
		pos			{-19.6696 -7.15149 -2.14289}
		rot			{4.54984e-003 -0.857526 -0.511565 -5.41248e-002}
		
		bone 	"Bake_RToeJoint"
		pos			{-3.56224 13.9947 -19.4816}
		rot			{1. 0. 0. 0.}
		
		bone 	"Bake_LToeJoint"
		pos			{3.56225 -13.9948 19.4816}
		rot			{1. 0. 0. 0.}
		
		bone 	"Bake_RElbowJoint"
		pos			{-42.2763 -0.990979 6.52934}
		rot			{0.739521 -6.6873e-002 -0.66602 -7.10905e-002}
		
		bone 	"Bake_RWristJoint"
		pos			{-50.1445 0.692473 2.14966}
		rot			{0.816143 0.570356 -9.26832e-002 3.80714e-003}
		
		bone 	"Bake_RHandJoint"
		pos			{-17.4849 -0.540389 -3.5306}
		rot			{0.995819 0. 0. -9.13445e-002}
	}
	
	// Keyframe# 6
	CIwAnimKeyFrame
	{
		time 	0.266667
		
		bone 	"Bake_Root"
		pos			{-1.54198 155.853 -24.6316}
		rot			{0.922321 0.114089 -0.369135 -6.89972e-003}
		
		bone 	"Bake_LHipJoint"
		pos			{10.2572 -0.750527 -4.7124e-002}
		rot			{0.760274 -0.12191 -0.474843 0.426199}
		
		bone 	"Bake_LowerChestJoint"
		pos			{0.950914 18.3459 3.38756}
		rot			{0.992755 7.34961e-002 -9.1013e-002 2.74271e-002}
		
		bone 	"Bake_RHipJoint"
		pos			{-9.27856 -0.750547 -4.71226e-002}
		rot			{5.24393e-002 0.655128 -0.210954 -0.723572}
		
		bone 	"Bake_RkneeJoint"
		pos			{0.14961 67.5664 1.8204}
		rot			{0.73598 0.181984 0.626583 -0.180581}
		
		bone 	"Bake_LkneeJoint"
		pos			{-0.149599 -67.5665 -1.82043}
		rot			{0.734224 0.181871 0.628579 -0.180907}
		
		bone 	"Bake_UpperChestJoint"
		pos			{7.99361e-015 24.7866 -7.5982}
		rot			{0.988457 -2.43221e-002 -0.147898 -2.20786e-002}
		
		bone 	"Bake_NeckJoint"
		pos			{2.06501e-014 31.5911 -5.27135}
		rot			{0.993018 4.64312e-002 -3.68712e-002 0.101979}
		
		bone 	"Bake_LFootJoint"
		pos			{-1.01281 -88.9406 -17.4875}
		rot			{0.98255 4.01912e-002 -7.11248e-002 -0.167097}
		
		bone 	"Bake_RFootJoint"
		pos			{1.01277 88.9408 17.4875}
		rot			{0.977745 -4.56898e-002 5.42832e-002 -0.197435}
		
		bone 	"Bake_RArmJoint"
		pos			{-19.6696 -7.15149 -2.14289}
		rot			{0.156399 -0.858968 -0.487371 -1.35289e-002}
		
		bone 	"Bake_LArmJoint"
		pos			{19.4833 -7.55507 -2.14288}
		rot			{0.752611 -7.37441e-002 0.31004 -0.576207}
		
		bone 	"Bake_RToeJoint"
		pos			{-3.56224 13.9947 -19.4816}
		rot			{0.992621 -0.121258 0. 0.}
		
		bone 	"Bake_HeadJoint"
		pos			{-0.447655 10.0592 -0.213579}
		rot			{0.828619 -0.119267 0.533044 -0.122596}
		
		bone 	"Bake_LToeJoint"
		pos			{3.56225 -13.9948 19.4816}
		rot			{1. 0. 0. 0.}
		
		bone 	"Bake_LElbowJoint"
		pos			{42.3171 0.912694 -3.2219}
		rot			{0.558827 -6.81443e-002 -0.824883 -5.13524e-002}
		
		bone 	"Bake_RElbowJoint"
		pos			{-42.2763 -0.990979 6.52934}
		rot			{0.669532 -8.09624e-002 -0.734375 -7.65861e-002}
		
		bone 	"Bake_RWristJoint"
		pos			{-50.1445 0.692473 2.14966}
		rot			{0.766144 0.640385 5.17168e-003 5.38894e-002}
		
		bone 	"Bake_LWristJoint"
		pos			{45.8286 -0.158446 -0.641449}
		rot			{0.820881 0.570826 -1.51329e-002 -9.16387e-003}
		
		bone 	"Bake_RHandJoint"
		pos			{-17.4849 -0.540389 -3.5306}
		rot			{0.992484 0. 0. -0.122375}
		
		bone 	"Bake_LHandJoint"
		pos			{21.0086 -0.27611 1.42274}
		rot			{0.947436 -3.64948e-004 4.10124e-002 -0.317307}
		
		bone 	"Bake_LIndexJoint1"
		pos			{13.6098 -1.33931 8.14663}
		rot			{0.971938 -2.27508e-002 -0.208823 -0.10589}
		
		bone 	"Bake_RIndexJoint1"
		pos			{-9.08339 1.40164 -8.94563}
		rot			{0.959538 0. -0.28158 0.}
		
		bone 	"Bake_LIndex2"
		pos			{3.61358 -0.801748 -1.08499}
		rot			{0.977689 1.25744e-004 0.210058 5.85257e-004}
		
		bone 	"Bake_RIndexJoint2"
		pos			{-3.15429 1.28809 -5.86307e-002}
		rot			{1. 0. 0. 0.}
	}
}
