// Source maya file: C:/dev/dev/main/gamedemo1/Art/Characters/combatEva/Animation/combatEva_RtStance.mb
// Maya geometry export, written by IwEngineExporter.mll

// Animation data
CIwAnim
{
	skeleton 	"combatEva_rig"
	
	// Keyframe# 1
	CIwAnimKeyFrame
	{
		time 	0.
		
		bone 	"Bake_Root"
		pos			{-0.489323 158.298 -11.0175}
		rot			{0.886165 4.04578e-002 0.461474 1.08086e-002}
		
		bone 	"Bake_LHipJoint"
		pos			{10.2572 -0.750527 -4.7124e-002}
		rot			{0.570822 4.59419e-002 -0.805176 0.154087}
		
		bone 	"Bake_LowerChestJoint"
		pos			{0.950914 18.3459 3.38756}
		rot			{0.979148 0.122148 -0.154896 4.85376e-002}
		
		bone 	"Bake_RHipJoint"
		pos			{-9.27856 -0.750547 -4.71226e-002}
		rot			{0.102486 0.899969 -0.376432 -0.194557}
		
		bone 	"Bake_RkneeJoint"
		pos			{0.14961 67.5664 1.8204}
		rot			{0.724084 0.220262 0.615836 -0.218936}
		
		bone 	"Bake_LkneeJoint"
		pos			{-0.149599 -67.5665 -1.82043}
		rot			{0.746676 0.129931 0.639519 -0.128873}
		
		bone 	"Bake_UpperChestJoint"
		pos			{7.77156e-015 24.7866 -7.5982}
		rot			{0.993124 -4.3982e-002 -0.102698 3.4978e-002}
		
		bone 	"Bake_NeckJoint"
		pos			{-2.27596e-015 31.5911 -5.27135}
		rot			{0.989674 1.7858e-002 0.139444 -2.79453e-002}
		
		bone 	"Bake_LFootJoint"
		pos			{-1.01281 -88.9406 -17.4875}
		rot			{0.982659 9.17921e-003 -7.99306e-002 -0.167055}
		
		bone 	"Bake_RFootJoint"
		pos			{1.01277 88.9408 17.4875}
		rot			{0.996645 4.57619e-002 5.53368e-002 -3.92801e-002}
		
		bone 	"Bake_RArmJoint"
		pos			{-19.6696 -7.15149 -2.14289}
		rot			{8.42797e-002 0.856504 0.508989 -1.50868e-002}
		
		bone 	"Bake_LArmJoint"
		pos			{19.4833 -7.55507 -2.14288}
		rot			{0.680091 0.277488 0.209353 -0.645483}
		
		bone 	"Bake_RToeJoint"
		pos			{-3.56224 13.9947 -19.4816}
		rot			{1. 0. 0. 0.}
		
		bone 	"Bake_HeadJoint"
		pos			{-0.447655 10.0592 -0.213579}
		rot			{0.925146 -0.114815 -0.359313 4.26114e-002}
		
		bone 	"Bake_LToeJoint"
		pos			{3.56225 -13.9948 19.4816}
		rot			{0.975612 -0.219502 0. 0.}
		
		bone 	"Bake_LElbowJoint"
		pos			{42.3171 0.912694 -3.2219}
		rot			{0.446932 -8.20096e-002 -0.889432 -4.93724e-002}
		
		bone 	"Bake_RElbowJoint"
		pos			{-42.2763 -0.990979 6.52934}
		rot			{0.34234 -0.137555 -0.92642 -7.50156e-002}
		
		bone 	"Bake_RWristJoint"
		pos			{-50.1445 0.692473 2.14966}
		rot			{0.949373 -0.282018 6.05429e-002 -0.124464}
		
		bone 	"Bake_LWristJoint"
		pos			{45.8286 -0.158446 -0.641449}
		rot			{0.7119 0.700492 4.3703e-002 2.44791e-002}
		
		bone 	"Bake_RHandJoint"
		pos			{-17.4849 -0.540389 -3.5306}
		rot			{0.672545 0. 0. -0.740056}
		
		bone 	"Bake_LHandJoint"
		pos			{21.0086 -0.27611 1.42274}
		rot			{0.881227 -7.20145e-003 4.03769e-002 -0.47091}
		
		bone 	"Bake_LIndexJoint1"
		pos			{13.6098 -1.33931 8.14663}
		rot			{0.971938 -2.27508e-002 -0.208823 -0.10589}
		
		bone 	"Bake_RIndexJoint1"
		pos			{-9.08339 1.40164 -8.94563}
		rot			{0.959538 0. -0.28158 0.}
		
		bone 	"Bake_LIndex2"
		pos			{3.61358 -0.801748 -1.08499}
		rot			{0.977689 1.25744e-004 0.210058 5.85257e-004}
		
		bone 	"Bake_RIndexJoint2"
		pos			{-3.15429 1.28809 -5.86307e-002}
		rot			{1. 0. 0. 0.}
	}
	
	// Keyframe# 2
	CIwAnimKeyFrame
	{
		time 	0.2
		
		bone 	"Bake_Root"
		pos			{10.4194 153.485 -25.1707}
		rot			{0.887635 4.25935e-002 0.458573 -8.4988e-004}
		
		bone 	"Bake_LHipJoint"
		pos			{10.2572 -0.750527 -4.7124e-002}
		rot			{0.50339 -9.11617e-002 -0.844795 0.156876}
		
		bone 	"Bake_RHipJoint"
		pos			{-9.27856 -0.750547 -4.71226e-002}
		rot			{9.32678e-002 0.878764 -0.416811 -0.212938}
		
		bone 	"Bake_RkneeJoint"
		pos			{0.14961 67.5664 1.8204}
		rot			{0.72752 0.209959 0.618961 -0.208613}
		
		bone 	"Bake_LkneeJoint"
		pos			{-0.149599 -67.5665 -1.82043}
		rot			{0.705502 0.264477 0.602331 -0.263659}
		
		bone 	"Bake_RArmJoint"
		pos			{-19.6696 -7.15149 -2.14289}
		rot			{0.147714 0.873088 0.464291 -1.82176e-002}
		
		bone 	"Bake_LArmJoint"
		pos			{19.4833 -7.55507 -2.14288}
		rot			{0.64589 0.2765 0.148073 -0.696023}
		
		bone 	"Bake_LElbowJoint"
		pos			{42.3171 0.912694 -3.2219}
		rot			{0.458442 -8.06291e-002 -0.883662 -4.97174e-002}
		
		bone 	"Bake_RElbowJoint"
		pos			{-42.2763 -0.990979 6.52934}
		rot			{0.390291 -0.130246 -0.908126 -7.75653e-002}
		
		bone 	"Bake_RWristJoint"
		pos			{-50.1445 0.692473 2.14966}
		rot			{0.926358 -0.354641 2.23408e-002 -0.124869}
		
		bone 	"Bake_LWristJoint"
		pos			{45.8286 -0.158446 -0.641449}
		rot			{0.655214 0.749581 7.29041e-002 5.92312e-002}
		
		bone 	"Bake_RHandJoint"
		pos			{-17.4849 -0.540389 -3.5306}
		rot			{0.672545 0. 0. -0.740056}
		
		bone 	"Bake_LHandJoint"
		pos			{21.0086 -0.27611 1.42274}
		rot			{0.881227 -7.20145e-003 4.03769e-002 -0.47091}
	}
	
	// Keyframe# 3
	CIwAnimKeyFrame
	{
		time 	0.233333
		
		bone 	"Bake_Root"
		pos			{10.5168 152.839 -24.8001}
		rot			{0.887803 4.26974e-002 0.458236 -1.55163e-003}
		
		bone 	"Bake_LHipJoint"
		pos			{10.2572 -0.750527 -4.7124e-002}
		rot			{0.497584 -9.28172e-002 -0.848231 0.155885}
		
		bone 	"Bake_RHipJoint"
		pos			{-9.27856 -0.750547 -4.71226e-002}
		rot			{9.51038e-002 0.875503 -0.42181 -0.215698}
		
		bone 	"Bake_RkneeJoint"
		pos			{0.14961 67.5664 1.8204}
		rot			{0.724942 0.217736 0.616618 -0.216405}
		
		bone 	"Bake_LkneeJoint"
		pos			{-0.149599 -67.5665 -1.82043}
		rot			{0.703683 0.268787 0.600643 -0.267977}
		
		bone 	"Bake_UpperChestJoint"
		pos			{1.06581e-014 24.7866 -7.5982}
		rot			{0.990532 -4.1974e-002 -0.129183 1.99147e-002}
		
		bone 	"Bake_RArmJoint"
		pos			{-19.6696 -7.15149 -2.14289}
		rot			{0.13321 0.872036 0.470748 -1.42952e-002}
		
		bone 	"Bake_LArmJoint"
		pos			{19.4833 -7.55507 -2.14288}
		rot			{0.644491 0.289612 0.150977 -0.691348}
		
		bone 	"Bake_LElbowJoint"
		pos			{42.3171 0.912694 -3.2219}
		rot			{0.447257 -8.19708e-002 -0.889271 -4.93826e-002}
		
		bone 	"Bake_RElbowJoint"
		pos			{-42.2763 -0.990979 6.52934}
		rot			{0.377402 -0.132246 -0.913322 -7.69503e-002}
	}
	
	// Keyframe# 4
	CIwAnimKeyFrame
	{
		time 	0.266667
		
		bone 	"Bake_Root"
		pos			{9.93167 152.594 -23.7625}
		rot			{0.887866 4.27318e-002 0.45811 -1.79425e-003}
		
		bone 	"Bake_LHipJoint"
		pos			{10.2572 -0.750527 -4.7124e-002}
		rot			{0.493966 -8.7714e-002 -0.850982 0.155347}
		
		bone 	"Bake_LowerChestJoint"
		pos			{0.950914 18.3459 3.38756}
		rot			{0.977844 0.134867 -0.143744 7.0491e-002}
		
		bone 	"Bake_RHipJoint"
		pos			{-9.27856 -0.750547 -4.71226e-002}
		rot			{9.77797e-002 0.874032 -0.423707 -0.216747}
		
		bone 	"Bake_RkneeJoint"
		pos			{0.14961 67.5664 1.8204}
		rot			{0.722498 0.224845 0.61439 -0.223529}
		
		bone 	"Bake_LkneeJoint"
		pos			{-0.149599 -67.5665 -1.82043}
		rot			{0.704472 0.266928 0.601375 -0.266114}
		
		bone 	"Bake_RArmJoint"
		pos			{-19.6696 -7.15149 -2.14289}
		rot			{0.113579 0.870038 0.479542 -1.31503e-002}
		
		bone 	"Bake_LArmJoint"
		pos			{19.4833 -7.55507 -2.14288}
		rot			{0.645813 0.298648 0.157311 -0.684827}
		
		bone 	"Bake_LElbowJoint"
		pos			{42.3171 0.912694 -3.2219}
		rot			{0.439281 -8.29213e-002 -0.893164 -4.9126e-002}
		
		bone 	"Bake_RElbowJoint"
		pos			{-42.2763 -0.990979 6.52934}
		rot			{0.363392 -0.13439 -0.918736 -7.62229e-002}
		
		bone 	"Bake_RWristJoint"
		pos			{-50.1445 0.692473 2.14966}
		rot			{0.933061 -0.335796 1.91857e-002 -0.127556}
		
		bone 	"Bake_RHandJoint"
		pos			{-17.4849 -0.540389 -3.5306}
		rot			{0.672545 0. 0. -0.740056}
	}
	
	// Keyframe# 5
	CIwAnimKeyFrame
	{
		time 	0.366667
		
		bone 	"Bake_LHipJoint"
		pos			{10.2572 -0.750527 -4.7124e-002}
		rot			{0.495551 -3.66039e-002 -0.855597 0.145062}
		
		bone 	"Bake_LkneeJoint"
		pos			{-0.149599 -67.5665 -1.82043}
		rot			{0.72187 0.221492 0.617399 -0.220598}
	}
	
	// Keyframe# 6
	CIwAnimKeyFrame
	{
		time 	0.4
		
		bone 	"Bake_HeadJoint"
		pos			{-0.447655 10.0592 -0.213579}
		rot			{0.927278 -0.106352 -0.355641 4.86357e-002}
	}
	
	// Keyframe# 7
	CIwAnimKeyFrame
	{
		time 	0.433333
		
		bone 	"Bake_Root"
		pos			{2.67484 155.68 -12.4598}
		rot			{0.887225 4.1286e-002 0.459411 8.29178e-003}
		
		bone 	"Bake_LHipJoint"
		pos			{10.2572 -0.750527 -4.7124e-002}
		rot			{0.504686 9.55878e-003 -0.852306 0.137021}
		
		bone 	"Bake_RHipJoint"
		pos			{-9.27856 -0.750547 -4.71226e-002}
		rot			{0.103554 0.885266 -0.398572 -0.21615}
		
		bone 	"Bake_RkneeJoint"
		pos			{0.14961 67.5664 1.8204}
		rot			{0.717197 0.23949 0.609535 -0.238203}
		
		bone 	"Bake_LkneeJoint"
		pos			{-0.149599 -67.5665 -1.82043}
		rot			{0.735223 0.178266 0.629472 -0.177295}
		
		bone 	"Bake_RArmJoint"
		pos			{-19.6696 -7.15149 -2.14289}
		rot			{3.39536e-002 0.847051 0.529851 -2.4681e-002}
		
		bone 	"Bake_LArmJoint"
		pos			{19.4833 -7.55507 -2.14288}
		rot			{0.678459 0.29704 0.214757 -0.636664}
		
		bone 	"Bake_LElbowJoint"
		pos			{42.3171 0.912694 -3.2219}
		rot			{0.45604 -8.09181e-002 -0.884881 -4.9648e-002}
		
		bone 	"Bake_RElbowJoint"
		pos			{-42.2763 -0.990979 6.52934}
		rot			{0.318569 -0.141045 -0.934462 -7.34895e-002}
	}
	
	// Keyframe# 8
	CIwAnimKeyFrame
	{
		time 	0.466667
		
		bone 	"Bake_UpperChestJoint"
		pos			{0. 24.7866 -7.5982}
		rot			{0.987252 -3.86279e-002 -0.153887 1.26175e-002}
		
		bone 	"Bake_RArmJoint"
		pos			{-19.6696 -7.15149 -2.14289}
		rot			{3.1213e-002 0.846197 0.530917 -3.32127e-002}
		
		bone 	"Bake_LArmJoint"
		pos			{19.4833 -7.55507 -2.14288}
		rot			{0.684954 0.290621 0.230566 -0.62707}
		
		bone 	"Bake_LElbowJoint"
		pos			{42.3171 0.912694 -3.2219}
		rot			{0.456042 -8.09178e-002 -0.88488 -4.96481e-002}
		
		bone 	"Bake_RElbowJoint"
		pos			{-42.2763 -0.990979 6.52934}
		rot			{0.311403 -0.14208 -0.936757 -7.2996e-002}
		
		bone 	"Bake_LWristJoint"
		pos			{45.8286 -0.158446 -0.641449}
		rot			{0.724417 0.682565 2.51468e-002 9.32304e-002}
		
		bone 	"Bake_LHandJoint"
		pos			{21.0086 -0.27611 1.42274}
		rot			{0.881227 -7.20145e-003 4.03769e-002 -0.47091}
	}
	
	// Keyframe# 9
	CIwAnimKeyFrame
	{
		time 	0.5
		
		bone 	"Bake_RArmJoint"
		pos			{-19.6696 -7.15149 -2.14289}
		rot			{3.18372e-002 0.846508 0.529777 -4.17906e-002}
		
		bone 	"Bake_RElbowJoint"
		pos			{-42.2763 -0.990979 6.52934}
		rot			{0.30496 -0.143003 -0.938769 -7.2539e-002}
		
		bone 	"Bake_RWristJoint"
		pos			{-50.1445 0.692473 2.14966}
		rot			{0.956341 -0.255073 5.6783e-002 -0.130862}
		
		bone 	"Bake_RHandJoint"
		pos			{-17.4849 -0.540389 -3.5306}
		rot			{0.672545 0. 0. -0.740056}
	}
	
	// Keyframe# 10
	CIwAnimKeyFrame
	{
		time 	0.566667
		
		bone 	"Bake_RArmJoint"
		pos			{-19.6696 -7.15149 -2.14289}
		rot			{4.05976e-002 0.848196 0.525157 -5.5904e-002}
		
		bone 	"Bake_RElbowJoint"
		pos			{-42.2763 -0.990979 6.52934}
		rot			{0.295365 -0.144365 -0.941678 -7.18356e-002}
	}
	
	// Keyframe# 11
	CIwAnimKeyFrame
	{
		time 	0.6
		
		bone 	"Bake_Root"
		pos			{-4.83092 151.796 -1.15704}
		rot			{0.886043 3.80482e-002 0.461441 2.3521e-002}
		
		bone 	"Bake_LHipJoint"
		pos			{10.2572 -0.750527 -4.7124e-002}
		rot			{0.540453 7.74577e-002 -0.824769 0.147194}
		
		bone 	"Bake_RHipJoint"
		pos			{-9.27856 -0.750547 -4.71226e-002}
		rot			{0.117425 0.877109 -0.418334 -0.204666}
		
		bone 	"Bake_RkneeJoint"
		pos			{0.14961 67.5664 1.8204}
		rot			{0.689855 0.302937 0.584174 -0.301779}
		
		bone 	"Bake_LkneeJoint"
		pos			{-0.149599 -67.5665 -1.82043}
		rot			{0.746091 0.13282 0.639018 -0.131768}
		
		bone 	"Bake_UpperChestJoint"
		pos			{9.76996e-015 24.7866 -7.5982}
		rot			{0.989041 -3.69925e-002 -0.142524 1.07555e-002}
		
		bone 	"Bake_RArmJoint"
		pos			{-19.6696 -7.15149 -2.14289}
		rot			{4.80046e-002 0.849594 0.521716 -6.08126e-002}
		
		bone 	"Bake_LArmJoint"
		pos			{19.4833 -7.55507 -2.14288}
		rot			{0.712407 0.248422 0.275167 -0.595857}
		
		bone 	"Bake_LElbowJoint"
		pos			{42.3171 0.912694 -3.2219}
		rot			{0.455141 -8.10261e-002 -0.885336 -4.96217e-002}
		
		bone 	"Bake_RElbowJoint"
		pos			{-42.2763 -0.990979 6.52934}
		rot			{0.292417 -0.144781 -0.942551 -7.16138e-002}
	}
	
	// Keyframe# 12
	CIwAnimKeyFrame
	{
		time 	0.633333
		
		bone 	"Bake_Root"
		pos			{-5.5256 150.886 -0.119411}
		rot			{0.885898 3.73466e-002 0.461686 2.52121e-002}
		
		bone 	"Bake_LHipJoint"
		pos			{10.2572 -0.750527 -4.7124e-002}
		rot			{0.549448 8.02207e-002 -0.817351 0.153649}
		
		bone 	"Bake_RHipJoint"
		pos			{-9.27856 -0.750547 -4.71226e-002}
		rot			{0.118908 0.875259 -0.423125 -0.201858}
		
		bone 	"Bake_RkneeJoint"
		pos			{0.14961 67.5664 1.8204}
		rot			{0.685335 0.312001 0.579944 -0.310862}
		
		bone 	"Bake_LkneeJoint"
		pos			{-0.149599 -67.5665 -1.82043}
		rot			{0.745724 0.134606 0.638702 -0.133557}
		
		bone 	"Bake_RArmJoint"
		pos			{-19.6696 -7.15149 -2.14289}
		rot			{5.58054e-002 0.85246 0.515867 -6.3865e-002}
		
		bone 	"Bake_LArmJoint"
		pos			{19.4833 -7.55507 -2.14288}
		rot			{0.71713 0.241806 0.277544 -0.591797}
		
		bone 	"Bake_LElbowJoint"
		pos			{42.3171 0.912694 -3.2219}
		rot			{0.454105 -8.11505e-002 -0.885858 -4.95911e-002}
		
		bone 	"Bake_RElbowJoint"
		pos			{-42.2763 -0.990979 6.52934}
		rot			{0.290757 -0.145014 -0.943038 -7.14879e-002}
	}
	
	// Keyframe# 13
	CIwAnimKeyFrame
	{
		time 	0.666667
		
		bone 	"Bake_Root"
		pos			{-5.77406 150.242 0.25117}
		rot			{0.885809 3.67956e-002 0.46186 2.59623e-002}
		
		bone 	"Bake_LHipJoint"
		pos			{10.2572 -0.750527 -4.7124e-002}
		rot			{0.558739 7.89595e-002 -0.809726 0.160996}
		
		bone 	"Bake_RHipJoint"
		pos			{-9.27856 -0.750547 -4.71226e-002}
		rot			{0.119471 0.873933 -0.426994 -0.199107}
		
		bone 	"Bake_RkneeJoint"
		pos			{0.14961 67.5664 1.8204}
		rot			{0.682469 0.317588 0.577258 -0.31646}
		
		bone 	"Bake_LkneeJoint"
		pos			{-0.149599 -67.5665 -1.82043}
		rot			{0.744716 0.139387 0.637832 -0.138347}
		
		bone 	"Bake_RArmJoint"
		pos			{-19.6696 -7.15149 -2.14289}
		rot			{6.28361e-002 0.856954 0.507438 -6.4713e-002}
		
		bone 	"Bake_LArmJoint"
		pos			{19.4833 -7.55507 -2.14288}
		rot			{0.719011 0.239988 0.276042 -0.590957}
		
		bone 	"Bake_LElbowJoint"
		pos			{42.3171 0.912694 -3.2219}
		rot			{0.452002 -8.14028e-002 -0.886913 -4.95282e-002}
		
		bone 	"Bake_RElbowJoint"
		pos			{-42.2763 -0.990979 6.52934}
		rot			{0.290131 -0.145102 -0.943221 -7.14402e-002}
		
		bone 	"Bake_RWristJoint"
		pos			{-50.1445 0.692473 2.14966}
		rot			{0.954489 -0.260932 0.115782 -8.63679e-002}
		
		bone 	"Bake_LWristJoint"
		pos			{45.8286 -0.158446 -0.641449}
		rot			{0.770992 0.636699 2.63331e-003 1.33644e-002}
		
		bone 	"Bake_RHandJoint"
		pos			{-17.4849 -0.540389 -3.5306}
		rot			{0.672545 0. 0. -0.740056}
		
		bone 	"Bake_LHandJoint"
		pos			{21.0086 -0.27611 1.42274}
		rot			{0.881227 -7.20145e-003 4.03769e-002 -0.47091}
	}
	
	// Keyframe# 14
	CIwAnimKeyFrame
	{
		time 	0.7
		
		bone 	"Bake_Root"
		pos			{-5.66232 149.998 -6.01949e-002}
		rot			{0.885783 3.67226e-002 0.461949 2.53439e-002}
		
		bone 	"Bake_LHipJoint"
		pos			{10.2572 -0.750527 -4.7124e-002}
		rot			{0.567128 7.46061e-002 -0.802748 0.168511}
		
		bone 	"Bake_RHipJoint"
		pos			{-9.27856 -0.750547 -4.71226e-002}
		rot			{0.119736 0.873502 -0.429019 -0.196469}
		
		bone 	"Bake_RkneeJoint"
		pos			{0.14961 67.5664 1.8204}
		rot			{0.681785 0.318905 0.576616 -0.31778}
		
		bone 	"Bake_LkneeJoint"
		pos			{-0.149599 -67.5665 -1.82043}
		rot			{0.743395 0.145419 0.636686 -0.144389}
		
		bone 	"Bake_RArmJoint"
		pos			{-19.6696 -7.15149 -2.14289}
		rot			{6.91394e-002 0.862625 0.496933 -6.44673e-002}
		
		bone 	"Bake_LArmJoint"
		pos			{19.4833 -7.55507 -2.14288}
		rot			{0.716397 0.24164 0.27494 -0.593964}
		
		bone 	"Bake_LElbowJoint"
		pos			{42.3171 0.912694 -3.2219}
		rot			{0.445067 -8.22322e-002 -0.890349 -4.93136e-002}
		
		bone 	"Bake_RElbowJoint"
		pos			{-42.2763 -0.990979 6.52934}
		rot			{0.289829 -0.145145 -0.943309 -7.14172e-002}
		
		bone 	"Bake_LWristJoint"
		pos			{45.8286 -0.158446 -0.641449}
		rot			{0.768335 0.640004 6.86573e-003 2.99594e-003}
		
		bone 	"Bake_LHandJoint"
		pos			{21.0086 -0.27611 1.42274}
		rot			{0.881227 -7.20145e-003 4.03769e-002 -0.47091}
	}
	
	// Keyframe# 15
	CIwAnimKeyFrame
	{
		time 	0.866667
		
		bone 	"Bake_Root"
		pos			{-0.489323 158.298 -11.0175}
		rot			{0.886165 4.04578e-002 0.461474 1.08086e-002}
		
		bone 	"Bake_LHipJoint"
		pos			{10.2572 -0.750527 -4.7124e-002}
		rot			{0.570822 4.59419e-002 -0.805176 0.154087}
		
		bone 	"Bake_LowerChestJoint"
		pos			{0.950914 18.3459 3.38756}
		rot			{0.979148 0.122148 -0.154896 4.85376e-002}
		
		bone 	"Bake_RHipJoint"
		pos			{-9.27856 -0.750547 -4.71226e-002}
		rot			{0.102486 0.899969 -0.376432 -0.194557}
		
		bone 	"Bake_RkneeJoint"
		pos			{0.14961 67.5664 1.8204}
		rot			{0.724084 0.220262 0.615836 -0.218936}
		
		bone 	"Bake_LkneeJoint"
		pos			{-0.149599 -67.5665 -1.82043}
		rot			{0.746676 0.129931 0.639519 -0.128873}
		
		bone 	"Bake_UpperChestJoint"
		pos			{7.77156e-015 24.7866 -7.5982}
		rot			{0.993124 -4.3982e-002 -0.102698 3.4978e-002}
		
		bone 	"Bake_NeckJoint"
		pos			{-2.27596e-015 31.5911 -5.27135}
		rot			{0.989674 1.7858e-002 0.139444 -2.79453e-002}
		
		bone 	"Bake_LFootJoint"
		pos			{-1.01281 -88.9406 -17.4875}
		rot			{0.982659 9.17921e-003 -7.99306e-002 -0.167055}
		
		bone 	"Bake_RFootJoint"
		pos			{1.01277 88.9408 17.4875}
		rot			{0.996645 4.57619e-002 5.53368e-002 -3.92801e-002}
		
		bone 	"Bake_RArmJoint"
		pos			{-19.6696 -7.15149 -2.14289}
		rot			{8.42797e-002 0.856504 0.508989 -1.50868e-002}
		
		bone 	"Bake_LArmJoint"
		pos			{19.4833 -7.55507 -2.14288}
		rot			{0.680091 0.277488 0.209353 -0.645483}
		
		bone 	"Bake_RToeJoint"
		pos			{-3.56224 13.9947 -19.4816}
		rot			{1. 0. 0. 0.}
		
		bone 	"Bake_HeadJoint"
		pos			{-0.447655 10.0592 -0.213579}
		rot			{0.925146 -0.114815 -0.359313 4.26114e-002}
		
		bone 	"Bake_LToeJoint"
		pos			{3.56225 -13.9948 19.4816}
		rot			{0.975612 -0.219502 0. 0.}
		
		bone 	"Bake_LElbowJoint"
		pos			{42.3171 0.912694 -3.2219}
		rot			{0.446932 -8.20096e-002 -0.889432 -4.93724e-002}
		
		bone 	"Bake_RElbowJoint"
		pos			{-42.2763 -0.990979 6.52934}
		rot			{0.34234 -0.137555 -0.92642 -7.50156e-002}
		
		bone 	"Bake_RWristJoint"
		pos			{-50.1445 0.692473 2.14966}
		rot			{0.949373 -0.282018 6.05429e-002 -0.124464}
		
		bone 	"Bake_LWristJoint"
		pos			{45.8286 -0.158446 -0.641449}
		rot			{0.7119 0.700492 4.3703e-002 2.44791e-002}
		
		bone 	"Bake_RHandJoint"
		pos			{-17.4849 -0.540389 -3.5306}
		rot			{0.672545 0. 0. -0.740056}
		
		bone 	"Bake_LHandJoint"
		pos			{21.0086 -0.27611 1.42274}
		rot			{0.881227 -7.20145e-003 4.03769e-002 -0.47091}
		
		bone 	"Bake_LIndexJoint1"
		pos			{13.6098 -1.33931 8.14663}
		rot			{0.971938 -2.27508e-002 -0.208823 -0.10589}
		
		bone 	"Bake_RIndexJoint1"
		pos			{-9.08339 1.40164 -8.94563}
		rot			{0.959538 0. -0.28158 0.}
		
		bone 	"Bake_LIndex2"
		pos			{3.61358 -0.801748 -1.08499}
		rot			{0.977689 1.25744e-004 0.210058 5.85257e-004}
		
		bone 	"Bake_RIndexJoint2"
		pos			{-3.15429 1.28809 -5.86307e-002}
		rot			{1. 0. 0. 0.}
	}
}
