// Source maya file: C:/dev/dev/main/gamedemo1/Art/Characters/combatEva/Animation/test_combatEva_RtUpDodge.mb exported by: asydie
//: source C:/dev/dev/main/gamedemo1/Art/Characters/combatEva/Animation/test_combatEva_RtUpDodge.mb
// Maya geometry export, written by IwEngineExporter.mll

// Animation data
CIwAnim
{
	skeleton 	"combatEva_rig"
	
	// Keyframe# 1
	CIwAnimKeyFrame
	{
		time 	0.
		
		bone 	"Bake_Root"
		pos			{-0.48976 158.298 -11.0175}
		rot			{0.886165 4.04578e-002 0.461474 1.08086e-002}
		
		bone 	"Bake_LHipJoint"
		pos			{10.2572 -0.750527 -4.7124e-002}
		rot			{0.570823 4.59424e-002 -0.805175 0.154089}
		
		bone 	"Bake_LowerChestJoint"
		pos			{0.950914 18.3459 3.38756}
		rot			{0.979148 0.122148 -0.154896 4.85376e-002}
		
		bone 	"Bake_RHipJoint"
		pos			{-9.27856 -0.750547 -4.71226e-002}
		rot			{0.102487 0.899968 -0.376432 -0.194557}
		
		bone 	"Bake_RkneeJoint"
		pos			{0.14961 67.5664 1.8204}
		rot			{0.724084 0.220262 0.615836 -0.218937}
		
		bone 	"Bake_LkneeJoint"
		pos			{-0.149599 -67.5665 -1.82043}
		rot			{0.746676 0.12993 0.639519 -0.128873}
		
		bone 	"Bake_UpperChestJoint"
		pos			{6.88338e-015 24.7866 -7.5982}
		rot			{0.993124 -4.3982e-002 -0.102698 3.4978e-002}
		
		bone 	"Bake_NeckJoint"
		pos			{-5.4956e-015 31.5911 -5.27135}
		rot			{0.989674 1.7858e-002 0.139444 -2.79453e-002}
		
		bone 	"Bake_LFootJoint"
		pos			{-1.01281 -88.9406 -17.4875}
		rot			{0.982659 9.18058e-003 -7.99316e-002 -0.167057}
		
		bone 	"Bake_RFootJoint"
		pos			{1.01277 88.9408 17.4875}
		rot			{0.996645 4.57616e-002 5.53375e-002 -3.92787e-002}
		
		bone 	"Bake_RArmJoint"
		pos			{-19.6696 -7.15149 -2.14289}
		rot			{8.42791e-002 0.856503 0.508992 -1.50941e-002}
		
		bone 	"Bake_LArmJoint"
		pos			{19.4833 -7.55507 -2.14288}
		rot			{0.680093 0.277481 0.209354 -0.645483}
		
		bone 	"Bake_RToeJoint"
		pos			{-3.56224 13.9947 -19.4816}
		rot			{1. 0. 0. 0.}
		
		bone 	"Bake_HeadJoint"
		pos			{-0.447655 10.0592 -0.213579}
		rot			{0.925146 -0.114815 -0.359313 4.26114e-002}
		
		bone 	"Bake_LToeJoint"
		pos			{3.56225 -13.9948 19.4816}
		rot			{0.975612 -0.219502 0. 0.}
		
		bone 	"Bake_LElbowJoint"
		pos			{42.3171 0.912694 -3.2219}
		rot			{0.446933 -8.20095e-002 -0.889431 -4.93724e-002}
		
		bone 	"Bake_RElbowJoint"
		pos			{-42.2763 -0.990979 6.52934}
		rot			{0.342341 -0.137555 -0.92642 -7.50156e-002}
		
		bone 	"Bake_RWristJoint"
		pos			{-50.1445 0.692473 2.14966}
		rot			{0.908893 -0.331994 -0.162033 -0.193489}
		
		bone 	"Bake_LWristJoint"
		pos			{45.8286 -0.158446 -0.641449}
		rot			{0.711902 0.70049 4.37029e-002 2.44731e-002}
		
		bone 	"Bake_RHandJoint"
		pos			{-17.4849 -0.540389 -3.5306}
		rot			{0.672545 0. 0. -0.740056}
		
		bone 	"Bake_LHandJoint"
		pos			{17.2019 0.366814 1.97759}
		rot			{0.881227 -7.20145e-003 4.03769e-002 -0.47091}
		
		bone 	"Bake_LIndexJoint1"
		pos			{12.2418 -1.31958 7.40454}
		rot			{0.971938 -2.27508e-002 -0.208823 -0.10589}
		
		bone 	"Bake_RIndexJoint1"
		pos			{-9.08339 1.40164 -8.94563}
		rot			{0.959538 0. -0.28158 0.}
		
		bone 	"Bake_LIndex2"
		pos			{6.17497 -0.574751 0.664665}
		rot			{0.977689 1.25744e-004 0.210058 5.85257e-004}
		
		bone 	"Bake_RIndexJoint2"
		pos			{-3.15429 1.28809 -5.86307e-002}
		rot			{1. 0. 0. 0.}
	}
	
	// Keyframe# 2
	CIwAnimKeyFrame
	{
		time 	3.33333e-002
		
		bone 	"Bake_Root"
		pos			{-0.48976 156.246 -11.0175}
		rot			{0.886678 3.52274e-002 0.46096 8.84054e-003}
		
		bone 	"Bake_LHipJoint"
		pos			{10.2572 -0.750527 -4.7124e-002}
		rot			{0.556681 3.40809e-002 -0.814137 0.161636}
		
		bone 	"Bake_LowerChestJoint"
		pos			{0.950914 18.3459 3.38756}
		rot			{0.978645 0.125146 -0.155311 4.97145e-002}
		
		bone 	"Bake_RHipJoint"
		pos			{-9.27856 -0.750547 -4.71226e-002}
		rot			{0.151405 0.858158 -0.462315 -0.16403}
		
		bone 	"Bake_RkneeJoint"
		pos			{0.14961 67.5664 1.8204}
		rot			{0.673898 0.333613 0.569206 -0.332518}
		
		bone 	"Bake_LkneeJoint"
		pos			{-0.149599 -67.5665 -1.82043}
		rot			{0.740318 0.158588 0.633992 -0.157582}
		
		bone 	"Bake_UpperChestJoint"
		pos			{9.54792e-015 24.7866 -7.5982}
		rot			{0.993317 -4.30641e-002 -0.101345 3.4573e-002}
		
		bone 	"Bake_NeckJoint"
		pos			{-5.93969e-015 31.5911 -5.27135}
		rot			{0.989674 1.7858e-002 0.139444 -2.79453e-002}
		
		bone 	"Bake_LFootJoint"
		pos			{-1.01281 -88.9406 -17.4875}
		rot			{0.983347 -1.27908e-002 -7.03699e-002 -0.167072}
		
		bone 	"Bake_RFootJoint"
		pos			{1.01277 88.9408 17.4875}
		rot			{0.998854 -1.5037e-002 4.47042e-002 -8.15955e-003}
		
		bone 	"Bake_RArmJoint"
		pos			{-19.6696 -7.15149 -2.14289}
		rot			{7.73638e-002 0.854303 0.513219 -2.80644e-002}
		
		bone 	"Bake_LArmJoint"
		pos			{19.4833 -7.55507 -2.14288}
		rot			{0.685104 0.267622 0.205265 -0.64566}
		
		bone 	"Bake_RToeJoint"
		pos			{-3.56224 13.9947 -19.4816}
		rot			{1. 0. 0. 0.}
		
		bone 	"Bake_HeadJoint"
		pos			{-0.447655 10.0592 -0.213579}
		rot			{0.924165 -0.113538 -0.361683 4.70393e-002}
		
		bone 	"Bake_LToeJoint"
		pos			{3.56225 -13.9948 19.4816}
		rot			{0.975612 -0.219502 0. 0.}
		
		bone 	"Bake_LElbowJoint"
		pos			{42.3171 0.912694 -3.2219}
		rot			{0.449865 -8.16588e-002 -0.887979 -4.94633e-002}
		
		bone 	"Bake_RElbowJoint"
		pos			{-42.2763 -0.990979 6.52934}
		rot			{0.354521 -0.135732 -0.922039 -7.57308e-002}
		
		bone 	"Bake_RWristJoint"
		pos			{-50.1445 0.692473 2.14966}
		rot			{0.912531 -0.318603 -0.170196 -0.191867}
		
		bone 	"Bake_LWristJoint"
		pos			{45.8286 -0.158446 -0.641449}
		rot			{0.712884 0.699332 4.91036e-002 1.7862e-002}
		
		bone 	"Bake_RHandJoint"
		pos			{-17.4849 -0.540389 -3.5306}
		rot			{0.672545 0. 0. -0.740056}
		
		bone 	"Bake_LHandJoint"
		pos			{17.2019 0.366814 1.97759}
		rot			{0.881227 -7.20145e-003 4.03769e-002 -0.47091}
		
		bone 	"Bake_LIndexJoint1"
		pos			{12.2418 -1.31958 7.40454}
		rot			{0.971938 -2.27508e-002 -0.208823 -0.10589}
		
		bone 	"Bake_RIndexJoint1"
		pos			{-9.08339 1.40164 -8.94563}
		rot			{0.959538 0. -0.28158 0.}
		
		bone 	"Bake_LIndex2"
		pos			{6.17497 -0.574751 0.664665}
		rot			{0.977689 1.25744e-004 0.210058 5.85257e-004}
		
		bone 	"Bake_RIndexJoint2"
		pos			{-3.15429 1.28809 -5.86307e-002}
		rot			{1. 0. 0. 0.}
	}
	
	// Keyframe# 3
	CIwAnimKeyFrame
	{
		time 	6.66667e-002
		
		bone 	"Bake_Root"
		pos			{-0.48976 152.436 -11.0175}
		rot			{0.887457 2.54881e-002 0.460156 5.15949e-003}
		
		bone 	"Bake_LHipJoint"
		pos			{10.2572 -0.750527 -4.7124e-002}
		rot			{0.521166 1.6473e-002 -0.837206 0.164923}
		
		bone 	"Bake_LowerChestJoint"
		pos			{0.950914 18.3459 3.38756}
		rot			{0.977342 0.132637 -0.156323 5.26685e-002}
		
		bone 	"Bake_RHipJoint"
		pos			{-9.27856 -0.750547 -4.71226e-002}
		rot			{0.191095 0.878118 -0.417393 -0.134815}
		
		bone 	"Bake_RkneeJoint"
		pos			{0.14961 67.5664 1.8204}
		rot			{0.681815 0.318846 0.576645 -0.31772}
		
		bone 	"Bake_LkneeJoint"
		pos			{-0.149599 -67.5665 -1.82043}
		rot			{0.727873 0.203251 0.622859 -0.202325}
		
		bone 	"Bake_UpperChestJoint"
		pos			{6.66134e-015 24.7866 -7.5982}
		rot			{0.993788 -4.07654e-002 -9.79663e-002 3.35486e-002}
		
		bone 	"Bake_NeckJoint"
		pos			{-2.9976e-015 31.5911 -5.27135}
		rot			{0.989674 1.7858e-002 0.139444 -2.79453e-002}
		
		bone 	"Bake_LFootJoint"
		pos			{-1.01281 -88.9406 -17.4875}
		rot			{0.983384 -5.17699e-002 -3.86714e-002 -0.169646}
		
		bone 	"Bake_RFootJoint"
		pos			{1.01277 88.9408 17.4875}
		rot			{0.997813 -1.35508e-002 3.50394e-002 5.43911e-002}
		
		bone 	"Bake_RArmJoint"
		pos			{-19.6696 -7.15149 -2.14289}
		rot			{5.67244e-002 0.845587 0.528604 -4.8407e-002}
		
		bone 	"Bake_LArmJoint"
		pos			{19.4833 -7.55507 -2.14288}
		rot			{0.699539 0.239471 0.193198 -0.64496}
		
		bone 	"Bake_RToeJoint"
		pos			{-3.56224 13.9947 -19.4816}
		rot			{1. 0. 0. 0.}
		
		bone 	"Bake_HeadJoint"
		pos			{-0.447655 10.0592 -0.213579}
		rot			{0.921668 -0.110343 -0.367379 5.81891e-002}
		
		bone 	"Bake_LToeJoint"
		pos			{3.56225 -13.9948 19.4816}
		rot			{0.975612 -0.219502 0. 0.}
		
		bone 	"Bake_LElbowJoint"
		pos			{42.3171 0.912694 -3.2219}
		rot			{0.472552 -7.89219e-002 -0.876331 -5.00979e-002}
		
		bone 	"Bake_RElbowJoint"
		pos			{-42.2763 -0.990979 6.52934}
		rot			{0.382652 -0.131434 -0.911231 -7.72072e-002}
		
		bone 	"Bake_RWristJoint"
		pos			{-50.1445 0.692473 2.14966}
		rot			{0.916893 -0.283992 -0.197821 -0.198803}
		
		bone 	"Bake_LWristJoint"
		pos			{45.8286 -0.158446 -0.641449}
		rot			{0.719748 0.692325 5.0134e-002 1.16654e-002}
		
		bone 	"Bake_RHandJoint"
		pos			{-17.4849 -0.540389 -3.5306}
		rot			{0.672545 0. 0. -0.740056}
		
		bone 	"Bake_LHandJoint"
		pos			{17.2019 0.366814 1.97759}
		rot			{0.881227 -7.20145e-003 4.03769e-002 -0.47091}
		
		bone 	"Bake_LIndexJoint1"
		pos			{12.2418 -1.31958 7.40454}
		rot			{0.971938 -2.27508e-002 -0.208823 -0.10589}
		
		bone 	"Bake_RIndexJoint1"
		pos			{-9.08339 1.40164 -8.94563}
		rot			{0.959538 0. -0.28158 0.}
		
		bone 	"Bake_LIndex2"
		pos			{6.17497 -0.574751 0.664665}
		rot			{0.977689 1.25744e-004 0.210058 5.85257e-004}
		
		bone 	"Bake_RIndexJoint2"
		pos			{-3.15429 1.28809 -5.86307e-002}
		rot			{1. 0. 0. 0.}
	}
	
	// Keyframe# 4
	CIwAnimKeyFrame
	{
		time 	1.e-001
		
		bone 	"Bake_Root"
		pos			{-0.48976 150.384 -11.0175}
		rot			{0.887784 2.0232e-002 0.459805 3.1652e-003}
		
		bone 	"Bake_LHipJoint"
		pos			{10.2572 -0.750527 -4.7124e-002}
		rot			{0.471788 6.74525e-003 -0.869447 0.146398}
		
		bone 	"Bake_LowerChestJoint"
		pos			{0.950914 18.3459 3.38756}
		rot			{0.975553 0.142362 -0.157584 5.65331e-002}
		
		bone 	"Bake_RHipJoint"
		pos			{-9.27856 -0.750547 -4.71226e-002}
		rot			{0.221665 0.900728 -0.352355 -0.124099}
		
		bone 	"Bake_RkneeJoint"
		pos			{0.14961 67.5664 1.8204}
		rot			{0.70233 0.276063 0.595801 -0.274851}
		
		bone 	"Bake_LkneeJoint"
		pos			{-0.149599 -67.5665 -1.82043}
		rot			{0.720952 0.224144 0.61656 -0.223254}
		
		bone 	"Bake_UpperChestJoint"
		pos			{7.32747e-015 24.7866 -7.5982}
		rot			{0.994374 -3.77684e-002 -9.35802e-002 3.21917e-002}
		
		bone 	"Bake_NeckJoint"
		pos			{-7.10543e-015 31.5911 -5.27135}
		rot			{0.989674 1.7858e-002 0.139444 -2.79453e-002}
		
		bone 	"Bake_LFootJoint"
		pos			{-1.01281 -88.9406 -17.4875}
		rot			{0.9812 -7.92769e-002 1.85457e-002 -0.174981}
		
		bone 	"Bake_RFootJoint"
		pos			{1.01277 88.9408 17.4875}
		rot			{0.993969 2.86701e-003 3.2528e-002 0.104691}
		
		bone 	"Bake_RArmJoint"
		pos			{-19.6696 -7.15149 -2.14289}
		rot			{2.52037e-002 0.829559 0.555346 -5.27997e-002}
		
		bone 	"Bake_LArmJoint"
		pos			{19.4833 -7.55507 -2.14288}
		rot			{0.719329 0.196174 0.17185 -0.643855}
		
		bone 	"Bake_RToeJoint"
		pos			{-3.56224 13.9947 -19.4816}
		rot			{1. 0. 0. 0.}
		
		bone 	"Bake_HeadJoint"
		pos			{-0.447655 10.0592 -0.213579}
		rot			{0.918327 -0.106184 -0.374292 7.28432e-002}
		
		bone 	"Bake_LToeJoint"
		pos			{3.56225 -13.9948 19.4816}
		rot			{0.975612 -0.219502 0. 0.}
		
		bone 	"Bake_LElbowJoint"
		pos			{42.3171 0.912694 -3.2219}
		rot			{0.534352 -7.12596e-002 -0.840696 -5.11905e-002}
		
		bone 	"Bake_RElbowJoint"
		pos			{-42.2763 -0.990979 6.52934}
		rot			{0.417162 -0.125997 -0.89661 -7.86778e-002}
		
		bone 	"Bake_RWristJoint"
		pos			{-50.1445 0.692473 2.14966}
		rot			{0.911312 -0.236387 -0.248763 -0.227485}
		
		bone 	"Bake_LWristJoint"
		pos			{45.8286 -0.158446 -0.641449}
		rot			{0.73531 0.676808 2.35203e-002 2.63985e-002}
		
		bone 	"Bake_RHandJoint"
		pos			{-17.4849 -0.540389 -3.5306}
		rot			{0.672545 0. 0. -0.740056}
		
		bone 	"Bake_LHandJoint"
		pos			{17.2019 0.366814 1.97759}
		rot			{0.881227 -7.20145e-003 4.03769e-002 -0.47091}
		
		bone 	"Bake_LIndexJoint1"
		pos			{12.2418 -1.31958 7.40454}
		rot			{0.971938 -2.27508e-002 -0.208823 -0.10589}
		
		bone 	"Bake_RIndexJoint1"
		pos			{-9.08339 1.40164 -8.94563}
		rot			{0.959538 0. -0.28158 0.}
		
		bone 	"Bake_LIndex2"
		pos			{6.17497 -0.574751 0.664665}
		rot			{0.977689 1.25744e-004 0.210058 5.85257e-004}
		
		bone 	"Bake_RIndexJoint2"
		pos			{-3.15429 1.28809 -5.86307e-002}
		rot			{1. 0. 0. 0.}
	}
	
	// Keyframe# 5
	CIwAnimKeyFrame
	{
		time 	0.133333
		
		bone 	"Bake_Root"
		pos			{-0.48976 147.62 -11.0175}
		rot			{0.887744 2.09277e-002 0.459848 3.42943e-003}
		
		bone 	"Bake_LHipJoint"
		pos			{10.2572 -0.750527 -4.7124e-002}
		rot			{0.399476 4.28755e-003 -0.900126 0.173705}
		
		bone 	"Bake_LowerChestJoint"
		pos			{0.950914 18.3459 3.38756}
		rot			{0.973658 0.152073 -0.158783 6.04244e-002}
		
		bone 	"Bake_RHipJoint"
		pos			{-9.27856 -0.750547 -4.71226e-002}
		rot			{0.257204 0.900122 -0.33513 -0.106364}
		
		bone 	"Bake_RkneeJoint"
		pos			{0.14961 67.5664 1.8204}
		rot			{0.70184 0.277176 0.595345 -0.275966}
		
		bone 	"Bake_LkneeJoint"
		pos			{-0.149599 -67.5665 -1.82043}
		rot			{0.715153 0.240158 0.611242 -0.239297}
		
		bone 	"Bake_UpperChestJoint"
		pos			{1.22125e-014 24.7866 -7.5982}
		rot			{0.99493 -3.47617e-002 -8.92017e-002 3.08063e-002}
		
		bone 	"Bake_NeckJoint"
		pos			{-1.57652e-014 31.5911 -5.27135}
		rot			{0.989674 1.7858e-002 0.139444 -2.79453e-002}
		
		bone 	"Bake_LFootJoint"
		pos			{-1.01281 -88.9406 -17.4875}
		rot			{0.965613 -9.13812e-002 6.96457e-002 -0.233218}
		
		bone 	"Bake_RFootJoint"
		pos			{1.01277 88.9408 17.4875}
		rot			{0.988583 -2.29895e-003 3.09697e-002 0.147441}
		
		bone 	"Bake_RArmJoint"
		pos			{-19.6696 -7.15149 -2.14289}
		rot			{5.33208e-003 0.823776 0.564539 -5.15738e-002}
		
		bone 	"Bake_LArmJoint"
		pos			{19.4833 -7.55507 -2.14288}
		rot			{0.734384 0.157291 0.152031 -0.642516}
		
		bone 	"Bake_RToeJoint"
		pos			{-3.56224 13.9947 -19.4816}
		rot			{1. 0. 0. 0.}
		
		bone 	"Bake_HeadJoint"
		pos			{-0.447655 10.0592 -0.213579}
		rot			{0.914885 -0.102024 -0.380647 8.76595e-002}
		
		bone 	"Bake_LToeJoint"
		pos			{3.56225 -13.9948 19.4816}
		rot			{0.975612 -0.219502 0. 0.}
		
		bone 	"Bake_LElbowJoint"
		pos			{42.3171 0.912694 -3.2219}
		rot			{0.588111 -6.43593e-002 -0.80458 -5.13313e-002}
		
		bone 	"Bake_RElbowJoint"
		pos			{-42.2763 -0.990979 6.52934}
		rot			{0.427228 -0.124377 -0.892054 -7.90346e-002}
		
		bone 	"Bake_RWristJoint"
		pos			{-50.1445 0.692473 2.14966}
		rot			{0.905828 -0.207409 -0.279923 -0.241039}
		
		bone 	"Bake_LWristJoint"
		pos			{45.8286 -0.158446 -0.641449}
		rot			{0.749442 0.660732 -8.46688e-003 4.12119e-002}
		
		bone 	"Bake_RHandJoint"
		pos			{-17.4849 -0.540389 -3.5306}
		rot			{0.672545 0. 0. -0.740056}
		
		bone 	"Bake_LHandJoint"
		pos			{17.2019 0.366814 1.97759}
		rot			{0.881227 -7.20145e-003 4.03769e-002 -0.47091}
		
		bone 	"Bake_LIndexJoint1"
		pos			{12.2418 -1.31958 7.40454}
		rot			{0.971938 -2.27508e-002 -0.208823 -0.10589}
		
		bone 	"Bake_RIndexJoint1"
		pos			{-9.08339 1.40164 -8.94563}
		rot			{0.959538 0. -0.28158 0.}
		
		bone 	"Bake_LIndex2"
		pos			{6.17497 -0.574751 0.664665}
		rot			{0.977689 1.25744e-004 0.210058 5.85257e-004}
		
		bone 	"Bake_RIndexJoint2"
		pos			{-3.15429 1.28809 -5.86307e-002}
		rot			{1. 0. 0. 0.}
	}
	
	// Keyframe# 6
	CIwAnimKeyFrame
	{
		time 	0.166667
		
		bone 	"Bake_LHipJoint"
		pos			{10.2572 -0.750527 -4.7124e-002}
		rot			{0.348474 1.09737e-002 -0.910291 0.223196}
		
		bone 	"Bake_LowerChestJoint"
		pos			{0.950914 18.3459 3.38756}
		rot			{0.972128 0.159532 -0.159664 6.34354e-002}
		
		bone 	"Bake_RHipJoint"
		pos			{-9.27856 -0.750547 -4.71226e-002}
		rot			{0.286751 0.886215 -0.353685 -8.54581e-002}
		
		bone 	"Bake_RkneeJoint"
		pos			{0.14961 67.5664 1.8204}
		rot			{0.686429 0.309837 0.580968 -0.308694}
		
		bone 	"Bake_LkneeJoint"
		pos			{-0.149599 -67.5665 -1.82043}
		rot			{0.708882 0.256253 0.605459 -0.255421}
		
		bone 	"Bake_UpperChestJoint"
		pos			{-8.88178e-016 24.7866 -7.5982}
		rot			{0.995337 -3.24424e-002 -8.5839e-002 2.97213e-002}
		
		bone 	"Bake_NeckJoint"
		pos			{-2.22045e-015 31.5911 -5.27135}
		rot			{0.989674 1.7858e-002 0.139444 -2.79453e-002}
		
		bone 	"Bake_LFootJoint"
		pos			{-1.01281 -88.9406 -17.4875}
		rot			{0.945469 -0.100383 8.07057e-002 -0.299164}
		
		bone 	"Bake_RFootJoint"
		pos			{1.01277 88.9408 17.4875}
		rot			{0.983516 -2.17804e-002 3.33496e-002 0.176379}
		
		bone 	"Bake_RArmJoint"
		pos			{-19.6696 -7.15149 -2.14289}
		rot			{4.57485e-003 -0.833512 -0.550066 5.16165e-002}
		
		bone 	"Bake_LArmJoint"
		pos			{19.4833 -7.55507 -2.14288}
		rot			{0.742414 0.141721 0.151117 -0.637103}
		
		bone 	"Bake_RToeJoint"
		pos			{-3.56224 13.9947 -19.4816}
		rot			{1. 0. 0. 0.}
		
		bone 	"Bake_HeadJoint"
		pos			{-0.447655 10.0592 -0.213579}
		rot			{0.912173 -9.88236e-002 -0.385153 9.91549e-002}
		
		bone 	"Bake_LToeJoint"
		pos			{3.56225 -13.9948 19.4816}
		rot			{0.975612 -0.219502 0. 0.}
		
		bone 	"Bake_LElbowJoint"
		pos			{42.3171 0.912694 -3.2219}
		rot			{0.587896 -6.43874e-002 -0.804735 -5.13323e-002}
		
		bone 	"Bake_RElbowJoint"
		pos			{-42.2763 -0.990979 6.52934}
		rot			{0.402557 -0.12832 -0.902985 -7.81018e-002}
		
		bone 	"Bake_RWristJoint"
		pos			{-50.1445 0.692473 2.14966}
		rot			{0.911417 -0.204431 -0.276334 -0.226199}
		
		bone 	"Bake_LWristJoint"
		pos			{45.8286 -0.158446 -0.641449}
		rot			{0.758542 0.650702 -1.42719e-002 3.15866e-002}
		
		bone 	"Bake_RHandJoint"
		pos			{-17.4849 -0.540389 -3.5306}
		rot			{0.672545 0. 0. -0.740056}
		
		bone 	"Bake_LHandJoint"
		pos			{17.2019 0.366814 1.97759}
		rot			{0.881227 -7.20145e-003 4.03769e-002 -0.47091}
		
		bone 	"Bake_LIndexJoint1"
		pos			{12.2418 -1.31958 7.40454}
		rot			{0.971938 -2.27508e-002 -0.208823 -0.10589}
		
		bone 	"Bake_RIndexJoint1"
		pos			{-9.08339 1.40164 -8.94563}
		rot			{0.959538 0. -0.28158 0.}
		
		bone 	"Bake_LIndex2"
		pos			{6.17497 -0.574751 0.664665}
		rot			{0.977689 1.25744e-004 0.210058 5.85257e-004}
		
		bone 	"Bake_RIndexJoint2"
		pos			{-3.15429 1.28809 -5.86307e-002}
		rot			{1. 0. 0. 0.}
	}
	
	// Keyframe# 7
	CIwAnimKeyFrame
	{
		time 	0.2
		
		bone 	"Bake_Root"
		pos			{-0.48976 135.852 -11.0175}
		rot			{0.887457 2.54881e-002 0.460156 5.15949e-003}
		
		bone 	"Bake_LHipJoint"
		pos			{10.2572 -0.750527 -4.7124e-002}
		rot			{0.342613 -1.66774e-002 -0.91041 0.231284}
		
		bone 	"Bake_LowerChestJoint"
		pos			{0.950914 18.3459 3.38756}
		rot			{0.971498 0.162513 -0.160006 6.4644e-002}
		
		bone 	"Bake_RHipJoint"
		pos			{-9.27856 -0.750547 -4.71226e-002}
		rot			{0.281258 0.858544 -0.420832 -8.18369e-002}
		
		bone 	"Bake_RkneeJoint"
		pos			{0.14961 67.5664 1.8204}
		rot			{0.654722 0.366308 0.551115 -0.365281}
		
		bone 	"Bake_LkneeJoint"
		pos			{-0.149599 -67.5665 -1.82043}
		rot			{0.691934 0.294897 0.589703 -0.294133}
		
		bone 	"Bake_UpperChestJoint"
		pos			{9.76996e-015 24.7866 -7.5982}
		rot			{0.995495 -3.15131e-002 -8.44953e-002 2.92827e-002}
		
		bone 	"Bake_NeckJoint"
		pos			{-3.55271e-015 31.5911 -5.27135}
		rot			{0.989674 1.7858e-002 0.139444 -2.79453e-002}
		
		bone 	"Bake_LFootJoint"
		pos			{-1.01281 -88.9406 -17.4875}
		rot			{0.942295 -0.13171 7.17311e-002 -0.299311}
		
		bone 	"Bake_RFootJoint"
		pos			{1.01277 88.9408 17.4875}
		rot			{0.986107 -4.61663e-002 4.24567e-002 0.153813}
		
		bone 	"Bake_RArmJoint"
		pos			{-19.6696 -7.15149 -2.14289}
		rot			{1.42793e-002 -0.846574 -0.530311 4.33434e-002}
		
		bone 	"Bake_LArmJoint"
		pos			{19.4833 -7.55507 -2.14288}
		rot			{0.744218 0.145774 0.165816 -0.630393}
		
		bone 	"Bake_RToeJoint"
		pos			{-3.56224 13.9947 -19.4816}
		rot			{1. 0. 0. 0.}
		
		bone 	"Bake_HeadJoint"
		pos			{-0.447655 10.0592 -0.213579}
		rot			{0.911073 -9.75437e-002 -0.386862 0.103775}
		
		bone 	"Bake_LToeJoint"
		pos			{3.56225 -13.9948 19.4816}
		rot			{0.975612 -0.219502 0. 0.}
		
		bone 	"Bake_LElbowJoint"
		pos			{42.3171 0.912694 -3.2219}
		rot			{0.552305 -6.89789e-002 -0.829197 -5.13249e-002}
		
		bone 	"Bake_RElbowJoint"
		pos			{-42.2763 -0.990979 6.52934}
		rot			{0.379347 -0.131946 -0.912552 -7.70465e-002}
		
		bone 	"Bake_RWristJoint"
		pos			{-50.1445 0.692473 2.14966}
		rot			{0.913863 -0.210287 -0.277069 -0.209444}
		
		bone 	"Bake_LWristJoint"
		pos			{45.8286 -0.158446 -0.641449}
		rot			{0.7632 0.646103 -1.93789e-003 8.57455e-003}
		
		bone 	"Bake_RHandJoint"
		pos			{-17.4849 -0.540389 -3.5306}
		rot			{0.672545 0. 0. -0.740056}
		
		bone 	"Bake_LHandJoint"
		pos			{17.2019 0.366814 1.97759}
		rot			{0.881227 -7.20145e-003 4.03769e-002 -0.47091}
		
		bone 	"Bake_LIndexJoint1"
		pos			{12.2418 -1.31958 7.40454}
		rot			{0.971938 -2.27508e-002 -0.208823 -0.10589}
		
		bone 	"Bake_RIndexJoint1"
		pos			{-9.08339 1.40164 -8.94563}
		rot			{0.959538 0. -0.28158 0.}
		
		bone 	"Bake_LIndex2"
		pos			{6.17497 -0.574751 0.664665}
		rot			{0.977689 1.25744e-004 0.210058 5.85257e-004}
		
		bone 	"Bake_RIndexJoint2"
		pos			{-3.15429 1.28809 -5.86307e-002}
		rot			{1. 0. 0. 0.}
	}
	
	// Keyframe# 8
	CIwAnimKeyFrame
	{
		time 	0.233333
		
		bone 	"Bake_Root"
		pos			{-0.48976 133.747 -11.0175}
		rot			{0.887227 2.86824e-002 0.460397 6.36898e-003}
		
		bone 	"Bake_LHipJoint"
		pos			{10.2572 -0.750527 -4.7124e-002}
		rot			{0.354589 -4.036e-002 -0.908825 0.216044}
		
		bone 	"Bake_LowerChestJoint"
		pos			{0.950914 18.3459 3.38756}
		rot			{0.972128 0.159532 -0.159664 6.34354e-002}
		
		bone 	"Bake_RHipJoint"
		pos			{-9.27856 -0.750547 -4.71226e-002}
		rot			{0.235372 0.831713 -0.490465 -0.110896}
		
		bone 	"Bake_RkneeJoint"
		pos			{0.14961 67.5664 1.8204}
		rot			{0.631208 0.40168 0.528816 -0.400728}
		
		bone 	"Bake_LkneeJoint"
		pos			{-0.149599 -67.5665 -1.82043}
		rot			{0.682295 0.314439 0.580679 -0.31371}
		
		bone 	"Bake_UpperChestJoint"
		pos			{7.10543e-015 24.7866 -7.5982}
		rot			{0.995337 -3.24424e-002 -8.5839e-002 2.97213e-002}
		
		bone 	"Bake_NeckJoint"
		pos			{4.44089e-016 31.5911 -5.27135}
		rot			{0.989674 1.7858e-002 0.139444 -2.79453e-002}
		
		bone 	"Bake_LFootJoint"
		pos			{-1.01281 -88.9406 -17.4875}
		rot			{0.947158 -0.151078 6.92674e-002 -0.274351}
		
		bone 	"Bake_RFootJoint"
		pos			{1.01277 88.9408 17.4875}
		rot			{0.994094 -5.50245e-002 4.81111e-002 8.02163e-002}
		
		bone 	"Bake_RArmJoint"
		pos			{-19.6696 -7.15149 -2.14289}
		rot			{2.29395e-002 -0.851158 -0.524016 2.02812e-002}
		
		bone 	"Bake_LArmJoint"
		pos			{19.4833 -7.55507 -2.14288}
		rot			{0.736999 0.163136 0.187376 -0.628577}
		
		bone 	"Bake_RToeJoint"
		pos			{-3.56224 13.9947 -19.4816}
		rot			{1. 0. 0. 0.}
		
		bone 	"Bake_HeadJoint"
		pos			{-0.447655 10.0592 -0.213579}
		rot			{0.912173 -9.88236e-002 -0.385153 9.91549e-002}
		
		bone 	"Bake_LToeJoint"
		pos			{3.56225 -13.9948 19.4816}
		rot			{0.975612 -0.219502 0. 0.}
		
		bone 	"Bake_LElbowJoint"
		pos			{42.3171 0.912694 -3.2219}
		rot			{0.504677 -7.49759e-002 -0.858546 -5.07848e-002}
		
		bone 	"Bake_RElbowJoint"
		pos			{-42.2763 -0.990979 6.52934}
		rot			{0.373959 -0.132775 -0.914675 -7.67773e-002}
		
		bone 	"Bake_RWristJoint"
		pos			{-50.1445 0.692473 2.14966}
		rot			{0.905937 -0.219323 -0.292199 -0.213999}
		
		bone 	"Bake_LWristJoint"
		pos			{45.8286 -0.158446 -0.641449}
		rot			{0.759749 0.649833 1.61722e-002 -1.53968e-002}
		
		bone 	"Bake_RHandJoint"
		pos			{-17.4849 -0.540389 -3.5306}
		rot			{0.672545 0. 0. -0.740056}
		
		bone 	"Bake_LHandJoint"
		pos			{17.2019 0.366814 1.97759}
		rot			{0.881227 -7.20145e-003 4.03769e-002 -0.47091}
		
		bone 	"Bake_LIndexJoint1"
		pos			{12.2418 -1.31958 7.40454}
		rot			{0.971938 -2.27508e-002 -0.208823 -0.10589}
		
		bone 	"Bake_RIndexJoint1"
		pos			{-9.08339 1.40164 -8.94563}
		rot			{0.959538 0. -0.28158 0.}
		
		bone 	"Bake_LIndex2"
		pos			{6.17497 -0.574751 0.664665}
		rot			{0.977689 1.25744e-004 0.210058 5.85257e-004}
		
		bone 	"Bake_RIndexJoint2"
		pos			{-3.15429 1.28809 -5.86307e-002}
		rot			{1. 0. 0. 0.}
	}
	
	// Keyframe# 9
	CIwAnimKeyFrame
	{
		time 	0.266667
		
		bone 	"Bake_Root"
		pos			{-0.48976 136.863 -11.0175}
		rot			{0.886958 3.20399e-002 0.460675 7.63803e-003}
		
		bone 	"Bake_LHipJoint"
		pos			{10.2572 -0.750527 -4.7124e-002}
		rot			{0.36804 -3.81123e-002 -0.907941 0.196819}
		
		bone 	"Bake_LowerChestJoint"
		pos			{0.950914 18.3459 3.38756}
		rot			{0.973658 0.152073 -0.158783 6.04244e-002}
		
		bone 	"Bake_RHipJoint"
		pos			{-9.27856 -0.750547 -4.71226e-002}
		rot			{0.172222 0.826897 -0.510324 -0.161707}
		
		bone 	"Bake_RkneeJoint"
		pos			{0.14961 67.5664 1.8204}
		rot			{0.640066 0.388884 0.537229 -0.387905}
		
		bone 	"Bake_LkneeJoint"
		pos			{-0.149599 -67.5665 -1.82043}
		rot			{0.691285 0.296259 0.589097 -0.295498}
		
		bone 	"Bake_UpperChestJoint"
		pos			{-1.33227e-015 24.7866 -7.5982}
		rot			{0.99493 -3.47617e-002 -8.92017e-002 3.08063e-002}
		
		bone 	"Bake_NeckJoint"
		pos			{7.10543e-015 31.5911 -5.27135}
		rot			{0.989674 1.7858e-002 0.139444 -2.79453e-002}
		
		bone 	"Bake_LFootJoint"
		pos			{-1.01281 -88.9406 -17.4875}
		rot			{0.954141 -0.13847 7.58156e-002 -0.254348}
		
		bone 	"Bake_RFootJoint"
		pos			{1.01277 88.9408 17.4875}
		rot			{0.997623 -4.22657e-002 5.42746e-002 -3.96119e-003}
		
		bone 	"Bake_RArmJoint"
		pos			{-19.6696 -7.15149 -2.14289}
		rot			{2.57485e-002 -0.842903 -0.537327 -1.14435e-002}
		
		bone 	"Bake_LArmJoint"
		pos			{19.4833 -7.55507 -2.14288}
		rot			{0.722477 0.185976 0.203054 -0.6342}
		
		bone 	"Bake_RToeJoint"
		pos			{-3.56224 13.9947 -19.4816}
		rot			{1. 0. 0. 0.}
		
		bone 	"Bake_HeadJoint"
		pos			{-0.447655 10.0592 -0.213579}
		rot			{0.914885 -0.102024 -0.380647 8.76595e-002}
		
		bone 	"Bake_LToeJoint"
		pos			{3.56225 -13.9948 19.4816}
		rot			{0.975612 -0.219502 0. 0.}
		
		bone 	"Bake_LElbowJoint"
		pos			{42.3171 0.912694 -3.2219}
		rot			{0.473473 -7.881e-002 -0.875843 -5.01211e-002}
		
		bone 	"Bake_RElbowJoint"
		pos			{-42.2763 -0.990979 6.52934}
		rot			{0.387571 -0.13067 -0.90924 -7.74399e-002}
		
		bone 	"Bake_RWristJoint"
		pos			{-50.1445 0.692473 2.14966}
		rot			{0.888743 -0.227455 -0.31401 -0.244535}
		
		bone 	"Bake_LWristJoint"
		pos			{45.8286 -0.158446 -0.641449}
		rot			{0.748668 0.661961 2.64347e-002 -2.4603e-002}
		
		bone 	"Bake_RHandJoint"
		pos			{-17.4849 -0.540389 -3.5306}
		rot			{0.672545 0. 0. -0.740056}
		
		bone 	"Bake_LHandJoint"
		pos			{17.2019 0.366814 1.97759}
		rot			{0.881227 -7.20145e-003 4.03769e-002 -0.47091}
		
		bone 	"Bake_LIndexJoint1"
		pos			{12.2418 -1.31958 7.40454}
		rot			{0.971938 -2.27508e-002 -0.208823 -0.10589}
		
		bone 	"Bake_RIndexJoint1"
		pos			{-9.08339 1.40164 -8.94563}
		rot			{0.959538 0. -0.28158 0.}
		
		bone 	"Bake_LIndex2"
		pos			{6.17497 -0.574751 0.664665}
		rot			{0.977689 1.25744e-004 0.210058 5.85257e-004}
		
		bone 	"Bake_RIndexJoint2"
		pos			{-3.15429 1.28809 -5.86307e-002}
		rot			{1. 0. 0. 0.}
	}
	
	// Keyframe# 10
	CIwAnimKeyFrame
	{
		time 	0.3
		
		bone 	"Bake_Root"
		pos			{-0.48976 143.022 -11.0175}
		rot			{0.886678 3.52274e-002 0.46096 8.84054e-003}
		
		bone 	"Bake_LHipJoint"
		pos			{10.2572 -0.750527 -4.7124e-002}
		rot			{0.410628 -2.05466e-002 -0.890777 0.193595}
		
		bone 	"Bake_LowerChestJoint"
		pos			{0.950914 18.3459 3.38756}
		rot			{0.975553 0.142362 -0.157584 5.65331e-002}
		
		bone 	"Bake_RHipJoint"
		pos			{-9.27856 -0.750547 -4.71226e-002}
		rot			{0.133587 0.84408 -0.483691 -0.189015}
		
		bone 	"Bake_RkneeJoint"
		pos			{0.14961 67.5664 1.8204}
		rot			{0.666559 0.3466 0.562295 -0.345532}
		
		bone 	"Bake_LkneeJoint"
		pos			{-0.149599 -67.5665 -1.82043}
		rot			{0.708641 0.25685 0.605236 -0.256018}
		
		bone 	"Bake_UpperChestJoint"
		pos			{5.55112e-015 24.7866 -7.5982}
		rot			{0.994374 -3.77684e-002 -9.35802e-002 3.21917e-002}
		
		bone 	"Bake_NeckJoint"
		pos			{-1.9984e-015 31.5911 -5.27135}
		rot			{0.989674 1.7858e-002 0.139444 -2.79453e-002}
		
		bone 	"Bake_LFootJoint"
		pos			{-1.01281 -88.9406 -17.4875}
		rot			{0.965789 -9.92796e-002 4.86692e-002 -0.234576}
		
		bone 	"Bake_RFootJoint"
		pos			{1.01277 88.9408 17.4875}
		rot			{0.997211 -1.97137e-002 5.89817e-002 -4.12715e-002}
		
		bone 	"Bake_RArmJoint"
		pos			{-19.6696 -7.15149 -2.14289}
		rot			{1.29682e-002 -0.838293 -0.544406 -2.68076e-002}
		
		bone 	"Bake_LArmJoint"
		pos			{19.4833 -7.55507 -2.14288}
		rot			{0.7055 0.214068 0.211973 -0.641492}
		
		bone 	"Bake_RToeJoint"
		pos			{-3.56224 13.9947 -19.4816}
		rot			{1. 0. 0. 0.}
		
		bone 	"Bake_HeadJoint"
		pos			{-0.447655 10.0592 -0.213579}
		rot			{0.918327 -0.106184 -0.374292 7.28432e-002}
		
		bone 	"Bake_LToeJoint"
		pos			{3.56225 -13.9948 19.4816}
		rot			{0.975612 -0.219502 0. 0.}
		
		bone 	"Bake_LElbowJoint"
		pos			{42.3171 0.912694 -3.2219}
		rot			{0.455339 -8.10023e-002 -0.885236 -4.96275e-002}
		
		bone 	"Bake_RElbowJoint"
		pos			{-42.2763 -0.990979 6.52934}
		rot			{0.384971 -0.131075 -0.910296 -7.73178e-002}
		
		bone 	"Bake_RWristJoint"
		pos			{-50.1445 0.692473 2.14966}
		rot			{0.8847 -0.246493 -0.299697 -0.25832}
		
		bone 	"Bake_LWristJoint"
		pos			{45.8286 -0.158446 -0.641449}
		rot			{0.734517 0.677531 3.24141e-002 -1.96151e-002}
		
		bone 	"Bake_RHandJoint"
		pos			{-17.4849 -0.540389 -3.5306}
		rot			{0.672545 0. 0. -0.740056}
		
		bone 	"Bake_LHandJoint"
		pos			{17.2019 0.366814 1.97759}
		rot			{0.881227 -7.20145e-003 4.03769e-002 -0.47091}
		
		bone 	"Bake_LIndexJoint1"
		pos			{12.2418 -1.31958 7.40454}
		rot			{0.971938 -2.27508e-002 -0.208823 -0.10589}
		
		bone 	"Bake_RIndexJoint1"
		pos			{-9.08339 1.40164 -8.94563}
		rot			{0.959538 0. -0.28158 0.}
		
		bone 	"Bake_LIndex2"
		pos			{6.17497 -0.574751 0.664665}
		rot			{0.977689 1.25744e-004 0.210058 5.85257e-004}
		
		bone 	"Bake_RIndexJoint2"
		pos			{-3.15429 1.28809 -5.86307e-002}
		rot			{1. 0. 0. 0.}
	}
	
	// Keyframe# 11
	CIwAnimKeyFrame
	{
		time 	0.333333
		
		bone 	"Bake_Root"
		pos			{-0.48976 150.078 -11.0175}
		rot			{0.886423 3.79131e-002 0.461217 9.85192e-003}
		
		bone 	"Bake_LHipJoint"
		pos			{10.2572 -0.750527 -4.7124e-002}
		rot			{0.484369 2.58071e-003 -0.854788 0.186328}
		
		bone 	"Bake_LowerChestJoint"
		pos			{0.950914 18.3459 3.38756}
		rot			{0.977342 0.132637 -0.156323 5.26685e-002}
		
		bone 	"Bake_RHipJoint"
		pos			{-9.27856 -0.750547 -4.71226e-002}
		rot			{0.120373 0.869668 -0.438894 -0.191207}
		
		bone 	"Bake_RkneeJoint"
		pos			{0.14961 67.5664 1.8204}
		rot			{0.693652 0.295062 0.58772 -0.293888}
		
		bone 	"Bake_LkneeJoint"
		pos			{-0.149599 -67.5665 -1.82043}
		rot			{0.726341 0.208068 0.62147 -0.20715}
		
		bone 	"Bake_UpperChestJoint"
		pos			{1.08802e-014 24.7866 -7.5982}
		rot			{0.993788 -4.07654e-002 -9.79663e-002 3.35486e-002}
		
		bone 	"Bake_NeckJoint"
		pos			{-6.66134e-015 31.5911 -5.27135}
		rot			{0.989674 1.7858e-002 0.139444 -2.79453e-002}
		
		bone 	"Bake_LFootJoint"
		pos			{-1.01281 -88.9406 -17.4875}
		rot			{0.977885 -5.146e-002 -1.02492e-002 -0.202456}
		
		bone 	"Bake_RFootJoint"
		pos			{1.01277 88.9408 17.4875}
		rot			{0.997563 6.28296e-003 5.67811e-002 -4.00646e-002}
		
		bone 	"Bake_RArmJoint"
		pos			{-19.6696 -7.15149 -2.14289}
		rot			{1.78505e-002 0.842145 0.538623 1.89601e-002}
		
		bone 	"Bake_LArmJoint"
		pos			{19.4833 -7.55507 -2.14288}
		rot			{0.691354 0.243679 0.213989 -0.645646}
		
		bone 	"Bake_RToeJoint"
		pos			{-3.56224 13.9947 -19.4816}
		rot			{1. 0. 0. 0.}
		
		bone 	"Bake_HeadJoint"
		pos			{-0.447655 10.0592 -0.213579}
		rot			{0.921668 -0.110343 -0.367379 5.81891e-002}
		
		bone 	"Bake_LToeJoint"
		pos			{3.56225 -13.9948 19.4816}
		rot			{0.975612 -0.219502 0. 0.}
		
		bone 	"Bake_LElbowJoint"
		pos			{42.3171 0.912694 -3.2219}
		rot			{0.4475 -8.19418e-002 -0.889151 -4.93901e-002}
		
		bone 	"Bake_RElbowJoint"
		pos			{-42.2763 -0.990979 6.52934}
		rot			{0.363626 -0.134355 -0.918647 -7.62356e-002}
		
		bone 	"Bake_RWristJoint"
		pos			{-50.1445 0.692473 2.14966}
		rot			{0.895741 -0.278007 -0.246657 -0.243967}
		
		bone 	"Bake_LWristJoint"
		pos			{45.8286 -0.158446 -0.641449}
		rot			{0.722215 0.690659 3.71926e-002 -3.40076e-003}
		
		bone 	"Bake_RHandJoint"
		pos			{-17.4849 -0.540389 -3.5306}
		rot			{0.672545 0. 0. -0.740056}
		
		bone 	"Bake_LHandJoint"
		pos			{17.2019 0.366814 1.97759}
		rot			{0.881227 -7.20145e-003 4.03769e-002 -0.47091}
		
		bone 	"Bake_LIndexJoint1"
		pos			{12.2418 -1.31958 7.40454}
		rot			{0.971938 -2.27508e-002 -0.208823 -0.10589}
		
		bone 	"Bake_RIndexJoint1"
		pos			{-9.08339 1.40164 -8.94563}
		rot			{0.959538 0. -0.28158 0.}
		
		bone 	"Bake_LIndex2"
		pos			{6.17497 -0.574751 0.664665}
		rot			{0.977689 1.25744e-004 0.210058 5.85257e-004}
		
		bone 	"Bake_RIndexJoint2"
		pos			{-3.15429 1.28809 -5.86307e-002}
		rot			{1. 0. 0. 0.}
	}
	
	// Keyframe# 12
	CIwAnimKeyFrame
	{
		time 	0.366667
		
		bone 	"Bake_Root"
		pos			{-0.48976 155.885 -11.0175}
		rot			{0.886236 3.97665e-002 0.461403 1.05489e-002}
		
		bone 	"Bake_LHipJoint"
		pos			{10.2572 -0.750527 -4.7124e-002}
		rot			{0.546107 3.04976e-002 -0.820307 0.167135}
		
		bone 	"Bake_LowerChestJoint"
		pos			{0.950914 18.3459 3.38756}
		rot			{0.978645 0.125146 -0.155311 4.97145e-002}
		
		bone 	"Bake_RHipJoint"
		pos			{-9.27856 -0.750547 -4.71226e-002}
		rot			{0.108142 0.890946 -0.39633 -0.1935}
		
		bone 	"Bake_RkneeJoint"
		pos			{0.14961 67.5664 1.8204}
		rot			{0.715326 0.244429 0.607816 -0.243153}
		
		bone 	"Bake_LkneeJoint"
		pos			{-0.149599 -67.5665 -1.82043}
		rot			{0.740767 0.156737 0.634387 -0.155727}
		
		bone 	"Bake_UpperChestJoint"
		pos			{4.66294e-015 24.7866 -7.5982}
		rot			{0.993317 -4.30641e-002 -0.101345 3.4573e-002}
		
		bone 	"Bake_NeckJoint"
		pos			{-4.44089e-015 31.5911 -5.27135}
		rot			{0.989674 1.7858e-002 0.139444 -2.79453e-002}
		
		bone 	"Bake_LFootJoint"
		pos			{-1.01281 -88.9406 -17.4875}
		rot			{0.98237 -9.83035e-003 -6.02693e-002 -0.176695}
		
		bone 	"Bake_RFootJoint"
		pos			{1.01277 88.9408 17.4875}
		rot			{0.997131 3.28281e-002 5.56391e-002 -3.94417e-002}
		
		bone 	"Bake_RArmJoint"
		pos			{-19.6696 -7.15149 -2.14289}
		rot			{6.02773e-002 0.851322 0.521164 -2.3773e-003}
		
		bone 	"Bake_LArmJoint"
		pos			{19.4833 -7.55507 -2.14288}
		rot			{0.682834 0.267676 0.211442 -0.646049}
		
		bone 	"Bake_RToeJoint"
		pos			{-3.56224 13.9947 -19.4816}
		rot			{1. 0. 0. 0.}
		
		bone 	"Bake_HeadJoint"
		pos			{-0.447655 10.0592 -0.213579}
		rot			{0.924165 -0.113538 -0.361683 4.70393e-002}
		
		bone 	"Bake_LToeJoint"
		pos			{3.56225 -13.9948 19.4816}
		rot			{0.975612 -0.219502 0. 0.}
		
		bone 	"Bake_LElbowJoint"
		pos			{42.3171 0.912694 -3.2219}
		rot			{0.446258 -8.20901e-002 -0.889764 -4.93512e-002}
		
		bone 	"Bake_RElbowJoint"
		pos			{-42.2763 -0.990979 6.52934}
		rot			{0.346973 -0.136865 -0.924775 -7.5293e-002}
		
		bone 	"Bake_RWristJoint"
		pos			{-50.1445 0.692473 2.14966}
		rot			{0.906056 -0.313528 -0.188786 -0.212423}
		
		bone 	"Bake_LWristJoint"
		pos			{45.8286 -0.158446 -0.641449}
		rot			{0.714495 0.698232 4.16154e-002 1.54334e-002}
		
		bone 	"Bake_RHandJoint"
		pos			{-17.4849 -0.540389 -3.5306}
		rot			{0.672545 0. 0. -0.740056}
		
		bone 	"Bake_LHandJoint"
		pos			{17.2019 0.366814 1.97759}
		rot			{0.881227 -7.20145e-003 4.03769e-002 -0.47091}
		
		bone 	"Bake_LIndexJoint1"
		pos			{12.2418 -1.31958 7.40454}
		rot			{0.971938 -2.27508e-002 -0.208823 -0.10589}
		
		bone 	"Bake_RIndexJoint1"
		pos			{-9.08339 1.40164 -8.94563}
		rot			{0.959538 0. -0.28158 0.}
		
		bone 	"Bake_LIndex2"
		pos			{6.17497 -0.574751 0.664665}
		rot			{0.977689 1.25744e-004 0.210058 5.85257e-004}
		
		bone 	"Bake_RIndexJoint2"
		pos			{-3.15429 1.28809 -5.86307e-002}
		rot			{1. 0. 0. 0.}
	}
	
	// Keyframe# 13
	CIwAnimKeyFrame
	{
		time 	0.4
		
		bone 	"Bake_Root"
		pos			{-0.48976 158.298 -11.0175}
		rot			{0.886165 4.04578e-002 0.461474 1.08086e-002}
		
		bone 	"Bake_LHipJoint"
		pos			{10.2572 -0.750527 -4.7124e-002}
		rot			{0.570823 4.59424e-002 -0.805175 0.154089}
		
		bone 	"Bake_LowerChestJoint"
		pos			{0.950914 18.3459 3.38756}
		rot			{0.979148 0.122148 -0.154896 4.85376e-002}
		
		bone 	"Bake_RHipJoint"
		pos			{-9.27856 -0.750547 -4.71226e-002}
		rot			{0.102487 0.899968 -0.376432 -0.194557}
		
		bone 	"Bake_RkneeJoint"
		pos			{0.14961 67.5664 1.8204}
		rot			{0.724084 0.220262 0.615836 -0.218937}
		
		bone 	"Bake_LkneeJoint"
		pos			{-0.149599 -67.5665 -1.82043}
		rot			{0.746676 0.12993 0.639519 -0.128873}
		
		bone 	"Bake_UpperChestJoint"
		pos			{6.88338e-015 24.7866 -7.5982}
		rot			{0.993124 -4.3982e-002 -0.102698 3.4978e-002}
		
		bone 	"Bake_NeckJoint"
		pos			{-5.4956e-015 31.5911 -5.27135}
		rot			{0.989674 1.7858e-002 0.139444 -2.79453e-002}
		
		bone 	"Bake_LFootJoint"
		pos			{-1.01281 -88.9406 -17.4875}
		rot			{0.982659 9.18058e-003 -7.99316e-002 -0.167057}
		
		bone 	"Bake_RFootJoint"
		pos			{1.01277 88.9408 17.4875}
		rot			{0.996645 4.57616e-002 5.53375e-002 -3.92787e-002}
		
		bone 	"Bake_RArmJoint"
		pos			{-19.6696 -7.15149 -2.14289}
		rot			{8.42791e-002 0.856503 0.508992 -1.50941e-002}
		
		bone 	"Bake_LArmJoint"
		pos			{19.4833 -7.55507 -2.14288}
		rot			{0.680093 0.277481 0.209354 -0.645483}
		
		bone 	"Bake_RToeJoint"
		pos			{-3.56224 13.9947 -19.4816}
		rot			{1. 0. 0. 0.}
		
		bone 	"Bake_HeadJoint"
		pos			{-0.447655 10.0592 -0.213579}
		rot			{0.925146 -0.114815 -0.359313 4.26114e-002}
		
		bone 	"Bake_LToeJoint"
		pos			{3.56225 -13.9948 19.4816}
		rot			{0.975612 -0.219502 0. 0.}
		
		bone 	"Bake_LElbowJoint"
		pos			{42.3171 0.912694 -3.2219}
		rot			{0.446933 -8.20095e-002 -0.889431 -4.93724e-002}
		
		bone 	"Bake_RElbowJoint"
		pos			{-42.2763 -0.990979 6.52934}
		rot			{0.342341 -0.137555 -0.92642 -7.50156e-002}
		
		bone 	"Bake_RWristJoint"
		pos			{-50.1445 0.692473 2.14966}
		rot			{0.908893 -0.331994 -0.162033 -0.193489}
		
		bone 	"Bake_LWristJoint"
		pos			{45.8286 -0.158446 -0.641449}
		rot			{0.711902 0.70049 4.37029e-002 2.44731e-002}
		
		bone 	"Bake_RHandJoint"
		pos			{-17.4849 -0.540389 -3.5306}
		rot			{0.672545 0. 0. -0.740056}
		
		bone 	"Bake_LHandJoint"
		pos			{17.2019 0.366814 1.97759}
		rot			{0.881227 -7.20145e-003 4.03769e-002 -0.47091}
		
		bone 	"Bake_LIndexJoint1"
		pos			{12.2418 -1.31958 7.40454}
		rot			{0.971938 -2.27508e-002 -0.208823 -0.10589}
		
		bone 	"Bake_RIndexJoint1"
		pos			{-9.08339 1.40164 -8.94563}
		rot			{0.959538 0. -0.28158 0.}
		
		bone 	"Bake_LIndex2"
		pos			{6.17497 -0.574751 0.664665}
		rot			{0.977689 1.25744e-004 0.210058 5.85257e-004}
		
		bone 	"Bake_RIndexJoint2"
		pos			{-3.15429 1.28809 -5.86307e-002}
		rot			{1. 0. 0. 0.}
	}
}
