{
    "name": "Project",
    "nodes": [
        {
            "id": "{24447e8e-1755-44c6-baf2-afdf78d5a1e4}",
            "properties": {
                "ConsumeTouch": 2,
                "Name": "Project",
                "Size": [
                    1024,
                    768
                ],
                "TemplateName": ""
            },
            "timeStamp": 1457353176053,
            "typeName": "RootNode",
            "user_properties": {
            }
        },
        {
            "id": "{916d489e-19fb-4b32-824d-3e860954a0c4}",
            "parentID": "{24447e8e-1755-44c6-baf2-afdf78d5a1e4}",
            "properties": {
                "AnchoringType": 0,
                "AnchoringUnits": 1,
                "AnchoringVector": [
                    -1024,
                    -768
                ],
                "Animation": -1,
                "Color": [
                    255,
                    255,
                    255,
                    255
                ],
                "ConsumeTouch": 1,
                "EditorLock": false,
                "EditorVisible": true,
                "InternalSizeAnchoringBaseSize": [
                    1024,
                    768
                ],
                "InternalSizeAnchoringCachedParentSize": [
                    1024,
                    768
                ],
                "InternalSizeAnchoringCoeff": [
                    1,
                    1
                ],
                "Name": "Background",
                "Pivot": [
                    0.5,
                    0.5
                ],
                "Position": [
                    512,
                    384
                ],
                "Rotation": 0,
                "Scale": [
                    1,
                    1
                ],
                "Size": [
                    1024,
                    768
                ],
                "SizeAnchoringType": 0,
                "TemplateName": "",
                "TextureId": 2,
                "Visible": true,
                "ZIndex": 0
            },
            "timeStamp": 1457354451097,
            "typeName": "Sprite",
            "user_properties": {
            }
        },
        {
            "id": "{2d79bc19-d84a-4f27-bc0a-51c413d871eb}",
            "parentID": "{24447e8e-1755-44c6-baf2-afdf78d5a1e4}",
            "properties": {
                "AnchoringType": 0,
                "AnchoringUnits": 1,
                "AnchoringVector": [
                    -1024,
                    -768
                ],
                "Animation": -1,
                "Color": [
                    255,
                    255,
                    255,
                    255
                ],
                "ConsumeTouch": 1,
                "EditorLock": false,
                "EditorVisible": true,
                "InternalSizeAnchoringBaseSize": [
                    833,
                    553
                ],
                "InternalSizeAnchoringCachedParentSize": [
                    1024,
                    768
                ],
                "InternalSizeAnchoringCoeff": [
                    1,
                    1
                ],
                "Name": "Panel",
                "Pivot": [
                    0.5,
                    0.5
                ],
                "Position": [
                    512,
                    384
                ],
                "Rotation": 0,
                "Scale": [
                    1,
                    1
                ],
                "Size": [
                    833,
                    553
                ],
                "SizeAnchoringType": 0,
                "TemplateName": "",
                "TextureId": 1,
                "Visible": true,
                "ZIndex": 0
            },
            "timeStamp": 1457354494201,
            "typeName": "Sprite",
            "user_properties": {
            }
        },
        {
            "id": "{14a45f29-092e-4bd9-a1e0-f90f84f9e0c9}",
            "parentID": "{24447e8e-1755-44c6-baf2-afdf78d5a1e4}",
            "properties": {
                "Alignment": 1,
                "AnchoringType": 0,
                "AnchoringUnits": 1,
                "AnchoringVector": [
                    -1024,
                    -768
                ],
                "Animation": -1,
                "Color": [
                    255,
                    255,
                    255,
                    255
                ],
                "ConsumeTouch": 1,
                "EditorLock": false,
                "EditorVisible": true,
                "FontColor": [
                    255,
                    255,
                    255,
                    255
                ],
                "FontId": 3,
                "FontSize": 30,
                "InternalSizeAnchoringBaseSize": [
                    256,
                    64
                ],
                "InternalSizeAnchoringCachedParentSize": [
                    1024,
                    768
                ],
                "InternalSizeAnchoringCoeff": [
                    1,
                    1
                ],
                "Name": "square_pixel-7_1",
                "Pivot": [
                    0.5,
                    0.5
                ],
                "Position": [
                    512,
                    384
                ],
                "Rotation": 0,
                "Scale": [
                    1,
                    1
                ],
                "Size": [
                    256,
                    64
                ],
                "SizeAnchoringType": 0,
                "TemplateName": "",
                "Text": "Hello, World!",
                "Visible": true,
                "ZIndex": 0
            },
            "timeStamp": 1457354654786,
            "typeName": "Label",
            "user_properties": {
            }
        }
    ],
    "orientation": 0,
    "version": "1.0"
}
