// Source maya file: C:/dev/dev/main/gamedemo1/Art/Characters/combatEva/Animation/combatEva_LfHedDmg_Idle.mb
// Maya geometry export, written by IwEngineExporter.mll

// Animation data
CIwAnim
{
	skeleton 	"combatEva_rig"
	
	// Keyframe# 1
	CIwAnimKeyFrame
	{
		time 	0.
		
		bone 	"Bake_Root"
		pos			{-3.20425 155.382 -40.09}
		rot			{0.892341 7.65609e-002 -0.444553 1.54654e-002}
		
		bone 	"Bake_LHipJoint"
		pos			{10.2572 -0.750527 -4.7124e-002}
		rot			{0.803736 -4.53206e-002 -0.466132 0.366981}
		
		bone 	"Bake_LowerChestJoint"
		pos			{0.950914 18.3459 3.38756}
		rot			{0.994666 3.33904e-002 -5.25666e-002 8.22323e-002}
		
		bone 	"Bake_RHipJoint"
		pos			{-9.27856 -0.750547 -4.71226e-002}
		rot			{9.25551e-002 0.657115 -0.251009 -0.704719}
		
		bone 	"Bake_RkneeJoint"
		pos			{0.14961 67.5664 1.8204}
		rot			{0.730462 0.200691 0.621625 -0.199326}
		
		bone 	"Bake_LkneeJoint"
		pos			{-0.149599 -67.5665 -1.82043}
		rot			{0.753178 9.21616e-002 0.644935 -9.10366e-002}
		
		bone 	"Bake_UpperChestJoint"
		pos			{2.08722e-014 24.7866 -7.5982}
		rot			{0.977041 -5.56043e-002 -0.203558 2.9373e-002}
		
		bone 	"Bake_NeckJoint"
		pos			{1.89848e-014 31.5911 -5.27135}
		rot			{0.987736 2.47699e-002 -6.08266e-002 0.141652}
		
		bone 	"Bake_LFootJoint"
		pos			{-1.01281 -88.9406 -17.4875}
		rot			{0.971343 0.114925 -4.54111e-003 -0.208}
		
		bone 	"Bake_RFootJoint"
		pos			{1.01277 88.9408 17.4875}
		rot			{0.977971 -0.143346 -2.42182e-002 -0.149792}
		
		bone 	"Bake_RArmJoint"
		pos			{-19.6696 -7.15149 -2.14289}
		rot			{7.15968e-002 -0.880274 -0.464099 -6.78495e-002}
		
		bone 	"Bake_LArmJoint"
		pos			{19.4833 -7.55507 -2.14288}
		rot			{0.641545 5.09883e-002 0.391488 -0.657691}
		
		bone 	"Bake_RToeJoint"
		pos			{-3.56224 13.9947 -19.4816}
		rot			{1. 0. 0. 0.}
		
		bone 	"Bake_HeadJoint"
		pos			{-0.447655 10.0592 -0.213579}
		rot			{0.912212 -0.351201 -7.47255e-002 0.197342}
		
		bone 	"Bake_LToeJoint"
		pos			{3.56225 -13.9948 19.4816}
		rot			{1. 0. 0. 0.}
		
		bone 	"Bake_LElbowJoint"
		pos			{42.3171 0.912694 -3.2219}
		rot			{0.642239 -5.72038e-002 -0.762688 -5.06323e-002}
		
		bone 	"Bake_RElbowJoint"
		pos			{-42.2763 -0.990979 6.52934}
		rot			{0.563853 -0.100925 -0.815728 -8.04473e-002}
		
		bone 	"Bake_RWristJoint"
		pos			{-50.1445 0.692473 2.14966}
		rot			{0.827914 0.486922 0.237701 0.144789}
		
		bone 	"Bake_LWristJoint"
		pos			{45.8286 -0.158446 -0.641449}
		rot			{0.856209 0.484951 -0.149377 9.70339e-002}
		
		bone 	"Bake_RHandJoint"
		pos			{-17.4849 -0.540389 -3.5306}
		rot			{0.992484 0. 0. -0.122375}
		
		bone 	"Bake_LHandJoint"
		pos			{21.0086 -0.27611 1.42274}
		rot			{0.947436 -3.64948e-004 4.10124e-002 -0.317307}
		
		bone 	"Bake_LIndexJoint1"
		pos			{13.6098 -1.33931 8.14663}
		rot			{0.971938 -2.27508e-002 -0.208823 -0.10589}
		
		bone 	"Bake_RIndexJoint1"
		pos			{-9.08339 1.40164 -8.94563}
		rot			{0.959538 0. -0.28158 0.}
		
		bone 	"Bake_LIndex2"
		pos			{3.61358 -0.801748 -1.08499}
		rot			{0.977689 1.25744e-004 0.210058 5.85257e-004}
		
		bone 	"Bake_RIndexJoint2"
		pos			{-3.15429 1.28809 -5.86307e-002}
		rot			{1. 0. 0. 0.}
	}
	
	// Keyframe# 2
	CIwAnimKeyFrame
	{
		time 	3.33333e-002
		
		bone 	"Bake_RArmJoint"
		pos			{-19.6696 -7.15149 -2.14289}
		rot			{6.00112e-002 -0.87589 -0.472201 -7.89998e-002}
		
		bone 	"Bake_RElbowJoint"
		pos			{-42.2763 -0.990979 6.52934}
		rot			{0.549312 -0.103548 -0.825248 -8.06179e-002}
	}
	
	// Keyframe# 3
	CIwAnimKeyFrame
	{
		time 	6.66667e-002
		
		bone 	"Bake_Root"
		pos			{-2.77873 152.849 -44.5488}
		rot			{0.895258 6.28443e-002 -0.440713 1.8335e-002}
		
		bone 	"Bake_LHipJoint"
		pos			{10.2572 -0.750527 -4.7124e-002}
		rot			{0.77745 -4.09222e-002 -0.507226 0.36962}
		
		bone 	"Bake_RHipJoint"
		pos			{-9.27856 -0.750547 -4.71226e-002}
		rot			{0.116522 0.662513 -0.277327 -0.685995}
		
		bone 	"Bake_RkneeJoint"
		pos			{0.14961 67.5664 1.8204}
		rot			{0.716208 0.242114 0.608627 -0.240833}
		
		bone 	"Bake_LkneeJoint"
		pos			{-0.149599 -67.5665 -1.82043}
		rot			{0.752107 9.93242e-002 0.644069 -9.82121e-002}
		
		bone 	"Bake_RArmJoint"
		pos			{-19.6696 -7.15149 -2.14289}
		rot			{4.70797e-002 -0.890301 -0.439513 -0.109436}
		
		bone 	"Bake_LArmJoint"
		pos			{19.4833 -7.55507 -2.14288}
		rot			{0.709439 4.25315e-002 0.280716 -0.645047}
		
		bone 	"Bake_LElbowJoint"
		pos			{42.3171 0.912694 -3.2219}
		rot			{0.704507 -4.87309e-002 -0.706349 -4.86431e-002}
		
		bone 	"Bake_RElbowJoint"
		pos			{-42.2763 -0.990979 6.52934}
		rot			{0.537239 -0.105704 -0.83288 -8.06985e-002}
		
		bone 	"Bake_RWristJoint"
		pos			{-50.1445 0.692473 2.14966}
		rot			{0.799904 0.513523 0.272503 0.148958}
		
		bone 	"Bake_RHandJoint"
		pos			{-17.4849 -0.540389 -3.5306}
		rot			{0.992484 0. 0. -0.122375}
	}
	
	// Keyframe# 4
	CIwAnimKeyFrame
	{
		time 	0.133333
		
		bone 	"Bake_LHipJoint"
		pos			{10.2572 -0.750527 -4.7124e-002}
		rot			{0.757469 -3.38365e-002 -0.541345 0.363376}
		
		bone 	"Bake_LowerChestJoint"
		pos			{0.950914 18.3459 3.38756}
		rot			{0.993699 -2.44732e-002 -8.1804e-003 0.109068}
		
		bone 	"Bake_RHipJoint"
		pos			{-9.27856 -0.750547 -4.71226e-002}
		rot			{0.112489 0.679919 -0.281756 -0.667585}
		
		bone 	"Bake_RkneeJoint"
		pos			{0.14961 67.5664 1.8204}
		rot			{0.71802 0.237281 0.61029 -0.23599}
		
		bone 	"Bake_LkneeJoint"
		pos			{-0.149599 -67.5665 -1.82043}
		rot			{0.752215 9.86226e-002 0.644157 -9.75093e-002}
		
		bone 	"Bake_RArmJoint"
		pos			{-19.6696 -7.15149 -2.14289}
		rot			{5.24596e-002 -0.911573 -0.371643 -0.167819}
		
		bone 	"Bake_LArmJoint"
		pos			{19.4833 -7.55507 -2.14288}
		rot			{0.703925 4.75959e-002 0.16938 -0.688138}
		
		bone 	"Bake_LElbowJoint"
		pos			{42.3171 0.912694 -3.2219}
		rot			{0.740863 -4.36726e-002 -0.668599 -4.6806e-002}
		
		bone 	"Bake_RElbowJoint"
		pos			{-42.2763 -0.990979 6.52934}
		rot			{0.501867 -0.111899 -0.853878 -8.06251e-002}
	}
	
	// Keyframe# 5
	CIwAnimKeyFrame
	{
		time 	0.166667
		
		bone 	"Bake_UpperChestJoint"
		pos			{2.22045e-014 24.7866 -7.5982}
		rot			{0.986129 -7.50669e-002 -0.145717 2.6079e-002}
		
		bone 	"Bake_RArmJoint"
		pos			{-19.6696 -7.15149 -2.14289}
		rot			{4.60312e-002 -0.916519 -0.353955 -0.180527}
		
		bone 	"Bake_LArmJoint"
		pos			{19.4833 -7.55507 -2.14288}
		rot			{0.687361 5.41213e-002 0.15876 -0.706683}
		
		bone 	"Bake_LElbowJoint"
		pos			{42.3171 0.912694 -3.2219}
		rot			{0.732321 -4.4868e-002 -0.677832 -4.72869e-002}
		
		bone 	"Bake_RElbowJoint"
		pos			{-42.2763 -0.990979 6.52934}
		rot			{0.499404 -0.112324 -0.855267 -8.06032e-002}
	}
	
	// Keyframe# 6
	CIwAnimKeyFrame
	{
		time 	0.2
		
		bone 	"Bake_NeckJoint"
		pos			{2.76446e-014 31.5911 -5.27135}
		rot			{0.975995 5.25515e-002 -1.75299e-002 0.210631}
		
		bone 	"Bake_RArmJoint"
		pos			{-19.6696 -7.15149 -2.14289}
		rot			{4.30138e-002 -0.91992 -0.348057 -0.175366}
		
		bone 	"Bake_LArmJoint"
		pos			{19.4833 -7.55507 -2.14288}
		rot			{0.668171 6.14211e-002 0.17699 -0.720035}
		
		bone 	"Bake_LElbowJoint"
		pos			{42.3171 0.912694 -3.2219}
		rot			{0.712674 -4.76015e-002 -0.698211 -4.82771e-002}
		
		bone 	"Bake_RElbowJoint"
		pos			{-42.2763 -0.990979 6.52934}
		rot			{0.504795 -0.111393 -0.852215 -8.06483e-002}
	}
	
	// Keyframe# 7
	CIwAnimKeyFrame
	{
		time 	0.233333
		
		bone 	"Bake_LArmJoint"
		pos			{19.4833 -7.55507 -2.14288}
		rot			{0.651656 6.85662e-002 0.219308 -0.722874}
		
		bone 	"Bake_HeadJoint"
		pos			{-0.447655 10.0592 -0.213579}
		rot			{0.861772 -0.434454 -5.51436e-002 0.256044}
		
		bone 	"Bake_LElbowJoint"
		pos			{42.3171 0.912694 -3.2219}
		rot			{0.685603 -5.13294e-002 -0.724482 -4.93927e-002}
		
		bone 	"Bake_LWristJoint"
		pos			{45.8286 -0.158446 -0.641449}
		rot			{0.87291 0.478504 -9.20603e-002 -2.42283e-002}
		
		bone 	"Bake_LHandJoint"
		pos			{21.0086 -0.27611 1.42274}
		rot			{0.947436 -3.64948e-004 4.10124e-002 -0.317307}
	}
	
	// Keyframe# 8
	CIwAnimKeyFrame
	{
		time 	0.366667
		
		bone 	"Bake_Root"
		pos			{-3.20425 155.382 -40.09}
		rot			{0.892341 7.65609e-002 -0.444553 1.54654e-002}
		
		bone 	"Bake_LHipJoint"
		pos			{10.2572 -0.750527 -4.7124e-002}
		rot			{0.803736 -4.53206e-002 -0.466132 0.366981}
		
		bone 	"Bake_LowerChestJoint"
		pos			{0.950914 18.3459 3.38756}
		rot			{0.994666 3.33904e-002 -5.25666e-002 8.22323e-002}
		
		bone 	"Bake_RHipJoint"
		pos			{-9.27856 -0.750547 -4.71226e-002}
		rot			{9.25551e-002 0.657115 -0.251009 -0.704719}
		
		bone 	"Bake_RkneeJoint"
		pos			{0.14961 67.5664 1.8204}
		rot			{0.730462 0.200691 0.621625 -0.199326}
		
		bone 	"Bake_LkneeJoint"
		pos			{-0.149599 -67.5665 -1.82043}
		rot			{0.753178 9.21616e-002 0.644935 -9.10366e-002}
		
		bone 	"Bake_UpperChestJoint"
		pos			{2.08722e-014 24.7866 -7.5982}
		rot			{0.977041 -5.56043e-002 -0.203558 2.9373e-002}
		
		bone 	"Bake_NeckJoint"
		pos			{1.89848e-014 31.5911 -5.27135}
		rot			{0.987736 2.47699e-002 -6.08266e-002 0.141652}
		
		bone 	"Bake_LFootJoint"
		pos			{-1.01281 -88.9406 -17.4875}
		rot			{0.971343 0.114925 -4.54111e-003 -0.208}
		
		bone 	"Bake_RFootJoint"
		pos			{1.01277 88.9408 17.4875}
		rot			{0.977971 -0.143346 -2.42182e-002 -0.149792}
		
		bone 	"Bake_RArmJoint"
		pos			{-19.6696 -7.15149 -2.14289}
		rot			{7.15968e-002 -0.880274 -0.464099 -6.78495e-002}
		
		bone 	"Bake_LArmJoint"
		pos			{19.4833 -7.55507 -2.14288}
		rot			{0.641545 5.09883e-002 0.391488 -0.657691}
		
		bone 	"Bake_RToeJoint"
		pos			{-3.56224 13.9947 -19.4816}
		rot			{1. 0. 0. 0.}
		
		bone 	"Bake_HeadJoint"
		pos			{-0.447655 10.0592 -0.213579}
		rot			{0.912212 -0.351201 -7.47255e-002 0.197342}
		
		bone 	"Bake_LToeJoint"
		pos			{3.56225 -13.9948 19.4816}
		rot			{1. 0. 0. 0.}
		
		bone 	"Bake_LElbowJoint"
		pos			{42.3171 0.912694 -3.2219}
		rot			{0.642239 -5.72038e-002 -0.762688 -5.06323e-002}
		
		bone 	"Bake_RElbowJoint"
		pos			{-42.2763 -0.990979 6.52934}
		rot			{0.563853 -0.100925 -0.815728 -8.04473e-002}
		
		bone 	"Bake_RWristJoint"
		pos			{-50.1445 0.692473 2.14966}
		rot			{0.827914 0.486922 0.237701 0.144789}
		
		bone 	"Bake_LWristJoint"
		pos			{45.8286 -0.158446 -0.641449}
		rot			{0.856209 0.484951 -0.149377 9.70339e-002}
		
		bone 	"Bake_RHandJoint"
		pos			{-17.4849 -0.540389 -3.5306}
		rot			{0.992484 0. 0. -0.122375}
		
		bone 	"Bake_LHandJoint"
		pos			{21.0086 -0.27611 1.42274}
		rot			{0.947436 -3.64948e-004 4.10124e-002 -0.317307}
		
		bone 	"Bake_LIndexJoint1"
		pos			{13.6098 -1.33931 8.14663}
		rot			{0.971938 -2.27508e-002 -0.208823 -0.10589}
		
		bone 	"Bake_RIndexJoint1"
		pos			{-9.08339 1.40164 -8.94563}
		rot			{0.959538 0. -0.28158 0.}
		
		bone 	"Bake_LIndex2"
		pos			{3.61358 -0.801748 -1.08499}
		rot			{0.977689 1.25744e-004 0.210058 5.85257e-004}
		
		bone 	"Bake_RIndexJoint2"
		pos			{-3.15429 1.28809 -5.86307e-002}
		rot			{1. 0. 0. 0.}
	}
}
