// Source maya file: C:/dev/dev/main/gamedemo1/Art/Characters/combatEva/Animation/combatEva_LfHook_LfStance.mb
// Maya geometry export, written by IwEngineExporter.mll

// Animation data
CIwAnim
{
	skeleton 	"combatEva_rig"
	
	// Keyframe# 1
	CIwAnimKeyFrame
	{
		time 	0.
		
		bone 	"Bake_Root"
		pos			{5.53819 137.403 -10.9429}
		rot			{0.788921 1.00412e-002 -0.613891 -2.53104e-002}
		
		bone 	"Bake_LHipJoint"
		pos			{10.2572 -0.750527 -4.7124e-002}
		rot			{0.811266 -3.35825e-002 -0.377227 0.445444}
		
		bone 	"Bake_LowerChestJoint"
		pos			{0.950914 18.3459 3.38756}
		rot			{0.974113 0.225822 5.7418e-003 -8.64915e-003}
		
		bone 	"Bake_RHipJoint"
		pos			{-9.27856 -0.750547 -4.71226e-002}
		rot			{0.159815 0.489652 -0.298455 -0.803508}
		
		bone 	"Bake_RkneeJoint"
		pos			{0.14961 67.5664 1.8204}
		rot			{0.681897 0.318689 0.576721 -0.317564}
		
		bone 	"Bake_LkneeJoint"
		pos			{-0.149599 -67.5665 -1.82043}
		rot			{0.648362 0.373533 0.548668 -0.372911}
		
		bone 	"Bake_UpperChestJoint"
		pos			{5.92582e-015 24.7866 -7.5982}
		rot			{0.988148 -0.124596 -8.23035e-002 -3.556e-002}
		
		bone 	"Bake_NeckJoint"
		pos			{1.3739e-014 31.5911 -5.27135}
		rot			{0.999578 -4.02285e-003 -1.77235e-002 2.26435e-002}
		
		bone 	"Bake_LFootJoint"
		pos			{-1.01281 -88.9406 -17.4875}
		rot			{0.977869 -0.137462 1.39464e-002 -0.157106}
		
		bone 	"Bake_RFootJoint"
		pos			{1.01277 88.9408 17.4875}
		rot			{0.945796 -0.21159 -0.163427 -0.184369}
		
		bone 	"Bake_RArmJoint"
		pos			{-19.6696 -7.15149 -2.14289}
		rot			{0.315899 -0.881961 -0.346137 5.04051e-002}
		
		bone 	"Bake_LArmJoint"
		pos			{19.4833 -7.55507 -2.14288}
		rot			{0.745395 -0.623489 0.121998 -0.201903}
		
		bone 	"Bake_RToeJoint"
		pos			{-3.56224 13.9947 -19.4816}
		rot			{1. 0. 0. 0.}
		
		bone 	"Bake_HeadJoint"
		pos			{-0.447655 10.0592 -0.213579}
		rot			{0.765839 -0.121303 0.623444 -0.100473}
		
		bone 	"Bake_LToeJoint"
		pos			{3.56225 -13.9948 19.4816}
		rot			{1. 0. 0. 0.}
		
		bone 	"Bake_LElbowJoint"
		pos			{42.3171 0.912694 -3.2219}
		rot			{0.891054 -2.20549e-002 -0.45226 -3.15814e-002}
		
		bone 	"Bake_RElbowJoint"
		pos			{-42.2763 -0.990979 6.52934}
		rot			{0.43023 -0.123891 -0.890669 -7.91347e-002}
		
		bone 	"Bake_RWristJoint"
		pos			{-50.1445 0.692473 2.14966}
		rot			{0.994714 -0.100805 -1.70651e-002 -9.51553e-003}
		
		bone 	"Bake_LWristJoint"
		pos			{45.8286 -0.158446 -0.641449}
		rot			{0.708244 -0.491014 -0.167658 -0.478734}
		
		bone 	"Bake_RHandJoint"
		pos			{-17.4849 -0.540389 -3.5306}
		rot			{0.953798 0. 0. -0.300448}
		
		bone 	"Bake_LHandJoint"
		pos			{21.0086 -0.27611 1.42274}
		rot			{0.430436 -2.97384e-002 2.8245e-002 -0.901689}
		
		bone 	"Bake_LIndexJoint1"
		pos			{13.6098 -1.33931 8.14663}
		rot			{0.971938 -2.27508e-002 -0.208823 -0.10589}
		
		bone 	"Bake_RIndexJoint1"
		pos			{-9.08339 1.40164 -8.94563}
		rot			{0.959538 0. -0.28158 0.}
		
		bone 	"Bake_LIndex2"
		pos			{3.61358 -0.801748 -1.08499}
		rot			{0.977689 1.25744e-004 0.210058 5.85257e-004}
		
		bone 	"Bake_RIndexJoint2"
		pos			{-3.15429 1.28809 -5.86307e-002}
		rot			{1. 0. 0. 0.}
	}
	
	// Keyframe# 2
	CIwAnimKeyFrame
	{
		time 	1.e-001
		
		bone 	"Bake_LArmJoint"
		pos			{19.4833 -7.55507 -2.14288}
		rot			{0.778615 -0.377471 0.291735 -0.407633}
		
		bone 	"Bake_LElbowJoint"
		pos			{42.3171 0.912694 -3.2219}
		rot			{0.67732 -5.24608e-002 -0.732132 -4.96798e-002}
		
		bone 	"Bake_LWristJoint"
		pos			{45.8286 -0.158446 -0.641449}
		rot			{0.990051 -0.108285 4.00868e-002 8.04201e-002}
		
		bone 	"Bake_LHandJoint"
		pos			{21.0086 -0.27611 1.42274}
		rot			{0.756213 -1.58978e-002 3.78076e-002 -0.653039}
	}
	
	// Keyframe# 3
	CIwAnimKeyFrame
	{
		time 	0.133333
		
		bone 	"Bake_RHipJoint"
		pos			{-9.27856 -0.750547 -4.71226e-002}
		rot			{0.149322 0.615157 -0.251524 -0.732134}
		
		bone 	"Bake_RkneeJoint"
		pos			{0.14961 67.5664 1.8204}
		rot			{0.715342 0.244388 0.60783 -0.243112}
		
		bone 	"Bake_RFootJoint"
		pos			{1.01277 88.9408 17.4875}
		rot			{0.972748 -0.177084 -5.45752e-002 -0.139369}
		
		bone 	"Bake_RToeJoint"
		pos			{-3.56224 13.9947 -19.4816}
		rot			{1. 0. 0. 0.}
	}
	
	// Keyframe# 4
	CIwAnimKeyFrame
	{
		time 	0.2
		
		bone 	"Bake_Root"
		pos			{-1.54198 155.853 -24.6316}
		rot			{0.922321 0.114089 -0.369135 -6.89972e-003}
		
		bone 	"Bake_LHipJoint"
		pos			{10.2572 -0.750527 -4.7124e-002}
		rot			{0.760274 -0.12191 -0.474843 0.426199}
		
		bone 	"Bake_LowerChestJoint"
		pos			{0.950914 18.3459 3.38756}
		rot			{0.992755 7.34961e-002 -9.1013e-002 2.74271e-002}
		
		bone 	"Bake_RHipJoint"
		pos			{-9.27856 -0.750547 -4.71226e-002}
		rot			{5.24393e-002 0.655128 -0.210954 -0.723572}
		
		bone 	"Bake_RkneeJoint"
		pos			{0.14961 67.5664 1.8204}
		rot			{0.73598 0.181984 0.626583 -0.180581}
		
		bone 	"Bake_LkneeJoint"
		pos			{-0.149599 -67.5665 -1.82043}
		rot			{0.734224 0.181871 0.628579 -0.180907}
		
		bone 	"Bake_UpperChestJoint"
		pos			{7.99361e-015 24.7866 -7.5982}
		rot			{0.988457 -2.43221e-002 -0.147898 -2.20786e-002}
		
		bone 	"Bake_NeckJoint"
		pos			{2.06501e-014 31.5911 -5.27135}
		rot			{0.993018 4.64312e-002 -3.68712e-002 0.101979}
		
		bone 	"Bake_LFootJoint"
		pos			{-1.01281 -88.9406 -17.4875}
		rot			{0.98255 4.01912e-002 -7.11248e-002 -0.167097}
		
		bone 	"Bake_RFootJoint"
		pos			{1.01277 88.9408 17.4875}
		rot			{0.977745 -4.56898e-002 5.42832e-002 -0.197435}
		
		bone 	"Bake_RArmJoint"
		pos			{-19.6696 -7.15149 -2.14289}
		rot			{0.156399 -0.858968 -0.487371 -1.35289e-002}
		
		bone 	"Bake_LArmJoint"
		pos			{19.4833 -7.55507 -2.14288}
		rot			{0.752611 -7.37441e-002 0.31004 -0.576207}
		
		bone 	"Bake_RToeJoint"
		pos			{-3.56224 13.9947 -19.4816}
		rot			{0.992621 -0.121258 0. 0.}
		
		bone 	"Bake_HeadJoint"
		pos			{-0.447655 10.0592 -0.213579}
		rot			{0.828619 -0.119267 0.533044 -0.122596}
		
		bone 	"Bake_LToeJoint"
		pos			{3.56225 -13.9948 19.4816}
		rot			{1. 0. 0. 0.}
		
		bone 	"Bake_LElbowJoint"
		pos			{42.3171 0.912694 -3.2219}
		rot			{0.558827 -6.81443e-002 -0.824883 -5.13524e-002}
		
		bone 	"Bake_RElbowJoint"
		pos			{-42.2763 -0.990979 6.52934}
		rot			{0.669532 -8.09624e-002 -0.734375 -7.65861e-002}
		
		bone 	"Bake_RWristJoint"
		pos			{-50.1445 0.692473 2.14966}
		rot			{0.766144 0.640385 5.17168e-003 5.38894e-002}
		
		bone 	"Bake_LWristJoint"
		pos			{45.8286 -0.158446 -0.641449}
		rot			{0.820879 0.570828 -1.51292e-002 -9.16335e-003}
		
		bone 	"Bake_RHandJoint"
		pos			{-17.4849 -0.540389 -3.5306}
		rot			{0.992484 0. 0. -0.122375}
		
		bone 	"Bake_LHandJoint"
		pos			{21.0086 -0.27611 1.42274}
		rot			{0.947436 -3.64948e-004 4.10124e-002 -0.317307}
		
		bone 	"Bake_LIndexJoint1"
		pos			{13.6098 -1.33931 8.14663}
		rot			{0.971938 -2.27508e-002 -0.208823 -0.10589}
		
		bone 	"Bake_RIndexJoint1"
		pos			{-9.08339 1.40164 -8.94563}
		rot			{0.959538 0. -0.28158 0.}
		
		bone 	"Bake_LIndex2"
		pos			{3.61358 -0.801748 -1.08499}
		rot			{0.977689 1.25744e-004 0.210058 5.85257e-004}
		
		bone 	"Bake_RIndexJoint2"
		pos			{-3.15429 1.28809 -5.86307e-002}
		rot			{1. 0. 0. 0.}
	}
}
