// Source maya file: C:/dev/dev/main/gamedemo1/Art/Characters/combatEva/Animation/combatEva_LfRvPnch_LfStance.mb
// Maya geometry export, written by IwEngineExporter.mll

// Animation data
CIwAnim
{
	skeleton 	"combatEva_rig"
	
	// Keyframe# 1
	CIwAnimKeyFrame
	{
		time 	0.
		
		bone 	"Bake_Root"
		pos			{-1.72028e-003 133.724 35.9587}
		rot			{0.995637 3.64245e-002 8.32188e-002 -2.13471e-002}
		
		bone 	"Bake_LHipJoint"
		pos			{10.2572 -0.750527 -4.7124e-002}
		rot			{0.45132 -0.285057 -0.800212 0.273338}
		
		bone 	"Bake_LowerChestJoint"
		pos			{0.950914 18.3459 3.38756}
		rot			{0.954814 0.189949 0.226806 2.84296e-002}
		
		bone 	"Bake_RHipJoint"
		pos			{-9.27856 -0.750547 -4.71226e-002}
		rot			{0.210779 -0.857468 -2.50603e-002 0.468715}
		
		bone 	"Bake_RkneeJoint"
		pos			{0.14961 67.5664 1.8204}
		rot			{0.738916 0.171171 0.629197 -0.169746}
		
		bone 	"Bake_LkneeJoint"
		pos			{-0.149599 -67.5665 -1.82043}
		rot			{0.618086 0.417214 0.51989 -0.416673}
		
		bone 	"Bake_UpperChestJoint"
		pos			{-1.17684e-014 24.7866 -7.5982}
		rot			{0.971932 -9.19781e-002 0.202395 -7.69648e-002}
		
		bone 	"Bake_NeckJoint"
		pos			{-1.79856e-014 31.5911 -5.27135}
		rot			{0.993912 2.45455e-002 6.81155e-002 -8.30492e-002}
		
		bone 	"Bake_LFootJoint"
		pos			{-1.01281 -88.9406 -17.4875}
		rot			{0.958594 -0.267974 -7.46035e-002 -6.09999e-002}
		
		bone 	"Bake_RFootJoint"
		pos			{1.01277 88.9408 17.4875}
		rot			{0.942259 0.195958 0.11242 -0.247206}
		
		bone 	"Bake_RArmJoint"
		pos			{-19.6696 -7.15149 -2.14289}
		rot			{0.328472 0.935409 2.12481e-002 -0.129089}
		
		bone 	"Bake_LArmJoint"
		pos			{19.4833 -7.55507 -2.14288}
		rot			{0.956229 0.198131 -8.27813e-002 -0.198791}
		
		bone 	"Bake_RToeJoint"
		pos			{-3.56224 13.9947 -19.4816}
		rot			{0.964176 -0.265263 0. 0.}
		
		bone 	"Bake_HeadJoint"
		pos			{-0.447655 10.0592 -0.213579}
		rot			{0.897786 -5.99375e-002 -0.384792 0.205726}
		
		bone 	"Bake_LToeJoint"
		pos			{3.56225 -13.9948 19.4816}
		rot			{1. 0. 0. 0.}
		
		bone 	"Bake_LElbowJoint"
		pos			{42.3171 0.912694 -3.2219}
		rot			{0.37376 -9.05256e-002 -0.921927 -4.64746e-002}
		
		bone 	"Bake_RElbowJoint"
		pos			{-42.2763 -0.990979 6.52934}
		rot			{0.99662 -7.31683e-003 -8.1806e-002 1.464e-003}
		
		bone 	"Bake_RWristJoint"
		pos			{-50.1445 0.692473 2.14966}
		rot			{0.978245 -0.171699 3.08738e-002 -0.112259}
		
		bone 	"Bake_LWristJoint"
		pos			{45.8286 -0.158446 -0.641449}
		rot			{0.906126 0.412891 1.43511e-002 -9.08294e-002}
		
		bone 	"Bake_RHandJoint"
		pos			{-17.4849 -0.540389 -3.5306}
		rot			{0.92851 0. 0. -0.371306}
		
		bone 	"Bake_LHandJoint"
		pos			{21.0086 -0.27611 1.42274}
		rot			{0.927212 -2.76778e-003 4.09206e-002 -0.372284}
		
		bone 	"Bake_LIndexJoint1"
		pos			{13.6098 -1.33931 8.14663}
		rot			{0.971938 -2.27508e-002 -0.208823 -0.10589}
		
		bone 	"Bake_RIndexJoint1"
		pos			{-9.08339 1.40164 -8.94563}
		rot			{0.959538 0. -0.28158 0.}
		
		bone 	"Bake_LIndex2"
		pos			{3.61358 -0.801748 -1.08499}
		rot			{0.977689 1.25744e-004 0.210058 5.85257e-004}
		
		bone 	"Bake_RIndexJoint2"
		pos			{-3.15429 1.28809 -5.86307e-002}
		rot			{1. 0. 0. 0.}
	}
	
	// Keyframe# 2
	CIwAnimKeyFrame
	{
		time 	1.e-001
		
		bone 	"Bake_RHipJoint"
		pos			{-9.27856 -0.750547 -4.71226e-002}
		rot			{8.22542e-003 0.78067 -0.184619 -0.596995}
		
		bone 	"Bake_RkneeJoint"
		pos			{0.14961 67.5664 1.8204}
		rot			{0.690468 0.301682 0.584747 -0.300521}
		
		bone 	"Bake_RFootJoint"
		pos			{1.01277 88.9408 17.4875}
		rot			{0.963344 0.16279 9.84875e-002 -0.189123}
		
		bone 	"Bake_RToeJoint"
		pos			{-3.56224 13.9947 -19.4816}
		rot			{0.969294 -0.245904 0. 0.}
	}
	
	// Keyframe# 3
	CIwAnimKeyFrame
	{
		time 	0.133333
		
		bone 	"Bake_Root"
		pos			{-0.865238 148.955 -12.0418}
		rot			{0.975888 9.28664e-002 -0.195766 -2.6339e-002}
		
		bone 	"Bake_LHipJoint"
		pos			{10.2572 -0.750527 -4.7124e-002}
		rot			{0.626844 -0.208254 -0.612438 0.434301}
		
		bone 	"Bake_RHipJoint"
		pos			{-9.27856 -0.750547 -4.71226e-002}
		rot			{5.48393e-002 0.733834 -0.210209 -0.643655}
		
		bone 	"Bake_RkneeJoint"
		pos			{0.14961 67.5664 1.8204}
		rot			{0.69959 0.282223 0.593254 -0.281023}
		
		bone 	"Bake_LkneeJoint"
		pos			{-0.149599 -67.5665 -1.82043}
		rot			{0.697893 0.282004 0.595261 -0.281218}
		
		bone 	"Bake_UpperChestJoint"
		pos			{-8.88178e-015 24.7866 -7.5982}
		rot			{0.98492 -0.13948 -8.86475e-002 -5.11741e-002}
		
		bone 	"Bake_RArmJoint"
		pos			{-19.6696 -7.15149 -2.14289}
		rot			{0.196185 0.834933 0.501219 -0.114798}
		
		bone 	"Bake_LArmJoint"
		pos			{19.4833 -7.55507 -2.14288}
		rot			{0.873551 7.32056e-003 5.65753e-002 -0.483377}
		
		bone 	"Bake_LElbowJoint"
		pos			{42.3171 0.912694 -3.2219}
		rot			{0.550211 -6.92461e-002 -0.830566 -5.13136e-002}
		
		bone 	"Bake_RElbowJoint"
		pos			{-42.2763 -0.990979 6.52934}
		rot			{0.778083 -5.88065e-002 -0.621822 -6.68264e-002}
		
		bone 	"Bake_RWristJoint"
		pos			{-50.1445 0.692473 2.14966}
		rot			{0.882584 0.442056 -2.67086e-003 -0.160077}
		
		bone 	"Bake_LWristJoint"
		pos			{45.8286 -0.158446 -0.641449}
		rot			{0.819776 0.552135 0.139731 -5.99124e-002}
		
		bone 	"Bake_RHandJoint"
		pos			{-17.4849 -0.540389 -3.5306}
		rot			{0.97511 0. 0. -0.221722}
		
		bone 	"Bake_LHandJoint"
		pos			{21.0086 -0.27611 1.42274}
		rot			{0.939921 -1.30405e-003 4.09933e-002 -0.33892}
	}
	
	// Keyframe# 4
	CIwAnimKeyFrame
	{
		time 	0.2
		
		bone 	"Bake_RHipJoint"
		pos			{-9.27856 -0.750547 -4.71226e-002}
		rot			{4.42025e-002 0.668261 -0.203809 -0.714098}
		
		bone 	"Bake_RkneeJoint"
		pos			{0.14961 67.5664 1.8204}
		rot			{0.734972 0.185548 0.625681 -0.184152}
		
		bone 	"Bake_RFootJoint"
		pos			{1.01277 88.9408 17.4875}
		rot			{0.976108 -5.52969e-002 6.08175e-002 -0.201138}
		
		bone 	"Bake_RToeJoint"
		pos			{-3.56224 13.9947 -19.4816}
		rot			{0.992621 -0.121258 0. 0.}
	}
	
	// Keyframe# 5
	CIwAnimKeyFrame
	{
		time 	0.233333
		
		bone 	"Bake_Root"
		pos			{-1.54198 155.853 -24.6316}
		rot			{0.922321 0.114089 -0.369135 -6.89972e-003}
		
		bone 	"Bake_LHipJoint"
		pos			{10.2572 -0.750527 -4.7124e-002}
		rot			{0.760274 -0.12191 -0.474843 0.426199}
		
		bone 	"Bake_LowerChestJoint"
		pos			{0.950914 18.3459 3.38756}
		rot			{0.992755 7.34961e-002 -9.1013e-002 2.74271e-002}
		
		bone 	"Bake_RHipJoint"
		pos			{-9.27856 -0.750547 -4.71226e-002}
		rot			{5.24393e-002 0.655128 -0.210954 -0.723572}
		
		bone 	"Bake_RkneeJoint"
		pos			{0.14961 67.5664 1.8204}
		rot			{0.73598 0.181984 0.626583 -0.180581}
		
		bone 	"Bake_LkneeJoint"
		pos			{-0.149599 -67.5665 -1.82043}
		rot			{0.734224 0.181871 0.628579 -0.180907}
		
		bone 	"Bake_UpperChestJoint"
		pos			{7.99361e-015 24.7866 -7.5982}
		rot			{0.988457 -2.43221e-002 -0.147898 -2.20786e-002}
		
		bone 	"Bake_NeckJoint"
		pos			{2.06501e-014 31.5911 -5.27135}
		rot			{0.993018 4.64312e-002 -3.68712e-002 0.101979}
		
		bone 	"Bake_LFootJoint"
		pos			{-1.01281 -88.9406 -17.4875}
		rot			{0.98255 4.01912e-002 -7.11248e-002 -0.167097}
		
		bone 	"Bake_RFootJoint"
		pos			{1.01277 88.9408 17.4875}
		rot			{0.977745 -4.56898e-002 5.42832e-002 -0.197435}
		
		bone 	"Bake_RArmJoint"
		pos			{-19.6696 -7.15149 -2.14289}
		rot			{0.156399 -0.858968 -0.487371 -1.35289e-002}
		
		bone 	"Bake_LArmJoint"
		pos			{19.4833 -7.55507 -2.14288}
		rot			{0.752611 -7.37441e-002 0.31004 -0.576207}
		
		bone 	"Bake_RToeJoint"
		pos			{-3.56224 13.9947 -19.4816}
		rot			{0.992621 -0.121258 0. 0.}
		
		bone 	"Bake_HeadJoint"
		pos			{-0.447655 10.0592 -0.213579}
		rot			{0.828619 -0.119267 0.533044 -0.122596}
		
		bone 	"Bake_LToeJoint"
		pos			{3.56225 -13.9948 19.4816}
		rot			{1. 0. 0. 0.}
		
		bone 	"Bake_LElbowJoint"
		pos			{42.3171 0.912694 -3.2219}
		rot			{0.558827 -6.81443e-002 -0.824883 -5.13524e-002}
		
		bone 	"Bake_RElbowJoint"
		pos			{-42.2763 -0.990979 6.52934}
		rot			{0.669532 -8.09624e-002 -0.734375 -7.65861e-002}
		
		bone 	"Bake_RWristJoint"
		pos			{-50.1445 0.692473 2.14966}
		rot			{0.766144 0.640385 5.17168e-003 5.38894e-002}
		
		bone 	"Bake_LWristJoint"
		pos			{45.8286 -0.158446 -0.641449}
		rot			{0.820879 0.570828 -1.51292e-002 -9.16335e-003}
		
		bone 	"Bake_RHandJoint"
		pos			{-17.4849 -0.540389 -3.5306}
		rot			{0.992484 0. 0. -0.122375}
		
		bone 	"Bake_LHandJoint"
		pos			{21.0086 -0.27611 1.42274}
		rot			{0.947436 -3.64948e-004 4.10124e-002 -0.317307}
		
		bone 	"Bake_LIndexJoint1"
		pos			{13.6098 -1.33931 8.14663}
		rot			{0.971938 -2.27508e-002 -0.208823 -0.10589}
		
		bone 	"Bake_RIndexJoint1"
		pos			{-9.08339 1.40164 -8.94563}
		rot			{0.959538 0. -0.28158 0.}
		
		bone 	"Bake_LIndex2"
		pos			{3.61358 -0.801748 -1.08499}
		rot			{0.977689 1.25744e-004 0.210058 5.85257e-004}
		
		bone 	"Bake_RIndexJoint2"
		pos			{-3.15429 1.28809 -5.86307e-002}
		rot			{1. 0. 0. 0.}
	}
}
