// Source maya file: C:/dev/dev/main/gamedemo1/Art/Characters/combatEva/Animation/combatEva_NtStance_HedDmg.mb
// Maya geometry export, written by IwEngineExporter.mll

// Animation data
CIwAnim
{
	skeleton 	"combatEva_rig"
	
	// Keyframe# 1
	CIwAnimKeyFrame
	{
		time 	0.
		
		bone 	"Bake_Root"
		pos			{-0.128736 155.496 1.40849}
		rot			{0.954896 0.100387 -0.27617 -4.27246e-002}
		
		bone 	"Bake_LHipJoint"
		pos			{10.2572 -0.750527 -4.7124e-002}
		rot			{0.804177 -0.132137 -0.503193 0.287466}
		
		bone 	"Bake_LowerChestJoint"
		pos			{0.950914 18.3459 3.38756}
		rot			{0.9855 0.144319 7.95474e-002 4.04331e-002}
		
		bone 	"Bake_RHipJoint"
		pos			{-9.27856 -0.750547 -4.71226e-002}
		rot			{0.282094 0.630873 -0.230366 -0.685094}
		
		bone 	"Bake_RkneeJoint"
		pos			{0.14961 67.5664 1.8204}
		rot			{0.708275 0.262127 0.601311 -0.260886}
		
		bone 	"Bake_LkneeJoint"
		pos			{-0.149599 -67.5665 -1.82043}
		rot			{0.699225 0.279027 0.596501 -0.278235}
		
		bone 	"Bake_UpperChestJoint"
		pos			{1.82077e-014 24.7866 -7.5982}
		rot			{0.996072 -6.626e-002 -3.62724e-002 4.61948e-002}
		
		bone 	"Bake_NeckJoint"
		pos			{-1.77636e-015 31.5911 -5.27135}
		rot			{0.999984 1.42512e-004 5.46961e-003 1.15011e-003}
		
		bone 	"Bake_LFootJoint"
		pos			{-1.01281 -88.9406 -17.4875}
		rot			{0.980053 -0.195198 1.3815e-002 -3.46901e-002}
		
		bone 	"Bake_RFootJoint"
		pos			{1.01277 88.9408 17.4875}
		rot			{0.990708 -0.107062 4.14276e-002 -7.29261e-002}
		
		bone 	"Bake_RArmJoint"
		pos			{-19.6696 -7.15149 -2.14289}
		rot			{0.108129 -0.853234 -0.509269 -3.07423e-002}
		
		bone 	"Bake_LArmJoint"
		pos			{19.4833 -7.55507 -2.14288}
		rot			{0.673237 -2.12111e-002 0.305818 -0.672887}
		
		bone 	"Bake_RToeJoint"
		pos			{-3.56224 13.9947 -19.4816}
		rot			{1. 0. 0. 0.}
		
		bone 	"Bake_HeadJoint"
		pos			{-0.447655 10.0592 -0.213579}
		rot			{0.970524 -0.10928 0.208195 -5.28832e-002}
		
		bone 	"Bake_LToeJoint"
		pos			{3.56225 -13.9948 19.4816}
		rot			{1. 0. 0. 0.}
		
		bone 	"Bake_LElbowJoint"
		pos			{42.3171 0.912694 -3.2219}
		rot			{0.630691 -5.87472e-002 -0.772134 -5.0857e-002}
		
		bone 	"Bake_RElbowJoint"
		pos			{-42.2763 -0.990979 6.52934}
		rot			{0.70209 -7.44953e-002 -0.704266 -7.43584e-002}
		
		bone 	"Bake_RWristJoint"
		pos			{-50.1445 0.692473 2.14966}
		rot			{0.817159 0.549915 0.111281 0.132144}
		
		bone 	"Bake_LWristJoint"
		pos			{45.8286 -0.158446 -0.641449}
		rot			{0.723745 0.686417 7.04727e-002 -7.69206e-003}
		
		bone 	"Bake_RHandJoint"
		pos			{-17.4849 -0.540389 -3.5306}
		rot			{0.992484 0. 0. -0.122375}
		
		bone 	"Bake_LHandJoint"
		pos			{21.0086 -0.27611 1.42274}
		rot			{0.947436 -3.64948e-004 4.10124e-002 -0.317307}
		
		bone 	"Bake_LIndexJoint1"
		pos			{13.6098 -1.33931 8.14663}
		rot			{0.971938 -2.27508e-002 -0.208823 -0.10589}
		
		bone 	"Bake_RIndexJoint1"
		pos			{-9.08339 1.40164 -8.94563}
		rot			{0.959538 0. -0.28158 0.}
		
		bone 	"Bake_LIndex2"
		pos			{3.61358 -0.801748 -1.08499}
		rot			{0.977689 1.25744e-004 0.210058 5.85257e-004}
		
		bone 	"Bake_RIndexJoint2"
		pos			{-3.15429 1.28809 -5.86307e-002}
		rot			{1. 0. 0. 0.}
	}
	
	// Keyframe# 2
	CIwAnimKeyFrame
	{
		time 	3.33333e-002
		
		bone 	"Bake_LowerChestJoint"
		pos			{0.950914 18.3459 3.38756}
		rot			{0.996909 6.41215e-002 -4.3171e-002 -1.40276e-002}
		
		bone 	"Bake_UpperChestJoint"
		pos			{8.88178e-016 24.7866 -7.5982}
		rot			{0.98947 0.126321 -5.63108e-002 -4.26721e-002}
		
		bone 	"Bake_NeckJoint"
		pos			{2.53131e-014 31.5911 -5.27135}
		rot			{0.998618 -3.72993e-002 4.65873e-003 -3.67249e-002}
		
		bone 	"Bake_RArmJoint"
		pos			{-19.6696 -7.15149 -2.14289}
		rot			{8.52664e-003 -0.785499 -0.578685 0.219186}
		
		bone 	"Bake_LArmJoint"
		pos			{19.4833 -7.55507 -2.14288}
		rot			{0.652312 -8.391e-002 0.419672 -0.625559}
		
		bone 	"Bake_HeadJoint"
		pos			{-0.447655 10.0592 -0.213579}
		rot			{0.94843 -0.149161 -0.167362 0.224103}
		
		bone 	"Bake_LElbowJoint"
		pos			{42.3171 0.912694 -3.2219}
		rot			{0.494604 -7.62219e-002 -0.86429 -5.05967e-002}
		
		bone 	"Bake_RElbowJoint"
		pos			{-42.2763 -0.990979 6.52934}
		rot			{0.840332 -4.53026e-002 -0.537099 -5.75754e-002}
	}
	
	// Keyframe# 3
	CIwAnimKeyFrame
	{
		time 	1.e-001
		
		bone 	"Bake_Root"
		pos			{0.853142 161.256 -43.0473}
		rot			{0.969612 2.84237e-003 -0.241581 -3.85201e-002}
		
		bone 	"Bake_LHipJoint"
		pos			{10.2572 -0.750527 -4.7124e-002}
		rot			{0.770926 -0.122184 -0.551808 0.293686}
		
		bone 	"Bake_LowerChestJoint"
		pos			{0.950914 18.3459 3.38756}
		rot			{0.994646 -6.8766e-002 -6.85323e-002 3.54229e-002}
		
		bone 	"Bake_RHipJoint"
		pos			{-9.27856 -0.750547 -4.71226e-002}
		rot			{9.17987e-002 0.651591 -0.132443 -0.741257}
		
		bone 	"Bake_RkneeJoint"
		pos			{0.14961 67.5664 1.8204}
		rot			{0.722831 0.223893 0.614694 -0.222575}
		
		bone 	"Bake_LkneeJoint"
		pos			{-0.149599 -67.5665 -1.82043}
		rot			{0.725131 0.21179 0.620371 -0.210879}
		
		bone 	"Bake_RArmJoint"
		pos			{-19.6696 -7.15149 -2.14289}
		rot			{0.206813 -0.695549 -0.622727 0.292663}
		
		bone 	"Bake_LArmJoint"
		pos			{19.4833 -7.55507 -2.14288}
		rot			{0.723373 0.207605 0.532403 -0.38753}
		
		bone 	"Bake_LElbowJoint"
		pos			{42.3171 0.912694 -3.2219}
		rot			{0.578231 -6.56433e-002 -0.811604 -5.13653e-002}
		
		bone 	"Bake_RElbowJoint"
		pos			{-42.2763 -0.990979 6.52934}
		rot			{0.985189 -1.06571e-002 -0.170826 -1.03594e-002}
		
		bone 	"Bake_LWristJoint"
		pos			{45.8286 -0.158446 -0.641449}
		rot			{0.776242 0.599721 0.159929 -0.110483}
		
		bone 	"Bake_LHandJoint"
		pos			{21.0086 -0.27611 1.42274}
		rot			{0.947436 -3.64948e-004 4.10124e-002 -0.317307}
	}
	
	// Keyframe# 4
	CIwAnimKeyFrame
	{
		time 	0.133333
		
		bone 	"Bake_RHipJoint"
		pos			{-9.27856 -0.750547 -4.71226e-002}
		rot			{3.51613e-002 0.659607 -0.116335 -0.74172}
		
		bone 	"Bake_RkneeJoint"
		pos			{0.14961 67.5664 1.8204}
		rot			{0.730589 0.200281 0.621739 -0.198915}
		
		bone 	"Bake_UpperChestJoint"
		pos			{4.44089e-015 24.7866 -7.5982}
		rot			{0.973168 -0.227809 -3.22961e-002 -1.8513e-003}
		
		bone 	"Bake_RFootJoint"
		pos			{1.01277 88.9408 17.4875}
		rot			{0.962962 -3.4606e-002 0.196015 -0.181892}
		
		bone 	"Bake_RArmJoint"
		pos			{-19.6696 -7.15149 -2.14289}
		rot			{0.388108 -0.726064 -0.561033 8.62848e-002}
		
		bone 	"Bake_LArmJoint"
		pos			{19.4833 -7.55507 -2.14288}
		rot			{0.678581 0.353683 0.541942 -0.347468}
		
		bone 	"Bake_RToeJoint"
		pos			{-3.56224 13.9947 -19.4816}
		rot			{0.992621 -0.121258 0. 0.}
		
		bone 	"Bake_LElbowJoint"
		pos			{42.3171 0.912694 -3.2219}
		rot			{0.577168 -6.57809e-002 -0.812349 -5.13673e-002}
		
		bone 	"Bake_RElbowJoint"
		pos			{-42.2763 -0.990979 6.52934}
		rot			{0.903221 -3.09772e-002 -0.425788 -4.40049e-002}
	}
	
	// Keyframe# 5
	CIwAnimKeyFrame
	{
		time 	0.166667
		
		bone 	"Bake_RArmJoint"
		pos			{-19.6696 -7.15149 -2.14289}
		rot			{0.385993 -0.742051 -0.542104 -8.05745e-002}
		
		bone 	"Bake_RElbowJoint"
		pos			{-42.2763 -0.990979 6.52934}
		rot			{0.831847 -4.71801e-002 -0.549835 -5.90391e-002}
		
		bone 	"Bake_RWristJoint"
		pos			{-50.1445 0.692473 2.14966}
		rot			{0.857385 0.448056 0.111425 0.227422}
		
		bone 	"Bake_RHandJoint"
		pos			{-17.4849 -0.540389 -3.5306}
		rot			{0.992484 0. 0. -0.122375}
	}
	
	// Keyframe# 6
	CIwAnimKeyFrame
	{
		time 	0.2
		
		bone 	"Bake_NeckJoint"
		pos			{1.06581e-014 31.5911 -5.27135}
		rot			{0.976663 -0.212951 2.38962e-002 -1.4501e-002}
		
		bone 	"Bake_RArmJoint"
		pos			{-19.6696 -7.15149 -2.14289}
		rot			{0.317889 -0.736052 -0.554613 -0.222662}
		
		bone 	"Bake_LArmJoint"
		pos			{19.4833 -7.55507 -2.14288}
		rot			{0.730177 0.416022 0.327355 -0.431979}
		
		bone 	"Bake_HeadJoint"
		pos			{-0.447655 10.0592 -0.213579}
		rot			{0.92152 -0.188486 -0.339343 1.0993e-002}
		
		bone 	"Bake_LElbowJoint"
		pos			{42.3171 0.912694 -3.2219}
		rot			{0.685891 -5.129e-002 -0.724213 -4.93823e-002}
		
		bone 	"Bake_RElbowJoint"
		pos			{-42.2763 -0.990979 6.52934}
		rot			{0.767327 -6.10788e-002 -0.634696 -6.81156e-002}
	}
	
	// Keyframe# 7
	CIwAnimKeyFrame
	{
		time 	0.233333
		
		bone 	"Bake_RArmJoint"
		pos			{-19.6696 -7.15149 -2.14289}
		rot			{0.229516 -0.708084 -0.586601 -0.319121}
		
		bone 	"Bake_LArmJoint"
		pos			{19.4833 -7.55507 -2.14288}
		rot			{0.787989 0.354317 0.16413 -0.476019}
		
		bone 	"Bake_LElbowJoint"
		pos			{42.3171 0.912694 -3.2219}
		rot			{0.718388 -4.68089e-002 -0.692404 -4.80054e-002}
		
		bone 	"Bake_RElbowJoint"
		pos			{-42.2763 -0.990979 6.52934}
		rot			{0.699078 -7.50999e-002 -0.707168 -7.45875e-002}
		
		bone 	"Bake_RWristJoint"
		pos			{-50.1445 0.692473 2.14966}
		rot			{0.77513 0.579283 -4.67982e-002 0.24782}
		
		bone 	"Bake_LWristJoint"
		pos			{45.8286 -0.158446 -0.641449}
		rot			{0.832438 0.493022 2.56941e-002 0.251626}
		
		bone 	"Bake_RHandJoint"
		pos			{-17.4849 -0.540389 -3.5306}
		rot			{0.992484 0. 0. -0.122375}
		
		bone 	"Bake_LHandJoint"
		pos			{21.0086 -0.27611 1.42274}
		rot			{0.947436 -3.64948e-004 4.10124e-002 -0.317307}
	}
	
	// Keyframe# 8
	CIwAnimKeyFrame
	{
		time 	0.3
		
		bone 	"Bake_Root"
		pos			{-1.6986 155.734 -34.6681}
		rot			{0.956689 0.109196 -0.26984 2.92381e-003}
		
		bone 	"Bake_LHipJoint"
		pos			{10.2572 -0.750527 -4.7124e-002}
		rot			{0.755736 -0.219373 -0.495825 0.367281}
		
		bone 	"Bake_LowerChestJoint"
		pos			{0.950914 18.3459 3.38756}
		rot			{0.996198 6.31436e-002 5.99765e-002 -2.18077e-003}
		
		bone 	"Bake_RHipJoint"
		pos			{-9.27856 -0.750547 -4.71226e-002}
		rot			{8.51567e-002 0.69028 -0.225741 -0.682131}
		
		bone 	"Bake_RkneeJoint"
		pos			{0.14961 67.5664 1.8204}
		rot			{0.72135 0.228105 0.613341 -0.226795}
		
		bone 	"Bake_LkneeJoint"
		pos			{-0.149599 -67.5665 -1.82043}
		rot			{0.701822 0.273115 0.598916 -0.272313}
		
		bone 	"Bake_UpperChestJoint"
		pos			{2.66454e-015 24.7866 -7.5982}
		rot			{0.998533 -4.50954e-002 -2.47268e-002 -1.69403e-002}
		
		bone 	"Bake_NeckJoint"
		pos			{-1.33227e-015 31.5911 -5.27135}
		rot			{0.999238 -3.89015e-002 2.39396e-003 -2.10633e-003}
		
		bone 	"Bake_LFootJoint"
		pos			{-1.01281 -88.9406 -17.4875}
		rot			{0.994551 -6.87529e-002 3.28496e-002 -7.11506e-002}
		
		bone 	"Bake_RArmJoint"
		pos			{-19.6696 -7.15149 -2.14289}
		rot			{8.6526e-002 -0.635666 -0.679883 -0.355248}
		
		bone 	"Bake_LArmJoint"
		pos			{19.4833 -7.55507 -2.14288}
		rot			{0.884877 0.11906 -9.20883e-002 -0.440836}
		
		bone 	"Bake_HeadJoint"
		pos			{-0.447655 10.0592 -0.213579}
		rot			{0.979073 -0.178435 7.89156e-002 5.78731e-002}
		
		bone 	"Bake_LToeJoint"
		pos			{3.56225 -13.9948 19.4816}
		rot			{1. 0. 0. 0.}
		
		bone 	"Bake_LElbowJoint"
		pos			{42.3171 0.912694 -3.2219}
		rot			{0.703232 -4.89069e-002 -0.707603 -4.86979e-002}
		
		bone 	"Bake_RElbowJoint"
		pos			{-42.2763 -0.990979 6.52934}
		rot			{0.632904 -8.80593e-002 -0.765193 -7.8476e-002}
	}
	
	// Keyframe# 9
	CIwAnimKeyFrame
	{
		time 	0.4
		
		bone 	"Bake_Root"
		pos			{-1.54198 155.853 -24.6316}
		rot			{0.922321 0.114089 -0.369135 -6.89972e-003}
		
		bone 	"Bake_LHipJoint"
		pos			{10.2572 -0.750527 -4.7124e-002}
		rot			{0.760274 -0.12191 -0.474842 0.4262}
		
		bone 	"Bake_LowerChestJoint"
		pos			{0.950914 18.3459 3.38756}
		rot			{0.992755 7.34961e-002 -9.1013e-002 2.74271e-002}
		
		bone 	"Bake_RHipJoint"
		pos			{-9.27856 -0.750547 -4.71226e-002}
		rot			{5.24393e-002 0.655127 -0.210954 -0.723572}
		
		bone 	"Bake_RkneeJoint"
		pos			{0.14961 67.5664 1.8204}
		rot			{0.73598 0.181984 0.626583 -0.180581}
		
		bone 	"Bake_LkneeJoint"
		pos			{-0.149599 -67.5665 -1.82043}
		rot			{0.734224 0.181871 0.628579 -0.180907}
		
		bone 	"Bake_UpperChestJoint"
		pos			{7.99361e-015 24.7866 -7.5982}
		rot			{0.988457 -2.43221e-002 -0.147898 -2.20786e-002}
		
		bone 	"Bake_NeckJoint"
		pos			{2.06501e-014 31.5911 -5.27135}
		rot			{0.993018 4.64312e-002 -3.68712e-002 0.101979}
		
		bone 	"Bake_LFootJoint"
		pos			{-1.01281 -88.9406 -17.4875}
		rot			{0.98255 4.01912e-002 -7.11252e-002 -0.167097}
		
		bone 	"Bake_RFootJoint"
		pos			{1.01277 88.9408 17.4875}
		rot			{0.977745 -4.56899e-002 5.42838e-002 -0.197435}
		
		bone 	"Bake_RArmJoint"
		pos			{-19.6696 -7.15149 -2.14289}
		rot			{0.156399 -0.858968 -0.487371 -1.35288e-002}
		
		bone 	"Bake_LArmJoint"
		pos			{19.4833 -7.55507 -2.14288}
		rot			{0.752611 -7.37438e-002 0.31004 -0.576207}
		
		bone 	"Bake_RToeJoint"
		pos			{-3.56224 13.9947 -19.4816}
		rot			{0.992621 -0.121258 0. 0.}
		
		bone 	"Bake_HeadJoint"
		pos			{-0.447655 10.0592 -0.213579}
		rot			{0.828619 -0.119267 0.533044 -0.122596}
		
		bone 	"Bake_LToeJoint"
		pos			{3.56225 -13.9948 19.4816}
		rot			{1. 0. 0. 0.}
		
		bone 	"Bake_LElbowJoint"
		pos			{42.3171 0.912694 -3.2219}
		rot			{0.558827 -6.81443e-002 -0.824883 -5.13524e-002}
		
		bone 	"Bake_RElbowJoint"
		pos			{-42.2763 -0.990979 6.52934}
		rot			{0.669532 -8.09624e-002 -0.734375 -7.65861e-002}
		
		bone 	"Bake_RWristJoint"
		pos			{-50.1445 0.692473 2.14966}
		rot			{0.766144 0.640385 5.17174e-003 5.38895e-002}
		
		bone 	"Bake_LWristJoint"
		pos			{45.8286 -0.158446 -0.641449}
		rot			{0.820879 0.570828 -1.51291e-002 -9.16307e-003}
		
		bone 	"Bake_RHandJoint"
		pos			{-17.4849 -0.540389 -3.5306}
		rot			{0.992484 0. 0. -0.122375}
		
		bone 	"Bake_LHandJoint"
		pos			{21.0086 -0.27611 1.42274}
		rot			{0.947436 -3.64948e-004 4.10124e-002 -0.317307}
		
		bone 	"Bake_LIndexJoint1"
		pos			{13.6098 -1.33931 8.14663}
		rot			{0.971938 -2.27508e-002 -0.208823 -0.10589}
		
		bone 	"Bake_RIndexJoint1"
		pos			{-9.08339 1.40164 -8.94563}
		rot			{0.959538 0. -0.28158 0.}
		
		bone 	"Bake_LIndex2"
		pos			{3.61358 -0.801748 -1.08499}
		rot			{0.977689 1.25744e-004 0.210058 5.85257e-004}
		
		bone 	"Bake_RIndexJoint2"
		pos			{-3.15429 1.28809 -5.86307e-002}
		rot			{1. 0. 0. 0.}
	}
}
