// Source file: C:/dev/dev/main/gamedemo1/Art/Characters/combatEva/Animation/btest_offset.mb
// Exported By: simon on 09/18/06 11:30:26

CIwAnim
{
	skeleton "SingleBone"
	// Keyframe# 1
	CIwAnimKeyFrame
	{
		time 0
		bone "SingleBone"
		pos {0,0,0}
		rot {1,0,0,0}
		
	}
	// Keyframe# 9
	CIwAnimKeyFrame
	{
		time 0.866667
		bone "SingleBone"
		pos {150,0,0}
		rot {1,0,0,0}
		
	}
}
