// Source maya file: C:/dev/dev/main/gamedemo1/Art/Characters/combatEva/Animation/test_combatEva_RtFwShuffle.mb exported by: asydie
//: source C:/dev/dev/main/gamedemo1/Art/Characters/combatEva/Animation/test_combatEva_RtFwShuffle.mb
// Maya geometry export, written by IwEngineExporter.mll

// Animation data
CIwAnim
{
	skeleton 	"combatEva_rig"
	
	// Keyframe# 1
	CIwAnimKeyFrame
	{
		time 	0.
		
		bone 	"Bake_Root"
		pos			{-0.48976 158.298 -11.0175}
		rot			{0.886165 4.04578e-002 0.461474 1.08086e-002}
		
		bone 	"Bake_LHipJoint"
		pos			{10.2572 -0.750527 -4.7124e-002}
		rot			{0.570823 4.59424e-002 -0.805175 0.154089}
		
		bone 	"Bake_LowerChestJoint"
		pos			{0.950914 18.3459 3.38756}
		rot			{0.979148 0.122148 -0.154896 4.85376e-002}
		
		bone 	"Bake_RHipJoint"
		pos			{-9.27856 -0.750547 -4.71226e-002}
		rot			{0.102487 0.899968 -0.376432 -0.194557}
		
		bone 	"Bake_RkneeJoint"
		pos			{0.14961 67.5664 1.8204}
		rot			{0.724084 0.220262 0.615836 -0.218937}
		
		bone 	"Bake_LkneeJoint"
		pos			{-0.149599 -67.5665 -1.82043}
		rot			{0.746676 0.12993 0.639519 -0.128873}
		
		bone 	"Bake_UpperChestJoint"
		pos			{6.88338e-015 24.7866 -7.5982}
		rot			{0.993124 -4.3982e-002 -0.102698 3.4978e-002}
		
		bone 	"Bake_NeckJoint"
		pos			{-5.4956e-015 31.5911 -5.27135}
		rot			{0.989674 1.7858e-002 0.139444 -2.79453e-002}
		
		bone 	"Bake_LFootJoint"
		pos			{-1.01281 -88.9406 -17.4875}
		rot			{0.982659 9.18058e-003 -7.99316e-002 -0.167057}
		
		bone 	"Bake_RFootJoint"
		pos			{1.01277 88.9408 17.4875}
		rot			{0.996645 4.57616e-002 5.53375e-002 -3.92787e-002}
		
		bone 	"Bake_RArmJoint"
		pos			{-19.6696 -7.15149 -2.14289}
		rot			{8.42791e-002 0.856503 0.508992 -1.50941e-002}
		
		bone 	"Bake_LArmJoint"
		pos			{19.4833 -7.55507 -2.14288}
		rot			{0.680093 0.277481 0.209354 -0.645483}
		
		bone 	"Bake_RToeJoint"
		pos			{-3.56224 13.9947 -19.4816}
		rot			{1. 0. 0. 0.}
		
		bone 	"Bake_HeadJoint"
		pos			{-0.447655 10.0592 -0.213579}
		rot			{0.925146 -0.114815 -0.359313 4.26114e-002}
		
		bone 	"Bake_LToeJoint"
		pos			{3.56225 -13.9948 19.4816}
		rot			{0.975612 -0.219502 0. 0.}
		
		bone 	"Bake_LElbowJoint"
		pos			{42.3171 0.912694 -3.2219}
		rot			{0.446933 -8.20095e-002 -0.889431 -4.93724e-002}
		
		bone 	"Bake_RElbowJoint"
		pos			{-42.2763 -0.990979 6.52934}
		rot			{0.342341 -0.137555 -0.92642 -7.50156e-002}
		
		bone 	"Bake_RWristJoint"
		pos			{-50.1445 0.692473 2.14966}
		rot			{0.908893 -0.331994 -0.162033 -0.193489}
		
		bone 	"Bake_LWristJoint"
		pos			{45.8286 -0.158446 -0.641449}
		rot			{0.711902 0.70049 4.37029e-002 2.44731e-002}
		
		bone 	"Bake_RHandJoint"
		pos			{-17.4849 -0.540389 -3.5306}
		rot			{0.672545 0. 0. -0.740056}
		
		bone 	"Bake_LHandJoint"
		pos			{17.2019 0.366814 1.97759}
		rot			{0.881227 -7.20145e-003 4.03769e-002 -0.47091}
		
		bone 	"Bake_LIndexJoint1"
		pos			{12.2418 -1.31958 7.40454}
		rot			{0.971938 -2.27508e-002 -0.208823 -0.10589}
		
		bone 	"Bake_RIndexJoint1"
		pos			{-9.08339 1.40164 -8.94563}
		rot			{0.959538 0. -0.28158 0.}
		
		bone 	"Bake_LIndex2"
		pos			{6.17497 -0.574751 0.664665}
		rot			{0.977689 1.25744e-004 0.210058 5.85257e-004}
		
		bone 	"Bake_RIndexJoint2"
		pos			{-3.15429 1.28809 -5.86307e-002}
		rot			{1. 0. 0. 0.}
	}
	
	// Keyframe# 2
	CIwAnimKeyFrame
	{
		time 	3.33333e-002
		
		bone 	"Bake_LHipJoint"
		pos			{10.2572 -0.750527 -4.7124e-002}
		rot			{0.523256 -0.111705 -0.822572 0.192613}
		
		bone 	"Bake_RkneeJoint"
		pos			{0.14961 67.5664 1.8204}
		rot			{0.72804 0.208354 0.619432 -0.207004}
		
		bone 	"Bake_LkneeJoint"
		pos			{-0.149599 -67.5665 -1.82043}
		rot			{0.711406 0.249914 0.60779 -0.24907}
		
		bone 	"Bake_UpperChestJoint"
		pos			{6.88338e-015 24.7866 -7.5982}
		rot			{0.993124 -4.3982e-002 -0.102698 3.4978e-002}
		
		bone 	"Bake_NeckJoint"
		pos			{-5.4956e-015 31.5911 -5.27135}
		rot			{0.989674 1.7858e-002 0.139444 -2.79453e-002}
		
		bone 	"Bake_LFootJoint"
		pos			{-1.01281 -88.9406 -17.4875}
		rot			{0.996139 -3.39757e-002 -1.18658e-002 -8.00731e-002}
		
		bone 	"Bake_RFootJoint"
		pos			{1.01277 88.9408 17.4875}
		rot			{0.996371 5.22187e-002 5.46695e-002 -3.91132e-002}
		
		bone 	"Bake_RArmJoint"
		pos			{-19.6696 -7.15149 -2.14289}
		rot			{0.100759 0.85437 0.508903 -3.02886e-002}
		
		bone 	"Bake_LArmJoint"
		pos			{19.4833 -7.55507 -2.14288}
		rot			{0.680251 0.279909 0.198355 -0.647739}
		
		bone 	"Bake_RToeJoint"
		pos			{-3.56224 13.9947 -19.4816}
		rot			{1. 0. 0. 0.}
		
		bone 	"Bake_HeadJoint"
		pos			{-0.447655 10.0592 -0.213579}
		rot			{0.925146 -0.114815 -0.359313 4.26114e-002}
		
		bone 	"Bake_LToeJoint"
		pos			{3.56225 -13.9948 19.4816}
		rot			{0.992845 -0.11941 0. 0.}
		
		bone 	"Bake_LElbowJoint"
		pos			{42.3171 0.912694 -3.2219}
		rot			{0.441371 -8.26727e-002 -0.892153 -4.91947e-002}
		
		bone 	"Bake_RElbowJoint"
		pos			{-42.2763 -0.990979 6.52934}
		rot			{0.357212 -0.135326 -0.921047 -7.58826e-002}
		
		bone 	"Bake_RWristJoint"
		pos			{-50.1445 0.692473 2.14966}
		rot			{0.9097 -0.33389 -0.156146 -0.191261}
		
		bone 	"Bake_LWristJoint"
		pos			{45.8286 -0.158446 -0.641449}
		rot			{0.707705 0.703733 5.7878e-002 2.37197e-002}
		
		bone 	"Bake_RHandJoint"
		pos			{-17.4849 -0.540389 -3.5306}
		rot			{0.672545 0. 0. -0.740056}
		
		bone 	"Bake_LHandJoint"
		pos			{17.2019 0.366814 1.97759}
		rot			{0.881227 -7.20145e-003 4.03769e-002 -0.47091}
		
		bone 	"Bake_LIndexJoint1"
		pos			{12.2418 -1.31958 7.40454}
		rot			{0.971938 -2.27508e-002 -0.208823 -0.10589}
		
		bone 	"Bake_RIndexJoint1"
		pos			{-9.08339 1.40164 -8.94563}
		rot			{0.959538 0. -0.28158 0.}
		
		bone 	"Bake_LIndex2"
		pos			{6.17497 -0.574751 0.664665}
		rot			{0.977689 1.25744e-004 0.210058 5.85257e-004}
		
		bone 	"Bake_RIndexJoint2"
		pos			{-3.15429 1.28809 -5.86307e-002}
		rot			{1. 0. 0. 0.}
	}
	
	// Keyframe# 3
	CIwAnimKeyFrame
	{
		time 	6.66667e-002
		
		bone 	"Bake_Root"
		pos			{-0.48976 160.505 -11.0175}
		rot			{0.886165 4.04578e-002 0.461474 1.08086e-002}
		
		bone 	"Bake_LHipJoint"
		pos			{10.2572 -0.750527 -4.7124e-002}
		rot			{0.461873 -0.276334 -0.8167 0.208123}
		
		bone 	"Bake_LowerChestJoint"
		pos			{0.950914 18.3459 3.38756}
		rot			{0.979148 0.122148 -0.154896 4.85376e-002}
		
		bone 	"Bake_RHipJoint"
		pos			{-9.27856 -0.750547 -4.71226e-002}
		rot			{9.65217e-002 0.908935 -0.356093 -0.19421}
		
		bone 	"Bake_RkneeJoint"
		pos			{0.14961 67.5664 1.8204}
		rot			{0.731946 0.195842 0.622963 -0.194467}
		
		bone 	"Bake_LkneeJoint"
		pos			{-0.149599 -67.5665 -1.82043}
		rot			{0.679963 0.31895 0.57849 -0.31823}
		
		bone 	"Bake_UpperChestJoint"
		pos			{3.33067e-015 24.7866 -7.5982}
		rot			{0.993124 -4.3982e-002 -0.102698 3.4978e-002}
		
		bone 	"Bake_NeckJoint"
		pos			{-1.94289e-015 31.5911 -5.27135}
		rot			{0.989674 1.7858e-002 0.139444 -2.79453e-002}
		
		bone 	"Bake_LFootJoint"
		pos			{-1.01281 -88.9406 -17.4875}
		rot			{0.997154 -1.84602e-003 7.51442e-002 5.73785e-003}
		
		bone 	"Bake_RFootJoint"
		pos			{1.01277 88.9408 17.4875}
		rot			{0.996055 5.90599e-002 5.36014e-002 -3.88932e-002}
		
		bone 	"Bake_RArmJoint"
		pos			{-19.6696 -7.15149 -2.14289}
		rot			{0.132409 0.85189 0.503189 -5.95995e-002}
		
		bone 	"Bake_LArmJoint"
		pos			{19.4833 -7.55507 -2.14288}
		rot			{0.685685 0.271455 0.181477 -0.650549}
		
		bone 	"Bake_RToeJoint"
		pos			{-3.56224 13.9947 -19.4816}
		rot			{1. 0. 0. 0.}
		
		bone 	"Bake_HeadJoint"
		pos			{-0.447655 10.0592 -0.213579}
		rot			{0.925146 -0.114815 -0.359313 4.26114e-002}
		
		bone 	"Bake_LToeJoint"
		pos			{3.56225 -13.9948 19.4816}
		rot			{1. 0. 0. 0.}
		
		bone 	"Bake_LElbowJoint"
		pos			{42.3171 0.912694 -3.2219}
		rot			{0.450361 -8.15995e-002 -0.887732 -4.94784e-002}
		
		bone 	"Bake_RElbowJoint"
		pos			{-42.2763 -0.990979 6.52934}
		rot			{0.383522 -0.131299 -0.910881 -7.72489e-002}
		
		bone 	"Bake_RWristJoint"
		pos			{-50.1445 0.692473 2.14966}
		rot			{0.911126 -0.340376 -0.144618 -0.181878}
		
		bone 	"Bake_LWristJoint"
		pos			{45.8286 -0.158446 -0.641449}
		rot			{0.707044 0.703267 6.98421e-002 2.50476e-002}
		
		bone 	"Bake_RHandJoint"
		pos			{-17.4849 -0.540389 -3.5306}
		rot			{0.672545 0. 0. -0.740056}
		
		bone 	"Bake_LHandJoint"
		pos			{17.2019 0.366814 1.97759}
		rot			{0.881227 -7.20145e-003 4.03769e-002 -0.47091}
		
		bone 	"Bake_LIndexJoint1"
		pos			{12.2418 -1.31958 7.40454}
		rot			{0.971938 -2.27508e-002 -0.208823 -0.10589}
		
		bone 	"Bake_RIndexJoint1"
		pos			{-9.08339 1.40164 -8.94563}
		rot			{0.959538 0. -0.28158 0.}
		
		bone 	"Bake_LIndex2"
		pos			{6.17497 -0.574751 0.664665}
		rot			{0.977689 1.25744e-004 0.210058 5.85257e-004}
		
		bone 	"Bake_RIndexJoint2"
		pos			{-3.15429 1.28809 -5.86307e-002}
		rot			{1. 0. 0. 0.}
	}
	
	// Keyframe# 4
	CIwAnimKeyFrame
	{
		time 	1.e-001
		
		bone 	"Bake_Root"
		pos			{-0.48976 158.921 -11.0175}
		rot			{0.886165 4.04578e-002 0.461474 1.08086e-002}
		
		bone 	"Bake_LHipJoint"
		pos			{10.2572 -0.750527 -4.7124e-002}
		rot			{0.445462 -0.299962 -0.82098 0.193848}
		
		bone 	"Bake_LowerChestJoint"
		pos			{0.950914 18.3459 3.38756}
		rot			{0.979148 0.122148 -0.154896 4.85376e-002}
		
		bone 	"Bake_RHipJoint"
		pos			{-9.27856 -0.750547 -4.71226e-002}
		rot			{0.112108 0.886697 -0.407736 -0.186954}
		
		bone 	"Bake_RkneeJoint"
		pos			{0.14961 67.5664 1.8204}
		rot			{0.714213 0.247315 0.606792 -0.246045}
		
		bone 	"Bake_LkneeJoint"
		pos			{-0.149599 -67.5665 -1.82043}
		rot			{0.693679 0.291189 0.591333 -0.290419}
		
		bone 	"Bake_UpperChestJoint"
		pos			{3.33067e-015 24.7866 -7.5982}
		rot			{0.993124 -4.3982e-002 -0.102698 3.4978e-002}
		
		bone 	"Bake_NeckJoint"
		pos			{-1.94289e-015 31.5911 -5.27135}
		rot			{0.989674 1.7858e-002 0.139444 -2.79453e-002}
		
		bone 	"Bake_LFootJoint"
		pos			{-1.01281 -88.9406 -17.4875}
		rot			{0.996439 -2.2353e-002 7.67093e-002 -2.6942e-002}
		
		bone 	"Bake_RFootJoint"
		pos			{1.01277 88.9408 17.4875}
		rot			{0.997145 4.11936e-002 5.09066e-002 -3.76021e-002}
		
		bone 	"Bake_RArmJoint"
		pos			{-19.6696 -7.15149 -2.14289}
		rot			{0.154154 0.854971 0.488824 -7.94502e-002}
		
		bone 	"Bake_LArmJoint"
		pos			{19.4833 -7.55507 -2.14288}
		rot			{0.694167 0.251634 0.173128 -0.651797}
		
		bone 	"Bake_RToeJoint"
		pos			{-3.56224 13.9947 -19.4816}
		rot			{1. 0. 0. 0.}
		
		bone 	"Bake_HeadJoint"
		pos			{-0.447655 10.0592 -0.213579}
		rot			{0.925146 -0.114815 -0.359313 4.26114e-002}
		
		bone 	"Bake_LToeJoint"
		pos			{3.56225 -13.9948 19.4816}
		rot			{1. 0. 0. 0.}
		
		bone 	"Bake_LElbowJoint"
		pos			{42.3171 0.912694 -3.2219}
		rot			{0.468715 -7.93878e-002 -0.878353 -4.99991e-002}
		
		bone 	"Bake_RElbowJoint"
		pos			{-42.2763 -0.990979 6.52934}
		rot			{0.396179 -0.129324 -0.905682 -7.78288e-002}
		
		bone 	"Bake_RWristJoint"
		pos			{-50.1445 0.692473 2.14966}
		rot			{0.911788 -0.350891 -0.135489 -0.164806}
		
		bone 	"Bake_LWristJoint"
		pos			{45.8286 -0.158446 -0.641449}
		rot			{0.712683 0.69772 6.92472e-002 2.17882e-002}
		
		bone 	"Bake_RHandJoint"
		pos			{-17.4849 -0.540389 -3.5306}
		rot			{0.672545 0. 0. -0.740056}
		
		bone 	"Bake_LHandJoint"
		pos			{17.2019 0.366814 1.97759}
		rot			{0.881227 -7.20145e-003 4.03769e-002 -0.47091}
		
		bone 	"Bake_LIndexJoint1"
		pos			{12.2418 -1.31958 7.40454}
		rot			{0.971938 -2.27508e-002 -0.208823 -0.10589}
		
		bone 	"Bake_RIndexJoint1"
		pos			{-9.08339 1.40164 -8.94563}
		rot			{0.959538 0. -0.28158 0.}
		
		bone 	"Bake_LIndex2"
		pos			{6.17497 -0.574751 0.664665}
		rot			{0.977689 1.25744e-004 0.210058 5.85257e-004}
		
		bone 	"Bake_RIndexJoint2"
		pos			{-3.15429 1.28809 -5.86307e-002}
		rot			{1. 0. 0. 0.}
	}
	
	// Keyframe# 5
	CIwAnimKeyFrame
	{
		time 	0.133333
		
		bone 	"Bake_Root"
		pos			{-0.48976 155.143 -11.0175}
		rot			{0.886165 4.04578e-002 0.461474 1.08086e-002}
		
		bone 	"Bake_LHipJoint"
		pos			{10.2572 -0.750527 -4.7124e-002}
		rot			{0.448293 -0.304828 -0.818817 0.188818}
		
		bone 	"Bake_LowerChestJoint"
		pos			{0.950914 18.3459 3.38756}
		rot			{0.979148 0.122148 -0.154896 4.85376e-002}
		
		bone 	"Bake_RHipJoint"
		pos			{-9.27856 -0.750547 -4.71226e-002}
		rot			{0.133082 0.853133 -0.471975 -0.178026}
		
		bone 	"Bake_RkneeJoint"
		pos			{0.14961 67.5664 1.8204}
		rot			{0.692572 0.297327 0.586712 -0.296158}
		
		bone 	"Bake_LkneeJoint"
		pos			{-0.149599 -67.5665 -1.82043}
		rot			{0.701757 0.273264 0.598856 -0.272462}
		
		bone 	"Bake_UpperChestJoint"
		pos			{3.33067e-015 24.7866 -7.5982}
		rot			{0.993124 -4.3982e-002 -0.102698 3.4978e-002}
		
		bone 	"Bake_NeckJoint"
		pos			{-5.4956e-015 31.5911 -5.27135}
		rot			{0.989674 1.7858e-002 0.139444 -2.79453e-002}
		
		bone 	"Bake_LFootJoint"
		pos			{-1.01281 -88.9406 -17.4875}
		rot			{0.992617 -7.54119e-002 7.05423e-002 -6.36265e-002}
		
		bone 	"Bake_RFootJoint"
		pos			{1.01277 88.9408 17.4875}
		rot			{0.997276 4.04986e-002 5.04055e-002 -3.54883e-002}
		
		bone 	"Bake_RArmJoint"
		pos			{-19.6696 -7.15149 -2.14289}
		rot			{0.152334 0.861888 0.477324 -7.81355e-002}
		
		bone 	"Bake_LArmJoint"
		pos			{19.4833 -7.55507 -2.14288}
		rot			{0.701452 0.233196 0.168086 -0.652175}
		
		bone 	"Bake_RToeJoint"
		pos			{-3.56224 13.9947 -19.4816}
		rot			{1. 0. 0. 0.}
		
		bone 	"Bake_HeadJoint"
		pos			{-0.447655 10.0592 -0.213579}
		rot			{0.925146 -0.114815 -0.359313 4.26114e-002}
		
		bone 	"Bake_LToeJoint"
		pos			{3.56225 -13.9948 19.4816}
		rot			{1. 0. 0. 0.}
		
		bone 	"Bake_LElbowJoint"
		pos			{42.3171 0.912694 -3.2219}
		rot			{0.474029 -7.87423e-002 -0.875547 -5.0135e-002}
		
		bone 	"Bake_RElbowJoint"
		pos			{-42.2763 -0.990979 6.52934}
		rot			{0.394377 -0.129607 -0.906435 -7.77493e-002}
		
		bone 	"Bake_RWristJoint"
		pos			{-50.1445 0.692473 2.14966}
		rot			{0.910717 -0.356494 -0.140678 -0.154002}
		
		bone 	"Bake_LWristJoint"
		pos			{45.8286 -0.158446 -0.641449}
		rot			{0.716847 0.693134 7.49374e-002 8.96112e-003}
		
		bone 	"Bake_RHandJoint"
		pos			{-17.4849 -0.540389 -3.5306}
		rot			{0.672545 0. 0. -0.740056}
		
		bone 	"Bake_LHandJoint"
		pos			{17.2019 0.366814 1.97759}
		rot			{0.881227 -7.20145e-003 4.03769e-002 -0.47091}
		
		bone 	"Bake_LIndexJoint1"
		pos			{12.2418 -1.31958 7.40454}
		rot			{0.971938 -2.27508e-002 -0.208823 -0.10589}
		
		bone 	"Bake_RIndexJoint1"
		pos			{-9.08339 1.40164 -8.94563}
		rot			{0.959538 0. -0.28158 0.}
		
		bone 	"Bake_LIndex2"
		pos			{6.17497 -0.574751 0.664665}
		rot			{0.977689 1.25744e-004 0.210058 5.85257e-004}
		
		bone 	"Bake_RIndexJoint2"
		pos			{-3.15429 1.28809 -5.86307e-002}
		rot			{1. 0. 0. 0.}
	}
	
	// Keyframe# 6
	CIwAnimKeyFrame
	{
		time 	0.166667
		
		bone 	"Bake_Root"
		pos			{-0.48976 150.635 -11.0175}
		rot			{0.886165 4.04578e-002 0.461474 1.08086e-002}
		
		bone 	"Bake_LHipJoint"
		pos			{10.2572 -0.750527 -4.7124e-002}
		rot			{0.440133 -0.312635 -0.817398 0.201004}
		
		bone 	"Bake_LowerChestJoint"
		pos			{0.950914 18.3459 3.38756}
		rot			{0.979148 0.122148 -0.154896 4.85376e-002}
		
		bone 	"Bake_RHipJoint"
		pos			{-9.27856 -0.750547 -4.71226e-002}
		rot			{0.142924 0.839438 -0.493117 -0.178192}
		
		bone 	"Bake_RkneeJoint"
		pos			{0.14961 67.5664 1.8204}
		rot			{0.694814 0.292602 0.588804 -0.291423}
		
		bone 	"Bake_LkneeJoint"
		pos			{-0.149599 -67.5665 -1.82043}
		rot			{0.683994 0.3111 0.582273 -0.310366}
		
		bone 	"Bake_UpperChestJoint"
		pos			{6.88338e-015 24.7866 -7.5982}
		rot			{0.993124 -4.3982e-002 -0.102698 3.4978e-002}
		
		bone 	"Bake_NeckJoint"
		pos			{-5.4956e-015 31.5911 -5.27135}
		rot			{0.989674 1.7858e-002 0.139444 -2.79453e-002}
		
		bone 	"Bake_LFootJoint"
		pos			{-1.01281 -88.9406 -17.4875}
		rot			{0.987482 -0.12069 7.04908e-002 -7.31031e-002}
		
		bone 	"Bake_RFootJoint"
		pos			{1.01277 88.9408 17.4875}
		rot			{0.99511 7.43921e-002 5.51579e-002 -3.43522e-002}
		
		bone 	"Bake_RArmJoint"
		pos			{-19.6696 -7.15149 -2.14289}
		rot			{0.139851 0.868863 0.469905 -6.86157e-002}
		
		bone 	"Bake_LArmJoint"
		pos			{19.4833 -7.55507 -2.14288}
		rot			{0.709446 0.21521 0.163218 -0.650946}
		
		bone 	"Bake_RToeJoint"
		pos			{-3.56224 13.9947 -19.4816}
		rot			{1. 0. 0. 0.}
		
		bone 	"Bake_HeadJoint"
		pos			{-0.447655 10.0592 -0.213579}
		rot			{0.925146 -0.114815 -0.359313 4.26114e-002}
		
		bone 	"Bake_LToeJoint"
		pos			{3.56225 -13.9948 19.4816}
		rot			{1. 0. 0. 0.}
		
		bone 	"Bake_LElbowJoint"
		pos			{42.3171 0.912694 -3.2219}
		rot			{0.476945 -7.83871e-002 -0.87399 -5.02066e-002}
		
		bone 	"Bake_RElbowJoint"
		pos			{-42.2763 -0.990979 6.52934}
		rot			{0.391493 -0.130058 -0.907631 -7.762e-002}
		
		bone 	"Bake_RWristJoint"
		pos			{-50.1445 0.692473 2.14966}
		rot			{0.908673 -0.357201 -0.155957 -0.149659}
		
		bone 	"Bake_LWristJoint"
		pos			{45.8286 -0.158446 -0.641449}
		rot			{0.721558 0.687414 8.24048e-002 -5.08179e-003}
		
		bone 	"Bake_RHandJoint"
		pos			{-17.4849 -0.540389 -3.5306}
		rot			{0.672545 0. 0. -0.740056}
		
		bone 	"Bake_LHandJoint"
		pos			{17.2019 0.366814 1.97759}
		rot			{0.881227 -7.20145e-003 4.03769e-002 -0.47091}
		
		bone 	"Bake_LIndexJoint1"
		pos			{12.2418 -1.31958 7.40454}
		rot			{0.971938 -2.27508e-002 -0.208823 -0.10589}
		
		bone 	"Bake_RIndexJoint1"
		pos			{-9.08339 1.40164 -8.94563}
		rot			{0.959538 0. -0.28158 0.}
		
		bone 	"Bake_LIndex2"
		pos			{6.17497 -0.574751 0.664665}
		rot			{0.977689 1.25744e-004 0.210058 5.85257e-004}
		
		bone 	"Bake_RIndexJoint2"
		pos			{-3.15429 1.28809 -5.86307e-002}
		rot			{1. 0. 0. 0.}
	}
	
	// Keyframe# 7
	CIwAnimKeyFrame
	{
		time 	0.2
		
		bone 	"Bake_Root"
		pos			{-0.48976 146.857 -11.0175}
		rot			{0.886165 4.04578e-002 0.461474 1.08086e-002}
		
		bone 	"Bake_LHipJoint"
		pos			{10.2572 -0.750527 -4.7124e-002}
		rot			{0.434613 -0.297991 -0.824205 0.207361}
		
		bone 	"Bake_LowerChestJoint"
		pos			{0.950914 18.3459 3.38756}
		rot			{0.979148 0.122148 -0.154896 4.85376e-002}
		
		bone 	"Bake_RHipJoint"
		pos			{-9.27856 -0.750547 -4.71226e-002}
		rot			{0.145785 0.837932 -0.492043 -0.185769}
		
		bone 	"Bake_RkneeJoint"
		pos			{0.14961 67.5664 1.8204}
		rot			{0.707222 0.264656 0.600337 -0.26342}
		
		bone 	"Bake_LkneeJoint"
		pos			{-0.149599 -67.5665 -1.82043}
		rot			{0.669831 0.337695 0.568959 -0.337008}
		
		bone 	"Bake_UpperChestJoint"
		pos			{1.04361e-014 24.7866 -7.5982}
		rot			{0.993124 -4.3982e-002 -0.102698 3.4978e-002}
		
		bone 	"Bake_NeckJoint"
		pos			{-5.4956e-015 31.5911 -5.27135}
		rot			{0.989674 1.7858e-002 0.139444 -2.79453e-002}
		
		bone 	"Bake_LFootJoint"
		pos			{-1.01281 -88.9406 -17.4875}
		rot			{0.980337 -0.162179 6.8685e-002 -8.89898e-002}
		
		bone 	"Bake_RFootJoint"
		pos			{1.01277 88.9408 17.4875}
		rot			{0.99049 0.116772 6.38666e-002 -3.48546e-002}
		
		bone 	"Bake_RArmJoint"
		pos			{-19.6696 -7.15149 -2.14289}
		rot			{0.117757 0.87237 0.471589 -5.20392e-002}
		
		bone 	"Bake_LArmJoint"
		pos			{19.4833 -7.55507 -2.14288}
		rot			{0.718404 0.197281 0.156567 -0.648431}
		
		bone 	"Bake_RToeJoint"
		pos			{-3.56224 13.9947 -19.4816}
		rot			{1. 0. 0. 0.}
		
		bone 	"Bake_HeadJoint"
		pos			{-0.447655 10.0592 -0.213579}
		rot			{0.925146 -0.114815 -0.359313 4.26114e-002}
		
		bone 	"Bake_LToeJoint"
		pos			{3.56225 -13.9948 19.4816}
		rot			{0.999894 -1.45575e-002 0. 0.}
		
		bone 	"Bake_LElbowJoint"
		pos			{42.3171 0.912694 -3.2219}
		rot			{0.487385 -7.71101e-002 -0.868312 -5.04464e-002}
		
		bone 	"Bake_RElbowJoint"
		pos			{-42.2763 -0.990979 6.52934}
		rot			{0.388843 -0.130472 -0.90872 -7.74988e-002}
		
		bone 	"Bake_RWristJoint"
		pos			{-50.1445 0.692473 2.14966}
		rot			{0.905963 -0.350309 -0.178891 -0.156567}
		
		bone 	"Bake_LWristJoint"
		pos			{45.8286 -0.158446 -0.641449}
		rot			{0.727941 0.680159 8.56003e-002 -1.26153e-002}
		
		bone 	"Bake_RHandJoint"
		pos			{-17.4849 -0.540389 -3.5306}
		rot			{0.672545 0. 0. -0.740056}
		
		bone 	"Bake_LHandJoint"
		pos			{17.2019 0.366814 1.97759}
		rot			{0.881227 -7.20145e-003 4.03769e-002 -0.47091}
		
		bone 	"Bake_LIndexJoint1"
		pos			{12.2418 -1.31958 7.40454}
		rot			{0.971938 -2.27508e-002 -0.208823 -0.10589}
		
		bone 	"Bake_RIndexJoint1"
		pos			{-9.08339 1.40164 -8.94563}
		rot			{0.959538 0. -0.28158 0.}
		
		bone 	"Bake_LIndex2"
		pos			{6.17497 -0.574751 0.664665}
		rot			{0.977689 1.25744e-004 0.210058 5.85257e-004}
		
		bone 	"Bake_RIndexJoint2"
		pos			{-3.15429 1.28809 -5.86307e-002}
		rot			{1. 0. 0. 0.}
	}
	
	// Keyframe# 8
	CIwAnimKeyFrame
	{
		time 	0.233333
		
		bone 	"Bake_Root"
		pos			{-0.48976 145.273 -11.0175}
		rot			{0.886165 4.04578e-002 0.461474 1.08086e-002}
		
		bone 	"Bake_LHipJoint"
		pos			{10.2572 -0.750527 -4.7124e-002}
		rot			{0.434217 -0.259405 -0.838032 0.204613}
		
		bone 	"Bake_RHipJoint"
		pos			{-9.27856 -0.750547 -4.71226e-002}
		rot			{0.145109 0.839371 -0.485005 -0.197913}
		
		bone 	"Bake_RkneeJoint"
		pos			{0.14961 67.5664 1.8204}
		rot			{0.717607 0.238391 0.609912 -0.237102}
		
		bone 	"Bake_LkneeJoint"
		pos			{-0.149599 -67.5665 -1.82043}
		rot			{0.666551 0.343488 0.565867 -0.342812}
		
		bone 	"Bake_UpperChestJoint"
		pos			{1.04361e-014 24.7866 -7.5982}
		rot			{0.993124 -4.3982e-002 -0.102698 3.4978e-002}
		
		bone 	"Bake_NeckJoint"
		pos			{-5.4956e-015 31.5911 -5.27135}
		rot			{0.989674 1.7858e-002 0.139444 -2.79453e-002}
		
		bone 	"Bake_LFootJoint"
		pos			{-1.01281 -88.9406 -17.4875}
		rot			{0.975587 -0.17974 6.39712e-002 -0.108769}
		
		bone 	"Bake_RFootJoint"
		pos			{1.01277 88.9408 17.4875}
		rot			{0.985409 0.147908 7.5545e-002 -3.72283e-002}
		
		bone 	"Bake_RArmJoint"
		pos			{-19.6696 -7.15149 -2.14289}
		rot			{8.91563e-002 0.868375 0.486921 -2.97327e-002}
		
		bone 	"Bake_LArmJoint"
		pos			{19.4833 -7.55507 -2.14288}
		rot			{0.727129 0.17913 0.146688 -0.646281}
		
		bone 	"Bake_RToeJoint"
		pos			{-3.56224 13.9947 -19.4816}
		rot			{1. 0. 0. 0.}
		
		bone 	"Bake_HeadJoint"
		pos			{-0.447655 10.0592 -0.213579}
		rot			{0.925146 -0.114815 -0.359313 4.26114e-002}
		
		bone 	"Bake_LToeJoint"
		pos			{3.56225 -13.9948 19.4816}
		rot			{0.998727 -5.04399e-002 0. 0.}
		
		bone 	"Bake_LElbowJoint"
		pos			{42.3171 0.912694 -3.2219}
		rot			{0.514562 -7.37455e-002 -0.852755 -5.09449e-002}
		
		bone 	"Bake_RElbowJoint"
		pos			{-42.2763 -0.990979 6.52934}
		rot			{0.389072 -0.130436 -0.908626 -7.75094e-002}
		
		bone 	"Bake_RWristJoint"
		pos			{-50.1445 0.692473 2.14966}
		rot			{0.901802 -0.334263 -0.206703 -0.17971}
		
		bone 	"Bake_LWristJoint"
		pos			{45.8286 -0.158446 -0.641449}
		rot			{0.736003 0.672489 7.7536e-002 -6.8097e-003}
		
		bone 	"Bake_RHandJoint"
		pos			{-17.4849 -0.540389 -3.5306}
		rot			{0.672545 0. 0. -0.740056}
		
		bone 	"Bake_LHandJoint"
		pos			{17.2019 0.366814 1.97759}
		rot			{0.881227 -7.20145e-003 4.03769e-002 -0.47091}
		
		bone 	"Bake_LIndexJoint1"
		pos			{12.2418 -1.31958 7.40454}
		rot			{0.971938 -2.27508e-002 -0.208823 -0.10589}
		
		bone 	"Bake_RIndexJoint1"
		pos			{-9.08339 1.40164 -8.94563}
		rot			{0.959538 0. -0.28158 0.}
		
		bone 	"Bake_LIndex2"
		pos			{6.17497 -0.574751 0.664665}
		rot			{0.977689 1.25744e-004 0.210058 5.85257e-004}
		
		bone 	"Bake_RIndexJoint2"
		pos			{-3.15429 1.28809 -5.86307e-002}
		rot			{1. 0. 0. 0.}
	}
	
	// Keyframe# 9
	CIwAnimKeyFrame
	{
		time 	0.266667
		
		bone 	"Bake_Root"
		pos			{-0.48976 145.995 -11.0175}
		rot			{0.886165 4.04578e-002 0.461474 1.08086e-002}
		
		bone 	"Bake_LHipJoint"
		pos			{10.2572 -0.750527 -4.7124e-002}
		rot			{0.438915 -0.20089 -0.854288 0.192843}
		
		bone 	"Bake_LowerChestJoint"
		pos			{0.950914 18.3459 3.38756}
		rot			{0.979148 0.122148 -0.154896 4.85376e-002}
		
		bone 	"Bake_RkneeJoint"
		pos			{0.14961 67.5664 1.8204}
		rot			{0.716488 0.241374 0.608884 -0.240091}
		
		bone 	"Bake_LkneeJoint"
		pos			{-0.149599 -67.5665 -1.82043}
		rot			{0.675878 0.326669 0.574652 -0.325962}
		
		bone 	"Bake_UpperChestJoint"
		pos			{3.33067e-015 24.7866 -7.5982}
		rot			{0.993124 -4.3982e-002 -0.102698 3.4978e-002}
		
		bone 	"Bake_NeckJoint"
		pos			{-1.94289e-015 31.5911 -5.27135}
		rot			{0.989674 1.7858e-002 0.139444 -2.79453e-002}
		
		bone 	"Bake_LFootJoint"
		pos			{-1.01281 -88.9406 -17.4875}
		rot			{0.974824 -0.172788 5.72066e-002 -0.128804}
		
		bone 	"Bake_RFootJoint"
		pos			{1.01277 88.9408 17.4875}
		rot			{0.985545 0.137617 8.93012e-002 -4.22719e-002}
		
		bone 	"Bake_RArmJoint"
		pos			{-19.6696 -7.15149 -2.14289}
		rot			{6.57667e-002 0.859974 0.506006 -8.85265e-003}
		
		bone 	"Bake_LArmJoint"
		pos			{19.4833 -7.55507 -2.14288}
		rot			{0.733624 0.162497 0.134584 -0.645971}
		
		bone 	"Bake_RToeJoint"
		pos			{-3.56224 13.9947 -19.4816}
		rot			{1. 0. 0. 0.}
		
		bone 	"Bake_HeadJoint"
		pos			{-0.447655 10.0592 -0.213579}
		rot			{0.925146 -0.114815 -0.359313 4.26114e-002}
		
		bone 	"Bake_LToeJoint"
		pos			{3.56225 -13.9948 19.4816}
		rot			{0.995378 -9.60318e-002 0. 0.}
		
		bone 	"Bake_LElbowJoint"
		pos			{42.3171 0.912694 -3.2219}
		rot			{0.553346 -6.88458e-002 -0.828513 -5.133e-002}
		
		bone 	"Bake_RElbowJoint"
		pos			{-42.2763 -0.990979 6.52934}
		rot			{0.390896 -0.130152 -0.907877 -7.75929e-002}
		
		bone 	"Bake_RWristJoint"
		pos			{-50.1445 0.692473 2.14966}
		rot			{0.896368 -0.318083 -0.22915 -0.206974}
		
		bone 	"Bake_LWristJoint"
		pos			{45.8286 -0.158446 -0.641449}
		rot			{0.74342 0.666078 5.97512e-002 9.79544e-003}
		
		bone 	"Bake_RHandJoint"
		pos			{-17.4849 -0.540389 -3.5306}
		rot			{0.672545 0. 0. -0.740056}
		
		bone 	"Bake_LHandJoint"
		pos			{17.2019 0.366814 1.97759}
		rot			{0.881227 -7.20145e-003 4.03769e-002 -0.47091}
		
		bone 	"Bake_LIndexJoint1"
		pos			{12.2418 -1.31958 7.40454}
		rot			{0.971938 -2.27508e-002 -0.208823 -0.10589}
		
		bone 	"Bake_RIndexJoint1"
		pos			{-9.08339 1.40164 -8.94563}
		rot			{0.959538 0. -0.28158 0.}
		
		bone 	"Bake_LIndex2"
		pos			{6.17497 -0.574751 0.664665}
		rot			{0.977689 1.25744e-004 0.210058 5.85257e-004}
		
		bone 	"Bake_RIndexJoint2"
		pos			{-3.15429 1.28809 -5.86307e-002}
		rot			{1. 0. 0. 0.}
	}
	
	// Keyframe# 10
	CIwAnimKeyFrame
	{
		time 	0.3
		
		bone 	"Bake_Root"
		pos			{-0.48976 147.855 -11.0175}
		rot			{0.886165 4.04578e-002 0.461474 1.08086e-002}
		
		bone 	"Bake_LHipJoint"
		pos			{10.2572 -0.750527 -4.7124e-002}
		rot			{0.44775 -0.134037 -0.866176 0.176899}
		
		bone 	"Bake_RHipJoint"
		pos			{-9.27856 -0.750547 -4.71226e-002}
		rot			{0.138458 0.842534 -0.468107 -0.227689}
		
		bone 	"Bake_RkneeJoint"
		pos			{0.14961 67.5664 1.8204}
		rot			{0.713558 0.248999 0.606188 -0.247731}
		
		bone 	"Bake_LkneeJoint"
		pos			{-0.149599 -67.5665 -1.82043}
		rot			{0.692191 0.294353 0.589943 -0.293588}
		
		bone 	"Bake_UpperChestJoint"
		pos			{-2.22045e-016 24.7866 -7.5982}
		rot			{0.993124 -4.3982e-002 -0.102698 3.4978e-002}
		
		bone 	"Bake_NeckJoint"
		pos			{-1.94289e-015 31.5911 -5.27135}
		rot			{0.989674 1.7858e-002 0.139444 -2.79453e-002}
		
		bone 	"Bake_LFootJoint"
		pos			{-1.01281 -88.9406 -17.4875}
		rot			{0.976999 -0.147221 4.77793e-002 -0.146681}
		
		bone 	"Bake_RFootJoint"
		pos			{1.01277 88.9408 17.4875}
		rot			{0.98753 0.110838 0.101362 -4.71627e-002}
		
		bone 	"Bake_RArmJoint"
		pos			{-19.6696 -7.15149 -2.14289}
		rot			{5.61406e-002 0.854581 0.516272 1.87885e-003}
		
		bone 	"Bake_LArmJoint"
		pos			{19.4833 -7.55507 -2.14288}
		rot			{0.736582 0.151884 0.125209 -0.647071}
		
		bone 	"Bake_RToeJoint"
		pos			{-3.56224 13.9947 -19.4816}
		rot			{1. 0. 0. 0.}
		
		bone 	"Bake_HeadJoint"
		pos			{-0.447655 10.0592 -0.213579}
		rot			{0.925146 -0.114815 -0.359313 4.26114e-002}
		
		bone 	"Bake_LToeJoint"
		pos			{3.56225 -13.9948 19.4816}
		rot			{0.989879 -0.141912 0. 0.}
		
		bone 	"Bake_LElbowJoint"
		pos			{42.3171 0.912694 -3.2219}
		rot			{0.585671 -6.4677e-002 -0.806331 -5.13423e-002}
		
		bone 	"Bake_RElbowJoint"
		pos			{-42.2763 -0.990979 6.52934}
		rot			{0.386537 -0.130831 -0.909661 -7.73916e-002}
		
		bone 	"Bake_RWristJoint"
		pos			{-50.1445 0.692473 2.14966}
		rot			{0.894455 -0.311568 -0.233149 -0.220266}
		
		bone 	"Bake_LWristJoint"
		pos			{45.8286 -0.158446 -0.641449}
		rot			{0.747647 0.662221 4.20286e-002 2.68618e-002}
		
		bone 	"Bake_RHandJoint"
		pos			{-17.4849 -0.540389 -3.5306}
		rot			{0.672545 0. 0. -0.740056}
		
		bone 	"Bake_LHandJoint"
		pos			{17.2019 0.366814 1.97759}
		rot			{0.881227 -7.20145e-003 4.03769e-002 -0.47091}
		
		bone 	"Bake_LIndexJoint1"
		pos			{12.2418 -1.31958 7.40454}
		rot			{0.971938 -2.27508e-002 -0.208823 -0.10589}
		
		bone 	"Bake_RIndexJoint1"
		pos			{-9.08339 1.40164 -8.94563}
		rot			{0.959538 0. -0.28158 0.}
		
		bone 	"Bake_LIndex2"
		pos			{6.17497 -0.574751 0.664665}
		rot			{0.977689 1.25744e-004 0.210058 5.85257e-004}
		
		bone 	"Bake_RIndexJoint2"
		pos			{-3.15429 1.28809 -5.86307e-002}
		rot			{1. 0. 0. 0.}
	}
	
	// Keyframe# 11
	CIwAnimKeyFrame
	{
		time 	0.333333
		
		bone 	"Bake_LHipJoint"
		pos			{10.2572 -0.750527 -4.7124e-002}
		rot			{0.461571 -6.73254e-002 -0.86988 0.160401}
		
		bone 	"Bake_LowerChestJoint"
		pos			{0.950914 18.3459 3.38756}
		rot			{0.979148 0.122148 -0.154896 4.85376e-002}
		
		bone 	"Bake_RHipJoint"
		pos			{-9.27856 -0.750547 -4.71226e-002}
		rot			{0.131756 0.851748 -0.448138 -0.237357}
		
		bone 	"Bake_RkneeJoint"
		pos			{0.14961 67.5664 1.8204}
		rot			{0.715133 0.244933 0.607638 -0.243657}
		
		bone 	"Bake_LkneeJoint"
		pos			{-0.149599 -67.5665 -1.82043}
		rot			{0.711164 0.250528 0.607568 -0.249685}
		
		bone 	"Bake_UpperChestJoint"
		pos			{3.33067e-015 24.7866 -7.5982}
		rot			{0.993124 -4.3982e-002 -0.102698 3.4978e-002}
		
		bone 	"Bake_NeckJoint"
		pos			{1.60982e-015 31.5911 -5.27135}
		rot			{0.989674 1.7858e-002 0.139444 -2.79453e-002}
		
		bone 	"Bake_LFootJoint"
		pos			{-1.01281 -88.9406 -17.4875}
		rot			{0.980479 -0.108136 3.47336e-002 -0.160506}
		
		bone 	"Bake_RFootJoint"
		pos			{1.01277 88.9408 17.4875}
		rot			{0.988561 9.30229e-002 0.107942 -4.9431e-002}
		
		bone 	"Bake_RArmJoint"
		pos			{-19.6696 -7.15149 -2.14289}
		rot			{5.54745e-002 0.851921 0.520702 4.73605e-003}
		
		bone 	"Bake_LArmJoint"
		pos			{19.4833 -7.55507 -2.14288}
		rot			{0.732954 0.159071 0.130075 -0.648502}
		
		bone 	"Bake_RToeJoint"
		pos			{-3.56224 13.9947 -19.4816}
		rot			{1. 0. 0. 0.}
		
		bone 	"Bake_HeadJoint"
		pos			{-0.447655 10.0592 -0.213579}
		rot			{0.925146 -0.114815 -0.359313 4.26114e-002}
		
		bone 	"Bake_LToeJoint"
		pos			{3.56225 -13.9948 19.4816}
		rot			{0.983422 -0.181334 0. 0.}
		
		bone 	"Bake_LElbowJoint"
		pos			{42.3171 0.912694 -3.2219}
		rot			{0.58766 -6.4418e-002 -0.804904 -5.13335e-002}
		
		bone 	"Bake_RElbowJoint"
		pos			{-42.2763 -0.990979 6.52934}
		rot			{0.376731 -0.132349 -0.913587 -7.69169e-002}
		
		bone 	"Bake_RWristJoint"
		pos			{-50.1445 0.692473 2.14966}
		rot			{0.896255 -0.311489 -0.223387 -0.223158}
		
		bone 	"Bake_LWristJoint"
		pos			{45.8286 -0.158446 -0.641449}
		rot			{0.745825 0.664378 3.37646e-002 3.47367e-002}
		
		bone 	"Bake_RHandJoint"
		pos			{-17.4849 -0.540389 -3.5306}
		rot			{0.672545 0. 0. -0.740056}
		
		bone 	"Bake_LHandJoint"
		pos			{17.2019 0.366814 1.97759}
		rot			{0.881227 -7.20145e-003 4.03769e-002 -0.47091}
		
		bone 	"Bake_LIndexJoint1"
		pos			{12.2418 -1.31958 7.40454}
		rot			{0.971938 -2.27508e-002 -0.208823 -0.10589}
		
		bone 	"Bake_RIndexJoint1"
		pos			{-9.08339 1.40164 -8.94563}
		rot			{0.959538 0. -0.28158 0.}
		
		bone 	"Bake_LIndex2"
		pos			{6.17497 -0.574751 0.664665}
		rot			{0.977689 1.25744e-004 0.210058 5.85257e-004}
		
		bone 	"Bake_RIndexJoint2"
		pos			{-3.15429 1.28809 -5.86307e-002}
		rot			{1. 0. 0. 0.}
	}
	
	// Keyframe# 12
	CIwAnimKeyFrame
	{
		time 	0.366667
		
		bone 	"Bake_Root"
		pos			{-0.48976 153.172 -11.0175}
		rot			{0.886165 4.04578e-002 0.461474 1.08086e-002}
		
		bone 	"Bake_LHipJoint"
		pos			{10.2572 -0.750527 -4.7124e-002}
		rot			{0.488798 -1.01522e-002 -0.859179 0.150945}
		
		bone 	"Bake_RkneeJoint"
		pos			{0.14961 67.5664 1.8204}
		rot			{0.71742 0.238892 0.60974 -0.237605}
		
		bone 	"Bake_LkneeJoint"
		pos			{-0.149599 -67.5665 -1.82043}
		rot			{0.728055 0.202674 0.623024 -0.201746}
		
		bone 	"Bake_UpperChestJoint"
		pos			{3.33067e-015 24.7866 -7.5982}
		rot			{0.993124 -4.3982e-002 -0.102698 3.4978e-002}
		
		bone 	"Bake_NeckJoint"
		pos			{-5.4956e-015 31.5911 -5.27135}
		rot			{0.989674 1.7858e-002 0.139444 -2.79453e-002}
		
		bone 	"Bake_LFootJoint"
		pos			{-1.01281 -88.9406 -17.4875}
		rot			{0.98372 -6.24496e-002 7.27009e-003 -0.168349}
		
		bone 	"Bake_RFootJoint"
		pos			{1.01277 88.9408 17.4875}
		rot			{0.990876 7.44513e-002 0.101574 -4.80082e-002}
		
		bone 	"Bake_RArmJoint"
		pos			{-19.6696 -7.15149 -2.14289}
		rot			{6.10286e-002 0.85169 0.520477 1.62927e-003}
		
		bone 	"Bake_LArmJoint"
		pos			{19.4833 -7.55507 -2.14288}
		rot			{0.721811 0.186943 0.151137 -0.648998}
		
		bone 	"Bake_RToeJoint"
		pos			{-3.56224 13.9947 -19.4816}
		rot			{1. 0. 0. 0.}
		
		bone 	"Bake_HeadJoint"
		pos			{-0.447655 10.0592 -0.213579}
		rot			{0.925146 -0.114815 -0.359313 4.26114e-002}
		
		bone 	"Bake_LToeJoint"
		pos			{3.56225 -13.9948 19.4816}
		rot			{0.97792 -0.20898 0. 0.}
		
		bone 	"Bake_LElbowJoint"
		pos			{42.3171 0.912694 -3.2219}
		rot			{0.555405 -6.85826e-002 -0.827155 -5.13394e-002}
		
		bone 	"Bake_RElbowJoint"
		pos			{-42.2763 -0.990979 6.52934}
		rot			{0.364484 -0.134224 -0.918323 -7.62818e-002}
		
		bone 	"Bake_RWristJoint"
		pos			{-50.1445 0.692473 2.14966}
		rot			{0.900268 -0.315718 -0.20547 -0.218223}
		
		bone 	"Bake_LWristJoint"
		pos			{45.8286 -0.158446 -0.641449}
		rot			{0.738073 0.672988 3.57221e-002 3.25402e-002}
		
		bone 	"Bake_RHandJoint"
		pos			{-17.4849 -0.540389 -3.5306}
		rot			{0.672545 0. 0. -0.740056}
		
		bone 	"Bake_LHandJoint"
		pos			{17.2019 0.366814 1.97759}
		rot			{0.881227 -7.20145e-003 4.03769e-002 -0.47091}
		
		bone 	"Bake_LIndexJoint1"
		pos			{12.2418 -1.31958 7.40454}
		rot			{0.971938 -2.27508e-002 -0.208823 -0.10589}
		
		bone 	"Bake_RIndexJoint1"
		pos			{-9.08339 1.40164 -8.94563}
		rot			{0.959538 0. -0.28158 0.}
		
		bone 	"Bake_LIndex2"
		pos			{6.17497 -0.574751 0.664665}
		rot			{0.977689 1.25744e-004 0.210058 5.85257e-004}
		
		bone 	"Bake_RIndexJoint2"
		pos			{-3.15429 1.28809 -5.86307e-002}
		rot			{1. 0. 0. 0.}
	}
	
	// Keyframe# 13
	CIwAnimKeyFrame
	{
		time 	0.4
		
		bone 	"Bake_Root"
		pos			{-0.48976 155.716 -11.0175}
		rot			{0.886165 4.04578e-002 0.461474 1.08086e-002}
		
		bone 	"Bake_LHipJoint"
		pos			{10.2572 -0.750527 -4.7124e-002}
		rot			{0.526046 2.44108e-002 -0.836629 0.15077}
		
		bone 	"Bake_LowerChestJoint"
		pos			{0.950914 18.3459 3.38756}
		rot			{0.979148 0.122148 -0.154896 4.85376e-002}
		
		bone 	"Bake_RHipJoint"
		pos			{-9.27856 -0.750547 -4.71226e-002}
		rot			{0.11399 0.881755 -0.401821 -0.219211}
		
		bone 	"Bake_RkneeJoint"
		pos			{0.14961 67.5664 1.8204}
		rot			{0.720307 0.231022 0.612386 -0.229718}
		
		bone 	"Bake_LkneeJoint"
		pos			{-0.149599 -67.5665 -1.82043}
		rot			{0.738949 0.164109 0.632784 -0.163113}
		
		bone 	"Bake_UpperChestJoint"
		pos			{6.88338e-015 24.7866 -7.5982}
		rot			{0.993124 -4.3982e-002 -0.102698 3.4978e-002}
		
		bone 	"Bake_NeckJoint"
		pos			{-9.04832e-015 31.5911 -5.27135}
		rot			{0.989674 1.7858e-002 0.139444 -2.79453e-002}
		
		bone 	"Bake_LFootJoint"
		pos			{-1.01281 -88.9406 -17.4875}
		rot			{0.984731 -2.42176e-002 -3.18617e-002 -0.169421}
		
		bone 	"Bake_RFootJoint"
		pos			{1.01277 88.9408 17.4875}
		rot			{0.993779 5.91848e-002 8.33849e-002 -4.41324e-002}
		
		bone 	"Bake_RArmJoint"
		pos			{-19.6696 -7.15149 -2.14289}
		rot			{7.0364e-002 0.853273 0.516671 -5.04406e-003}
		
		bone 	"Bake_LArmJoint"
		pos			{19.4833 -7.55507 -2.14288}
		rot			{0.705392 0.225235 0.177707 -0.64816}
		
		bone 	"Bake_RToeJoint"
		pos			{-3.56224 13.9947 -19.4816}
		rot			{1. 0. 0. 0.}
		
		bone 	"Bake_HeadJoint"
		pos			{-0.447655 10.0592 -0.213579}
		rot			{0.925146 -0.114815 -0.359313 4.26114e-002}
		
		bone 	"Bake_LToeJoint"
		pos			{3.56225 -13.9948 19.4816}
		rot			{0.975612 -0.219502 0. 0.}
		
		bone 	"Bake_LElbowJoint"
		pos			{42.3171 0.912694 -3.2219}
		rot			{0.508246 -7.45325e-002 -0.856473 -5.08455e-002}
		
		bone 	"Bake_RElbowJoint"
		pos			{-42.2763 -0.990979 6.52934}
		rot			{0.353127 -0.135942 -0.92255 -7.56512e-002}
		
		bone 	"Bake_RWristJoint"
		pos			{-50.1445 0.692473 2.14966}
		rot			{0.904603 -0.322379 -0.18528 -0.208414}
		
		bone 	"Bake_LWristJoint"
		pos			{45.8286 -0.158446 -0.641449}
		rot			{0.727263 0.684606 4.04126e-002 2.77552e-002}
		
		bone 	"Bake_RHandJoint"
		pos			{-17.4849 -0.540389 -3.5306}
		rot			{0.672545 0. 0. -0.740056}
		
		bone 	"Bake_LHandJoint"
		pos			{17.2019 0.366814 1.97759}
		rot			{0.881227 -7.20145e-003 4.03769e-002 -0.47091}
		
		bone 	"Bake_LIndexJoint1"
		pos			{12.2418 -1.31958 7.40454}
		rot			{0.971938 -2.27508e-002 -0.208823 -0.10589}
		
		bone 	"Bake_RIndexJoint1"
		pos			{-9.08339 1.40164 -8.94563}
		rot			{0.959538 0. -0.28158 0.}
		
		bone 	"Bake_LIndex2"
		pos			{6.17497 -0.574751 0.664665}
		rot			{0.977689 1.25744e-004 0.210058 5.85257e-004}
		
		bone 	"Bake_RIndexJoint2"
		pos			{-3.15429 1.28809 -5.86307e-002}
		rot			{1. 0. 0. 0.}
	}
	
	// Keyframe# 14
	CIwAnimKeyFrame
	{
		time 	0.433333
		
		bone 	"Bake_Root"
		pos			{-0.48976 157.577 -11.0175}
		rot			{0.886165 4.04578e-002 0.461474 1.08086e-002}
		
		bone 	"Bake_LHipJoint"
		pos			{10.2572 -0.750527 -4.7124e-002}
		rot			{0.557678 3.96658e-002 -0.814786 0.153447}
		
		bone 	"Bake_LowerChestJoint"
		pos			{0.950914 18.3459 3.38756}
		rot			{0.979148 0.122148 -0.154896 4.85376e-002}
		
		bone 	"Bake_RHipJoint"
		pos			{-9.27856 -0.750547 -4.71226e-002}
		rot			{0.105926 0.89472 -0.383758 -0.202447}
		
		bone 	"Bake_RkneeJoint"
		pos			{0.14961 67.5664 1.8204}
		rot			{0.722942 0.223572 0.614796 -0.222253}
		
		bone 	"Bake_LkneeJoint"
		pos			{-0.149599 -67.5665 -1.82043}
		rot			{0.744564 0.140092 0.637701 -0.139053}
		
		bone 	"Bake_UpperChestJoint"
		pos			{6.88338e-015 24.7866 -7.5982}
		rot			{0.993124 -4.3982e-002 -0.102698 3.4978e-002}
		
		bone 	"Bake_NeckJoint"
		pos			{-1.94289e-015 31.5911 -5.27135}
		rot			{0.989674 1.7858e-002 0.139444 -2.79453e-002}
		
		bone 	"Bake_LFootJoint"
		pos			{-1.01281 -88.9406 -17.4875}
		rot			{0.983666 -6.05113e-004 -6.57114e-002 -0.167578}
		
		bone 	"Bake_RFootJoint"
		pos			{1.01277 88.9408 17.4875}
		rot			{0.995889 4.92853e-002 6.41986e-002 -4.06849e-002}
		
		bone 	"Bake_RArmJoint"
		pos			{-19.6696 -7.15149 -2.14289}
		rot			{7.98499e-002 0.855426 0.511594 -1.19285e-002}
		
		bone 	"Bake_LArmJoint"
		pos			{19.4833 -7.55507 -2.14288}
		rot			{0.688369 0.261174 0.200021 -0.646474}
		
		bone 	"Bake_RToeJoint"
		pos			{-3.56224 13.9947 -19.4816}
		rot			{1. 0. 0. 0.}
		
		bone 	"Bake_HeadJoint"
		pos			{-0.447655 10.0592 -0.213579}
		rot			{0.925146 -0.114815 -0.359313 4.26114e-002}
		
		bone 	"Bake_LToeJoint"
		pos			{3.56225 -13.9948 19.4816}
		rot			{0.975612 -0.219502 0. 0.}
		
		bone 	"Bake_LElbowJoint"
		pos			{42.3171 0.912694 -3.2219}
		rot			{0.465554 -7.97706e-002 -0.880002 -4.99151e-002}
		
		bone 	"Bake_RElbowJoint"
		pos			{-42.2763 -0.990979 6.52934}
		rot			{0.345236 -0.137124 -0.925395 -7.51898e-002}
		
		bone 	"Bake_RWristJoint"
		pos			{-50.1445 0.692473 2.14966}
		rot			{0.90774 -0.32896 -0.168823 -0.198224}
		
		bone 	"Bake_LWristJoint"
		pos			{45.8286 -0.158446 -0.641449}
		rot			{0.716797 0.695495 4.3161e-002 2.50075e-002}
		
		bone 	"Bake_RHandJoint"
		pos			{-17.4849 -0.540389 -3.5306}
		rot			{0.672545 0. 0. -0.740056}
		
		bone 	"Bake_LHandJoint"
		pos			{17.2019 0.366814 1.97759}
		rot			{0.881227 -7.20145e-003 4.03769e-002 -0.47091}
		
		bone 	"Bake_LIndexJoint1"
		pos			{12.2418 -1.31958 7.40454}
		rot			{0.971938 -2.27508e-002 -0.208823 -0.10589}
		
		bone 	"Bake_RIndexJoint1"
		pos			{-9.08339 1.40164 -8.94563}
		rot			{0.959538 0. -0.28158 0.}
		
		bone 	"Bake_LIndex2"
		pos			{6.17497 -0.574751 0.664665}
		rot			{0.977689 1.25744e-004 0.210058 5.85257e-004}
		
		bone 	"Bake_RIndexJoint2"
		pos			{-3.15429 1.28809 -5.86307e-002}
		rot			{1. 0. 0. 0.}
	}
	
	// Keyframe# 15
	CIwAnimKeyFrame
	{
		time 	0.466667
		
		bone 	"Bake_Root"
		pos			{-0.48976 158.298 -11.0175}
		rot			{0.886165 4.04578e-002 0.461474 1.08086e-002}
		
		bone 	"Bake_LHipJoint"
		pos			{10.2572 -0.750527 -4.7124e-002}
		rot			{0.570823 4.59424e-002 -0.805175 0.154089}
		
		bone 	"Bake_LowerChestJoint"
		pos			{0.950914 18.3459 3.38756}
		rot			{0.979148 0.122148 -0.154896 4.85376e-002}
		
		bone 	"Bake_RHipJoint"
		pos			{-9.27856 -0.750547 -4.71226e-002}
		rot			{0.102487 0.899968 -0.376432 -0.194557}
		
		bone 	"Bake_RkneeJoint"
		pos			{0.14961 67.5664 1.8204}
		rot			{0.724084 0.220262 0.615836 -0.218937}
		
		bone 	"Bake_LkneeJoint"
		pos			{-0.149599 -67.5665 -1.82043}
		rot			{0.746676 0.12993 0.639519 -0.128873}
		
		bone 	"Bake_UpperChestJoint"
		pos			{6.88338e-015 24.7866 -7.5982}
		rot			{0.993124 -4.3982e-002 -0.102698 3.4978e-002}
		
		bone 	"Bake_NeckJoint"
		pos			{-5.4956e-015 31.5911 -5.27135}
		rot			{0.989674 1.7858e-002 0.139444 -2.79453e-002}
		
		bone 	"Bake_LFootJoint"
		pos			{-1.01281 -88.9406 -17.4875}
		rot			{0.982659 9.18058e-003 -7.99316e-002 -0.167057}
		
		bone 	"Bake_RFootJoint"
		pos			{1.01277 88.9408 17.4875}
		rot			{0.996645 4.57616e-002 5.53375e-002 -3.92787e-002}
		
		bone 	"Bake_RArmJoint"
		pos			{-19.6696 -7.15149 -2.14289}
		rot			{8.42791e-002 0.856503 0.508992 -1.50941e-002}
		
		bone 	"Bake_LArmJoint"
		pos			{19.4833 -7.55507 -2.14288}
		rot			{0.680093 0.277481 0.209354 -0.645483}
		
		bone 	"Bake_RToeJoint"
		pos			{-3.56224 13.9947 -19.4816}
		rot			{1. 0. 0. 0.}
		
		bone 	"Bake_HeadJoint"
		pos			{-0.447655 10.0592 -0.213579}
		rot			{0.925146 -0.114815 -0.359313 4.26114e-002}
		
		bone 	"Bake_LToeJoint"
		pos			{3.56225 -13.9948 19.4816}
		rot			{0.975612 -0.219502 0. 0.}
		
		bone 	"Bake_LElbowJoint"
		pos			{42.3171 0.912694 -3.2219}
		rot			{0.446933 -8.20095e-002 -0.889431 -4.93724e-002}
		
		bone 	"Bake_RElbowJoint"
		pos			{-42.2763 -0.990979 6.52934}
		rot			{0.342341 -0.137555 -0.92642 -7.50156e-002}
		
		bone 	"Bake_RWristJoint"
		pos			{-50.1445 0.692473 2.14966}
		rot			{0.908893 -0.331994 -0.162033 -0.193489}
		
		bone 	"Bake_LWristJoint"
		pos			{45.8286 -0.158446 -0.641449}
		rot			{0.711902 0.70049 4.37029e-002 2.44731e-002}
		
		bone 	"Bake_RHandJoint"
		pos			{-17.4849 -0.540389 -3.5306}
		rot			{0.672545 0. 0. -0.740056}
		
		bone 	"Bake_LHandJoint"
		pos			{17.2019 0.366814 1.97759}
		rot			{0.881227 -7.20145e-003 4.03769e-002 -0.47091}
		
		bone 	"Bake_LIndexJoint1"
		pos			{12.2418 -1.31958 7.40454}
		rot			{0.971938 -2.27508e-002 -0.208823 -0.10589}
		
		bone 	"Bake_RIndexJoint1"
		pos			{-9.08339 1.40164 -8.94563}
		rot			{0.959538 0. -0.28158 0.}
		
		bone 	"Bake_LIndex2"
		pos			{6.17497 -0.574751 0.664665}
		rot			{0.977689 1.25744e-004 0.210058 5.85257e-004}
		
		bone 	"Bake_RIndexJoint2"
		pos			{-3.15429 1.28809 -5.86307e-002}
		rot			{1. 0. 0. 0.}
	}
}
