// Source maya file: C:/dev/dev/main/gamedemo1/Art/Characters/combatEva/Animation/combatEva_RtStance_RtHedDmg.mb
// Maya geometry export, written by IwEngineExporter.mll

// Animation data
CIwAnim
{
	skeleton 	"combatEva_rig"
	
	// Keyframe# 1
	CIwAnimKeyFrame
	{
		time 	0.
		
		bone 	"Bake_Root"
		pos			{-0.48976 158.298 -11.0175}
		rot			{0.886165 4.04578e-002 0.461474 1.08086e-002}
		
		bone 	"Bake_LHipJoint"
		pos			{10.2572 -0.750527 -4.7124e-002}
		rot			{0.570823 4.59424e-002 -0.805175 0.154089}
		
		bone 	"Bake_LowerChestJoint"
		pos			{0.950914 18.3459 3.38756}
		rot			{0.979148 0.122148 -0.154896 4.85376e-002}
		
		bone 	"Bake_RHipJoint"
		pos			{-9.27856 -0.750547 -4.71226e-002}
		rot			{0.102487 0.899968 -0.376432 -0.194557}
		
		bone 	"Bake_RkneeJoint"
		pos			{0.14961 67.5664 1.8204}
		rot			{0.724084 0.220262 0.615836 -0.218937}
		
		bone 	"Bake_LkneeJoint"
		pos			{-0.149599 -67.5665 -1.82043}
		rot			{0.746676 0.12993 0.639519 -0.128873}
		
		bone 	"Bake_UpperChestJoint"
		pos			{6.88338e-015 24.7866 -7.5982}
		rot			{0.993124 -4.3982e-002 -0.102698 3.4978e-002}
		
		bone 	"Bake_NeckJoint"
		pos			{-5.4956e-015 31.5911 -5.27135}
		rot			{0.989674 1.7858e-002 0.139444 -2.79453e-002}
		
		bone 	"Bake_LFootJoint"
		pos			{-1.01281 -88.9406 -17.4875}
		rot			{0.982659 9.18058e-003 -7.99316e-002 -0.167057}
		
		bone 	"Bake_RFootJoint"
		pos			{1.01277 88.9408 17.4875}
		rot			{0.996645 4.57616e-002 5.53375e-002 -3.92787e-002}
		
		bone 	"Bake_RArmJoint"
		pos			{-19.6696 -7.15149 -2.14289}
		rot			{8.42791e-002 0.856503 0.508992 -1.50941e-002}
		
		bone 	"Bake_LArmJoint"
		pos			{19.4833 -7.55507 -2.14288}
		rot			{0.680093 0.277481 0.209354 -0.645483}
		
		bone 	"Bake_RToeJoint"
		pos			{-3.56224 13.9947 -19.4816}
		rot			{1. 0. 0. 0.}
		
		bone 	"Bake_HeadJoint"
		pos			{-0.447655 10.0592 -0.213579}
		rot			{0.925146 -0.114815 -0.359313 4.26114e-002}
		
		bone 	"Bake_LToeJoint"
		pos			{3.56225 -13.9948 19.4816}
		rot			{0.975612 -0.219502 0. 0.}
		
		bone 	"Bake_LElbowJoint"
		pos			{42.3171 0.912694 -3.2219}
		rot			{0.446933 -8.20095e-002 -0.889431 -4.93724e-002}
		
		bone 	"Bake_RElbowJoint"
		pos			{-42.2763 -0.990979 6.52934}
		rot			{0.342341 -0.137555 -0.92642 -7.50156e-002}
		
		bone 	"Bake_RWristJoint"
		pos			{-50.1445 0.692473 2.14966}
		rot			{0.949375 -0.282013 6.0546e-002 -0.124462}
		
		bone 	"Bake_LWristJoint"
		pos			{45.8286 -0.158446 -0.641449}
		rot			{0.711902 0.70049 4.37029e-002 2.44731e-002}
		
		bone 	"Bake_RHandJoint"
		pos			{-17.4849 -0.540389 -3.5306}
		rot			{0.672545 0. 0. -0.740056}
		
		bone 	"Bake_LHandJoint"
		pos			{21.0086 -0.27611 1.42274}
		rot			{0.881227 -7.20145e-003 4.03769e-002 -0.47091}
		
		bone 	"Bake_LIndexJoint1"
		pos			{13.6098 -1.33931 8.14663}
		rot			{0.971938 -2.27508e-002 -0.208823 -0.10589}
		
		bone 	"Bake_RIndexJoint1"
		pos			{-9.08339 1.40164 -8.94563}
		rot			{0.959538 0. -0.28158 0.}
		
		bone 	"Bake_LIndex2"
		pos			{3.61358 -0.801748 -1.08499}
		rot			{0.977689 1.25744e-004 0.210058 5.85257e-004}
		
		bone 	"Bake_RIndexJoint2"
		pos			{-3.15429 1.28809 -5.86307e-002}
		rot			{1. 0. 0. 0.}
	}
	
	// Keyframe# 2
	CIwAnimKeyFrame
	{
		time 	3.33333e-002
		
		bone 	"Bake_Root"
		pos			{-0.174843 153.842 -21.0529}
		rot			{0.883869 2.65682e-002 0.466482 2.15549e-002}
		
		bone 	"Bake_LHipJoint"
		pos			{10.2572 -0.750527 -4.7124e-002}
		rot			{0.529802 -5.93115e-003 -0.836987 0.136848}
		
		bone 	"Bake_LowerChestJoint"
		pos			{0.950914 18.3459 3.38756}
		rot			{0.973921 0.127678 -0.158938 9.95783e-002}
		
		bone 	"Bake_RHipJoint"
		pos			{-9.27856 -0.750547 -4.71226e-002}
		rot			{0.100432 0.877246 -0.420617 -0.208409}
		
		bone 	"Bake_RkneeJoint"
		pos			{0.14961 67.5664 1.8204}
		rot			{0.718022 0.237275 0.610292 -0.235984}
		
		bone 	"Bake_LkneeJoint"
		pos			{-0.149599 -67.5665 -1.82043}
		rot			{0.739271 0.162829 0.633069 -0.16183}
		
		bone 	"Bake_UpperChestJoint"
		pos			{6.32827e-015 24.7866 -7.5982}
		rot			{0.996582 -3.8501e-002 -7.23941e-002 1.00338e-002}
		
		bone 	"Bake_NeckJoint"
		pos			{-5.32907e-015 31.5911 -5.27135}
		rot			{0.990749 1.25335e-002 0.134169 -1.60582e-002}
		
		bone 	"Bake_LFootJoint"
		pos			{-1.01281 -88.9406 -17.4875}
		rot			{0.970874 -0.19464 -1.23361e-002 -0.139163}
		
		bone 	"Bake_RArmJoint"
		pos			{-19.6696 -7.15149 -2.14289}
		rot			{0.124297 0.90803 0.389478 -9.13154e-002}
		
		bone 	"Bake_LArmJoint"
		pos			{19.4833 -7.55507 -2.14288}
		rot			{0.70049 0.218524 7.74226e-002 -0.674957}
		
		bone 	"Bake_HeadJoint"
		pos			{-0.447655 10.0592 -0.213579}
		rot			{0.920191 7.01521e-002 -0.384054 2.88081e-002}
		
		bone 	"Bake_LToeJoint"
		pos			{3.56225 -13.9948 19.4816}
		rot			{1. 0. 0. 0.}
		
		bone 	"Bake_LElbowJoint"
		pos			{42.3171 0.912694 -3.2219}
		rot			{0.474677 -7.86635e-002 -0.875202 -5.01511e-002}
		
		bone 	"Bake_RElbowJoint"
		pos			{-42.2763 -0.990979 6.52934}
		rot			{0.374363 -0.132713 -0.914517 -7.67978e-002}
		
		bone 	"Bake_RWristJoint"
		pos			{-50.1445 0.692473 2.14966}
		rot			{0.960933 -0.225559 -0.139569 -7.907e-002}
		
		bone 	"Bake_LWristJoint"
		pos			{45.8286 -0.158446 -0.641449}
		rot			{0.773113 0.616528 0.126782 7.82068e-002}
		
		bone 	"Bake_RHandJoint"
		pos			{-17.4849 -0.540389 -3.5306}
		rot			{0.672545 0. 0. -0.740056}
		
		bone 	"Bake_LHandJoint"
		pos			{21.0086 -0.27611 1.42274}
		rot			{0.881227 -7.20145e-003 4.03769e-002 -0.47091}
	}
	
	// Keyframe# 3
	CIwAnimKeyFrame
	{
		time 	1.e-001
		
		bone 	"Bake_Root"
		pos			{0.607507 159.552 -20.9817}
		rot			{0.862224 -2.17121e-002 0.505957 -1.02767e-002}
		
		bone 	"Bake_LHipJoint"
		pos			{10.2572 -0.750527 -4.7124e-002}
		rot			{0.508613 8.85814e-002 -0.847585 0.12274}
		
		bone 	"Bake_LowerChestJoint"
		pos			{0.950914 18.3459 3.38756}
		rot			{0.991692 7.01941e-002 -0.107402 -9.22089e-003}
		
		bone 	"Bake_RHipJoint"
		pos			{-9.27856 -0.750547 -4.71226e-002}
		rot			{4.60532e-002 0.935553 -0.309958 -0.162928}
		
		bone 	"Bake_RkneeJoint"
		pos			{0.14961 67.5664 1.8204}
		rot			{0.740952 0.16325 0.630997 -0.16181}
		
		bone 	"Bake_LkneeJoint"
		pos			{-0.149599 -67.5665 -1.82043}
		rot			{0.752782 9.48684e-002 0.644617 -9.37482e-002}
		
		bone 	"Bake_UpperChestJoint"
		pos			{-1.52101e-014 24.7866 -7.5982}
		rot			{0.986093 -6.954e-002 -4.33691e-002 -0.14458}
		
		bone 	"Bake_NeckJoint"
		pos			{-2.88658e-014 31.5911 -5.27135}
		rot			{0.98943 -3.94414e-003 0.123924 -7.52079e-002}
		
		bone 	"Bake_LFootJoint"
		pos			{-1.01281 -88.9406 -17.4875}
		rot			{0.978712 -0.145993 -2.667e-002 -0.141768}
		
		bone 	"Bake_RFootJoint"
		pos			{1.01277 88.9408 17.4875}
		rot			{0.991331 0.109272 5.84336e-002 -4.36754e-002}
		
		bone 	"Bake_RArmJoint"
		pos			{-19.6696 -7.15149 -2.14289}
		rot			{7.19202e-002 -0.735905 -0.658193 -0.141613}
		
		bone 	"Bake_LArmJoint"
		pos			{19.4833 -7.55507 -2.14288}
		rot			{0.889817 0.197843 0.15174 -0.382177}
		
		bone 	"Bake_RToeJoint"
		pos			{-3.56224 13.9947 -19.4816}
		rot			{1. 0. 0. 0.}
		
		bone 	"Bake_HeadJoint"
		pos			{-0.447655 10.0592 -0.213579}
		rot			{0.978727 -0.192426 -2.567e-002 -6.6387e-002}
		
		bone 	"Bake_LToeJoint"
		pos			{3.56225 -13.9948 19.4816}
		rot			{1. 0. 0. 0.}
		
		bone 	"Bake_LElbowJoint"
		pos			{42.3171 0.912694 -3.2219}
		rot			{0.408693 -8.65172e-002 -0.907293 -4.80073e-002}
		
		bone 	"Bake_RElbowJoint"
		pos			{-42.2763 -0.990979 6.52934}
		rot			{0.347351 -0.136808 -0.92464 -7.53153e-002}
		
		bone 	"Bake_RWristJoint"
		pos			{-50.1445 0.692473 2.14966}
		rot			{0.930086 8.8908e-002 -0.33536 -0.1207}
		
		bone 	"Bake_LWristJoint"
		pos			{45.8286 -0.158446 -0.641449}
		rot			{0.884163 0.427904 7.67988e-003 0.187336}
		
		bone 	"Bake_RHandJoint"
		pos			{-17.4849 -0.540389 -3.5306}
		rot			{0.672545 0. 0. -0.740056}
		
		bone 	"Bake_LHandJoint"
		pos			{21.0086 -0.27611 1.42274}
		rot			{0.881227 -7.20145e-003 4.03769e-002 -0.47091}
	}
	
	// Keyframe# 4
	CIwAnimKeyFrame
	{
		time 	0.4
		
		bone 	"Bake_Root"
		pos			{-0.48976 158.298 -11.0175}
		rot			{0.886165 4.04578e-002 0.461474 1.08086e-002}
		
		bone 	"Bake_LHipJoint"
		pos			{10.2572 -0.750527 -4.7124e-002}
		rot			{0.570823 4.59424e-002 -0.805175 0.154089}
		
		bone 	"Bake_LowerChestJoint"
		pos			{0.950914 18.3459 3.38756}
		rot			{0.979148 0.122148 -0.154896 4.85376e-002}
		
		bone 	"Bake_RHipJoint"
		pos			{-9.27856 -0.750547 -4.71226e-002}
		rot			{0.102487 0.899968 -0.376432 -0.194557}
		
		bone 	"Bake_RkneeJoint"
		pos			{0.14961 67.5664 1.8204}
		rot			{0.724084 0.220262 0.615836 -0.218937}
		
		bone 	"Bake_LkneeJoint"
		pos			{-0.149599 -67.5665 -1.82043}
		rot			{0.746676 0.12993 0.639519 -0.128873}
		
		bone 	"Bake_UpperChestJoint"
		pos			{6.88338e-015 24.7866 -7.5982}
		rot			{0.993124 -4.3982e-002 -0.102698 3.4978e-002}
		
		bone 	"Bake_NeckJoint"
		pos			{-5.4956e-015 31.5911 -5.27135}
		rot			{0.989674 1.7858e-002 0.139444 -2.79453e-002}
		
		bone 	"Bake_LFootJoint"
		pos			{-1.01281 -88.9406 -17.4875}
		rot			{0.982659 9.18058e-003 -7.99316e-002 -0.167057}
		
		bone 	"Bake_RFootJoint"
		pos			{1.01277 88.9408 17.4875}
		rot			{0.996645 4.57616e-002 5.53375e-002 -3.92787e-002}
		
		bone 	"Bake_RArmJoint"
		pos			{-19.6696 -7.15149 -2.14289}
		rot			{8.42791e-002 0.856503 0.508992 -1.50941e-002}
		
		bone 	"Bake_LArmJoint"
		pos			{19.4833 -7.55507 -2.14288}
		rot			{0.680093 0.277481 0.209354 -0.645483}
		
		bone 	"Bake_RToeJoint"
		pos			{-3.56224 13.9947 -19.4816}
		rot			{1. 0. 0. 0.}
		
		bone 	"Bake_HeadJoint"
		pos			{-0.447655 10.0592 -0.213579}
		rot			{0.925146 -0.114815 -0.359313 4.26114e-002}
		
		bone 	"Bake_LToeJoint"
		pos			{3.56225 -13.9948 19.4816}
		rot			{0.975612 -0.219502 0. 0.}
		
		bone 	"Bake_LElbowJoint"
		pos			{42.3171 0.912694 -3.2219}
		rot			{0.446933 -8.20095e-002 -0.889431 -4.93724e-002}
		
		bone 	"Bake_RElbowJoint"
		pos			{-42.2763 -0.990979 6.52934}
		rot			{0.342341 -0.137555 -0.92642 -7.50156e-002}
		
		bone 	"Bake_RWristJoint"
		pos			{-50.1445 0.692473 2.14966}
		rot			{0.908893 -0.331994 -0.162033 -0.193489}
		
		bone 	"Bake_LWristJoint"
		pos			{45.8286 -0.158446 -0.641449}
		rot			{0.711902 0.70049 4.37029e-002 2.44731e-002}
		
		bone 	"Bake_RHandJoint"
		pos			{-17.4849 -0.540389 -3.5306}
		rot			{0.672545 0. 0. -0.740056}
		
		bone 	"Bake_LHandJoint"
		pos			{21.0086 -0.27611 1.42274}
		rot			{0.881227 -7.20145e-003 4.03769e-002 -0.47091}
	}
	
	// Keyframe# 5
	CIwAnimKeyFrame
	{
		time 	0.8
		
		bone 	"Bake_Root"
		pos			{-0.48976 158.298 -11.0175}
		rot			{0.886165 4.04578e-002 0.461474 1.08086e-002}
		
		bone 	"Bake_LHipJoint"
		pos			{10.2572 -0.750527 -4.7124e-002}
		rot			{0.570823 4.59424e-002 -0.805175 0.154089}
		
		bone 	"Bake_LowerChestJoint"
		pos			{0.950914 18.3459 3.38756}
		rot			{0.979148 0.122148 -0.154896 4.85376e-002}
		
		bone 	"Bake_RHipJoint"
		pos			{-9.27856 -0.750547 -4.71226e-002}
		rot			{0.102487 0.899968 -0.376432 -0.194557}
		
		bone 	"Bake_RkneeJoint"
		pos			{0.14961 67.5664 1.8204}
		rot			{0.724084 0.220262 0.615836 -0.218937}
		
		bone 	"Bake_LkneeJoint"
		pos			{-0.149599 -67.5665 -1.82043}
		rot			{0.746676 0.12993 0.639519 -0.128873}
		
		bone 	"Bake_UpperChestJoint"
		pos			{6.88338e-015 24.7866 -7.5982}
		rot			{0.993124 -4.3982e-002 -0.102698 3.4978e-002}
		
		bone 	"Bake_NeckJoint"
		pos			{-5.4956e-015 31.5911 -5.27135}
		rot			{0.989674 1.7858e-002 0.139444 -2.79453e-002}
		
		bone 	"Bake_LFootJoint"
		pos			{-1.01281 -88.9406 -17.4875}
		rot			{0.982659 9.18058e-003 -7.99316e-002 -0.167057}
		
		bone 	"Bake_RFootJoint"
		pos			{1.01277 88.9408 17.4875}
		rot			{0.996645 4.57616e-002 5.53375e-002 -3.92787e-002}
		
		bone 	"Bake_RArmJoint"
		pos			{-19.6696 -7.15149 -2.14289}
		rot			{8.42791e-002 0.856503 0.508992 -1.50941e-002}
		
		bone 	"Bake_LArmJoint"
		pos			{19.4833 -7.55507 -2.14288}
		rot			{0.680093 0.277481 0.209354 -0.645483}
		
		bone 	"Bake_RToeJoint"
		pos			{-3.56224 13.9947 -19.4816}
		rot			{1. 0. 0. 0.}
		
		bone 	"Bake_HeadJoint"
		pos			{-0.447655 10.0592 -0.213579}
		rot			{0.925146 -0.114815 -0.359313 4.26114e-002}
		
		bone 	"Bake_LToeJoint"
		pos			{3.56225 -13.9948 19.4816}
		rot			{0.975612 -0.219502 0. 0.}
		
		bone 	"Bake_LElbowJoint"
		pos			{42.3171 0.912694 -3.2219}
		rot			{0.446933 -8.20095e-002 -0.889431 -4.93724e-002}
		
		bone 	"Bake_RElbowJoint"
		pos			{-42.2763 -0.990979 6.52934}
		rot			{0.342341 -0.137555 -0.92642 -7.50156e-002}
		
		bone 	"Bake_RWristJoint"
		pos			{-50.1445 0.692473 2.14966}
		rot			{0.908893 -0.331994 -0.162033 -0.193489}
		
		bone 	"Bake_LWristJoint"
		pos			{45.8286 -0.158446 -0.641449}
		rot			{0.711902 0.70049 4.37029e-002 2.44731e-002}
		
		bone 	"Bake_RHandJoint"
		pos			{-17.4849 -0.540389 -3.5306}
		rot			{0.672545 0. 0. -0.740056}
		
		bone 	"Bake_LHandJoint"
		pos			{21.0086 -0.27611 1.42274}
		rot			{0.881227 -7.20145e-003 4.03769e-002 -0.47091}
	}
	
	// Keyframe# 6
	CIwAnimKeyFrame
	{
		time 	0.833333
		
		bone 	"Bake_Root"
		pos			{0.607507 159.552 -20.9817}
		rot			{0.862224 -2.17121e-002 0.505957 -1.02767e-002}
		
		bone 	"Bake_LHipJoint"
		pos			{10.2572 -0.750527 -4.7124e-002}
		rot			{0.508613 8.85814e-002 -0.847585 0.12274}
		
		bone 	"Bake_LowerChestJoint"
		pos			{0.950914 18.3459 3.38756}
		rot			{0.991692 7.01941e-002 -0.107402 -9.22089e-003}
		
		bone 	"Bake_RHipJoint"
		pos			{-9.27856 -0.750547 -4.71226e-002}
		rot			{4.60532e-002 0.935553 -0.309958 -0.162928}
		
		bone 	"Bake_RkneeJoint"
		pos			{0.14961 67.5664 1.8204}
		rot			{0.740952 0.16325 0.630997 -0.16181}
		
		bone 	"Bake_LkneeJoint"
		pos			{-0.149599 -67.5665 -1.82043}
		rot			{0.752782 9.48684e-002 0.644617 -9.37482e-002}
		
		bone 	"Bake_UpperChestJoint"
		pos			{-1.52101e-014 24.7866 -7.5982}
		rot			{0.986093 -6.954e-002 -4.33691e-002 -0.14458}
		
		bone 	"Bake_NeckJoint"
		pos			{-2.88658e-014 31.5911 -5.27135}
		rot			{0.98943 -3.94414e-003 0.123924 -7.52079e-002}
		
		bone 	"Bake_LFootJoint"
		pos			{-1.01281 -88.9406 -17.4875}
		rot			{0.978712 -0.145993 -2.667e-002 -0.141768}
		
		bone 	"Bake_RFootJoint"
		pos			{1.01277 88.9408 17.4875}
		rot			{0.991331 0.109272 5.84336e-002 -4.36754e-002}
		
		bone 	"Bake_RArmJoint"
		pos			{-19.6696 -7.15149 -2.14289}
		rot			{7.19202e-002 -0.735905 -0.658193 -0.141613}
		
		bone 	"Bake_LArmJoint"
		pos			{19.4833 -7.55507 -2.14288}
		rot			{0.889817 0.197843 0.15174 -0.382177}
		
		bone 	"Bake_RToeJoint"
		pos			{-3.56224 13.9947 -19.4816}
		rot			{1. 0. 0. 0.}
		
		bone 	"Bake_HeadJoint"
		pos			{-0.447655 10.0592 -0.213579}
		rot			{0.978727 -0.192426 -2.567e-002 -6.6387e-002}
		
		bone 	"Bake_LToeJoint"
		pos			{3.56225 -13.9948 19.4816}
		rot			{1. 0. 0. 0.}
		
		bone 	"Bake_LElbowJoint"
		pos			{42.3171 0.912694 -3.2219}
		rot			{0.408693 -8.65172e-002 -0.907293 -4.80073e-002}
		
		bone 	"Bake_RElbowJoint"
		pos			{-42.2763 -0.990979 6.52934}
		rot			{0.347351 -0.136808 -0.92464 -7.53153e-002}
		
		bone 	"Bake_RWristJoint"
		pos			{-50.1445 0.692473 2.14966}
		rot			{0.930086 8.8908e-002 -0.33536 -0.1207}
		
		bone 	"Bake_LWristJoint"
		pos			{45.8286 -0.158446 -0.641449}
		rot			{0.884163 0.427904 7.67988e-003 0.187336}
		
		bone 	"Bake_RHandJoint"
		pos			{-17.4849 -0.540389 -3.5306}
		rot			{0.672545 0. 0. -0.740056}
		
		bone 	"Bake_LHandJoint"
		pos			{21.0086 -0.27611 1.42274}
		rot			{0.881227 -7.20145e-003 4.03769e-002 -0.47091}
		
		bone 	"Bake_LIndexJoint1"
		pos			{13.6098 -1.33931 8.14663}
		rot			{0.971938 -2.27508e-002 -0.208823 -0.10589}
		
		bone 	"Bake_RIndexJoint1"
		pos			{-9.08339 1.40164 -8.94563}
		rot			{0.959538 0. -0.28158 0.}
		
		bone 	"Bake_LIndex2"
		pos			{3.61358 -0.801748 -1.08499}
		rot			{0.977689 1.25744e-004 0.210058 5.85257e-004}
		
		bone 	"Bake_RIndexJoint2"
		pos			{-3.15429 1.28809 -5.86307e-002}
		rot			{1. 0. 0. 0.}
	}
}
