// Source file: C:/Dev/dev/main/gamedemo1/Art/Characters/combatEva/Animation/combatEva_SubAnimExampleA.mb
// Exported By: barclay on 11/16/06 15:02:21

CIwAnim
{
	skeleton "combatEva_rig"
	// Keyframe# 1
	CIwAnimKeyFrame
	{
		time 0
		bone "Bake_LowerChestJoint"
		pos {0.95091,18.34586,3.38756}
		rot {0.99049,0.13758,0,0}
		
		bone "Bake_UpperChestJoint"
		pos {-0.00000,24.78663,-7.59820}
		rot {0.99788,-0.03427,-0.01324,-0.05369}
		
		bone "Bake_NeckJoint"
		pos {0.00000,31.59111,-5.27135}
		rot {0.99719,0.03983,0.01554,0.06154}
		
		bone "Bake_HeadJoint"
		pos {-0.44766,10.05922,-0.21358}
		rot {0.98334,-0.17194,0.00672,0.05860}
		
		bone "Bake_LArmJoint"
		pos {19.48325,-7.55507,-2.14288}
		rot {0.72341,0.36318,0.08306,-0.58128}
		
		bone "Bake_LElbowJoint"
		pos {42.31713,0.91269,-3.22190}
		rot {0.63108,-0.05870,-0.77182,-0.05085}
		
		bone "Bake_LWristJoint"
		pos {45.82855,-0.15845,-0.64145}
		rot {0.93609,-0.01707,0.32847,0.12467}
		
		bone "Bake_LHandJoint"
		pos {17.20187,0.36681,1.97759}
		rot {0.98685,0.00642,0.04051,-0.15636}
		
		bone "Bake_LIndexJoint1"
		pos {12.24180,-1.31958,7.40454}
		rot {0.97194,-0.02275,-0.20882,-0.10589}
		
		bone "Bake_LIndex2"
		pos {6.17497,-0.57475,0.66466}
		rot {0.97769,0.00013,0.21006,0.00059}
		
		bone "Bake_RArmJoint"
		pos {-19.66962,-7.15149,-2.14289}
		rot {0.44165,-0.78768,-0.41865,-0.09614}
		
		bone "Bake_RElbowJoint"
		pos {-42.27629,-0.99098,6.52934}
		rot {0.54843,-0.10371,-0.82581,-0.08063}
		
		bone "Bake_RWristJoint"
		pos {-50.14447,0.69247,2.14966}
		rot {-0.89529,0.20599,-0.38431,-0.09128}
		
		bone "Bake_RHandJoint"
		pos {-17.48486,-0.54039,-3.53060}
		rot {1,0,0,0}
		
		bone "Bake_RIndexJoint1"
		pos {-9.08339,1.40164,-8.94563}
		rot {0.95954,0,-0.28158,0}
		
		bone "Bake_RIndexJoint2"
		pos {-3.15429,1.28809,-0.05863}
		rot {1,0,0,0}
		
	}
	// Keyframe# 15
	CIwAnimKeyFrame
	{
		time 0.46667
		bone "Bake_LowerChestJoint"
		pos {0.95091,18.34586,3.38756}
		rot {0.99049,0.13758,0,0}
		
		bone "Bake_UpperChestJoint"
		pos {-0.00000,24.78663,-7.59820}
		rot {0.99819,0.02368,-0.01010,-0.05436}
		
		bone "Bake_NeckJoint"
		pos {0.00000,31.59111,-5.27135}
		rot {0.99165,-0.11240,0.00841,0.06258}
		
		bone "Bake_HeadJoint"
		pos {-0.44766,10.05922,-0.21358}
		rot {0.99483,-0.02221,-0.00157,0.09906}
		
		bone "Bake_LArmJoint"
		pos {19.48325,-7.55507,-2.14288}
		rot {0.66333,0.46318,0.16870,-0.56302}
		
		bone "Bake_LElbowJoint"
		pos {42.31713,0.91269,-3.22190}
		rot {0.62472,-0.05954,-0.77690,-0.05096}
		
		bone "Bake_LWristJoint"
		pos {45.82855,-0.15845,-0.64145}
		rot {0.94836,-0.00449,0.28843,0.13189}
		
		bone "Bake_LHandJoint"
		pos {17.20187,0.36681,1.97759}
		rot {0.98685,0.00642,0.04051,-0.15636}
		
		bone "Bake_LIndexJoint1"
		pos {12.24180,-1.31958,7.40454}
		rot {0.97194,-0.02275,-0.20882,-0.10589}
		
		bone "Bake_LIndex2"
		pos {6.17497,-0.57475,0.66466}
		rot {0.97769,0.00013,0.21006,0.00059}
		
		bone "Bake_RArmJoint"
		pos {-19.66962,-7.15149,-2.14289}
		rot {-0.03026,-0.92696,-0.03975,0.37181}
		
		bone "Bake_RElbowJoint"
		pos {-42.27629,-0.99098,6.52934}
		rot {0.48195,-0.11531,-0.86485,-0.08039}
		
		bone "Bake_RWristJoint"
		pos {-50.14447,0.69247,2.14966}
		rot {-0.68495,0.43923,-0.40755,-0.41452}
		
		bone "Bake_RHandJoint"
		pos {-17.48486,-0.54039,-3.53060}
		rot {0.67254,0,0,-0.74006}
		
		bone "Bake_RIndexJoint1"
		pos {-9.08339,1.40164,-8.94563}
		rot {0.95954,0,-0.28158,0}
		
		bone "Bake_RIndexJoint2"
		pos {-3.15429,1.28809,-0.05863}
		rot {1,0,0,0}
		
	}
}
