{
    "name": "Scene",
    "nodes": [
        {
            "id": "{b77c9d24-9e85-4733-ae9b-f908a998d1bb}",
            "properties": {
                "ConsumeTouch": 0,
                "Name": "Scene",
                "Size": [
                    1024,
                    768
                ],
                "TemplateName": ""
            },
            "timeStamp": 1447438574607,
            "typeName": "RootNode",
            "user_properties": {
            }
        },
        {
            "id": "{8d0a9057-ddf6-444f-8826-059fd51dbd7b}",
            "parentID": "{b77c9d24-9e85-4733-ae9b-f908a998d1bb}",
            "properties": {
                "AnchoringType": 0,
                "AnchoringUnits": 0,
                "AnchoringVector": [
                    -147.88406372070312,
                    -121.48849487304688
                ],
                "Animation": 22,
                "Color": [
                    255,
                    255,
                    255,
                    255
                ],
                "ConsumeTouch": 1,
                "EditorLock": false,
                "EditorVisible": true,
                "Name": "ProgressBar",
                "Pivot": [
                    0.5,
                    0.5
                ],
                "Position": [
                    490.33273315429688,
                    165.03158569335938
                ],
                "Progress": 100,
                "Rotation": 0,
                "Scale": [
                    1,
                    1
                ],
                "Size": [
                    296,
                    78
                ],
                "SizeAnchoringType": 0,
                "TemplateName": "",
                "TextureId": 9,
                "Visible": true,
                "ZIndex": 0
            },
            "timeStamp": 1447438620999,
            "typeName": "ProgressBar",
            "user_properties": {
            }
        },
        {
            "id": "{6711645f-2b30-49c4-affa-c6996d1b2954}",
            "parentID": "{b77c9d24-9e85-4733-ae9b-f908a998d1bb}",
            "properties": {
                "AnchoringType": 0,
                "AnchoringUnits": 0,
                "AnchoringVector": [
                    -114.19831848144531,
                    -186.29072570800781
                ],
                "Animation": -1,
                "Color": [
                    255,
                    255,
                    255,
                    255
                ],
                "ConsumeTouch": 0,
                "DisabledResourceID": 32,
                "EditorLock": false,
                "EditorVisible": true,
                "Enabled": true,
                "Name": "Button1",
                "NormalResourceID": 30,
                "OverResourceID": 31,
                "Pivot": [
                    0.5,
                    0.5
                ],
                "Position": [
                    145.39079284667969,
                    662.7127685546875
                ],
                "PressedResourceID": 29,
                "Rotation": 0,
                "Scale": [
                    1,
                    1
                ],
                "Size": [
                    168,
                    104
                ],
                "SizeAnchoringType": 0,
                "TemplateName": "",
                "TextureId": -1,
                "Visible": true,
                "ZIndex": 0
            },
            "timeStamp": 1447439096871,
            "typeName": "Button",
            "user_properties": {
            }
        },
        {
            "id": "{f6b7dfd8-ff15-475f-a91c-4ab71f638abd}",
            "parentID": "{b77c9d24-9e85-4733-ae9b-f908a998d1bb}",
            "properties": {
                "Alignment": 0,
                "AnchoringType": 0,
                "AnchoringUnits": 0,
                "AnchoringVector": [
                    -147.45187377929688,
                    -185.37738037109375
                ],
                "Animation": 24,
                "Color": [
                    255,
                    255,
                    255,
                    255
                ],
                "ConsumeTouch": 1,
                "EditorLock": false,
                "EditorVisible": true,
                "FontColor": [
                    255,
                    3,
                    3,
                    255
                ],
                "FontId": 0,
                "FontSize": 39,
                "Name": "Label1",
                "Pivot": [
                    0.5,
                    0.5
                ],
                "Position": [
                    485.9072265625,
                    655.69830322265625
                ],
                "Rotation": 0,
                "Scale": [
                    1,
                    1
                ],
                "Size": [
                    90,
                    45
                ],
                "SizeAnchoringType": 0,
                "TemplateName": "",
                "Text": "Hello",
                "Visible": true,
                "ZIndex": 0
            },
            "timeStamp": 1447439216703,
            "typeName": "Label",
            "user_properties": {
            }
        },
        {
            "id": "{dd83e5ab-f60c-4e98-afbe-5e9ded103dfd}",
            "parentID": "{b77c9d24-9e85-4733-ae9b-f908a998d1bb}",
            "properties": {
                "AnchoringType": 0,
                "AnchoringUnits": 0,
                "AnchoringVector": [
                    -109.5693359375,
                    -160.07023620605469
                ],
                "Animation": -1,
                "Checked": true,
                "Checked Disabled Skin": 18,
                "Checked Mouse Over Skin": 35,
                "Checked Skin": 33,
                "Color": [
                    255,
                    255,
                    255,
                    255
                ],
                "ConsumeTouch": 0,
                "EditorLock": false,
                "EditorVisible": true,
                "Enabled": true,
                "Name": "Checkbox1",
                "Pivot": [
                    0.5,
                    0.5
                ],
                "Position": [
                    97.98992919921875,
                    461.33950805664062
                ],
                "Rotation": 0,
                "Scale": [
                    1,
                    1
                ],
                "Size": [
                    60,
                    60
                ],
                "SizeAnchoringType": 0,
                "TemplateName": "",
                "TextureId": 20,
                "Unchecked Disabled Skin": 3,
                "Unchecked Mouse Over Skin": 36,
                "Unchecked Skin": 34,
                "Visible": true,
                "ZIndex": 0
            },
            "timeStamp": 1447441980321,
            "typeName": "CheckBox",
            "user_properties": {
            }
        },
        {
            "id": "{fe62cbd5-48ba-437a-9379-d173d93e0190}",
            "parentID": "{b77c9d24-9e85-4733-ae9b-f908a998d1bb}",
            "properties": {
                "AnchoringType": 0,
                "AnchoringUnits": 0,
                "AnchoringVector": [
                    -118.33241271972656,
                    -159.90428161621094
                ],
                "Animation": -1,
                "Checked": true,
                "Checked Disabled Skin": 25,
                "Checked Mouse Over Skin": 20,
                "Checked Skin": 18,
                "Color": [
                    255,
                    255,
                    255,
                    255
                ],
                "ConsumeTouch": 0,
                "EditorLock": false,
                "EditorVisible": true,
                "Enabled": false,
                "Name": "Checkbox2",
                "Pivot": [
                    0.5,
                    0.5
                ],
                "Position": [
                    187.72389221191406,
                    460.06500244140625
                ],
                "Rotation": 0,
                "Scale": [
                    1.1000000238418579,
                    1
                ],
                "Size": [
                    60,
                    60
                ],
                "SizeAnchoringType": 0,
                "TemplateName": "",
                "TextureId": -1,
                "Unchecked Disabled Skin": 37,
                "Unchecked Mouse Over Skin": 5,
                "Unchecked Skin": 7,
                "Visible": true,
                "ZIndex": 0
            },
            "timeStamp": 1447442353139,
            "typeName": "CheckBox",
            "user_properties": {
            }
        },
        {
            "id": "{9b4e1652-ae7c-4796-8b27-e7e34a74ac22}",
            "parentID": "{b77c9d24-9e85-4733-ae9b-f908a998d1bb}",
            "properties": {
                "AnchoringType": 0,
                "AnchoringUnits": 0,
                "AnchoringVector": [
                    -114.16986083984375,
                    -171.914794921875
                ],
                "Animation": -1,
                "Color": [
                    255,
                    255,
                    255,
                    255
                ],
                "ConsumeTouch": 0,
                "DisabledResourceID": 10,
                "EditorLock": false,
                "EditorVisible": true,
                "Enabled": false,
                "Name": "Button2",
                "NormalResourceID": 14,
                "OverResourceID": 12,
                "Pivot": [
                    0.5,
                    0.5
                ],
                "Position": [
                    145.09942626953125,
                    552.30560302734375
                ],
                "PressedResourceID": 16,
                "Rotation": 0,
                "Scale": [
                    1,
                    1
                ],
                "Size": [
                    168,
                    104
                ],
                "SizeAnchoringType": 0,
                "TemplateName": "",
                "TextureId": -1,
                "Visible": true,
                "ZIndex": 0
            },
            "timeStamp": 1447442396157,
            "typeName": "Button",
            "user_properties": {
            }
        },
        {
            "id": "{df65fdfa-7063-4c8a-8fe8-150661123c78}",
            "parentID": "{b77c9d24-9e85-4733-ae9b-f908a998d1bb}",
            "properties": {
                "AnchoringType": 0,
                "AnchoringUnits": 0,
                "AnchoringVector": [
                    -242.14224243164062,
                    -137.85267639160156
                ],
                "Animation": -1,
                "Color": [
                    255,
                    255,
                    255,
                    255
                ],
                "ConsumeTouch": 1,
                "EditorLock": false,
                "EditorVisible": false,
                "Name": "panel_1",
                "Pivot": [
                    0.5,
                    0.5
                ],
                "Position": [
                    1455.53662109375,
                    290.70843505859375
                ],
                "Rotation": 0,
                "Scale": [
                    1,
                    1
                ],
                "Size": [
                    300,
                    200
                ],
                "SizeAnchoringType": 0,
                "TemplateName": "",
                "TextureId": 26,
                "Visible": true,
                "ZIndex": 0
            },
            "timeStamp": 1447679919499,
            "typeName": "Sprite",
            "user_properties": {
            }
        },
        {
            "id": "{221752f4-d8fd-4013-9374-b934719d9b71}",
            "parentID": "{b77c9d24-9e85-4733-ae9b-f908a998d1bb}",
            "properties": {
                "AnchoringType": 0,
                "AnchoringUnits": 0,
                "AnchoringVector": [
                    -100,
                    -100
                ],
                "Animation": -1,
                "Background": 28,
                "Color": [
                    255,
                    255,
                    255,
                    255
                ],
                "ConsumeTouch": 0,
                "EditorLock": false,
                "EditorVisible": true,
                "Enabled": true,
                "Name": "Slider_1",
                "NubDisabled": 40,
                "NubNormal": 27,
                "NubPressed": 38,
                "Pivot": [
                    0.5,
                    0.5
                ],
                "Position": [
                    516.4793701171875,
                    382.07730102539062
                ],
                "ProgressBar": 39,
                "Rotation": 0,
                "Scale": [
                    1,
                    1
                ],
                "Size": [
                    243,
                    40
                ],
                "SizeAnchoringType": 0,
                "TemplateName": "",
                "Value": 0,
                "Visible": true,
                "ZIndex": 0
            },
            "timeStamp": 1454596626797,
            "typeName": "Slider",
            "user_properties": {
            }
        }
    ],
    "orientation": 0,
    "version": "1.0"
}
