{
    "elements": [
        {
            "ConsumeTouch": 0,
            "Name": "Scene",
            "Size": [
                1024,
                768
            ],
            "TemplateName": "",
            "id": "{b77c9d24-9e85-4733-ae9b-f908a998d1bb}",
            "typeName": "RootNode"
        },
        {
            "AnchoringType": "None",
            "AnchoringUnits": "Percents",
            "AnchoringVector": [
                -150,
                -150
            ],
            "Animation": -1,
            "Color": [
                255,
                255,
                255,
                255
            ],
            "ConsumeTouch": 1,
            "Name": "Background",
            "Pivot": [
                0.5,
                0.5
            ],
            "Position": [
                512,
                384
            ],
            "Rotation": 0,
            "Scale": [
                1,
                1
            ],
            "Size": [
                1024,
                768
            ],
            "SizeAnchoringType": "None",
            "TemplateName": "",
            "TextureId": 5,
            "Visible": true,
            "ZIndex": 0,
            "id": "{a5100e8d-9664-4e33-98e8-05e89010ed20}",
            "parentID": "{b77c9d24-9e85-4733-ae9b-f908a998d1bb}",
            "typeName": "Sprite"
        },
        {
            "AnchoringType": "None",
            "AnchoringUnits": "Pixels",
            "AnchoringVector": [
                -1536,
                -1152
            ],
            "Animation": -1,
            "Color": [
                255,
                255,
                255,
                255
            ],
            "ConsumeTouch": 1,
            "Name": "BgPanel",
            "Pivot": [
                0.5,
                0.5
            ],
            "Position": [
                512,
                384
            ],
            "Rotation": 0,
            "Scale": [
                1,
                1
            ],
            "Size": [
                711,
                472
            ],
            "SizeAnchoringType": "None",
            "TemplateName": "",
            "TextureId": 11,
            "Visible": true,
            "ZIndex": 0,
            "id": "{a2c6ac70-5e63-40fb-865d-ba81850cceb8}",
            "parentID": "{b77c9d24-9e85-4733-ae9b-f908a998d1bb}",
            "typeName": "Sprite"
        },
        {
            "AnchoringType": "None",
            "AnchoringUnits": "Percents",
            "AnchoringVector": [
                -135.64836120605469,
                -161.43504333496094
            ],
            "Animation": -1,
            "Color": [
                255,
                255,
                255,
                255
            ],
            "ConsumeTouch": 0,
            "DisabledResourceID": 7,
            "Enabled": true,
            "Name": "Button 1",
            "NormalResourceID": 6,
            "OverResourceID": 12,
            "Pivot": [
                0.5,
                0.5
            ],
            "Position": [
                365.0391845703125,
                471.8211669921875
            ],
            "PressedResourceID": 4,
            "Rotation": 0,
            "Scale": [
                1,
                1
            ],
            "Size": [
                272,
                106
            ],
            "SizeAnchoringType": "None",
            "TemplateName": "",
            "TextureId": -1,
            "Visible": true,
            "ZIndex": 0,
            "id": "{9b4e1652-ae7c-4796-8b27-e7e34a74ac22}",
            "parentID": "{b77c9d24-9e85-4733-ae9b-f908a998d1bb}",
            "typeName": "Button"
        },
        {
            "Alignment": "Centre",
            "AnchoringType": "None",
            "AnchoringUnits": "Percents",
            "AnchoringVector": [
                -152,
                -144.22329711914062
            ],
            "Animation": -1,
            "Color": [
                255,
                255,
                255,
                255
            ],
            "ConsumeTouch": 1,
            "FontColor": [
                255,
                255,
                255,
                255
            ],
            "FontId": 2,
            "FontSize": 30,
            "Name": "Label",
            "Pivot": [
                0.5,
                0.5
            ],
            "Position": [
                140.91999816894531,
                45.549999237060547
            ],
            "Rotation": 0,
            "Scale": [
                1,
                1
            ],
            "Size": [
                512,
                128
            ],
            "SizeAnchoringType": "None",
            "TemplateName": "",
            "Text": "Button 1",
            "Visible": true,
            "ZIndex": 0,
            "id": "{989515e8-b242-4118-bd5e-cd55f04f6ecb}",
            "parentID": "{9b4e1652-ae7c-4796-8b27-e7e34a74ac22}",
            "typeName": "Label"
        },
        {
            "AnchoringType": "None",
            "AnchoringUnits": "Percents",
            "AnchoringVector": [
                -165.28388977050781,
                -161.43504333496094
            ],
            "Animation": -1,
            "Color": [
                255,
                255,
                255,
                255
            ],
            "ConsumeTouch": 0,
            "DisabledResourceID": 7,
            "Enabled": true,
            "Name": "Button 2",
            "NormalResourceID": 6,
            "OverResourceID": 12,
            "Pivot": [
                0.5,
                0.5
            ],
            "Position": [
                668.507080078125,
                471.8211669921875
            ],
            "PressedResourceID": 4,
            "Rotation": 0,
            "Scale": [
                1,
                1
            ],
            "Size": [
                272,
                106
            ],
            "SizeAnchoringType": "None",
            "TemplateName": "",
            "TextureId": -1,
            "Visible": true,
            "ZIndex": 0,
            "id": "{01c02c96-6625-431a-b5a4-2c9dd8df2fcf}",
            "parentID": "{b77c9d24-9e85-4733-ae9b-f908a998d1bb}",
            "typeName": "Button"
        },
        {
            "Alignment": "Centre",
            "AnchoringType": "None",
            "AnchoringUnits": "Percents",
            "AnchoringVector": [
                -152,
                -144.22329711914062
            ],
            "Animation": -1,
            "Color": [
                255,
                255,
                255,
                255
            ],
            "ConsumeTouch": 1,
            "FontColor": [
                255,
                255,
                255,
                255
            ],
            "FontId": 2,
            "FontSize": 30,
            "Name": "Label",
            "Pivot": [
                0.5,
                0.5
            ],
            "Position": [
                140.91999816894531,
                45.549999237060547
            ],
            "Rotation": 0,
            "Scale": [
                1,
                1
            ],
            "Size": [
                512,
                128
            ],
            "SizeAnchoringType": "None",
            "TemplateName": "",
            "Text": "Button 2",
            "Visible": true,
            "ZIndex": 0,
            "id": "{6a905cdc-ab09-4e88-a165-937eb5d0e70f}",
            "parentID": "{01c02c96-6625-431a-b5a4-2c9dd8df2fcf}",
            "typeName": "Label"
        },
        {
            "Alignment": "Centre",
            "AnchoringType": "None",
            "AnchoringUnits": "Percents",
            "AnchoringVector": [
                -150.28886413574219,
                -139.52903747558594
            ],
            "Animation": -1,
            "Color": [
                255,
                255,
                255,
                255
            ],
            "ConsumeTouch": 1,
            "FontColor": [
                255,
                255,
                255,
                255
            ],
            "FontId": 2,
            "FontSize": 30,
            "Name": "Label",
            "Pivot": [
                0.5,
                0.5
            ],
            "Position": [
                514.9580078125,
                303.5830078125
            ],
            "Rotation": 0,
            "Scale": [
                1,
                1
            ],
            "Size": [
                512,
                128
            ],
            "SizeAnchoringType": "None",
            "TemplateName": "",
            "Text": "Event description",
            "Visible": true,
            "ZIndex": 0,
            "id": "{89d22b2a-a06d-464b-ac39-a55445f9de81}",
            "parentID": "{b77c9d24-9e85-4733-ae9b-f908a998d1bb}",
            "typeName": "Label"
        }
    ],
    "orientation": 0
}
